{
    "_id": "kJlIPynpcH61F9Am",
    "data": {
        "attributes": {
            "ac": {
                "value": 10
            },
            "hardness": 0,
            "hasHealth": false,
            "hp": {
                "details": "",
                "max": 0,
                "temp": 0,
                "value": 0
            },
            "stealth": {
                "details": "(expert)",
                "value": 20
            }
        },
        "creatureType": "",
        "details": {
            "description": "A 15-foot-wide patch of tar covered with dirt and leaves attempts to capture creatures that step onto it.",
            "disable": "<p>@Check[type:survival|dc:25|name:Reveal the Tar Pit|traits:environmental,hazard] (expert) to disturb the surface and reveal the tar pit</p>",
            "isComplex": true,
            "level": {
                "value": 9
            },
            "reset": "Though the hazard still captures anyone who touches it, the surface doesn’t become hidden again until it settles, which takes 24 hours.",
            "routine": "<p>(1 action) On its initiative, the tar pit pulls down each creature within it, thick tar adhering to the creature's body. A creature that was submerged up to its waist becomes submerged up to its neck, and a creature that was submerged up to its neck is pulled under and must hold its breath to avoid suffocation. A creature in the tar pit can attempt a @Check[type:athletics|dc:33] check to @Compendium[pf2ettw.actionspf2ettw.Climb]{Climb} to either raise itself by one step (if it's submerged to its neck or full submerged) or to move 5 feet if it's submerged only up to its waist. On a critical failure, the creature is pulled down one step. Other creatures can Aid the creature, typically by using a rope or similar aid or by attempting to pull the creature out with their own @Check[type:athletics|dc:33] check, with the same results as if the creature attempted the check. In addition to the usual results, a character adjacent to the tar pit who critically fails while Aiding moves into the tar pit. A creature that Climbs out of the tar pit escapes the hazard and lands @Compendium[pf2ettw.conditionitems.Prone]{Prone} in an adjacent space.</p>"
        },
        "flavourText": "",
        "recallKnowledgeText": "",
        "saves": {
            "fortitude": {
                "saveDetail": "",
                "value": 0
            },
            "reflex": {
                "saveDetail": "",
                "value": 0
            },
            "will": {
                "saveDetail": "",
                "value": 0
            }
        },
        "sidebarText": "",
        "source": {
            "value": ""
        },
        "statusEffects": [],
        "traits": {
            "ci": [],
            "di": {
                "custom": "",
                "selected": {},
                "value": []
            },
            "dr": [],
            "dv": [],
            "rarity": "common",
            "size": {
                "value": "med"
            },
            "traits": {
                "custom": "",
                "value": [
                    "environmental"
                ]
            }
        }
    },
    "img": "systems/pf2ettw/icons/default-icons/hazard.svg",
    "items": [
        {
            "_id": "hhyqvvx658df1i5l",
            "data": {
                "actionCategory": {
                    "value": "offensive"
                },
                "actionType": {
                    "value": "reaction"
                },
                "actions": {
                    "value": ""
                },
                "description": {
                    "value": "<p><strong>Trigger</strong> A Huge or smaller creature walks onto the tar pit</p><hr /><p><strong>Effect</strong> The triggering creature sinks into the tar pit up to its waist. The tar pit rolls initiative if it hasn't already.</p>"
                },
                "requirements": {
                    "value": ""
                },
                "rules": [],
                "slug": null,
                "source": {
                    "value": ""
                },
                "traits": {
                    "custom": "",
                    "rarity": "common",
                    "value": []
                },
                "trigger": {
                    "value": ""
                }
            },
            "img": "systems/pf2ettw/icons/actions/Reaction.webp",
            "name": "Capture",
            "sort": 0,
            "type": "action"
        }
    ],
    "name": "Tar Pit",
    "token": {
        "disposition": 0,
        "height": 1,
        "img": "systems/pf2ettw/icons/default-icons/npc.svg",
        "name": "Tar Pit",
        "width": 1
    },
    "type": "hazard"
}
