{
    "_id": "gFt2nzQrVgXM9tmJ",
    "data": {
        "attributes": {
            "ac": {
                "value": 10
            },
            "hardness": 0,
            "hasHealth": false,
            "hp": {
                "details": "",
                "max": 0,
                "temp": 0,
                "tempmax": 0,
                "value": 0
            },
            "stealth": {
                "details": "<p>(trained)</p>",
                "value": 13
            }
        },
        "creatureType": "",
        "details": {
            "description": "<p>The footing on this sloped ground appears to be stable at first glance, but the tiny rocks that cover it are loosely packed and prone to slipping.</p>",
            "disable": "<p>DC 20 Survival (trained) to navigate a safe path</p>",
            "isComplex": false,
            "level": {
                "value": 3
            },
            "reset": "",
            "routine": ""
        },
        "saves": {
            "fortitude": {
                "saveDetail": "",
                "value": 0
            },
            "reflex": {
                "saveDetail": "",
                "value": 0
            },
            "will": {
                "saveDetail": "",
                "value": 0
            }
        },
        "source": {
            "value": "Pathfinder Gamemastery Guide"
        },
        "statusEffects": [],
        "traits": {
            "ci": [],
            "di": {
                "custom": "",
                "selected": {},
                "value": []
            },
            "dr": [],
            "dv": [],
            "rarity": "common",
            "size": {
                "value": "med"
            },
            "traits": {
                "custom": "",
                "value": [
                    "environmental"
                ]
            }
        }
    },
    "img": "systems/pf2ettw/icons/default-icons/hazard.svg",
    "items": [
        {
            "_id": "DE7tTstJaGz9oAi4",
            "data": {
                "actionCategory": {
                    "value": ""
                },
                "actionType": {
                    "value": "reaction"
                },
                "actions": {
                    "value": null
                },
                "description": {
                    "value": "<p><strong>Trigger</strong> A creature steps on the unstable ground.</p>\n<hr />\n<p><strong>Effect</strong> Rocks tumble and slip beneath its feet. The triggering creature must attempt a @Check[type:reflex|dc:21|traits:damaging-effect] save as they tumble against the rocks, which deal [[/r {2d10+13}[bludgeoning]]]{2d10+13 bludgeoning damage}.</p>\n<hr />\n<p><strong>Critical Success</strong> The creature takes no damage.</p>\n<p><strong>Success</strong> The creature takes half damage and falls prone in its space.</p>\n<p><strong>Failure</strong> The creature takes full damage, falls prone in its space, and tumbles down to the bottom of the slope.</p>\n<p><strong>Critical Failure</strong> As failure, but double damage.</p>"
                },
                "requirements": {
                    "value": ""
                },
                "rules": [],
                "slug": null,
                "source": {
                    "value": ""
                },
                "traits": {
                    "custom": "",
                    "rarity": "common",
                    "value": []
                },
                "trigger": {
                    "value": ""
                },
                "weapon": {
                    "value": ""
                }
            },
            "img": "systems/pf2ettw/icons/actions/Reaction.webp",
            "name": "Rockslide",
            "sort": 100000,
            "type": "action"
        }
    ],
    "name": "Treacherous Scree",
    "token": {
        "disposition": 0,
        "height": 1,
        "img": "systems/pf2ettw/icons/default-icons/hazard.svg",
        "name": "Treacherous Scree",
        "width": 1
    },
    "type": "hazard"
}
