{
    "_id": "xNzNpPjeNSrXE7WG",
    "content": "<h1>Crystal Keeper</h1>\n<p>In the era before Earthfall, the elven people of Golarion exhibited a wide range of mastery over magic. A sect of elves who venerated the goddess Yuelral first developed the techniques of the crystal keeper, but this tradition has since been long forgotten by most of the world. There are those who still remember, though-PCs can gain access to the crystal keeper archetype from the tragic figure that haunts Jewelgate waystation in \"Fires of the Haunted City.\"</p>\n<h2>@Compendium[pf2ettw.feats-srd.Crystal Keeper Dedication]{Crystal Keeper Dedication} Feat 4</h2>\n<p><strong>Prerequisites</strong> trained in Elven Lore or Society</p>\n<hr />\n<p>You can use Arcana, Occultism, Religion, or Society to Decipher Writing by meditating before a crystal, regardless of the type of writing. When you Decipher Writing and roll a critical failure, you get a failure instead, and when you Decipher Writing and roll a success, you get a critical success instead.</p>\n<p>Additionally, you gain resistance 10 to damage from hazards associated with crystals.</p>\n<p><strong>Special</strong> You can't select another dedication feat until you have gained two other feats from the crystal keeper archetype.</p>\n<h2>@Compendium[pf2ettw.feats-srd.Crystal Ward Spells]{Crystal Ward Spells} Feat 4</h2>\n<p>Prerequisites Crystal Keeper Dedication</p>\n<hr />\n<p>Your study of crystals and the energies held within a gem's facets grants you special arcane crystal ward spells, which are a type of focus spell. It costs 1 Focus Point to cast a focus spell, and you start with a focus pool of 1 Focus Point. You refill your focus pool when you make your next daily preparations, and you can regain 1 Focus Point by spending 10 minutes using the Refocus activity to research and memorize the properties of gems.</p>\n<p>Focus spells are automatically heightened to half your level rounded up. Certain feats can give you more focus spells and increase the size of your focus pool, though your focus pool can never hold more than 3 Focus Points. You gain the <em>@Compendium[pf2ettw.spells-srd.Electrified Crystal Ward]{Electrified Crystal Ward}</em> focus spell, and you are trained in arcane spell attack rolls and spell DCs. Your spellcasting ability is Intelligence.</p>\n<h2>@Compendium[pf2ettw.feats-srd.Simple Crystal Magic]{Simple Crystal Magic} Feat 6</h2>\n<p><strong>Prerequisites</strong> Crystal Keeper Dedication</p>\n<hr /><p>As long as you meditate before a gemstone worth at least 10 gp as part of your daily preparations, you are capable of seeing magic as flowing runes that reveal information about magic objects, and you can scribe a personal rune that represents you. You gain the read aura and sigil cantrips. You cast these cantrips as arcane innate spells at will. A cantrip is heightened to a spell level equal to half your level rounded up.</p>\n<h2>@Compendium[pf2ettw.feats-srd.Armor Rune Shifter]{Armor Rune Shifter} Feat 10</h2>\n<p><strong>Prerequisites</strong> Crystal Keeper Dedication</p>\n<hr /><p>You learn the secrets of armor runes by viewing them through gems and can alter them at your discretion. Once per day when you make your daily preparations, you can focus on a rune's magical energies through a crystal's facets to alter a single property rune on one suit of armor in your possession to suppress its normal effects and make it function as a different property rune. You can temporarily alter the rune to function as one of the following runes: energy-resistant, fortification, glamered, invisibility, shadow, or slick. The property rune remains altered until you make your next daily preparations. The armor must meet the prerequisites for the temporary rune, and any other runes that required the suppressed rune are also suppressed while the rune is transformed. The rune is obviously altered, and thus the armor can't be sold as though it had the temporary rune.</p>\n<h2>@Compendium[pf2ettw.feats-srd.Weapon-Rune Shifter]{Weapon-Rune Shifter} Feat 10</h2>\n<p>Prerequisites Crystal Keeper Dedication</p>\n<hr /><p>You learn how to alter the magic of weapon runes by using a crystal as a focusing component. Once per day during your daily preparations, you can focus on a rune's magical energies through a crystal's facets to alter a single property rune on one weapon in your possession to suppress its normal effects and make it function as a different property rune. You can temporarily alter the rune to function as one of the following runes: corrosive, flaming, frost, ghost touch, grievous, returning, shock, thundering, or wounding. The property rune remains altered until you make your next daily preparations. The weapon must meet the prerequisites for the temporary rune, and any other runes that required the suppressed rune are also suppressed while the rune is transformed. The rune is obviously altered, and thus the weapon can't be sold as though it had the temporary rune.</p>",
    "name": "Crystal Keeper",
    "permission": {
        "default": 0
    }
}
