{
    "_id": "2Wol7CpOBJjVT3aP",
    "content": "<h1>Hellknight</h1>\n<p>Hellknights are among the fiercest warriors in the Inner Sea region, as they have emerged from hell-forged trials ready to serve as faceless bastions of law wherever chaos might threaten to rear.</p>\n<h2 class=\"title\">Hellknight Archetypes</h2>\n<p>The following archetypes represent fully inducted members of a Hellknight order. You can select the dedication feats for these archetypes even if you haven't yet gained three feats from the @Compendium[pf2ettw.archetypes.Hellknight Armiger]{Hellknight Armiger} archetype. A character can't have both the Hellknight and @Compendium[pf2ettw.archetypes.Hellknight Signifer]{Hellknight Signifer} archetypes.</p><h2>@Compendium[pf2ettw.feats-srd.Hellknight Dedication]{Hellknight Dedication} Feat 6</h2>\n<p><strong>Prerequisites</strong> Hellknight Armiger Dedication, lawful alignment, member of a Hellknight order, passed the Hellknight Test</p>\n<hr />\n<p>You have forged your body to comply with the commands of your mind-orders steeped in the Measure and the Chain. You gain expert proficiency in Intimidation (or in another skill in which you're trained of your choice, if you were already an expert in Intimidation). You gain the armor specialization effects of Hellknight plate, and your resistance from that armor specialization is 1 higher than normal. In addition, you gain a +1 circumstance bonus to Intimidation checks while wearing your Hellknight plate.</p>\n<p><strong>Special</strong> You cannot select another dedication feat until you have gained two other feats from the Hellknight or Hellknight armiger archetypes.</p>\n<h2>@Compendium[pf2ettw.feats-srd.Sense Chaos]{Sense Chaos} Feat 8</h2>\n<p><strong>Prerequisites</strong> Hellknight Dedication</p>\n<hr />\n<p>You sense chaos as an unsettling feeling of nervous energy. When in the presence of an aura of chaos that is powerful or overwhelming, you eventually detect the aura, though you might not do so instantly and you can't pinpoint the location. This is a vague sense, similar to humans' sense of smell. A chaotic creature using a disguise or otherwise trying to hide its presence attempts a Deception check against your Perception DC to hide its aura from you. If the creature succeeds at its Deception check, it is temporarily immune to your Sense Chaos for 1 day.</p>\n<h2>@Compendium[pf2ettw.feats-srd.Blade of Law]{Blade of Law} Feat 12</h2>\n<p><strong>Prerequisites</strong> Hellknight Dedication</p>\n<hr />\n<p>You call upon the power of law and make a weapon or unarmed Strike against a foe you have witnessed breaking or disrespecting the law or otherwise acting disorderly. The Strike deals two extra weapon damage dice if the target of your Strike is chaotic. Whether or not the target is chaotic, you can convert the physical damage from the attack into lawful damage.</p>\n<h2>@Compendium[pf2ettw.feats-srd.Hell's Armaments]{Hell's Armaments} Feat 12</h2>\n<p><strong>Prerequisites</strong> Hellknight Dedication</p>\n<hr />\n<p>You've trained with your order's weapon and your Hellknight plate long enough to apply your expertise from other weapons and armor. If you have expert proficiency in any weapon or unarmed attack, you gain expert proficiency in your order's weapon as well. If you have expert proficiency in any armor or unarmored defense, you gain expert proficiency in Hellknight plate as well.</p>",
    "name": "Hellknight",
    "permission": {
        "default": 0
    }
}
