{
    "_id": "678FjGfCmxuNbNhe",
    "content": "<h1>Lion Blade</h1>\n<p>You've trained as a spy in service of Taldor, learning secrets of disguise, manipulating crowds, and deceiving various sorts of magic users with ease. You likely dropped out of the Kitharodian Academy, Taldor's premier bardic college, in order to train at one of the Lion Blade's elite Shadow Schools.</p>\n<h2>@Compendium[pf2ettw.feats-srd.Lion Blade Dedication]{Lion Blade Dedication} Feat 2</h2>\n<div><strong>Prerequisites</strong> member of the Lion Blades, trained in Performance</div>\n<div><strong>Access</strong> You are from Taldor.</div>\n<hr />\n<p>Your lion blade spy training helps you conceal yourself and your identity. You become trained in your choice of Deception or Stealth and in Espionage Lore; if you were already trained, you become an expert instead. You never take circumstance penalties for attempting to take a disguise of a different ancestry, age, and so on, as long as the disguised form is appropriate for your size.</p>\n<p><strong>Special</strong> You cannot select another dedication feat until you have gained two other feats from the Lion Blade archetype.</p>\n<h2>@Compendium[pf2ettw.feats-srd.Lost in the Crowd]{Lost in the Crowd} Feat 4</h2>\n<p><strong>Prerequisites</strong> Lion Blade Dedication</p>\n<hr />\n<p>You've learned how to move as one with crowds and hide among them, vanishing into a busy street in the blink of an eye. You move at full Speed in crowds and can use cover from crowds to Hide and Sneak, gaining a +2 circumstance bonus on your Stealth checks when in a crowd of at least 10 creatures and a +4 circumstance bonus on your Stealth checks when in a crowd of at least 100 creatures.</p>\n<h2>@Compendium[pf2ettw.feats-srd.Crowd Mastery]{Crowd Mastery} Feat 6</h2>\n<p><strong>Prerequisites</strong> Lost in the Crowd</p>\n<hr />\n<p>You use the crowd to your advantage, diverting your foes' attention to potential hidden dangers in the crowd. When determining if your foe is flanked, treat all squares occupied by a crowd as if they were occupied by an ally with a melee reach of 5 feet.</p>\n<h2>@Compendium[pf2ettw.feats-srd.Expeditious Advance]{Expeditious Advance} Feat 6</h2>\n<div><strong>Prerequisites</strong> Lion Blade Dedication</div>\n<div><strong>Requirements</strong> You are unarmored or wearing light armor.</div>\n<hr />\n<p>You advance and retreat quickly. You gain a +10-foot status bonus to your speed.</p>\n<h2>@Compendium[pf2ettw.feats-srd.Spy's Countermeasures]{Spy's Countermeasures} Feat 10</h2>\n<p><strong>Prerequisites</strong> Lion Blade Dedication</p>\n<hr />\n<p>You've learned how to analyze and fake your responses to the most common magic used against spies. Whenever you succeed at your save against a divination or mental effect, you can Identify Magic to identify the spell as a free action triggered when you succeed, even if you didn't notice the spell being cast. If you successfully identify a divination effect targeting you and the spell would normally fail or have no effect, you can create a substitute result, causing the spell's caster to think the spell succeeded, with a result of your choice. If you successfully identify a mental effect targeting you and the spell would normally fail or have no effect, you can make it appear as if you were affected and attempt to play along with the spell; if the spell normally establishes a mental link, it functions normally but you can disregard any commands you receive through the link.</p>\n<h2>@Compendium[pf2ettw.feats-srd.Flicker]{Flicker} Feat 12</h2>\n<p><strong>Prerequisites</strong> Lion Blade Dedication</p>\n<hr />\n<p>You use your movements and disguises to make yourself a flickering blur. You gain concealment until your next turn. As usual for concealment involving an obvious visual manifestation, you can't use this concealment to Hide.</p>",
    "name": "Lion Blade",
    "permission": {
        "default": 0
    }
}
