{
    "_id": "0Toea66fdjYcDrAB",
    "content": "<h1>Soul Warden</h1>\n<p>You consider yourself an honorary psychopomp-a shepherd of spirits who ensures the cycle of souls progresses unimpeded. Although you're unable to safeguard the cycle of souls in its entirety, you strive to ensure each soul's time on the Material Plane proceeds without incident. You work to free souls from imprisonment, prevent necromancers from animating the dead, and destroy undead so their souls rejoin the cycle.</p>\n<p>While most who hunt undead do so out of fear, vengeance, or a desire to protect the lives of others, you take a more measured and far less emotional approach; you destroy undead so their souls can continue their journey along the River of Souls, thus ensuring the continuation of existence. You understand that without the cycle of souls, the life cycle of the planes is disrupted, and all of existence could be consumed by the Maelstrom.</p>\n<p>Nearly all soul wardens worship @Compendium[pf2ettw.deities.Pharasma]{Pharasma} or one of the psychopomp ushers, especially @Compendium[pf2ettw.deities.Barzahk]{Barzahk} the Passage, a psychopomp usher who routinely shirks their duties and needs help from mortal soul wardens. Soul wardens also often join organizations that regularly combat undead, including the Voices of the Spire and Ustalav's Ivory Reapers (page 14).</p>\n<p><strong>Additional Feats</strong>: 4th @Compendium[pf2ettw.feats-srd.Domain Initiate]{Domain Initiate}, Familiar; 8th @Compendium[pf2ettw.feats-srd.Expanded Domain Initiate]{Expanded Domain Initiate}; 16th @Compendium[pf2ettw.feats-srd.Advanced Domain]{Advanced Domain}</p>\n<section class=\"info\">THE SOUL CYCLE\n<p>A soul's journey begins on the Positive Energy Plane, where blank, empty souls attach themselves alongside the positive life essence of the plane to mortals on the Material Plane, forming a single living being. At the end of a mortal's life, these souls enter the Ethereal Plane, progressing through the River of Souls to Pharasma's Boneyard, where they're judged and sorted into the appropriate afterlife. Judged souls proceed to their assigned planes, becoming petitioners. These, too, die in time, becoming absorbed by and expanding their associated plane, as their own spiritual essence joins with the plane's as a substance known as quintessence. But the ever-churning Maelstrom breaks these planes down, scattering this planar quintessence throughout the Maelstrom and adjoining planes. Those pieces that land on the Positive Energy Plane eventually form new blank souls and the cycle begins anew.</p>\n</section>\n<h2>@Compendium[pf2ettw.feats-srd.Soul Warden Dedication]{Soul Warden Dedication} Feat 2</h2>\n<p><strong>Prerequisites</strong> trained in Occultism or Religion, worships Pharasma or a psychopomp usher</p>\n<hr />\n<p>You can take 10 minutes to emblazon Pharasma's holy sigil-a spiraling comet that represents the winding path a soul takes through its existence-upon a shield, tabard, banner, or other prominent object that your wear or wield. The symbol doesn't fade until 1 year has passed, but if you emblazon the symbol again, any symbol you previously emblazoned and any symbol already emblazoned on that item instantly disappears. The item becomes a religious symbol of Pharasma and can be used as a divine focus while emblazoned.</p>\n<p>Whenever an undead creature or captive soul is within 100 feet of this object, the spiral glows, shedding dim blue light in a 10-foot radius. If the creature is hiding or the soul is @Compendium[pf2ettw.conditionitems.Hidden]{Hidden}, it must succeed at a Stealth check against your Perception DC to fool the sigil and prevent the spiral from glowing.</p>\n<p>In addition, you can cast @Compendium[pf2ettw.spells-srd.Disrupt Undead]{Disrupt Undead} as a divine innate cantrip at will. As normal, a cantrip is automatically heightened to half your level rounded up. You gain access to the @Compendium[pf2ettw.actionspf2ettw.Cast a Spell]{Cast a Spell} activity if you didn't have it already. You're trained in divine spell attack rolls and spell DCs. Your key spellcasting ability for these spells is Wisdom.</p>\n<p>When you have at least two other feats from this archetype, the spiral glows with bright light in a 10-foot radius (and dim light for the next 10 feet). Feats that require a creature or object to be in the light of your spiral function whether it's in the bright or dim light.</p>\n<p><strong>Special</strong> You can't select another dedication feat until you have gained two other feats from the soul warden archetype.</p>\n<h2>@Compendium[pf2ettw.feats-srd.Cycle Spell]{Cycle Spell} Feat 4</h2>\n<p><strong>Prerequisites</strong> Soul Warden Dedication</p>\n<hr />\n<p>Your devotion to the cycle of souls grants you an additional divine spell. Choose from @Compendium[pf2ettw.spells-srd.Bless]{Bless}, @Compendium[pf2ettw.spells-srd.Disrupting Weapons]{Disrupting Weapons}, or @Compendium[pf2ettw.spells-srd.Heal]{Heal}. You must make this selection when you take this feat and it can't be changed. Once per day, while your spiral is glowing, you can cast the selected spell as a divine innate spell.</p>\n<h2>@Compendium[pf2ettw.feats-srd.Psychopomp Familiar]{Psychopomp Familiar} Feat 4</h2>\n<p><strong>Prerequisites</strong> Soul Warden Dedication, familiar</p>\n<hr />\n<p>Your familiar becomes a masked psychopomp-an extraplanar guardian of the cycle of souls. This familiar continues to use all the same rules as other familiars, but one of its abilities must always be speech and it has the monitor and psychopomp traits. As normal when a familiar must always have a certain ability, the speech ability counts against your familiar's abilities each day.</p>\n<p>You can select three familiar or master abilities each day, instead of two, but one must be one of the following psychopomp familiar abilities.</p>\n<ul>\n<li><strong>Soul Sight</strong> Your familiar gains lifesense with a range of 30 feet.</li>\n<li><strong>Spirit Touch</strong> Your familiar can touch incorporeal creatures. If you have the spell delivery master ability from your familiar, any spell the familiar delivers with it gains the benefits of the @Compendium[pf2ettw.equipment-srd.Ghost Touch]{Ghost Touch} property rune.</li>\n</ul>\n<h2>@Compendium[pf2ettw.feats-srd.Liberate Soul]{Liberate Soul} Feat 6</h2>\n<p><strong>Prerequisites</strong> Soul Warden Dedication</p>\n<hr />\n<p>The light flows from your sigil of Pharasma to shatter the bonds imprisoning a soul. You attempt to counteract a possession effect, or an effect, object, or spell that is imprisoning a soul (such as @Compendium[pf2ettw.spells-srd.Bind Soul]{Bind Soul}, a soul gem, or a devourer's devoured souls). You must be within 60 feet of the possessed creature or object, or of the receptacle imprisoning the soul. Your counteract level is half your level rounded up, and your counteract modifier is your divine spell DC - 10. If the attempt fails, you can't use Liberate Soul against that particular effect again unless circumstances have changed drastically, as determined by the GM.</p>\n<h2>@Compendium[pf2ettw.feats-srd.Spiral Sworn]{Spiral Sworn} Feat 6</h2>\n<p><strong>Prerequisites</strong> Soul Warden Dedication</p>\n<hr />\n<p>You trace a spiral in the air while intoning prayers to Pharasma, gaining her blessing for a time. For 3 rounds, your Strikes and spells deal additional damage against undead, creatures in possession of an imprisoned soul, or creatures you have witnessed create or command undead. You gain a status bonus to damage with your Strikes against these creatures equal to the number of weapon damage dice. Spells you cast from spell slots gain a status bonus to damage against these creatures equal to the level of the spell; this bonus applies only to spells that deal damage and don't have a duration.</p>\n<p>If your spiral is glowing, you can target a willing creature in its light. If you do, that creature gains the bonuses instead of you.</p>\n<h2>@Compendium[pf2ettw.feats-srd.Enhanced Psychopomp Familiar]{Enhanced Psychopomp Familiar} Feat 8</h2>\n<p><strong>Prerequisites</strong> Psychopomp Familiar</p>\n<hr />\n<p>Your psychopomp's continued service in Pharasma's name brings it favor from the goddess. It might change appearance to look like a different, more powerful kind of psychopomp. You can select four familiar or master abilities each day, instead of two, but two must be from the Psychopomp Familiar feat or the following ability.</p>\n<ul>\n<li><strong>Augury</strong> Your familiar can glimpse the strands of fate to give you a cryptic clue regarding your future. Your familiar can cast @Compendium[pf2ettw.spells-srd.Augury]{Augury} once per day using your magical tradition and spell DC. You must be at least 8th level to select this ability.</li>\n</ul>\n<h2>@Compendium[pf2ettw.feats-srd.Safeguard Soul]{Safeguard Soul} Feat 8</h2>\n<p><strong>Prerequisites</strong> Soul Warden Dedication</p>\n<hr />\n<p>You've girded your soul against outside interference. You gain a +2 status bonus to saving throws against death effects, possession effects, and effects that attempt to manipulate or steal your soul. You can't be transformed into an undead by any means. While your spiral is glowing, your allies in the light of the spiral gain this benefit as well.</p>\n<h2>@Compendium[pf2ettw.feats-srd.Expand Spiral]{Expand Spiral} Feat 10</h2>\n<p><strong>Prerequisites</strong> Spiral Sworn</p>\n<hr />\n<p>Your prayers encompass your companions, granting you the ability to share Pharasma's blessings. When you use Spiral Sworn, you can spend 2 actions instead of 1 to grant the benefits to all allies who are in the light of your spiral when you take the action.</p>",
    "name": "Soul Warden",
    "permission": {
        "default": 0
    }
}
