{
    "_id": "uD2IBwz4Z9VvI4op",
    "content": "<h1>Wellspring Mage (Class Archetype)</h1>\n<p><strong>Rarity</strong> Rare</p>\n<hr />\n<p>The source of your magic buckles against your control, always pressing to be released.</p>\n<p><strong>Additional Feats</strong> 8th @Compendium[pf2ettw.feats-srd.Energetic Resonance]{Energetic Resonance}, @Compendium[pf2ettw.feats-srd.Spell Relay]{Spell Relay}; 10th @Compendium[pf2ettw.feats-srd.Surging Might]{Surging Might}; 16th @Compendium[pf2ettw.feats-srd.Scintillating Spell]{Scintillating Spell}; 18th @Compendium[pf2ettw.feats-srd.Echoing Spell]{Echoing Spell}</p>\n<h2>@Compendium[pf2ettw.feats-srd.Wellspring Mage Dedication]{Wellspring Mage Dedication} Feat 2</h2>\n<p><strong>Prerequisites</strong> @Compendium[pf2ettw.classfeatures.Wellspring Magic]{Wellspring Magic}</p>\n<hr />\n<p>There's no longer a limit on how many temporary spell slots you can gain per day from wellspring magic.</p>\n<p><strong>Special</strong> You can't select another dedication feat until you gain two other feats from the wellspring mage archetype.</p>\n<h2>@Compendium[pf2ettw.feats-srd.Wellspring Control]{Wellspring Control} Feat 4</h2>\n<p><strong>Prerequisites</strong> @Compendium[pf2ettw.feats-srd.Wellspring Mage Dedication]{Wellspring Mage Dedication}</p>\n<hr />\n<p>When you generate a wellspring surge, roll twice on the Wellspring Surges table and take the result of your choice. This doesn't apply when you cause another creature to generate a wellspring surge.</p>\n<h2>@Compendium[pf2ettw.feats-srd.Urgent Upwelling]{Urgent Upwelling} Feat 6</h2>\n<p><strong>Prerequisites</strong> @Compendium[pf2ettw.feats-srd.Wellspring Mage Dedication]{Wellspring Mage Dedication}</p>\n<hr />\n<p><strong>Frequency</strong> once per 10 minutes</p>\n<p><strong>Trigger</strong> An enemy reduces you to 0 HP, an enemy critically hits you, or you critically fail a saving throw against an enemy's effect.</p>\n<hr />\n<p>Defeat lets you to tap into your wellspring. Attempt the flat check for wellspring magic. If you critically succeed, you can choose to forgo gaining a temporary spell slot to instead have the triggering enemy undergo a wellspring surge. This surge functions just as it would for you, the only difference being that it emits from the enemy.</p>\n<h2>@Compendium[pf2ettw.feats-srd.Interfering Surge]{Interfering Surge} Feat 12</h2>\n<p><strong>Prerequisites</strong> @Compendium[pf2ettw.feats-srd.Wellspring Mage Dedication]{Wellspring Mage Dedication}</p>\n<hr />\n<p><strong>Trigger</strong> A creature you can see Casts a Spell.</p>\n<p><strong>Requirements</strong> You have an unexpended spell slot and can see the triggering spell's manifestations.</p>\n<hr />\n<p>You overcharge the triggering spell with magic. You expend a spell slot and attempt to counteract the triggering spell using the energy of the expended slot. If the triggering spell is in your repertoire and the spell slot you expended was a high enough level to cast it, you take no penalty. Otherwise, you take a -2 penalty to the counteract check if the triggering spell was cast using the same magical tradition you cast, or a -5 penalty if it was cast using a different tradition.</p>\n<p>If the triggering spell is successfully counteracted, it creates a wellspring surge from its caster in addition to the normal effects of being counteracted. If it isn't counteracted, your expended spell slot creates a wellspring surge from you.</p>\n<p><strong>Special</strong> This feat has the trait corresponding to the tradition of spells you cast (arcane, divine, primal, or occult).</p>",
    "name": "Wellspring Mage",
    "permission": {
        "default": 0
    }
}
