{
    "_id": "wQHcJGJ9rSyFQFPB",
    "data": {
        "attributes": {
            "ac": {
                "value": 18
            },
            "hardness": 5,
            "hasHealth": true,
            "hp": {
                "details": "",
                "max": 28,
                "temp": 0,
                "tempmax": 0,
                "value": 28
            },
            "stealth": {
                "details": "<p>(trained)</p>",
                "value": 10
            }
        },
        "creatureType": "",
        "details": {
            "description": "<p>A trip wire strung 4 feet above the ground releases a branch studded with envenomed thorns.</p>",
            "disable": "<p>@Check[type:thievery|dc:18|name:Remove Trip Wire] (trained) to remove the trip wire.</p>",
            "isComplex": false,
            "level": {
                "value": 2
            },
            "reset": "",
            "routine": ""
        },
        "saves": {
            "fortitude": {
                "saveDetail": "",
                "value": 10
            },
            "reflex": {
                "saveDetail": "",
                "value": 4
            },
            "will": {
                "saveDetail": "",
                "value": 0
            }
        },
        "source": {
            "value": "Pathfinder #151: The Show Must Go On"
        },
        "statusEffects": [],
        "traits": {
            "ci": [],
            "di": {
                "custom": "",
                "selected": {},
                "value": [
                    "critical-hits",
                    "object-immunities",
                    "precision"
                ]
            },
            "dr": [],
            "dv": [],
            "rarity": "common",
            "size": {
                "value": "med"
            },
            "traits": {
                "custom": "",
                "value": [
                    "mechanical",
                    "trap"
                ]
            }
        }
    },
    "img": "systems/pf2ettw/icons/default-icons/hazard.svg",
    "items": [
        {
            "_id": "OfDoBC89FG7NjSPu",
            "data": {
                "attack": {
                    "value": ""
                },
                "attackEffects": {
                    "value": []
                },
                "bonus": {
                    "value": 14
                },
                "damageRolls": {
                    "f2u9wheevmmka3rjlwi2fs": {
                        "damage": "1d6+4",
                        "damageType": "piercing"
                    },
                    "l3ja4befb5inpen6o9fk3f": {
                        "damage": "1d8",
                        "damageType": "poison"
                    }
                },
                "description": {
                    "value": ""
                },
                "rules": [],
                "slug": null,
                "source": {
                    "value": ""
                },
                "traits": {
                    "custom": "",
                    "rarity": "common",
                    "value": []
                },
                "weaponType": {
                    "value": "melee"
                }
            },
            "img": "systems/pf2ettw/icons/default-icons/melee.svg",
            "name": "Poisoned Thorns",
            "sort": 100000,
            "type": "melee"
        },
        {
            "_id": "7zPJ2oI0YtpNMQiH",
            "data": {
                "actionCategory": {
                    "value": ""
                },
                "actionType": {
                    "value": "reaction"
                },
                "actions": {
                    "value": null
                },
                "description": {
                    "value": "<p><strong>Trigger</strong> The trip wire is touched</p>\n<hr />\n<p><strong>Effect</strong> The trap's poisoned thorns attack the creature or object touching the trip wire.</p>"
                },
                "requirements": {
                    "value": ""
                },
                "rules": [],
                "slug": null,
                "source": {
                    "value": ""
                },
                "traits": {
                    "custom": "",
                    "rarity": "common",
                    "value": [
                        "poison"
                    ]
                },
                "trigger": {
                    "value": ""
                },
                "weapon": {
                    "value": ""
                }
            },
            "img": "systems/pf2ettw/icons/actions/Reaction.webp",
            "name": "Thorny Branch",
            "sort": 200000,
            "type": "action"
        }
    ],
    "name": "Envenomed Thorns Trap",
    "token": {
        "disposition": 0,
        "height": 1,
        "img": "systems/pf2ettw/icons/default-icons/hazard.svg",
        "name": "Envenomed Thorns Trap",
        "width": 1
    },
    "type": "hazard"
}
