{
    "_id": "Yl48xTdMh3aeQYL4",
    "data": {
        "active": true,
        "alsoApplies": {
            "linked": [
                {
                    "condition": "Flat-Footed"
                },
                {
                    "condition": "Sickened",
                    "value": 1
                }
            ],
            "unlinked": []
        },
        "base": "Consumed",
        "description": {
            "value": "<p><em>You are consumed by your thirst</em></p>\n<p>You are @Compendium[pf2ettw.conditionitems.Flat-Footed]{Flat-Footed}, you don’t treat anyone as your ally (though they might still treat you as theirs), and you can’t @Compendium[pf2ettw.actionspf2ettw.Delay]{Delay}, @Compendium[pf2ettw.actionspf2ettw.Ready]{Ready}, or use reactions. In addition, as per when your thirst is Desperate, you are @Compendium[pf2ettw.conditionitems.Sickened]{Sickened} 1, and cannot reduce your Sickened condition below 1. Despite being Sickened, you can still consume blood. You also take a -4 status penalty to all skill checks other than acrobatics, athletics, intimidation and stealth.</p>\n<p>You use all your actions to seek a supply of blood. The GM can have you use any actions not requiring the concentrate trait to facilitate this, such as attack, move so that a target is in reach, sneak up on someone, and so forth.</p>\n<p>Your prioritise targets which offer the potential for blood, particularly those which seem most vulnerable, or will seek blood directly if available. You will seek to either feast upon the target if possible, or act to slay or subdue a target sufficiently to allow feasting. If there are no sources of blood nearby, you will head either towards the nearest viable source that you know of, or in a random direction otherwise. If it’s impossible for you to seek blood, you gnash and rave incoherently, wasting your actions.</p>\n<p>Whilst affected by the Consumed condition, each time you consume a libation of blood, take damage or are prompted by a particular emotional appeal, you may attempt another Will to regain control - the difficulty of this save will depend upon your level of @Compendium[pf2ettw.conditionitems.Thirst]{Thirst}. Whilst Desperate or Ravenous, emotional appeals will not prompt an opportunity to recover.</p>\n<p>Whenever you consume a libation of blood whilst Consumed, you always reduce your Thirst level, rather than regaining hit points. Note that if you do so, your Thirst level will reduce before you make any saves, potentially reducing the DC of the save.</p>\n<p>If your Thirst level becomes Sated whilst afflicted by the Consumed condition, the condition ends and you regain control.</p>\n<h4><strong>Quick Reference Table</strong></h4>\n<table style=\"width: 633px;\">\n<thead>\n<tr>\n<td>Thirst Level</td>\n<td>DC vs Spilled Blood</td>\n<td>DC vs Vulnerable Prey</td>\n<td>Susceptible to Emotional Appeals</td>\n<td>DC to Recover from being Consumed</td>\n</tr>\n</thead>\n<tbody>\n<tr>\n<td>Sated</td>\n<td>-</td>\n<td>-</td>\n<td>-</td>\n<td>-</td>\n</tr>\n<tr>\n<td>Quiescent</td>\n<td>-</td>\n<td>-</td>\n<td>Y</td>\n<td>Standard</td>\n</tr>\n<tr>\n<td>Thirsting</td>\n<td>Standard</td>\n<td>-</td>\n<td>Y</td>\n<td>Hard</td>\n</tr>\n<tr>\n<td>Desperate</td>\n<td>Very Hard</td>\n<td>Standard</td>\n<td>N</td>\n<td>Very Hard</td>\n</tr>\n<tr>\n<td>Ravenous</td>\n<td>Failed</td>\n<td>Failed</td>\n<td>N</td>\n<td>Impossible</td>\n</tr>\n</tbody>\n</table>"
        },
        "duration": {
            "perpetual": true,
            "text": "",
            "value": 0
        },
        "group": "consumed",
        "hud": {
            "img": {
                "useStatusName": true,
                "value": "systems/pf2ettw/icons/conditions-2/consumed.webp"
            },
            "selectable": true,
            "statusName": "consumed"
        },
        "modifiers": [],
        "overrides": [],
        "references": {
            "children": [],
            "immunityFrom": [],
            "overriddenBy": [],
            "overrides": []
        },
        "removable": false,
        "rules": [
            {
                "key": "FlatModifier",
                "selector": "arcana",
                "type": "status",
                "value": -4
            },
            {
                "key": "FlatModifier",
                "selector": "crafting",
                "type": "status",
                "value": -4
            },
            {
                "key": "FlatModifier",
                "selector": "deception",
                "type": "status",
                "value": -4
            },
            {
                "key": "FlatModifier",
                "selector": "diplomacy",
                "type": "status",
                "value": -4
            },
            {
                "key": "FlatModifier",
                "selector": "medicine",
                "type": "status",
                "value": -4
            },
            {
                "key": "FlatModifier",
                "selector": "nature",
                "type": "status",
                "value": -4
            },
            {
                "key": "FlatModifier",
                "selector": "occultism",
                "type": "status",
                "value": -4
            },
            {
                "key": "FlatModifier",
                "selector": "performance",
                "type": "status",
                "value": -4
            },
            {
                "key": "FlatModifier",
                "selector": "religion",
                "type": "status",
                "value": -4
            },
            {
                "key": "FlatModifier",
                "selector": "society",
                "type": "status",
                "value": -4
            },
            {
                "key": "FlatModifier",
                "selector": "survival",
                "type": "status",
                "value": -4
            },
            {
                "key": "FlatModifier",
                "selector": "thievery",
                "type": "status",
                "value": -4
            }
        ],
        "source": {
            "value": ""
        },
        "sources": {
            "hud": true,
            "values": []
        },
        "traits": {
            "custom": "",
            "rarity": {
                "value": "common"
            },
            "value": []
        },
        "value": {
            "immutable": false,
            "isValued": false,
            "modifiers": [],
            "value": null
        }
    },
    "effects": [],
    "flags": {
        "pf2ettw": {
            "condition": true
        }
    },
    "img": "systems/pf2ettw/icons/conditions/consumed.webp",
    "name": "Consumed",
    "type": "condition"
}
