{
    "_id": "iU0fEDdBp3rXpTMC",
    "data": {
        "active": true,
        "alsoApplies": {
            "linked": [],
            "unlinked": []
        },
        "base": "Hidden",
        "description": {
            "value": "<p>While you're hidden from a creature, that creature knows the space you're in but can't tell precisely where you are. You typically become hidden by using Stealth to @Compendium[pf2ettw.actionspf2ettw.Hide]{Hide}. When @Compendium[pf2ettw.actionspf2ettw.Seek]{Seeking} a creature using only imprecise senses, it remains hidden, rather than @Compendium[pf2ettw.conditionitems.Observed]{Observed}. A creature you're hidden from is @Compendium[pf2ettw.conditionitems.Flat-Footed]{Flat-Footed} to you, and it must succeed at a @Check[type:flat|dc:11] check when targeting you with an attack, spell, or other effect or it fails affect you. Area effects aren't subject to this flat check.</p>\n<p>A creature might be able to use the seek action to try to observe you.</p>"
        },
        "duration": {
            "perpetual": true,
            "text": "",
            "value": 0
        },
        "group": "detection",
        "hud": {
            "img": {
                "useStatusName": true,
                "value": "systems/pf2ettw/icons/conditions-2/hidden.webp"
            },
            "selectable": true,
            "statusName": "hidden"
        },
        "modifiers": [],
        "overrides": [],
        "references": {
            "children": [],
            "immunityFrom": [],
            "overriddenBy": [],
            "overrides": []
        },
        "removable": true,
        "rules": [],
        "source": {
            "value": ""
        },
        "sources": {
            "hud": true
        },
        "traits": {
            "custom": "",
            "rarity": "common",
            "value": []
        },
        "value": {
            "immutable": false,
            "isValued": false,
            "modifiers": [],
            "value": null
        }
    },
    "flags": {
        "pf2ettw": {
            "condition": true
        }
    },
    "img": "systems/pf2ettw/icons/conditions/hidden.webp",
    "name": "Hidden",
    "type": "condition"
}
