{
    "_id": "bNmSwKSFk6SWWrlj",
    "content": "<p>Due to some mischance (such as wandering off while on a trip or being press-ganged onto a seagoing ship), you had to survive in a distant land for a while.</p>\n<p>Add the @Compendium[pf2ettw.feats-srd.Multilingual]{Multilingual} skill feat to your background options</p>",
    "name": "Abandoned in a Distant Land",
    "permission": {
        "default": 0
    }
}
