{
    "_id": "JHQI2skcksaLMPqA",
    "content": "<p>This character connected you to a kindly but reclusive person who was living at the edge of civilization but had expansive knowledge to share.</p>\n<p>Add the @Compendium[pf2ettw.feats-srd.Natural Medicine]{Natural Medicine} skill feat to your background options.</p>",
    "name": "Kindly Witch",
    "permission": {
        "default": 0
    }
}
