{
    "_id": "iA9QWuYATBPB6thI",
    "content": "<p>A @Compendium[pf2ettw.npc-gallery.Palace Guard]{Palace Guard} arrives and swears unfailing loyalty to you.</p>",
    "name": "Knight",
    "permission": {
        "default": 0
    }
}
