{
    "_id": "bRQz8uVlYtQ1cwwI",
    "content": "<p>You and this character were lost in a dangerous wasteland together and depended upon each other for survival; you're still not certain that either of you would have survived the ordeal without the other's aid.</p>\n<p>Add the @Compendium[pf2ettw.feats-srd.Forager]{Forager} skill feat to your background options.</p>",
    "name": "Wasteland Survivors",
    "permission": {
        "default": 0
    }
}
