{
    "_id": "oDhTOO1WjEZk1qfD",
    "content": "<p>You grew up against the backdrop of a major military conflict that affected much of your childhood world.</p>\n<p>Add the @Compendium[pf2ettw.feats-srd.Battle Medicine]{Battle Medicine} skill feat to your background options.</p>",
    "name": "Witnessed War",
    "permission": {
        "default": 0
    }
}
