{
    "_id": "YsY9euHOGCGc3mTE",
    "content": "<p>You distinguished yourself at an early age when you won a competition. This might have been a martial contest of arms, a showing of apprentice magicians, high-stakes gambling, or something more mundane, like an eating contest.</p>\n<p>Add the @Compendium[pf2ettw.feats-srd.Fascinating Performance]{Fascinating Performance} skill feat to your background options.</p>",
    "name": "Won a Competition",
    "permission": {
        "default": 0
    }
}
