{
    "_id": "0wzTmGUb8yvzMrO0",
    "data": {
        "boosts": {
            "0": {
                "value": [
                    "con",
                    "wis"
                ]
            },
            "1": {
                "value": [
                    "cha",
                    "con",
                    "dex",
                    "int",
                    "str",
                    "wis"
                ]
            }
        },
        "description": {
            "value": "<p>You're the medic many turn to when a more official clinic or healer might not be available. You may specialize in stitching up bullet wounds or have a standing, confidential deal with a criminal syndicate to provide your services any time of day or night. In either case, you've perhaps turned to the adventuring life because a former client is unhappy with your work or members of the local constabulary have been asking too many questions.</p>\n<p>Choose two ability boosts. One must be to <strong>Constitution</strong> or <strong>Wisdom</strong>, and one is a free ability boost.</p>\n<p>You're trained in the Medicine skill and the Underworld Lore skill. You gain the @Compendium[pf2ettw.feats-srd.Risky Surgery]{Risky Surgery} skill feat.</p>"
        },
        "items": {
            "n6uq0": {
                "id": "bkZgWFSFV4cAf5Ot",
                "img": "systems/pf2ettw/icons/features/feats/feats.webp",
                "level": 1,
                "name": "Risky Surgery",
                "pack": "pf2ettw.feats-srd"
            }
        },
        "rules": [],
        "source": {
            "value": "Pathfinder Guns & Gears"
        },
        "trainedLore": "Underworld",
        "trainedSkills": {
            "custom": "",
            "value": [
                "med"
            ]
        },
        "traits": {
            "custom": "",
            "rarity": "common",
            "value": []
        }
    },
    "img": "systems/pf2ettw/icons/default-icons/background.svg",
    "name": "Back-Alley Doctor",
    "type": "background"
}
