{
    "_id": "nhQKn1tVV6PKCurq",
    "data": {
        "boosts": {
            "0": {
                "value": [
                    "con",
                    "int"
                ]
            },
            "1": {
                "value": [
                    "cha",
                    "con",
                    "dex",
                    "int",
                    "str",
                    "wis"
                ]
            }
        },
        "description": {
            "value": "<p>You've spent uncounted hours walking up and down crowded and noisy circus stands, inventing innovative means to sell refreshments, food, and novelties at inflated prices. (You might know very little about slaughtering animals; \"butcher\" is a circus slang term for a vendor.) The Celestial Menagerie constantly pushed you to figure out how to sell increasingly shoddy toys to children and how to conceal the taste of spoiled treats that should have been discarded days earlier. You peddled disappointment and hated it, so you left to seek a new line of work-although you're not yet willing to leave the circus life altogether.</p>\n<p>Choose two ability boosts. One must be to <strong>Constitution</strong> or <strong>Intelligence</strong>, and one is a free ability boost.</p>\n<p>You're trained in the Society skill and the Mercantile Lore skill. You gain the @Compendium[pf2ettw.feats-srd.Read Lips]{Read Lips} skill feat.</p>"
        },
        "items": {
            "6pzn1": {
                "id": "yUuU9xyotrpwpTyC",
                "img": "systems/pf2ettw/icons/features/feats/feats.webp",
                "level": "1",
                "name": "Read Lips",
                "pack": "pf2ettw.feats-srd"
            }
        },
        "rules": [],
        "source": {
            "value": "Pathfinder: Extinction Curse Player's Guide"
        },
        "trainedLore": "Mercantile Lore",
        "trainedSkills": {
            "value": [
                "soc"
            ]
        },
        "traits": {
            "custom": "",
            "rarity": "common",
            "value": []
        }
    },
    "img": "systems/pf2ettw/icons/default-icons/background.svg",
    "name": "Butcher",
    "type": "background"
}
