{
    "_id": "uNvD4XK1kdvGjQVo",
    "data": {
        "boosts": {
            "0": {
                "value": [
                    "cha",
                    "str"
                ]
            },
            "1": {
                "value": [
                    "cha",
                    "con",
                    "dex",
                    "int",
                    "str",
                    "wis"
                ]
            }
        },
        "description": {
            "value": "<p><strong>Prerequisite</strong> Region - Old Cheliax</p>\n<hr />\n<p>Whether you come from Westcrown or elsewhere, you hold the values of pre-Thrune Cheliax dear. You disdain the infernal government, but you are proud of your country and do not consider yourself a rebel.</p>\n<p>Choose two ability boosts. One must be to <strong>Strength</strong> or <strong>Charisma</strong>, and one is a free ability boost.</p>\n<p>You're trained in the Diplomacy skill and the Westcrown Lore skill. You gain the @Compendium[pf2ettw.feats-srd.Group Impression]{Group Impression} skill feat.</p>"
        },
        "items": {
            "qpsao": {
                "id": "KpFetnUqTiweypZk",
                "img": "systems/pf2ettw/icons/features/feats/feats.webp",
                "level": "1",
                "name": "Group Impression",
                "pack": "pf2ettw.feats-srd"
            }
        },
        "rules": [],
        "source": {
            "value": "Pathfinder Lost Omens: World Guide"
        },
        "trainedLore": "Westcrown Lore",
        "trainedSkills": {
            "value": [
                "dip"
            ]
        },
        "traits": {
            "custom": "",
            "rarity": "common",
            "value": []
        }
    },
    "img": "systems/pf2ettw/icons/default-icons/background.svg",
    "name": "Child of Westcrown",
    "type": "background"
}
