{
    "_id": "kdkbDdvgw6KAKVeM",
    "data": {
        "boosts": {
            "0": {
                "value": [
                    "con",
                    "int"
                ]
            },
            "1": {
                "value": [
                    "cha",
                    "con",
                    "dex",
                    "int",
                    "str",
                    "wis"
                ]
            }
        },
        "description": {
            "value": "<p>In an isolated place-like a cave, remote oasis, or secluded mansion-you lived a life of solitude. Adventuring might represent your first foray out among other people in some time. This might be a welcome reprieve from solitude or an unwanted change, but in either case, you're likely still rough around the edges.</p>\n<p>Choose two ability boosts. One must be to <strong>Constitution</strong> or <strong>Intelligence</strong>, and one is a free ability boost.</p>\n<p>You're trained in the Nature skill, as well as a Lore skill related to the terrain you lived in as a hermit (such as Cave Lore or Desert Lore). You gain the @Compendium[pf2ettw.feats-srd.Dubious Knowledge]{Dubious Knowledge} skill feat.</p>"
        },
        "items": {
            "z8dne": {
                "id": "1Bt7uCW2WI4sM84P",
                "img": "systems/pf2ettw/icons/features/feats/feats.webp",
                "level": "1",
                "name": "Dubious Knowledge",
                "pack": "pf2ettw.feats-srd"
            }
        },
        "rules": [],
        "source": {
            "value": "Pathfinder Core Rulebook"
        },
        "trainedLore": "<Location> Lore",
        "trainedSkills": {
            "custom": "",
            "value": [
                "nat"
            ]
        },
        "traits": {
            "custom": "",
            "rarity": "common",
            "value": []
        }
    },
    "img": "systems/pf2ettw/icons/default-icons/background.svg",
    "name": "Hermit (Nature)",
    "type": "background"
}
