{
    "_id": "UK40FVVVx6IKxipW",
    "data": {
        "boosts": {
            "0": {
                "value": [
                    "cha",
                    "int"
                ]
            },
            "1": {
                "value": [
                    "cha",
                    "con",
                    "dex",
                    "int",
                    "str",
                    "wis"
                ]
            }
        },
        "description": {
            "value": "<p>Gaining admission to Blythir College is a difficult task, even for Alkenstar's most well-to-do families. In the magic-warped Mana Wastes, it's next to impossible to fake arcane talents or alchemical aptitude. So when you were accepted to the school, it was one of the most triumphant moments of your life.</p>\n<p>Unfortunately, your victory was short-lived. Just as you were you making significant headway on a promising series of explosive experiments, you found a letter on your desk informing you that, effective immediately, you were permanently expelled from Blythir College. As bogus as the punishment was, the charges leveled against you were even more puzzling: theft of property, both intellectual and physical. And just like that, you found your prestigious honors replaced with a ruined reputation, and your colleagues and mentors became bitter rivals and accusers. In an instant, you'd gone from promising scholar to wanted criminal.</p>\n<p>You followed the money for answers and learned that a shady financier named Ambrost Mugland didn't want you to finish your research at Blythir. He'd learned that you were on the brink of a great discovery-one that even you weren't fully aware of-and he decided that your imminent breakthrough would be bad for business. Unfortunately for Mugland, he chose the wrong student to destroy. Now, you'll do whatever's necessary to get your revenge on the villain who stole the future you had worked so hard to build for yourself.</p>\n<p>Choose two ability boosts. One must be to <strong>Intelligence</strong> or <strong>Charisma</strong>, and one is a free ability boost.</p>\n<p>You're trained in the Crafting skill and the Academia Lore skill. You gain the @Compendium[pf2ettw.feats-srd.Alchemical Crafting]{Alchemical Crafting} skill feat.</p>"
        },
        "items": {
            "hg2wb": {
                "id": "is3Oz9wt11lNq62K",
                "img": "systems/pf2ettw/icons/features/feats/feats.webp",
                "level": 1,
                "name": "Alchemical Crafting",
                "pack": "pf2ettw.feats-srd"
            }
        },
        "rules": [],
        "source": {
            "value": "Pathfinder: Outlaws of Alkenstar Player's Guide"
        },
        "trainedLore": "Academia Lore",
        "trainedSkills": {
            "custom": "",
            "value": [
                "cra"
            ]
        },
        "traits": {
            "custom": "",
            "rarity": "uncommon",
            "value": []
        }
    },
    "img": "systems/pf2ettw/icons/default-icons/background.svg",
    "name": "Inexplicably Expelled",
    "type": "background"
}
