{
    "_id": "Y50ssWBBKSRVBpSa",
    "data": {
        "boosts": {
            "0": {
                "value": [
                    "int",
                    "wis"
                ]
            },
            "1": {
                "value": [
                    "cha",
                    "con",
                    "dex",
                    "int",
                    "str",
                    "wis"
                ]
            }
        },
        "description": {
            "value": "<p>You delight crowds by reading minds, telling futures, and contacting spirits. Although much of your work is misdirection and showmanship, your cons have inadvertently awakened a genuine awareness of magic in your mind. This new sense is both thrilling and frightening, and you hope that you can hone it further in the Circus of Wayward Wonders.</p>\n<p>Choose two ability boosts. One must be to <strong>Intelligence</strong> or <strong>Wisdom</strong>, and one is a free ability boost.</p>\n<p>You're trained in the Arcana skill and the Scam Lore skill. You gain the @Compendium[pf2ettw.feats-srd.Arcane Sense]{Arcane Sense} skill feat.</p>"
        },
        "items": {
            "kkm53": {
                "id": "blMeVamjGz4ODWxq",
                "img": "systems/pf2ettw/icons/features/feats/feats.webp",
                "level": "1",
                "name": "Arcane Sense",
                "pack": "pf2ettw.feats-srd"
            }
        },
        "rules": [],
        "source": {
            "value": "Pathfinder: Extinction Curse Player's Guide"
        },
        "trainedLore": "Scam Lore",
        "trainedSkills": {
            "value": [
                "arc"
            ]
        },
        "traits": {
            "custom": "",
            "rarity": "common",
            "value": []
        }
    },
    "img": "systems/pf2ettw/icons/default-icons/background.svg",
    "name": "Mystic Seer",
    "type": "background"
}
