{
    "_id": "8UXahQfkP9GZ1TNW",
    "data": {
        "boosts": {
            "0": {
                "value": [
                    "con",
                    "wis"
                ]
            },
            "1": {
                "value": [
                    "cha",
                    "con",
                    "dex",
                    "int",
                    "str",
                    "wis"
                ]
            }
        },
        "description": {
            "value": "<p>Traveling far and wide, you picked up basic tactics for surviving on the road and in unknown lands, getting by with few supplies and even fewer comforts. As an adventurer, you travel still, often into even more dangerous places.</p>\n<p>Choose two ability boosts. One must be to <strong>Constitution</strong> or <strong>Wisdom</strong>, and one is a free ability boost.</p>\n<p>You're trained in the Survival skill and a Lore skill related to one terrain you traveled in (such as Desert Lore or Swamp Lore). You gain the @Compendium[pf2ettw.feats-srd.Assurance]{Assurance} skill feat with Survival.</p>"
        },
        "items": {
            "dbply": {
                "id": "QaH9p7xSfhdz9dRR",
                "img": "systems/pf2ettw/icons/features/feats/feats.webp",
                "level": 1,
                "name": "Assurance (Survival)",
                "pack": "pf2ettw.feats-srd"
            }
        },
        "rules": [],
        "source": {
            "value": "Pathfinder Core Rulebook"
        },
        "trainedLore": "<Terrain> Lore",
        "trainedSkills": {
            "value": [
                "sur"
            ]
        },
        "traits": {
            "custom": "",
            "rarity": "common",
            "value": []
        }
    },
    "img": "systems/pf2ettw/icons/default-icons/background.svg",
    "name": "Nomad",
    "type": "background"
}
