{
    "_id": "9uTdwJaj27F18ZDX",
    "data": {
        "boosts": {
            "0": {
                "value": [
                    "cha",
                    "str"
                ]
            },
            "1": {
                "value": [
                    "cha",
                    "con",
                    "dex",
                    "int",
                    "str",
                    "wis"
                ]
            }
        },
        "description": {
            "value": "<p><strong>Prerequisite</strong> Region - Broken Lands</p>\n<hr />\n<p>You serve a living god who rules upon the face of Golarion, and this gives your actions a divine mandate not to be trifled with.</p>\n<p>Choose two ability boosts. One must be to <strong>Strength</strong> or <strong>Charisma</strong>, and one is a free ability boost.</p>\n<p>You're trained in the Intimidation skill and the Razmir Lore skill. You gain the @Compendium[pf2ettw.feats-srd.Group Coercion]{Group Coercion} skill feat.</p>"
        },
        "items": {
            "s85v4": {
                "id": "gUqvezs2zzoTXFAI",
                "img": "systems/pf2ettw/icons/features/feats/feats.webp",
                "level": "1",
                "name": "Group Coercion",
                "pack": "pf2ettw.feats-srd"
            }
        },
        "rules": [],
        "source": {
            "value": "Pathfinder Lost Omens: World Guide"
        },
        "trainedLore": "Razmir Lore",
        "trainedSkills": {
            "value": [
                "itm"
            ]
        },
        "traits": {
            "custom": "",
            "rarity": "common",
            "value": []
        }
    },
    "img": "systems/pf2ettw/icons/default-icons/background.svg",
    "name": "Razmiran Faithful",
    "type": "background"
}
