{
    "_id": "aA2DR1BcxqJT15Cr",
    "data": {
        "armor": {
            "value": 2
        },
        "baseItem": null,
        "category": "shield",
        "check": {
            "value": 0
        },
        "containerId": "null",
        "description": {
            "value": "<p>These glowing shields are crafted to ensure that the abysium used is safely contained within a durable outer shell. If the shield breaks, however, the toxic metal becomes exposed. When you use the @Compendium[pf2ettw.feats-srd.Shield Block]{Shield Block} reaction against an adjacent creature's melee Strike, if the shield breaks, the creature is exposed to the abysium and is @Compendium[pf2ettw.conditionitems.Sickened]{Sickened 2}.</p>\n<p><strong>Craft Requirements</strong> abysium worth at least 4,400 gp</p>"
        },
        "dex": {
            "value": 0
        },
        "equippedBulk": {
            "value": ""
        },
        "group": null,
        "hardness": 10,
        "hp": {
            "brokenThreshold": 20,
            "max": 0,
            "value": 40
        },
        "level": {
            "value": 16
        },
        "negateBulk": {
            "value": "0"
        },
        "potencyRune": {
            "value": 0
        },
        "preciousMaterial": {
            "value": null
        },
        "preciousMaterialGrade": {
            "value": null
        },
        "price": {
            "value": {
                "gp": 8800
            }
        },
        "propertyRune1": {
            "value": ""
        },
        "propertyRune2": {
            "value": ""
        },
        "propertyRune3": {
            "value": ""
        },
        "propertyRune4": {
            "value": ""
        },
        "quantity": 1,
        "resiliencyRune": {
            "value": ""
        },
        "rules": [],
        "size": "med",
        "source": {
            "value": "Pathfinder Lost Omens: The Grand Bazaar"
        },
        "speed": {
            "value": 0
        },
        "stackGroup": null,
        "strength": {
            "value": 0
        },
        "traits": {
            "custom": "",
            "rarity": "rare",
            "value": [
                "shove"
            ]
        },
        "usage": {
            "value": "held-in-one-hand"
        },
        "weight": {
            "value": "1"
        }
    },
    "img": "systems/pf2ettw/icons/default-icons/armor.svg",
    "name": "Abysium Shield (High Grade)",
    "type": "armor"
}
