{
    "_id": "4aVkppixLHPg940o",
    "data": {
        "armor": {
            "value": 1
        },
        "baseItem": null,
        "category": "shield",
        "check": {
            "value": 0
        },
        "containerId": null,
        "description": {
            "value": "<p>Adamantine shields are particularly sturdy, and when used for a shield bash, they are adamantine weapons.</p>\n<p>The shield has Hardness 8, HP 32, and BT 16.</p>\n<hr />\n<p><strong>Craft Requirements</strong> adamantine worth at least 50 gp</p>"
        },
        "dex": {
            "value": 0
        },
        "equippedBulk": {
            "value": ""
        },
        "group": null,
        "hardness": 8,
        "hp": {
            "brokenThreshold": 16,
            "max": 32,
            "value": 32
        },
        "level": {
            "value": 8
        },
        "negateBulk": {
            "value": "0"
        },
        "potencyRune": {
            "value": 0
        },
        "preciousMaterial": {
            "value": "adamantine"
        },
        "preciousMaterialGrade": {
            "value": "standard"
        },
        "price": {
            "value": {
                "gp": 400
            }
        },
        "propertyRune1": {
            "value": ""
        },
        "propertyRune2": {
            "value": ""
        },
        "propertyRune3": {
            "value": ""
        },
        "propertyRune4": {
            "value": ""
        },
        "quantity": 1,
        "resiliencyRune": {
            "value": ""
        },
        "rules": [],
        "size": "med",
        "source": {
            "value": "Pathfinder Core Rulebook"
        },
        "speed": {
            "value": 0
        },
        "stackGroup": null,
        "strength": {
            "value": 0
        },
        "traits": {
            "custom": "",
            "rarity": "uncommon",
            "value": [
                "shove"
            ]
        },
        "usage": {
            "value": "held-in-one-hand"
        },
        "weight": {
            "value": "L"
        }
    },
    "img": "systems/pf2ettw/icons/equipment/shields/precious-material-shields/adamantite-buckler.webp",
    "name": "Adamantine Buckler (Standard-Grade)",
    "type": "armor"
}
