{
    "_id": "uhka9LHEP3wDKytG",
    "data": {
        "baseItem": null,
        "containerId": null,
        "description": {
            "value": "<p>You need an alchemist's lab to Craft alchemical items during downtime.</p>\n<p>An expanded alchemist's lab gives a +1 item bonus to Crafting checks to create alchemical items.</p>"
        },
        "equippedBulk": {
            "value": ""
        },
        "hardness": 0,
        "hp": {
            "brokenThreshold": 0,
            "max": 0,
            "value": 0
        },
        "level": {
            "value": 3
        },
        "negateBulk": {
            "value": "0"
        },
        "preciousMaterial": {
            "value": ""
        },
        "preciousMaterialGrade": {
            "value": ""
        },
        "price": {
            "value": {
                "gp": 55
            }
        },
        "quantity": 1,
        "rules": [
            {
                "key": "FlatModifier",
                "label": "Alchemist's Lab, Expanded (craft alchemical items)",
                "predicate": {
                    "all": [
                        "alchemical",
                        "action:craft"
                    ]
                },
                "selector": "crafting",
                "type": "item",
                "value": 1
            }
        ],
        "size": "med",
        "source": {
            "value": "Pathfinder Core Rulebook"
        },
        "stackGroup": null,
        "traits": {
            "custom": "",
            "rarity": "common",
            "value": []
        },
        "usage": {
            "value": "held-in-two-hands"
        },
        "weight": {
            "value": "6"
        }
    },
    "img": "systems/pf2ettw/icons/equipment/adventuring-gear/alchemists-lab.webp",
    "name": "Alchemist's Lab (Expanded)",
    "type": "equipment"
}
