{
    "_id": "FNccUmKsyXKmfe5c",
    "data": {
        "baseItem": null,
        "containerId": null,
        "description": {
            "value": "<p>Skilled awl work has imprinted images of a muscled weightlifter into these tiered leather bands, which grant you enhanced stamina and skill when performing athletic exercises.</p>\n<p>While fastened to your upper arms, the armbands give you a +3 item bonus to Athletics checks.</p>\n<p>In addition, whenever you use an action to Climb or Swim and you succeed at the Athletics check, add a +10-foot item bonus to the distance you move.</p>"
        },
        "equippedBulk": {
            "value": ""
        },
        "hardness": 0,
        "hp": {
            "brokenThreshold": 0,
            "max": 0,
            "value": 0
        },
        "level": {
            "value": 17
        },
        "negateBulk": {
            "value": "0"
        },
        "preciousMaterial": {
            "value": ""
        },
        "preciousMaterialGrade": {
            "value": ""
        },
        "price": {
            "value": {
                "gp": 13000
            }
        },
        "quantity": 1,
        "rules": [
            {
                "key": "FlatModifier",
                "label": "Armbands of Athleticism (Greater)",
                "selector": "athletics",
                "type": "item",
                "value": 3
            }
        ],
        "size": "med",
        "source": {
            "value": "Pathfinder Core Rulebook"
        },
        "stackGroup": null,
        "traits": {
            "custom": "",
            "rarity": "common",
            "value": [
                "invested",
                "magical",
                "transmutation"
            ]
        },
        "usage": {
            "value": "wornarmbands"
        },
        "weight": {
            "value": "L"
        }
    },
    "img": "systems/pf2ettw/icons/equipment/worn-items/other-worn-items/armbands-of-athleticism.webp",
    "name": "Armbands of Athleticism (Greater)",
    "type": "equipment"
}
