{
    "_id": "6ELjUFY0sEJ7nZlZ",
    "data": {
        "baseItem": null,
        "containerId": null,
        "description": {
            "value": "<p>Magic wards deflect attacks. Increase the armor's item bonus to AC by 3. The armor can be etched with three property runes.</p>\n<p>You can upgrade the <em>armor potency</em> rune already etched on a suit of armor to a stronger version, increasing the values of the existing rune to those of the new rune. You must have the formula of the stronger rune to do so, and the Price of the upgrade is the difference between the two runes' Prices.</p>\n<p><strong>Craft Requirements</strong> You are an legendary in Crafting.</p>"
        },
        "equippedBulk": {
            "value": ""
        },
        "hardness": 0,
        "hp": {
            "brokenThreshold": 0,
            "max": 0,
            "value": 0
        },
        "level": {
            "value": 18
        },
        "negateBulk": {
            "value": "0"
        },
        "preciousMaterial": {
            "value": ""
        },
        "preciousMaterialGrade": {
            "value": ""
        },
        "price": {
            "value": {
                "gp": 20560
            }
        },
        "quantity": 1,
        "rules": [],
        "size": "med",
        "source": {
            "value": "Pathfinder Core Rulebook"
        },
        "stackGroup": null,
        "traits": {
            "custom": "",
            "rarity": "common",
            "value": [
                "abjuration",
                "magical"
            ]
        },
        "usage": {
            "value": "etched-onto-armor"
        },
        "weight": {
            "value": "-"
        }
    },
    "img": "systems/pf2ettw/icons/equipment/runes/fundamental-armor-runes/armor-potency.webp",
    "name": "Armor Potency (+3)",
    "type": "equipment"
}
