{
    "_id": "War0uyLBx1jA0Ge7",
    "data": {
        "MAP": {
            "value": ""
        },
        "baseItem": "battle-axe",
        "bonus": {
            "value": 0
        },
        "bonusDamage": {
            "value": 0
        },
        "category": "martial",
        "containerId": null,
        "damage": {
            "damageType": "slashing",
            "dice": 1,
            "die": "d8",
            "value": ""
        },
        "description": {
            "value": "<p>These axes are designed explicitly as weapons, rather than tools. They typically weigh less, with a shaft reinforced with metal bands or bolts, and have a sharper blade, making them ideal for chopping limbs rather than wood.</p>"
        },
        "equippedBulk": {
            "value": ""
        },
        "group": "axe",
        "hardness": 0,
        "hp": {
            "brokenThreshold": 0,
            "max": 0,
            "value": 0
        },
        "level": {
            "value": 0
        },
        "negateBulk": {
            "value": "0"
        },
        "potencyRune": {
            "value": null
        },
        "preciousMaterial": {
            "value": ""
        },
        "preciousMaterialGrade": {
            "value": ""
        },
        "price": {
            "value": {
                "gp": 1
            }
        },
        "property1": {
            "critDamage": "",
            "critDamageType": "",
            "critDice": null,
            "critDie": "",
            "criticalConditionType": "",
            "criticalConditionValue": null,
            "damageType": "",
            "dice": null,
            "die": "",
            "strikeConditionType": "",
            "strikeConditionValue": null,
            "value": ""
        },
        "propertyRune1": {
            "value": ""
        },
        "propertyRune2": {
            "value": ""
        },
        "propertyRune3": {
            "value": ""
        },
        "propertyRune4": {
            "value": ""
        },
        "quantity": 1,
        "range": null,
        "reload": {
            "value": ""
        },
        "rules": [],
        "size": "med",
        "source": {
            "value": "Pathfinder Core Rulebook"
        },
        "splashDamage": {
            "value": 0
        },
        "stackGroup": null,
        "strikingRune": {
            "value": ""
        },
        "traits": {
            "custom": "",
            "rarity": "common",
            "value": [
                "sweep"
            ]
        },
        "usage": {
            "value": "held-in-one-hand"
        },
        "weight": {
            "value": "1"
        }
    },
    "img": "systems/pf2ettw/icons/equipment/weapons/battle-axe.webp",
    "name": "Battle Axe",
    "type": "weapon"
}
