{
    "_id": "YCjVrQnHfOtpmjYW",
    "data": {
        "baseItem": null,
        "containerId": null,
        "description": {
            "value": "<p>Made from interlocking plates of silver and gold, this heavy belt bears stylized miniature images of five kingly dwarves. You gain a +1 circumstance bonus to Diplomacy checks to Make an Impression with dwarves or make a Request from dwarves. You also gain a +1 circumstance bonus to Intimidation checks against giants and orcs.</p>\n<p>The belt also grants you darkvision and the ability to understand, speak, and write the Dwarven language.</p>\n<p><strong>Activate</strong><span class=\"pf2-icon\">1</span> Interact</p>\n<p><strong>Frequency</strong> once per day</p>\n<p><strong>Requirements</strong> You are a dwarf</p>\n<hr />\n<p><strong>Effect</strong> You tighten the belt one notch to gain temporary Hit Points equal to your level and grant allies within 20 feet of you darkvision. Both effects last for 10 minutes.</p>\n<p>@Compendium[pf2ettw.equipment-effects.Effect: Belt of the Five Kings (Wearer)]{Effect: Belt of the Five Kings (Wearer)}</p>\n<p>@Compendium[pf2ettw.equipment-effects.Effect: Belt of the Five Kings (Allies)]{Effect: Belt of the Five Kings (Allies)}</p>"
        },
        "equippedBulk": {
            "value": ""
        },
        "hardness": 0,
        "hp": {
            "brokenThreshold": 0,
            "max": 0,
            "value": 0
        },
        "level": {
            "value": 9
        },
        "negateBulk": {
            "value": ""
        },
        "preciousMaterial": {
            "value": ""
        },
        "preciousMaterialGrade": {
            "value": ""
        },
        "price": {
            "value": {
                "gp": 650
            }
        },
        "quantity": 1,
        "rules": [
            {
                "key": "FlatModifier",
                "label": "Belt of 5 Kings (dwarves)",
                "predicate": {
                    "all": [
                        "target:trait:dwarf"
                    ]
                },
                "selector": "diplomacy",
                "type": "circumstance",
                "value": 1
            },
            {
                "key": "FlatModifier",
                "label": "Belt of 5 Kings (giants, orcs)",
                "predicate": {
                    "any": [
                        "target:trait:giant",
                        "target:trait:orc"
                    ]
                },
                "selector": "intimidation",
                "type": "circumstance",
                "value": 1
            },
            {
                "key": "Sense",
                "label": "pf2ettw.SensesDarkvision",
                "selector": "darkvision"
            }
        ],
        "size": "med",
        "source": {
            "value": "Pathfinder Core Rulebook"
        },
        "stackGroup": null,
        "traits": {
            "custom": "",
            "rarity": "uncommon",
            "value": [
                "enchantment",
                "invested",
                "magical"
            ]
        },
        "usage": {
            "value": "wornbelt"
        },
        "weight": {
            "value": "L"
        }
    },
    "img": "systems/pf2ettw/icons/equipment/worn-items/other-worn-items/belt-of-the-five-kings.webp",
    "name": "Belt of the Five Kings",
    "type": "equipment"
}
