{
    "_id": "C9wOlvuVCjVbz1YQ",
    "data": {
        "baseItem": "clan-dagger",
        "containerId": null,
        "description": {
            "value": "<p>A <em>bloodbane</em> clan dagger is especially vicious against the ancestral enemies of the clan. When you damage an appropriate type of creature with the weapon, that creature takes [[/r {1}[persistent,bleed]]] @Compendium[pf2ettw.conditionitems.Persistent Damage]{Persistent Bleed Damage}. The type of creature depends on the clan that made the dagger, but is typically drow, duergar, giant, or orc.</p>\n<p>In addition, whenever you inflict persistent bleed damage with a <em>bloodbane</em> weapon (whether from its innate ability or in some other way), the weapon leaves ragged wounds. The bleeding creature must succeed at a @Check[type:fortitude|dc:25] save or become sickened 1. The creature is then temporarily immune for 1 hour.</p>"
        },
        "equippedBulk": {
            "value": ""
        },
        "hardness": 0,
        "hp": {
            "brokenThreshold": 0,
            "max": 0,
            "value": 0
        },
        "level": {
            "value": 8
        },
        "negateBulk": {
            "value": ""
        },
        "preciousMaterial": {
            "value": ""
        },
        "preciousMaterialGrade": {
            "value": ""
        },
        "price": {
            "value": {
                "gp": 475
            }
        },
        "quantity": 1,
        "rules": [],
        "size": "med",
        "source": {
            "value": "Pathfinder #148: Fires of the Haunted City"
        },
        "stackGroup": null,
        "traits": {
            "custom": "",
            "rarity": "uncommon",
            "value": [
                "dwarf",
                "evocation",
                "magical"
            ]
        },
        "usage": {
            "value": "held-in-one-hand"
        },
        "weight": {
            "value": "-"
        }
    },
    "img": "systems/pf2ettw/icons/equipment/runes/weapon-property-runes/weapon-property-runes.webp",
    "name": "Bloodbane",
    "type": "equipment"
}
