{
    "_id": "2DoUHoueAyyP4lMN",
    "data": {
        "activation": {
            "condition": "",
            "cost": 0,
            "type": ""
        },
        "autoDestroy": {
            "_deprecated": true,
            "value": true
        },
        "autoUse": {
            "_deprecated": true,
            "value": true
        },
        "baseItem": null,
        "charges": {
            "_deprecated": true,
            "max": "1",
            "value": "1"
        },
        "consumableType": {
            "value": "drug"
        },
        "consume": {
            "_deprecated": true,
            "value": ""
        },
        "containerId": null,
        "description": {
            "value": "<p>A strong blend including several spices common in the Padishah Empire of Kelesh, bloodeye coffee is a favorite morning drink across the Inner Sea region. The maximum addiction stage of bloodeye coffee never progresses beyond stage 1.</p>\n<hr />\n<p><strong>Activate</strong> <span class=\"pf2-icon\">A</span> Interact (Ingested)</p>\n<p><strong>Saving Throw</strong> @Check[type:fortitude|dc:14]</p>\n<p><strong>Onset</strong> 10 minutes</p>\n<p><strong>Maximum Duration</strong> 8 hours</p>\n<p><strong>Stage 1</strong> +1 item bonus to AC and saves to which you are taking penalties caused by the @Compendium[pf2ettw.conditionitems.Fatigued]{Fatigued} condition (10 minutes)</p>\n<p><strong>Stage 2</strong> @Compendium[pf2ettw.conditionitems.Stupefied]{Stupefied 1} (1 hour)</p>\n<p><strong>Stage 3</strong> can't recover from fatigued (1 day, after which the drug ends)</p>"
        },
        "duration": {
            "units": "",
            "value": null
        },
        "equippedBulk": {
            "value": ""
        },
        "hardness": 0,
        "hp": {
            "brokenThreshold": 0,
            "max": 0,
            "value": 0
        },
        "level": {
            "value": 0
        },
        "negateBulk": {
            "value": "0"
        },
        "preciousMaterial": {
            "value": ""
        },
        "preciousMaterialGrade": {
            "value": ""
        },
        "price": {
            "value": {
                "sp": 5
            }
        },
        "quantity": 1,
        "range": {
            "long": null,
            "units": "",
            "value": null
        },
        "rules": [],
        "size": "med",
        "source": {
            "value": "Pathfinder Gamemastery Guide"
        },
        "spell": {
            "data": null,
            "heightenedLevel": null
        },
        "stackGroup": null,
        "target": {
            "type": "",
            "units": "",
            "value": null
        },
        "traits": {
            "custom": "",
            "rarity": "common",
            "value": [
                "alchemical",
                "consumable",
                "drug",
                "ingested",
                "poison"
            ]
        },
        "usage": {
            "value": "held-in-one-hand"
        },
        "uses": {
            "autoDestroy": true,
            "autoUse": true,
            "max": 0,
            "per": null,
            "value": 0
        },
        "weight": {
            "value": "L"
        }
    },
    "img": "systems/pf2ettw/icons/equipment/alchemical-items/drugs/bloodeye-coffee.webp",
    "name": "Bloodeye Coffee",
    "type": "consumable"
}
