{
    "_id": "oxL8uExmIomunm5g",
    "data": {
        "baseItem": null,
        "containerId": null,
        "description": {
            "value": "<p>These boots act as @Compendium[pf2ettw.equipment-srd.Boots of Elvenkind (Greater)]{Boots of Elvenkind (Greater)}, but they react wildly to strong physical exertion. While you wear the boots, the curse activates whenever you attempt an Athletics check or Stride more than once in a single round during an encounter. The boots cast an 8th-level <em>@Compendium[pf2ettw.spells-srd.Uncontrollable Dance]{Uncontrollable Dance}</em> spell on you, and you automatically fail your save. Once the curse has activated for the first time, the boots fuse to you.</p>"
        },
        "equippedBulk": {
            "value": ""
        },
        "hardness": 0,
        "hp": {
            "brokenThreshold": 0,
            "max": 0,
            "value": 0
        },
        "level": {
            "value": 11
        },
        "negateBulk": {
            "value": ""
        },
        "preciousMaterial": {
            "value": ""
        },
        "preciousMaterialGrade": {
            "value": ""
        },
        "price": {
            "value": {
                "gp": 1250
            }
        },
        "quantity": 1,
        "rules": [],
        "size": "med",
        "source": {
            "value": "Pathfinder Gamemastery Guide"
        },
        "stackGroup": "",
        "traits": {
            "custom": "",
            "rarity": "rare",
            "value": [
                "cursed",
                "enchantment",
                "invested",
                "magical"
            ]
        },
        "usage": {
            "value": "held-in-one-hand"
        },
        "weight": {
            "value": "L"
        }
    },
    "img": "systems/pf2ettw/icons/equipment/cursed-items/boots-of-dancing.webp",
    "name": "Boots of Dancing",
    "type": "equipment"
}
