{
    "_id": "02q8s6sSicMkhs1l",
    "data": {
        "baseItem": null,
        "containerId": null,
        "description": {
            "value": "<p>These stiff leather armguards grant you a +1 item bonus to AC and saving throws, and a maximum Dexterity modifier of +5. You can affix talismans to <em>bracers of armor</em> as though they were light armor.</p>"
        },
        "equippedBulk": {
            "value": ""
        },
        "hardness": 0,
        "hp": {
            "brokenThreshold": 0,
            "max": 0,
            "value": 0
        },
        "level": {
            "value": 8
        },
        "negateBulk": {
            "value": "0"
        },
        "preciousMaterial": {
            "value": ""
        },
        "preciousMaterialGrade": {
            "value": ""
        },
        "price": {
            "value": {
                "gp": 450
            }
        },
        "quantity": 1,
        "rules": [
            {
                "key": "FlatModifier",
                "selector": "ac",
                "slug": "bracers-of-armor",
                "type": "item",
                "value": 1
            },
            {
                "key": "FlatModifier",
                "selector": "saving-throw",
                "slug": "bracers-of-armor",
                "type": "item",
                "value": 1
            },
            {
                "key": "DexterityModifierCap",
                "value": 5
            }
        ],
        "size": "med",
        "source": {
            "value": "Pathfinder Core Rulebook"
        },
        "stackGroup": null,
        "traits": {
            "custom": "",
            "rarity": "common",
            "value": [
                "abjuration",
                "invested",
                "magical"
            ]
        },
        "usage": {
            "value": "wornbracers"
        },
        "weight": {
            "value": "L"
        }
    },
    "img": "systems/pf2ettw/icons/equipment/worn-items/other-worn-items/bracers-of-armor.webp",
    "name": "Bracers of Armor I",
    "type": "equipment"
}
