{
    "_id": "XKON66YXYLXlGPPg",
    "data": {
        "armor": {
            "value": 4
        },
        "baseItem": "breastplate",
        "category": "medium",
        "check": {
            "value": -3
        },
        "containerId": null,
        "description": {
            "value": "<p>This +2 greater resilient breastplate is made from shining bronze overlaid with reinforcing golden panels in the shape of lion's heads. Wearing this breastplate grants you a commanding aura. You gain a +3 item bonus to Diplomacy checks, but you take a -3 item penalty to Stealth checks to Hide and Sneak and Deception checks to Impersonate.</p>\n<p><strong>Activate</strong><span class=\"pf2-icon\">A</span>Command</p>\n<p><strong>Frequency</strong> once per day</p>\n<hr />\n<p><strong>Effect</strong> You grant allies within 100 feet a +2 status bonus to saves against fear effects for 1 minute. When you activate this ability, each affected ally who's frightened reduces their frightened value by 1.</p>\n<p>@Compendium[pf2ettw.equipment-effects.Effect: Breastplate of Command]{Effect: Breastplate of Command}</p>"
        },
        "dex": {
            "value": 1
        },
        "equippedBulk": {
            "value": "2"
        },
        "group": "plate",
        "hardness": 0,
        "hp": {
            "brokenThreshold": 0,
            "max": 0,
            "value": 0
        },
        "level": {
            "value": 18
        },
        "negateBulk": {
            "value": "0"
        },
        "potency": {},
        "potencyRune": {
            "value": 2
        },
        "preciousMaterial": {
            "value": ""
        },
        "preciousMaterialGrade": {
            "value": ""
        },
        "price": {
            "value": {
                "gp": 22000
            }
        },
        "propertyRune1": {
            "value": ""
        },
        "propertyRune2": {
            "value": ""
        },
        "propertyRune3": {
            "value": ""
        },
        "propertyRune4": {
            "value": ""
        },
        "quantity": 1,
        "resiliencyRune": {
            "value": "greaterResilient"
        },
        "rules": [
            {
                "key": "FlatModifier",
                "selector": "diplomacy",
                "type": "item",
                "value": 3
            },
            {
                "key": "FlatModifier",
                "label": "Breastplate of Command (Hide, Sneak)",
                "predicate": {
                    "any": [
                        "action:hide",
                        "action:sneak"
                    ]
                },
                "selector": "stealth",
                "type": "item",
                "value": -3
            },
            {
                "key": "FlatModifier",
                "label": "Breastplate of Command (Impersonate)",
                "predicate": {
                    "any": [
                        "action:impersonate"
                    ]
                },
                "selector": "deception",
                "type": "item",
                "value": -3
            }
        ],
        "size": "med",
        "source": {
            "value": "Pathfinder Core Rulebook"
        },
        "speed": {
            "value": -5
        },
        "stackGroup": null,
        "strength": {
            "value": 16
        },
        "traits": {
            "custom": "",
            "rarity": "common",
            "value": [
                "enchantment",
                "invested",
                "magical"
            ]
        },
        "usage": {
            "value": "wornarmor"
        },
        "weight": {
            "value": "3"
        }
    },
    "img": "systems/pf2ettw/icons/equipment/armor/specific-magic-armor/breastplate-of-command.webp",
    "name": "Breastplate of Command (Greater)",
    "type": "armor"
}
