{
    "_id": "1k3AsSW7lpU0kEpY",
    "data": {
        "armor": {
            "value": 1
        },
        "baseItem": null,
        "category": "shield",
        "check": {
            "value": 0
        },
        "containerId": null,
        "description": {
            "value": "<p>This very small shield is a favorite of duelists and quick, lightly armored warriors. It's typically made of steel and strapped to your forearm. You can Raise a Shield with your buckler as long as you have that hand free or are holding a light object that's not a weapon in that hand.</p>\n<table class=\"pf2-table\">\n<thead>\n<tr>\n<th>Hardness</th>\n<th>HP</th>\n<th>BT</th>\n</tr>\n</thead>\n<tbody>\n<tr>\n<td>3</td>\n<td>6</td>\n<td>3</td>\n</tr>\n</tbody>\n</table>"
        },
        "dex": {
            "value": 0
        },
        "equippedBulk": {
            "value": ""
        },
        "group": null,
        "hardness": 3,
        "hp": {
            "brokenThreshold": 3,
            "max": 6,
            "value": 6
        },
        "level": {
            "value": 0
        },
        "negateBulk": {
            "value": "0"
        },
        "potency": {},
        "potencyRune": {
            "value": 0
        },
        "preciousMaterial": {
            "value": null
        },
        "preciousMaterialGrade": {
            "value": null
        },
        "price": {
            "value": {
                "gp": 1
            }
        },
        "propertyRune1": {
            "value": ""
        },
        "propertyRune2": {
            "value": ""
        },
        "propertyRune3": {
            "value": ""
        },
        "propertyRune4": {
            "value": ""
        },
        "quantity": 1,
        "resiliencyRune": {
            "value": ""
        },
        "rules": [],
        "size": "med",
        "source": {
            "value": "Pathfinder Core Rulebook"
        },
        "speed": {
            "value": 0
        },
        "stackGroup": null,
        "strength": {
            "value": 0
        },
        "traits": {
            "custom": "",
            "rarity": "common",
            "value": [
                "shove"
            ]
        },
        "usage": {
            "value": "held-in-one-hand"
        },
        "weight": {
            "value": "L"
        }
    },
    "img": "systems/pf2ettw/icons/equipment/shields/buckler.webp",
    "name": "Buckler",
    "type": "armor"
}
