{
    "_id": "QHc7AnKoMpcqsI2d",
    "data": {
        "baseItem": null,
        "containerId": "null",
        "description": {
            "value": "<p>With this rune, you can instantly retrieve an item in your possession without digging around looking for it.</p>\n<hr />\n<p><strong>Activate</strong> <span class=\"pf2-icon\">1</span> command</p>\n<p><strong>Frequency</strong> once per hour</p>\n<p><strong>Requirements</strong> You have a free hand and the <em>called</em> item is in a bag, pack, pouch, or other container on your person, or unattended within 30 feet</p>\n<hr />\n<p><strong>Effect</strong> The item teleports to a free hand.</p>"
        },
        "equippedBulk": {
            "value": ""
        },
        "hardness": 0,
        "hp": {
            "brokenThreshold": 0,
            "max": 0,
            "value": 0
        },
        "level": {
            "value": 3
        },
        "negateBulk": {
            "value": "0"
        },
        "preciousMaterial": {
            "value": null
        },
        "preciousMaterialGrade": {
            "value": null
        },
        "price": {
            "value": {
                "gp": 60
            }
        },
        "quantity": 1,
        "rules": [],
        "size": "med",
        "source": {
            "value": "Pathfinder Lost Omens: The Grand Bazaar"
        },
        "stackGroup": null,
        "traits": {
            "custom": "",
            "rarity": "uncommon",
            "value": [
                "conjuration",
                "magical"
            ]
        },
        "usage": {
            "value": "applied-to-any-item-of-light-or-negligible-bulk"
        },
        "weight": {
            "value": "-"
        }
    },
    "img": "systems/pf2ettw/icons/equipment/consumables/other-consumables/runestone.webp",
    "name": "Called",
    "type": "equipment"
}
