{
    "_id": "YQLWR9cCXQY5xaaG",
    "data": {
        "description": {
            "value": "<p>This kit includes a writing set, a compass, a standard astrolabe, a ruler, and a survey map.</p>"
        },
        "equippedBulk": {
            "value": ""
        },
        "items": {
            "5z6qg": {
                "id": "wob6DB1FFdWs0mbp",
                "img": "systems/pf2ettw/icons/equipment/adventuring-gear/compass.webp",
                "isContainer": false,
                "items": {},
                "name": "Compass",
                "pack": "pf2ettw.equipment-srd",
                "quantity": 1
            },
            "aftjc": {
                "id": "n8nmqJdfHrDfuG1J",
                "img": "systems/pf2ettw/icons/default-icons/mystery-man.svg",
                "isContainer": false,
                "items": {},
                "name": "Standard Astrolabe",
                "pack": "pf2ettw.equipment-srd",
                "quantity": 1
            },
            "b2zsf": {
                "id": "QJb8S927Yj81EgHH",
                "img": "systems/pf2ettw/icons/equipment/adventuring-gear/writing-set.webp",
                "isContainer": false,
                "items": {},
                "name": "Writing Set",
                "pack": "pf2ettw.equipment-srd",
                "quantity": 1
            },
            "lfmi2": {
                "id": "fti8z0JYDxH63n0J",
                "img": "systems/pf2ettw/icons/default-icons/mystery-man.svg",
                "isContainer": false,
                "items": {},
                "name": "Ruler",
                "pack": "pf2ettw.equipment-srd",
                "quantity": 1
            },
            "lnvy6": {
                "id": "UhcRWtnjU2WLSClx",
                "img": "systems/pf2ettw/icons/equipment/adventuring-gear/survey-map.webp",
                "isContainer": false,
                "items": {},
                "name": "Survey Map",
                "pack": "pf2ettw.equipment-srd",
                "quantity": 1
            }
        },
        "price": {
            "value": {
                "gp": 42
            }
        },
        "rules": [],
        "source": {
            "value": "Pathfinder Lost Omens: Pathfinder Society Guide"
        },
        "traits": {
            "custom": "",
            "rarity": "uncommon",
            "value": []
        }
    },
    "img": "systems/pf2ettw/icons/equipment/adventuring-gear/cartographers-kit.webp",
    "name": "Cartographer's Kit",
    "type": "kit"
}
