{
    "_id": "EtfVzTsCYULkEzFk",
    "data": {
        "MAP": {
            "value": ""
        },
        "baseItem": "chakram",
        "bonus": {
            "value": 0
        },
        "bonusDamage": {
            "value": 0
        },
        "category": "martial",
        "containerId": "null",
        "damage": {
            "damageType": "slashing",
            "dice": 1,
            "die": "d8",
            "value": ""
        },
        "description": {
            "value": "<p>Simple, elegant, and portable, the chakram is an open-centered metal discus with a sharpened edge, as well as a grip running along the center so the wielder can hold it safely.</p>"
        },
        "equippedBulk": {
            "value": ""
        },
        "group": "knife",
        "hardness": 0,
        "hp": {
            "brokenThreshold": 0,
            "max": 0,
            "value": 0
        },
        "level": {
            "value": 0
        },
        "negateBulk": {
            "value": "0"
        },
        "potencyRune": {
            "value": 0
        },
        "preciousMaterial": {
            "value": null
        },
        "preciousMaterialGrade": {
            "value": null
        },
        "price": {
            "value": {
                "sp": 5
            }
        },
        "property1": {
            "critDamage": "",
            "critDamageType": "",
            "critDice": 0,
            "critDie": "",
            "criticalConditionType": "",
            "criticalConditionValue": null,
            "damageType": "",
            "dice": 0,
            "die": "",
            "strikeConditionType": "",
            "strikeConditionValue": null,
            "value": ""
        },
        "propertyRune1": {
            "value": null
        },
        "propertyRune2": {
            "value": null
        },
        "propertyRune3": {
            "value": null
        },
        "propertyRune4": {
            "value": null
        },
        "quantity": 1,
        "range": null,
        "reload": {
            "value": "-"
        },
        "rules": [],
        "size": "med",
        "source": {
            "value": "Pathfinder Lost Omens: The Grand Bazaar"
        },
        "specific": {
            "value": false
        },
        "splashDamage": {
            "value": 0
        },
        "stackGroup": null,
        "strikingRune": {
            "value": ""
        },
        "traits": {
            "custom": "",
            "rarity": "common",
            "value": [
                "thrown-20"
            ]
        },
        "usage": {
            "value": "held-in-one-hand"
        },
        "weight": {
            "value": "L"
        }
    },
    "img": "systems/pf2ettw/icons/default-icons/weapon.svg",
    "name": "Chakram",
    "type": "weapon"
}
