{
    "_id": "TacKaUs8cIddqiCU",
    "data": {
        "baseItem": null,
        "containerId": null,
        "description": {
            "value": "<p>This platinum choker bears characters from a language's alphabet, and it gives knowledge of that language and the associated culture's customs.</p>\n<p>You gain a +1 item bonus to Society checks and the ability to understand, speak, and write the chosen language.</p>\n<p>Your excellent elocution reduces the DC of the flat check to perform an auditory action while deafened from 5 to 3.</p>\n<p><strong>Craft Requirements</strong> You know the language or languages the choker grants.</p>"
        },
        "equippedBulk": {
            "value": ""
        },
        "hardness": 0,
        "hp": {
            "brokenThreshold": 0,
            "max": 0,
            "value": 0
        },
        "level": {
            "value": 6
        },
        "negateBulk": {
            "value": "0"
        },
        "preciousMaterial": {
            "value": ""
        },
        "preciousMaterialGrade": {
            "value": ""
        },
        "price": {
            "value": {
                "gp": 200
            }
        },
        "quantity": 1,
        "rules": [
            {
                "key": "FlatModifier",
                "selector": "society",
                "type": "item",
                "value": 1
            }
        ],
        "size": "med",
        "source": {
            "value": "Pathfinder Core Rulebook"
        },
        "stackGroup": null,
        "traits": {
            "custom": "",
            "rarity": "common",
            "value": [
                "enchantment",
                "invested",
                "magical"
            ]
        },
        "usage": {
            "value": "worncollar"
        },
        "weight": {
            "value": "L"
        }
    },
    "img": "systems/pf2ettw/icons/equipment/worn-items/other-worn-items/choker-of-elocution.webp",
    "name": "Choker of Elocution",
    "type": "equipment"
}
