{
    "_id": "WnxXVCjZcMHy4eGO",
    "data": {
        "baseItem": null,
        "containerId": "null",
        "description": {
            "value": "<p>This malleable, oil-based clay can be shaped by hand and is available in a variety of colors. A single unit has 4 ounces of clay.</p>"
        },
        "equippedBulk": {
            "value": ""
        },
        "hardness": 0,
        "hp": {
            "brokenThreshold": 0,
            "max": 0,
            "value": 0
        },
        "level": {
            "value": 0
        },
        "negateBulk": {
            "value": "0"
        },
        "preciousMaterial": {
            "value": null
        },
        "preciousMaterialGrade": {
            "value": null
        },
        "price": {
            "value": {
                "cp": 1
            }
        },
        "quantity": 1,
        "rules": [],
        "size": "med",
        "source": {
            "value": "Pathfinder Lost Omens: The Grand Bazaar"
        },
        "stackGroup": null,
        "traits": {
            "custom": "",
            "rarity": "common",
            "value": []
        },
        "usage": {
            "value": "held-in-two-hands"
        },
        "weight": {
            "value": "-"
        }
    },
    "img": "systems/pf2ettw/icons/default-icons/equipment.svg",
    "name": "Clay",
    "type": "equipment"
}
