{
    "_id": "zJKEDSxn2lhPamKS",
    "data": {
        "baseItem": null,
        "containerId": "null",
        "description": {
            "value": "<p>Rotating gears cover the outside of this imposing helmet.</p>\n<p>In order to function, the device must be wound for 10 minutes once every 24 hours. The <em>clockwork helm</em> has a calming and focusing effect on the mind. If you're affected by a detrimental condition caused by a mental or emotion effect, each round at the beginning of your turn, the gears of the helmet unwind and reduce the value of the condition by 1. This effect works only if the condition's value can normally be reduced by simply waiting; otherwise the helmet has no effect.</p>\n<hr />\n<p><strong>Activate</strong><span class=\"pf2-icon\">2</span> envision</p>\n<p><strong>Frequency</strong> once per day</p>\n<p><strong>Requirements</strong> You've wound the clockwork helm for 10 minutes within the last 24 hours</p>\n<hr />\n<p><strong>Effect</strong> You fire a beam of withering heat from the helmet's eye slits at a target. Make a spell or ranged attack roll (your choice) to affect the target. On a hit, the target takes [[/r {10d8}[fire]]]{10d8 fire damage} and is @Compendium[pf2ettw.conditionitems.Drained]{Drained 2}.</p>"
        },
        "equippedBulk": {
            "value": ""
        },
        "hardness": 0,
        "hp": {
            "brokenThreshold": 0,
            "max": 0,
            "value": 0
        },
        "level": {
            "value": 17
        },
        "negateBulk": {
            "value": "0"
        },
        "preciousMaterial": {
            "value": null
        },
        "preciousMaterialGrade": {
            "value": null
        },
        "price": {
            "value": {
                "gp": 13000
            }
        },
        "quantity": 1,
        "rules": [],
        "size": "med",
        "source": {
            "value": "Pathfinder #161: Belly of the Black Whale"
        },
        "stackGroup": null,
        "traits": {
            "custom": "",
            "rarity": "rare",
            "value": [
                "clockwork",
                "invested",
                "magical"
            ]
        },
        "usage": {
            "value": "wornheadwear"
        },
        "weight": {
            "value": "L"
        }
    },
    "img": "systems/pf2ettw/icons/equipment/worn-items/other-worn-items/clockwork-helm.webp",
    "name": "Clockwork Helm",
    "type": "equipment"
}
