{
    "_id": "pkD8SLooxP55tibr",
    "data": {
        "baseItem": null,
        "containerId": "null",
        "description": {
            "value": "<p>This finely crafted, seemingly mundane parchment is useful for writing sensitive documents. When words are written on this parchment, they instantly scramble into unrecognizable script, requiring a DC 20 check to Decipher Writing.</p>\n<hr />\n<p><strong>Activate</strong> <span class=\"pf2-icon\">1</span> command</p>\n<hr />\n<p><strong>Effect</strong> The scrambled words align into the originally written script. Identifying the parchment reveals that it can be activated with a command, but a critical success to Identify Magic is needed to learn the command word.</p>\n<hr />\n<p><strong>Activate</strong> <span class=\"pf2-icon\">1</span> Interact</p>\n<hr />\n<p><strong>Effect</strong> You light the parchment on fire, burning the words off while leaving the parchment unharmed and ready to bear more text.</p>"
        },
        "equippedBulk": {
            "value": ""
        },
        "hardness": 0,
        "hp": {
            "brokenThreshold": 0,
            "max": 0,
            "value": 0
        },
        "level": {
            "value": 3
        },
        "negateBulk": {
            "value": "0"
        },
        "preciousMaterial": {
            "value": null
        },
        "preciousMaterialGrade": {
            "value": null
        },
        "price": {
            "value": {
                "gp": 45
            }
        },
        "quantity": 1,
        "rules": [],
        "size": "med",
        "source": {
            "value": "Pathfinder Secrets of Magic"
        },
        "stackGroup": "",
        "traits": {
            "custom": "",
            "rarity": "common",
            "value": [
                "illusion",
                "magical"
            ]
        },
        "usage": {
            "value": "held-in-two-hands"
        },
        "weight": {
            "value": "L"
        }
    },
    "img": "systems/pf2ettw/icons/equipment/held-items/codebreakers-parchment.webp",
    "name": "Codebreaker's Parchment",
    "type": "equipment"
}
