{
    "_id": "QSeDIyIr2A7PNy6u",
    "data": {
        "baseItem": null,
        "containerId": "null",
        "description": {
            "value": "<p>This thick silver coin is deeply worn on one side, creating a shallow dip.</p>\n<hr />\n<p><strong>Activate</strong> <span class=\"pf2-icon\">1</span> Interact</p>\n<p><strong>Frequency</strong> once per hour</p>\n<hr />\n<p><strong>Effect</strong> You rub your thumb along the grooved side and become filled with a sense of comfort and safety. You reduce your @Compendium[pf2ettw.conditionitems.Frightened]{Frightened} condition by 1.</p>"
        },
        "equippedBulk": {
            "value": ""
        },
        "hardness": 0,
        "hp": {
            "brokenThreshold": 0,
            "max": 0,
            "value": 0
        },
        "level": {
            "value": 3
        },
        "negateBulk": {
            "value": "0"
        },
        "preciousMaterial": {
            "value": null
        },
        "preciousMaterialGrade": {
            "value": null
        },
        "price": {
            "value": {
                "gp": 45
            }
        },
        "quantity": 1,
        "rules": [],
        "size": "med",
        "source": {
            "value": "Pathfinder Lost Omens: The Grand Bazaar"
        },
        "stackGroup": null,
        "traits": {
            "custom": "",
            "rarity": "uncommon",
            "value": [
                "enchantment",
                "magical"
            ]
        },
        "usage": {
            "value": "held-in-one-hand"
        },
        "weight": {
            "value": "-"
        }
    },
    "img": "systems/pf2ettw/icons/default-icons/equipment.svg",
    "name": "Coin of Comfort",
    "type": "equipment"
}
