{
    "_id": "0Ju6ETQiDvz9qpi5",
    "data": {
        "baseItem": null,
        "containerId": "null",
        "description": {
            "value": "<p>Each of these matching necklaces has been constructed using one half of a purple teardrop-shaped gem, split in two. These pendants function only with the other pendant in their pair and must be crafted together. If one pendant becomes broken, the other shatters into non-magical shards. The price listed above is for a pair of pendants.</p>\n<hr />\n<p><strong>Activate</strong> <span class=\"pf2-icon\">1</span> Interact</p>\n<hr />\n<p><strong>Effect</strong> You speak, audibly projecting your voice from the pendant you're wearing to the other. Your voice can be heard by whoever is wearing the other pendant no matter how far away the pendants are from each other, as long as the wearer has invested the other pendant and is on the same plane as you. Continued activation allows you to communicate with the other pendant's wearer whenever and for as long as your desire.</p>"
        },
        "equippedBulk": {
            "value": ""
        },
        "hardness": 0,
        "hp": {
            "brokenThreshold": 0,
            "max": 0,
            "value": 0
        },
        "level": {
            "value": 13
        },
        "negateBulk": {
            "value": "0"
        },
        "preciousMaterial": {
            "value": null
        },
        "preciousMaterialGrade": {
            "value": null
        },
        "price": {
            "value": {
                "gp": 3000
            }
        },
        "quantity": 1,
        "rules": [],
        "size": "med",
        "source": {
            "value": "Pathfinder Special: Fumbus!"
        },
        "stackGroup": null,
        "traits": {
            "custom": "",
            "rarity": "rare",
            "value": [
                "auditory",
                "divination",
                "invested",
                "magical"
            ]
        },
        "usage": {
            "value": "worn"
        },
        "weight": {
            "value": "L"
        }
    },
    "img": "systems/pf2ettw/icons/default-icons/equipment.svg",
    "name": "Communication Pendants",
    "type": "equipment"
}
