{
    "_id": "laU7xnX42wXch2Dv",
    "data": {
        "baseItem": null,
        "containerId": null,
        "description": {
            "value": "<p>This leather sheath is large enough to hold an item of up to light Bulk and is typically used for daggers, wands, thieves' tools, and similar objects.</p>\n<p>You can affix it to the inside of a boot, under a bracer or sleeve, or in other inconspicuous locations to gain a +1 item bonus to Stealth checks and DCs to hide or conceal the item within.</p>"
        },
        "equippedBulk": {
            "value": ""
        },
        "hardness": 0,
        "hp": {
            "brokenThreshold": 0,
            "max": 0,
            "value": 0
        },
        "level": {
            "value": 3
        },
        "negateBulk": {
            "value": "0"
        },
        "preciousMaterial": {
            "value": ""
        },
        "preciousMaterialGrade": {
            "value": ""
        },
        "price": {
            "value": {
                "gp": 25
            }
        },
        "quantity": 1,
        "rules": [
            {
                "key": "FlatModifier",
                "label": "Concealed Sheath (hide or conceal contents)",
                "predicate": {
                    "all": [
                        "action:conceal-an-object",
                        "target:contents"
                    ]
                },
                "selector": "stealth",
                "type": "item",
                "value": 1
            }
        ],
        "size": "med",
        "source": {
            "value": "Pathfinder Advanced Player's Guide"
        },
        "stackGroup": null,
        "traits": {
            "custom": "",
            "rarity": "common",
            "value": []
        },
        "usage": {
            "value": "worn"
        },
        "weight": {
            "value": "-"
        }
    },
    "img": "systems/pf2ettw/icons/equipment/adventuring-gear/concealed-sheath.webp",
    "name": "Concealed Sheath",
    "type": "equipment"
}
