{
    "_id": "yaKQS5aG2i7IioyH",
    "data": {
        "baseItem": null,
        "containerId": null,
        "description": {
            "value": "<p><strong>Ammunition</strong> round</p>\n<p><strong>Activate</strong> <span class=\"pf2-icon\">1</span> Interact</p>\n<hr />\n<p>This bullet is crafted entirely from obsidian and engraved with hair-thin runes. When an activated corpsecaller round hits a target, the struck creature is called to the grave. It takes [[/r {4d10}[negative]]]{4d10 negative damage} with a @Check[type:fortitude|dc:25] saving throw.</p>\n<hr />\n<p><strong>Critical Success</strong> The foe is unaffected.</p>\n<p><strong>Success</strong> The foe takes half damage.</p>\n<p><strong>Failure</strong> The foe takes full damage and is @Compendium[pf2ettw.conditionitems.Doomed]{Doomed 1}. If the foe dies within the next 24 hours, its corpse is tethered to the Negative Energy Plane, making it easier to raise as an undead. Creatures using the create undead ritual on the foe's corpse receive a +2 circumstance bonus to their primary and secondary skill checks for the ritual.</p>\n<p><strong>Critical Failure</strong> As failure, except the foe takes double damage and is @Compendium[pf2ettw.conditionitems.Doomed]{Doomed 2}.</p>"
        },
        "equippedBulk": {
            "value": ""
        },
        "hardness": 0,
        "hp": {
            "brokenThreshold": 0,
            "max": 0,
            "value": 0
        },
        "level": {
            "value": 9
        },
        "negateBulk": {
            "value": "0"
        },
        "preciousMaterial": {
            "value": null
        },
        "preciousMaterialGrade": {
            "value": null
        },
        "price": {
            "value": {
                "gp": 130
            }
        },
        "quantity": 1,
        "rules": [],
        "size": "med",
        "source": {
            "value": "Pathfinder #180: The Smoking Gun"
        },
        "stackGroup": "",
        "traits": {
            "custom": "",
            "rarity": "common",
            "value": []
        },
        "usage": {
            "value": "held-in-one-hand"
        },
        "weight": {
            "value": "-"
        }
    },
    "img": "systems/pf2ettw/icons/equipment/consumables/ammunition/dispersing-bullet.webp",
    "name": "Corpsecaller Round",
    "type": "equipment"
}
