{
    "_id": "kOEZCUTCPCqCFoJf",
    "data": {
        "baseItem": null,
        "containerId": "null",
        "description": {
            "value": "<p>These symbols fortify your body's grasp on your soul, keeping it tethered when death approaches.</p>\n<hr />\n<p><strong>Activate</strong> <span class=\"pf2-icon\">r</span> envision</p>\n<p><strong>Frequency</strong> once per day</p>\n<p><strong>Trigger</strong> You gain the @Compendium[pf2ettw.conditionitems.Doomed]{Doomed} or @Compendium[pf2ettw.conditionitems.Wounded]{Wounded} condition</p>\n<hr />\n<p><strong>Effect</strong> You reduce the value of the triggering condition by 1.</p>"
        },
        "equippedBulk": {
            "value": ""
        },
        "hardness": 0,
        "hp": {
            "brokenThreshold": 0,
            "max": 0,
            "value": 0
        },
        "level": {
            "value": 7
        },
        "negateBulk": {
            "value": "0"
        },
        "preciousMaterial": {
            "value": null
        },
        "preciousMaterialGrade": {
            "value": null
        },
        "price": {
            "value": {
                "gp": 330
            }
        },
        "quantity": 1,
        "rules": [],
        "size": "med",
        "source": {
            "value": "Pathfinder Lost Omens: The Grand Bazaar"
        },
        "stackGroup": "",
        "traits": {
            "custom": "",
            "rarity": "uncommon",
            "value": [
                "healing",
                "magical",
                "necromancy"
            ]
        },
        "usage": {
            "value": "etched-onto-armor"
        },
        "weight": {
            "value": "-"
        }
    },
    "img": "systems/pf2ettw/icons/equipment/runes/armor-property-runes/armor-property-runes.webp",
    "name": "Deathless",
    "type": "equipment"
}
