{
    "_id": "ZROIWl7TLxKbPDLr",
    "data": {
        "activation": {
            "condition": "",
            "cost": 0,
            "type": ""
        },
        "autoDestroy": {
            "_deprecated": true,
            "value": true
        },
        "autoUse": {
            "_deprecated": true,
            "value": true
        },
        "baseItem": null,
        "charges": {
            "_deprecated": true,
            "max": 0,
            "value": 0
        },
        "consumableType": {
            "value": "drug"
        },
        "consume": {
            "_deprecated": true,
            "value": ""
        },
        "containerId": "null",
        "description": {
            "value": "<p><strong>Activate</strong> <span class=\"pf2-icon\">1</span> Interact</p>\n<hr />\n<p>The save for addiction to demon dust is @Check[type:fortitude|dc:24|name:Demon Dust Addiction|traits:virulent|showDC:owner], and the addiction has the virulent trait.</p>\n<p><strong>Saving Throw</strong> @Check[type:fortitude|dc:20|showDC:owner]</p>\n<p><strong>Maximum Duration</strong> 8 hours</p>\n<p><strong>Stage 1</strong> +2 item bonus to Athletics checks and treat up to 4 Bulk as being negligible in weight (1 minute)</p>\n<p><strong>Stage 2</strong> +2 item bonus to Athletics checks, treat up to 4 Bulk as being negligible in weight, and @Compendium[pf2ettw.conditionitems.Stupefied]{Stupefied 1} (1 hour)</p>\n<p><strong>Stage 3</strong> stupefied 1 (1 hour)</p>\n<p><strong>Stage 4</strong> @Compendium[pf2ettw.conditionitems.Stupefied]{Stupefied 2} (1 hour)</p>\n<p><strong>Stage 5</strong> stupefied 2 and all memories made since you were first exposed to this dose of demon dust become hazy and vague (1 hour)</p>\n<p><strong>Stage 6</strong> stupefied 2 and all memories made in the previous 24 hours become hazy and vague (1 hour)</p>"
        },
        "duration": {
            "units": "",
            "value": null
        },
        "equippedBulk": {
            "value": ""
        },
        "hardness": 0,
        "hp": {
            "brokenThreshold": 0,
            "max": 0,
            "value": 0
        },
        "level": {
            "value": 6
        },
        "negateBulk": {
            "value": "0"
        },
        "preciousMaterial": {
            "value": null
        },
        "preciousMaterialGrade": {
            "value": null
        },
        "price": {
            "value": {
                "gp": 45
            }
        },
        "quantity": 1,
        "range": {
            "long": null,
            "units": "",
            "value": null
        },
        "rules": [],
        "size": "med",
        "source": {
            "value": "Pathfinder Lost Omens: Absalom, City of Lost Omens"
        },
        "spell": {
            "data": null,
            "heightenedLevel": null
        },
        "stackGroup": null,
        "target": {
            "type": "",
            "units": "",
            "value": null
        },
        "traits": {
            "custom": "",
            "rarity": "uncommon",
            "value": [
                "alchemical",
                "consumable",
                "drug",
                "inhaled",
                "poison"
            ]
        },
        "usage": {
            "value": "held-in-one-hand"
        },
        "uses": {
            "autoDestroy": true,
            "autoUse": true,
            "max": 0,
            "per": null,
            "value": 0
        },
        "weight": {
            "value": "-"
        }
    },
    "img": "systems/pf2ettw/icons/equipment/alchemical-items/drugs/demon-dust.webp",
    "name": "Demon Dust",
    "type": "consumable"
}
