{
    "_id": "gSSibF07emWGpGKw",
    "data": {
        "baseItem": null,
        "containerId": "null",
        "description": {
            "value": "<p>Eerie symbols cover your armor, inspiring terror in your foes. Frightened enemies within 30 feet that can see you must attempt a @Check[type:will|dc:20|name:Dread Rune|traits:fear|showDC:all] save at the end of their turn; on a failure, the value of their @Compendium[pf2ettw.conditionitems.Frightened]{Frightened} condition doesn't decrease below 1 that turn.</p>"
        },
        "equippedBulk": {
            "value": ""
        },
        "hardness": 0,
        "hp": {
            "brokenThreshold": 0,
            "max": 0,
            "value": 0
        },
        "level": {
            "value": 6
        },
        "negateBulk": {
            "value": "0"
        },
        "preciousMaterial": {
            "value": null
        },
        "preciousMaterialGrade": {
            "value": null
        },
        "price": {
            "value": {
                "gp": 225
            }
        },
        "quantity": 1,
        "rules": [],
        "size": "med",
        "source": {
            "value": "Pathfinder Lost Omens: The Grand Bazaar"
        },
        "stackGroup": "",
        "traits": {
            "custom": "",
            "rarity": "uncommon",
            "value": []
        },
        "usage": {
            "value": "etched-onto-armor"
        },
        "weight": {
            "value": "-"
        }
    },
    "img": "systems/pf2ettw/icons/equipment/runes/armor-property-runes/armor-property-runes.webp",
    "name": "Dread (Lesser)",
    "type": "equipment"
}
