{
    "_id": "9o8DDJMWoaZiC5N2",
    "data": {
        "baseItem": null,
        "containerId": "null",
        "description": {
            "value": "<p>This heavy drum is engraved along the sides with images of centaurs in fierce combat. The drum grants you a +3 item bonus on Performance checks you make using the drum. Additionally, it imparts the rhythms of two songs upon your mind as soon as you touch it. One is a fast marching cadence; the other is a frenetic ritual dance. Each song has a different activation.</p>\n<hr />\n<p><strong>Activate</strong> <span class=\"pf2-icon\">2</span> Interact</p>\n<p><strong>Frequency</strong> once per minute</p>\n<hr />\n<p><strong>Effect</strong> Dozens of spectral centaurs burst from the drum and stampede in a @Template[type:cone|distance:60]. The stampede deals [[/r {7d10}[force]]]{7d10 force damage} (@Check[type:reflex|dc:43|basic:true|name:Spectral Centaur Stampede|traits:uncommon|showDC:all]).</p>\n<hr />\n<p><strong>Activate</strong> <span class=\"pf2-icon\">2</span> Interact</p>\n<p><strong>Frequency</strong> once per day</p>\n<hr />\n<p><strong>Effect</strong> The drum casts a @Check[type:reflex|dc:43|name:Earthquake|traits:uncommon,damaging-effect|showDC:all] <em>@Compendium[pf2ettw.spells-srd.Earthquake]{Earthquake}</em> spell.</p>\n<hr />\n<p><strong>Craft Requirements</strong> You are a centaur.</p>"
        },
        "equippedBulk": {
            "value": ""
        },
        "hardness": 0,
        "hp": {
            "brokenThreshold": 0,
            "max": 0,
            "value": 0
        },
        "level": {
            "value": 20
        },
        "negateBulk": {
            "value": "0"
        },
        "preciousMaterial": {
            "value": null
        },
        "preciousMaterialGrade": {
            "value": null
        },
        "price": {
            "value": {
                "gp": 60000
            }
        },
        "quantity": 1,
        "rules": [
            {
                "key": "FlatModifier",
                "selector": "performance",
                "type": "item",
                "value": 3
            }
        ],
        "size": "med",
        "source": {
            "value": "Pathfinder Lost Omens: The Grand Bazaar"
        },
        "stackGroup": null,
        "traits": {
            "custom": "",
            "rarity": "uncommon",
            "value": [
                "conjuration",
                "earth",
                "magical"
            ]
        },
        "usage": {
            "value": "held-in-two-hands"
        },
        "weight": {
            "value": "1"
        }
    },
    "img": "systems/pf2ettw/icons/default-icons/equipment.svg",
    "name": "Drum of Upheaval",
    "type": "equipment"
}
