{
    "_id": "DA3HgyEBGEbtRNOo",
    "data": {
        "baseItem": null,
        "containerId": null,
        "description": {
            "value": "<p>You can pull a dueling cape you're wearing from your shoulder and wrap it around your arm with an @Compendium[pf2ettw.actionspf2ettw.Interact]{Interact} action.</p>\n<p>While wielding the dueling cape this way, the cape uses that arm and hand, and you can't hold anything else in that hand.</p>\n<p>While you do so, you can spend an action to hold it in a protective position, giving you a +1 circumstance bonus to AC and to Deception checks to @Compendium[pf2ettw.actionspf2ettw.Feint]{Feint} until the start of your next turn.</p>\n<p>@Compendium[pf2ettw.equipment-effects.Effect: Dueling Cape]{Effect: Dueling Cape}</p>"
        },
        "equippedBulk": {
            "value": ""
        },
        "hardness": 0,
        "hp": {
            "brokenThreshold": 0,
            "max": 0,
            "value": 0
        },
        "level": {
            "value": 0
        },
        "negateBulk": {
            "value": "0"
        },
        "preciousMaterial": {
            "value": ""
        },
        "preciousMaterialGrade": {
            "value": ""
        },
        "price": {
            "value": {
                "sp": 5
            }
        },
        "quantity": 1,
        "rules": [],
        "size": "med",
        "source": {
            "value": "Pathfinder Advanced Player's Guide"
        },
        "stackGroup": null,
        "traits": {
            "custom": "",
            "rarity": "common",
            "value": []
        },
        "usage": {
            "value": "worncloak"
        },
        "weight": {
            "value": "L"
        }
    },
    "img": "systems/pf2ettw/icons/equipment/adventuring-gear/dueling-cape.webp",
    "name": "Dueling Cape",
    "type": "equipment"
}
