{
    "_id": "EOk6kNsNJOhoSbRZ",
    "data": {
        "activation": {
            "condition": "",
            "cost": 0,
            "type": ""
        },
        "autoDestroy": {
            "_deprecated": true,
            "value": true
        },
        "autoUse": {
            "_deprecated": true,
            "value": true
        },
        "baseItem": null,
        "charges": {
            "_deprecated": true,
            "max": 0,
            "value": 0
        },
        "consumableType": {
            "value": "potion"
        },
        "consume": {
            "_deprecated": true,
            "value": ""
        },
        "containerId": null,
        "description": {
            "value": "<p>Activate <span class=\"pf2-icon\">1</span> Interact</p>\n<hr />\n<p>This bubbly potion is purportedly made from winds gathered from the Mana Wastes and distilled into a liquor. For 1 hour after you imbibe the decoction, you can belch fizzy foam around willing creatures or unattended objects, surrounding them with a pink bubble. Once per minute, you can belch a bubble by using two Interact actions. This has effects similar to a <em>@Compendium[pf2ettw.spells-srd.Levitate]{Levitate}</em> spell, except you can’t control the bubbles; they rise 10 feet per round on their own. The bubble is sturdy enough to resist minor bumps or heavy winds, but if the item or creature takes any damage, the bubble pops, causing the levitation effect to end. If the creature surrounded by the bubble uses a move action rather than just ride within the bubble, the bubble also pops.</p>"
        },
        "duration": {
            "units": "",
            "value": null
        },
        "equippedBulk": {
            "value": ""
        },
        "hardness": 0,
        "hp": {
            "brokenThreshold": 0,
            "max": 0,
            "value": 0
        },
        "level": {
            "value": 10
        },
        "negateBulk": {
            "value": "0"
        },
        "preciousMaterial": {
            "value": null
        },
        "preciousMaterialGrade": {
            "value": null
        },
        "price": {
            "value": {
                "gp": 160
            }
        },
        "quantity": 1,
        "range": {
            "long": null,
            "units": "",
            "value": null
        },
        "rules": [],
        "size": "med",
        "source": {
            "value": "Pathfinder #180: The Smoking Gun"
        },
        "spell": {
            "data": null,
            "heightenedLevel": null
        },
        "stackGroup": "",
        "target": {
            "type": "",
            "units": "",
            "value": null
        },
        "traits": {
            "custom": "",
            "rarity": "uncommon",
            "value": [
                "air",
                "consumable",
                "evocation",
                "magical",
                "potion"
            ]
        },
        "usage": {
            "value": "held-in-one-hand"
        },
        "uses": {
            "autoDestroy": true,
            "autoUse": true,
            "max": 0,
            "per": null,
            "value": 0
        },
        "weight": {
            "value": "L"
        }
    },
    "img": "systems/pf2ettw/icons/default-icons/consumable.svg",
    "name": "Effervescent Decoction",
    "type": "consumable"
}
