{
    "_id": "ntrmM8yBysmeqt71",
    "data": {
        "activation": {
            "condition": "",
            "cost": 0,
            "type": ""
        },
        "autoDestroy": {
            "_deprecated": true,
            "value": true
        },
        "autoUse": {
            "_deprecated": true,
            "value": true
        },
        "baseItem": null,
        "charges": {
            "_deprecated": true,
            "max": 1,
            "value": 1
        },
        "consumableType": {
            "value": "gadget"
        },
        "consume": {
            "_deprecated": true,
            "value": ""
        },
        "containerId": "null",
        "description": {
            "value": "<p><strong>Activate</strong><span class=\"pf2-icon\">d </span>Interact</p>\n<hr />\n<p>This rare gadget uses Stasian technology to grant someone a burst of activity, though its use can be painful. The electromuscular stimulator must be carefully attached to you, requiring 1 minute to do so. You can attach an electromuscular stimulator to yourself. When you Activate an attached electromuscular stimulator, roll a Crafting check, using the Crafting modifier of the creature who attached the stimulator to you, with a DC equal to the standard DC for your level. The effects of the activation depend on the result of the Crafting check.</p>\n<hr />\n<p><strong>Critical Success</strong> You gain the @Compendium[pf2ettw.conditionitems.Quickened]{Quickened} condition for 1 minute and can use the extra action each round only to Stride or Strike.</p>\n<p><strong>Success</strong> As critical success, but you also take <a class=\"inline-roll roll persistent-link\" title=\"{3}[persistent,electrical]\" draggable=\"true\" data-mode=\"roll\" data-flavor=\"\" data-formula=\"{3}[persistent,electrical]\" data-value=\"3\" data-damage-type=\"bleed\"> Persistent Damage [Electrical 3]</a>.</p>\n<p><strong>Failure</strong> You gain the quickened condition for 2 rounds and can use the extra action each round only to Stride or Strike. You take <a class=\"inline-roll roll persistent-link\" title=\"{3}[persistent,electrical]\" draggable=\"true\" data-mode=\"roll\" data-flavor=\"\" data-formula=\"{3}[persistent,electrical]\" data-value=\"3\" data-damage-type=\"bleed\">Persistent Damage [Electrical 3]</a>.</p>\n<p><strong>Critical Failure</strong> You take [[/r {2d6}[electrical]]]{2d6 electrical damage} and <a class=\"inline-roll roll persistent-link\" title=\"{3}[persistent,electrical]\" draggable=\"true\" data-mode=\"roll\" data-flavor=\"\" data-formula=\"{3}[persistent,electrical]\" data-value=\"3\" data-damage-type=\"bleed\">Persistent Damage [Electrical 3]</a>.</p>"
        },
        "duration": {
            "units": "",
            "value": null
        },
        "equippedBulk": {
            "value": ""
        },
        "hardness": 0,
        "hp": {
            "brokenThreshold": 0,
            "max": 0,
            "value": 0
        },
        "level": {
            "value": 5
        },
        "negateBulk": {
            "value": "0"
        },
        "preciousMaterial": {
            "value": null
        },
        "preciousMaterialGrade": {
            "value": null
        },
        "price": {
            "value": {
                "gp": 30
            }
        },
        "quantity": 1,
        "range": {
            "long": null,
            "units": "",
            "value": null
        },
        "rules": [],
        "size": "sm",
        "source": {
            "value": "Pathfinder Guns & Gears"
        },
        "spell": {
            "data": null,
            "heightenedLevel": null
        },
        "stackGroup": null,
        "target": {
            "type": "",
            "units": "",
            "value": null
        },
        "traits": {
            "custom": "",
            "rarity": "rare",
            "value": [
                "consumable",
                "gadget"
            ]
        },
        "usage": {
            "value": "worn"
        },
        "uses": {
            "autoDestroy": true,
            "autoUse": true,
            "max": 0,
            "per": null,
            "value": 0
        },
        "weight": {
            "value": "1"
        }
    },
    "img": "systems/pf2ettw/icons/default-icons/consumable.svg",
    "name": "Electromuscular Stimulator",
    "type": "consumable"
}
