{
    "_id": "PMmJ47MLUXAWmXFg",
    "data": {
        "baseItem": null,
        "containerId": null,
        "description": {
            "value": "<p>Pathfinder Society researchers recently created elemental wayfinders with the assistance of the Society's elemental allies. In addition to the effects of a @Compendium[pf2ettw.equipment-srd.Wayfinder]{Wayfinder}, these wayfinders each grant the ability to cast a particular elemental spell once per day, and can assist Pathfinders in exploring areas associated with their element. Each has the trait associated with its element.</p>\n<hr />\n<p><strong>Activate</strong> <strong></strong> <span class=\"pf2-icon\">2</span> command</p>\n<p><strong>Frequency</strong> once per day</p>\n<hr />\n<p><strong>Effect</strong> The wayfinder can cast 4th-level <em>@Compendium[pf2ettw.spells-srd.Stoneskin]{Stoneskin}</em>.</p>\n<hr />\n<p>Additionally, you can dig twice as quickly as normal.</p>"
        },
        "equippedBulk": {
            "value": ""
        },
        "hardness": 0,
        "hp": {
            "brokenThreshold": 0,
            "max": 0,
            "value": 0
        },
        "level": {
            "value": 9
        },
        "negateBulk": {
            "value": "0"
        },
        "preciousMaterial": {
            "value": ""
        },
        "preciousMaterialGrade": {
            "value": ""
        },
        "price": {
            "value": {
                "gp": 600
            }
        },
        "quantity": 1,
        "rules": [
            {
                "domain": "skill-check",
                "key": "RollOption",
                "option": "compass-in-possession",
                "requiresEquipped": false
            }
        ],
        "size": "med",
        "source": {
            "value": "Pathfinder Lost Omens: Pathfinder Society Guide"
        },
        "stackGroup": null,
        "traits": {
            "custom": "",
            "rarity": "uncommon",
            "value": [
                "evocation",
                "invested",
                "magical"
            ]
        },
        "usage": {
            "value": "worn"
        },
        "weight": {
            "value": "-"
        }
    },
    "img": "systems/pf2ettw/icons/equipment/worn-items/other-worn-items/elemental-wayfinder-earth.webp",
    "name": "Elemental Wayfinder (Earth)",
    "type": "equipment"
}
