{
    "_id": "vAMgDuD3BphJL8EJ",
    "data": {
        "activation": {
            "condition": "",
            "cost": 0,
            "type": ""
        },
        "autoDestroy": {
            "_deprecated": true,
            "value": true
        },
        "autoUse": {
            "_deprecated": true,
            "value": true
        },
        "baseItem": null,
        "charges": {
            "_deprecated": true,
            "max": 0,
            "value": 0
        },
        "consumableType": {
            "value": "other"
        },
        "consume": {
            "_deprecated": true,
            "value": ""
        },
        "containerId": "null",
        "description": {
            "value": "<p><strong>Activate</strong> <span class=\"pf2-icon\">1</span> Interact</p>\n<p>This handful of gritty black dust glows faintly, like old coals, but is cool to the touch. When ember dust is sprinkled upon the ground or a flat surface in an adjacent unoccupied square, the dust transforms into a bonfire that fills the majority of the square. For 8 hours, the bonfire blazes regardless of whether it has any fuel.</p>\n<p>The fire doesn't harm the surface on which it was sprinkled, and it can't be extinguished except by fully dousing or submerging it in water, or by smothering it completely. Anything that's lit from the bonfire requires fuel to burn and can be quenched normally.</p>\n<p>While it's safe enough to move through the space and edge around the bonfire, a creature remaining in the bonfire for at least a full round takes [[/r {1d6}[fire]]]{1d6 fire damage} each round.</p>\n<p>After 8 hours, the bonfire becomes a normal fire and continues burning only as conditions permit.</p>"
        },
        "duration": {
            "units": "",
            "value": null
        },
        "equippedBulk": {
            "value": ""
        },
        "hardness": 0,
        "hp": {
            "brokenThreshold": 0,
            "max": 0,
            "value": 0
        },
        "level": {
            "value": 2
        },
        "negateBulk": {
            "value": "0"
        },
        "preciousMaterial": {
            "value": null
        },
        "preciousMaterialGrade": {
            "value": null
        },
        "price": {
            "value": {
                "gp": 6
            }
        },
        "quantity": 1,
        "range": {
            "long": null,
            "units": "",
            "value": null
        },
        "rules": [],
        "size": "med",
        "source": {
            "value": "Pathfinder #175: Broken Tusk Moon"
        },
        "spell": {
            "data": null,
            "heightenedLevel": null
        },
        "stackGroup": null,
        "target": {
            "type": "",
            "units": "",
            "value": null
        },
        "traits": {
            "custom": "",
            "rarity": "uncommon",
            "value": [
                "consumable",
                "evocation",
                "fire",
                "magical"
            ]
        },
        "usage": {
            "value": "held-in-one-hand"
        },
        "uses": {
            "autoDestroy": true,
            "autoUse": true,
            "max": 0,
            "per": null,
            "value": 0
        },
        "weight": {
            "value": "-"
        }
    },
    "img": "systems/pf2ettw/icons/default-icons/consumable.svg",
    "name": "Ember Dust",
    "type": "consumable"
}
