{
    "_id": "CA4W0Dt4qeg8MLHA",
    "data": {
        "baseItem": null,
        "containerId": "null",
        "description": {
            "value": "<p>This brightly colored linen robe is covered in delicate embroidery depicting creatures and natural phenomena suiting its aligned energy, such as a living thunderclap, pools of acid, roaring flames, or dancing marids. You gain resistance 5 to electricity.</p>\n<hr />\n<p><strong>Activate</strong> <span class=\"pf2-icon\">2</span> command, Interact</p>\n<p><strong>Frequency</strong> once per day</p>\n<hr />\n<p><strong>Effect</strong> You speak a command word, and the embroidered threads in the robe glow vividly. You gain a fly Speed equal to your Speed for 1 minute.</p>\n<p>@Compendium[pf2ettw.equipment-effects.Effect: Energy Robe of Electricity]{Effect: Energy Robe of Electricity}</p>"
        },
        "equippedBulk": {
            "value": ""
        },
        "hardness": 0,
        "hp": {
            "brokenThreshold": 0,
            "max": 0,
            "value": 0
        },
        "level": {
            "value": 10
        },
        "negateBulk": {
            "value": "0"
        },
        "preciousMaterial": {
            "value": null
        },
        "preciousMaterialGrade": {
            "value": null
        },
        "price": {
            "value": {
                "gp": 900
            }
        },
        "quantity": 1,
        "rules": [
            {
                "key": "Resistance",
                "type": "electricity",
                "value": 5
            }
        ],
        "size": "med",
        "source": {
            "value": "Pathfinder Lost Omens: The Grand Bazaar"
        },
        "stackGroup": null,
        "traits": {
            "custom": "",
            "rarity": "uncommon",
            "value": [
                "invested",
                "magical",
                "transmutation"
            ]
        },
        "usage": {
            "value": "wornclothing"
        },
        "weight": {
            "value": "L"
        }
    },
    "img": "systems/pf2ettw/icons/equipment/worn-items/other-worn-items/energy-robe-of-electricity.webp",
    "name": "Energy Robe of Electricity",
    "type": "equipment"
}
