{
    "_id": "DIQg2Tml1wWjSC1q",
    "data": {
        "activation": {
            "condition": "",
            "cost": 0,
            "type": ""
        },
        "autoDestroy": {
            "_deprecated": true,
            "value": true
        },
        "autoUse": {
            "_deprecated": true,
            "value": true
        },
        "baseItem": null,
        "charges": {
            "_deprecated": true,
            "max": "1",
            "value": "1"
        },
        "consumableType": {
            "value": "snare"
        },
        "consume": {
            "_deprecated": true,
            "value": ""
        },
        "containerId": null,
        "description": {
            "value": "<p>You arrange a spiky cage of bones, particularly tough vegetation, or other material to spring up when disturbed. The snare deals [[/r {9d8}[piercing]]]{9d8 piercing damage} to the first creature to enter this square; that creature must attempt a @Check[type:reflex|dc:31] save.</p>\n<hr />\n<p><strong>Critical Success</strong> The creature is unaffected.</p>\n<p><strong>Success</strong> The creature is knocked aside by the snare's deployment, taking half damage, and is @Compendium[pf2ettw.conditionitems.Flat-Footed]{Flat-Footed} until the end of its next turn.</p>\n<p><strong>Failure</strong> The creature is captured by the cage, taking full damage and falling @Compendium[pf2ettw.conditionitems.Prone]{Prone}. It is @Compendium[pf2ettw.conditionitems.Immobilized]{Immobilized} while it remains within the cage. It can get free by @Compendium[pf2ettw.actionspf2ettw.Escape]{Escaping} (DC 31) or by destroying the cage (Hardness 5, HP 30, object immunities).</p>\n<p><strong>Critical Failure</strong> As failure, but the creature takes double damage.</p>"
        },
        "duration": {
            "units": "",
            "value": null
        },
        "equippedBulk": {
            "value": ""
        },
        "hardness": 0,
        "hp": {
            "brokenThreshold": 0,
            "max": 0,
            "value": 0
        },
        "level": {
            "value": 14
        },
        "negateBulk": {
            "value": "0"
        },
        "preciousMaterial": {
            "value": ""
        },
        "preciousMaterialGrade": {
            "value": ""
        },
        "price": {
            "value": {
                "gp": 900
            }
        },
        "quantity": 1,
        "range": {
            "long": null,
            "units": "",
            "value": null
        },
        "rules": [],
        "size": "med",
        "source": {
            "value": "Pathfinder Advanced Player's Guide"
        },
        "spell": {
            "data": null,
            "heightenedLevel": null
        },
        "stackGroup": null,
        "target": {
            "type": "",
            "units": "",
            "value": null
        },
        "traits": {
            "custom": "",
            "rarity": "common",
            "value": [
                "consumable",
                "mechanical",
                "snare",
                "trap"
            ]
        },
        "usage": {
            "value": "held-in-one-hand"
        },
        "uses": {
            "autoDestroy": true,
            "autoUse": true,
            "max": 0,
            "per": null,
            "value": 0
        },
        "weight": {
            "value": "-"
        }
    },
    "img": "systems/pf2ettw/icons/equipment/snares/engulfing-snare.webp",
    "name": "Engulfing Snare",
    "type": "consumable"
}
