{
    "_id": "WHwprq9Xym2DOr2x",
    "data": {
        "baseItem": null,
        "containerId": "null",
        "description": {
            "value": "<p>An extending rune allows you to extend your weapon to impossible lengths.</p>\n<hr />\n<p><strong>Activate</strong> <span class=\"pf2-icon\">2</span> Interact</p>\n<hr />\n<p><strong>Effect</strong> You extend your weapon for an instant, giving you an impossible reach. You Strike with the weapon, and you have reach 120 feet for the Strike.</p>"
        },
        "equippedBulk": {
            "value": ""
        },
        "hardness": 0,
        "hp": {
            "brokenThreshold": 0,
            "max": 0,
            "value": 0
        },
        "level": {
            "value": 13
        },
        "negateBulk": {
            "value": "0"
        },
        "preciousMaterial": {
            "value": null
        },
        "preciousMaterialGrade": {
            "value": null
        },
        "price": {
            "value": {
                "gp": 3000
            }
        },
        "quantity": 1,
        "rules": [],
        "size": "med",
        "source": {
            "value": "Pathfinder Secrets of Magic"
        },
        "stackGroup": "",
        "traits": {
            "custom": "",
            "rarity": "common",
            "value": [
                "magical",
                "transmutation"
            ]
        },
        "usage": {
            "value": "etched-onto-melee-weapon"
        },
        "weight": {
            "value": "-"
        }
    },
    "img": "systems/pf2ettw/icons/equipment/runes/weapon-property-runes/weapon-property-runes.webp",
    "name": "Extending (Greater)",
    "type": "equipment"
}
