{
    "_id": "qL1S3vGfv8Dh5yAE",
    "data": {
        "baseItem": null,
        "containerId": "null",
        "description": {
            "value": "<p>When etched with this rune, a weapon's hilt or haft becomes engraved with grooves that match the imprints of a wolf's teeth. By putting a <em>fanged</em> weapon in your mouth, you can transform into an animal.</p>\n<hr />\n<p><strong>Activate</strong> <span class=\"pf2-icon\">1</span> Interact (magical, polymorph, transmutation)</p>\n<hr />\n<p><strong>Effect</strong> You transform into a Small or Medium animal that wields the <em>fanged</em> weapon in its jaws; the animal matches the animal you are most closely associated with (a lizardfolk would turn into a lizard, a kitsune into a fox, a deer instinct barbarian into a deer, etc.) or a wolf if no specific animal is applicable. While in this form, you can attack with the <em>fanged</em> weapon even though you don't have any hands. However, you can attack only with the <em>fanged</em> weapon and you don't have hands or the ability to hold items. For effects dependent on how many hands you are using to hold the item, such as the two-hand trait, you are holding the weapon in two hands. You can Dismiss this effect, and it ends automatically if you drop the <em>fanged</em> weapon (whether or not of your own volition).</p>\n<p>In animal form, you gain low-light vision, imprecise scent to a range of 30 feet, and a +10-foot item bonus to your Speed.</p>\n<hr />\n<p>@Compendium[pf2ettw.equipment-effects.Effect: Major Fanged Rune Animal Form]{Effect: Major Fanged Rune Animal Form}</p>"
        },
        "equippedBulk": {
            "value": ""
        },
        "hardness": 0,
        "hp": {
            "brokenThreshold": 0,
            "max": 0,
            "value": 0
        },
        "level": {
            "value": 15
        },
        "negateBulk": {
            "value": "0"
        },
        "preciousMaterial": {
            "value": null
        },
        "preciousMaterialGrade": {
            "value": null
        },
        "price": {
            "value": {
                "gp": 6000
            }
        },
        "quantity": 1,
        "rules": [],
        "size": "med",
        "source": {
            "value": "Pathfinder Lost Omens: The Grand Bazaar"
        },
        "stackGroup": null,
        "traits": {
            "custom": "",
            "rarity": "uncommon",
            "value": [
                "magical",
                "transmutation"
            ]
        },
        "usage": {
            "value": "etched-onto-melee-weapon"
        },
        "weight": {
            "value": "-"
        }
    },
    "img": "systems/pf2ettw/icons/equipment/consumables/other-consumables/runestone.webp",
    "name": "Fanged (Major)",
    "type": "equipment"
}
