{
    "_id": "vQ2XU6y1MBVDtQgr",
    "data": {
        "activation": {
            "condition": "",
            "cost": 0,
            "type": ""
        },
        "autoDestroy": {
            "_deprecated": true,
            "value": true
        },
        "autoUse": {
            "_deprecated": true,
            "value": true
        },
        "baseItem": null,
        "charges": {
            "_deprecated": true,
            "max": 0,
            "value": 0
        },
        "consumableType": {
            "value": "other"
        },
        "consume": {
            "_deprecated": true,
            "value": ""
        },
        "containerId": "null",
        "description": {
            "value": "<p>When activated, the feather transforms into two gallons of fresh, clear water. If no one drinks it, the water evaporates after 1 day.</p>"
        },
        "duration": {
            "units": "",
            "value": null
        },
        "equippedBulk": {
            "value": ""
        },
        "hardness": 0,
        "hp": {
            "brokenThreshold": 0,
            "max": 0,
            "value": 0
        },
        "level": {
            "value": 3
        },
        "negateBulk": {
            "value": "0"
        },
        "preciousMaterial": {
            "value": null
        },
        "preciousMaterialGrade": {
            "value": null
        },
        "price": {
            "value": {
                "gp": 8
            }
        },
        "quantity": 1,
        "range": {
            "long": null,
            "units": "",
            "value": null
        },
        "rules": [],
        "size": "med",
        "source": {
            "value": "Pathfinder Special: Fumbus!"
        },
        "spell": {
            "data": null,
            "heightenedLevel": null
        },
        "stackGroup": "",
        "target": {
            "type": "",
            "units": "",
            "value": null
        },
        "traits": {
            "custom": "",
            "rarity": "common",
            "value": [
                "conjuration",
                "consumable",
                "magical"
            ]
        },
        "usage": {
            "value": "held-in-one-hand"
        },
        "uses": {
            "autoDestroy": true,
            "autoUse": true,
            "max": 0,
            "per": null,
            "value": 0
        },
        "weight": {
            "value": "-"
        }
    },
    "img": "systems/pf2ettw/icons/equipment/consumables/other-consumables/feather-token.webp",
    "name": "Feather Token (Puddle)",
    "type": "consumable"
}
