{
    "_id": "5p4ORuCLOKePxUUR",
    "data": {
        "baseItem": null,
        "containerId": "null",
        "description": {
            "value": "<p>Identical feathers radiate from the center of this spellheart, held in place by woven straw. The spell attack roll of any spell cast by Activating this item is +8, and the spell DC is 18.</p>\n<ul>\n<li><strong>Armor</strong> You gain a +1 item bonus to Acrobatics checks and resistance 2 to falling damage. @Compendium[pf2ettw.equipment-effects.Effect: Five-Feather Wreath]{Effect: Five-Feather Wreath}</li>\n<li><strong>Weapon</strong> After you cast an air spell by Activating the wreath, you can Fly 5 feet as a single action, or you can Fly 10 feet as a free action if the spell you cast wasn't a cantrip. This must be your next action, and if you don't have a fly Speed, you must end the flight on solid ground or fall.</li>\n</ul>\n<p><strong>Activate</strong> Cast a Spell</p>\n<hr />\n<p><strong>Effect</strong> You cast <em>@Compendium[pf2ettw.spells-srd.Gale Blast]{Gale Blast}</em>.</p>"
        },
        "equippedBulk": {
            "value": ""
        },
        "hardness": 0,
        "hp": {
            "brokenThreshold": 0,
            "max": 0,
            "value": 0
        },
        "level": {
            "value": 4
        },
        "negateBulk": {
            "value": "0"
        },
        "preciousMaterial": {
            "value": null
        },
        "preciousMaterialGrade": {
            "value": null
        },
        "price": {
            "value": {
                "gp": 90
            }
        },
        "quantity": 1,
        "rules": [],
        "size": "med",
        "source": {
            "value": "Pathfinder Secrets of Magic"
        },
        "stackGroup": "",
        "traits": {
            "custom": "",
            "rarity": "common",
            "value": [
                "air",
                "magical",
                "spellheart",
                "transmutation"
            ]
        },
        "usage": {
            "value": "held-in-one-hand"
        },
        "weight": {
            "value": "-"
        }
    },
    "img": "systems/pf2ettw/icons/equipment/other/spellhearts/five-feather-wreath.webp",
    "name": "Five-Feather Wreath",
    "type": "equipment"
}
