{
    "_id": "XJZTTkI3ERnu6iFf",
    "data": {
        "baseItem": null,
        "containerId": "null",
        "description": {
            "value": "<p>A sheen of red crosses the surface of this star-shaped goldstone medallion when the light hits it. The affixed armor or weapon is warm to the touch. The spell attack roll of any spell cast by Activating this item is [[/r 1d20+19 #spell attack roll]]{+19}, and the spell DC is 29.</p>\n<ul>\n<li><strong>Armor</strong> You gain resistance 10 to fire.</li>\n<li><strong>Weapon</strong> After you cast a fire spell by Activating the star, your Strikes with the weapon deal an additional 1d8 fire damage until the end of your next turn.</li>\n</ul>\n<hr />\n<p><strong>Activate</strong> Cast a Spell</p>\n<hr />\n<p><strong>Effect</strong> You cast <em>@Compendium[pf2ettw.spells-srd.Produce Flame]{Produce Flame}</em>.</p>\n<hr />\n<p><strong>Activate</strong> Cast a Spell</p>\n<p><strong>Frequency</strong> once per day</p>\n<hr />\n<p><strong>Effect</strong> You cast 4th-level <em>@Compendium[pf2ettw.spells-srd.Fireball]{Fireball}</em>.</p>\n<p>@Check[type:reflex|dc:29|basic:true|name:Flaming Star Spell|traits:spell|showDC:all]</p>\n<hr />\n<p><strong>Activate</strong> Cast a Spell</p>\n<p><strong>Frequency</strong> once per day</p>\n<hr />\n<p><strong>Effect</strong> You cast <em>@Compendium[pf2ettw.spells-srd.Wall of Fire]{Wall of Fire}</em>.</p>"
        },
        "equippedBulk": {
            "value": ""
        },
        "hardness": 0,
        "hp": {
            "brokenThreshold": 0,
            "max": 0,
            "value": 0
        },
        "level": {
            "value": 12
        },
        "negateBulk": {
            "value": "0"
        },
        "preciousMaterial": {
            "value": null
        },
        "preciousMaterialGrade": {
            "value": null
        },
        "price": {
            "value": {
                "gp": 1750
            }
        },
        "quantity": 1,
        "rules": [],
        "size": "med",
        "source": {
            "value": "Pathfinder Secrets of Magic"
        },
        "stackGroup": "",
        "traits": {
            "custom": "",
            "rarity": "common",
            "value": [
                "evocation",
                "fire",
                "magical",
                "spellheart"
            ]
        },
        "usage": {
            "value": "held-in-one-hand"
        },
        "weight": {
            "value": "-"
        }
    },
    "img": "systems/pf2ettw/icons/equipment/other/spellhearts/flaming-star.webp",
    "name": "Flaming Star (Major)",
    "type": "equipment"
}
