{
    "_id": "M5M1WJ5KzbYfRGsY",
    "data": {
        "baseItem": null,
        "containerId": null,
        "description": {
            "value": "<p>This weapon is empowered with freezing ice. It deals an additional 1d6 cold damage on a successful Strike. On a critical hit, the target is also @Compendium[pf2ettw.conditionitems.Slowed]{Slowed 1} until the end of your next turn unless it succeeds at a @Check[type:fortitude|dc:24|name:Frost Rune|showDC:all] save.</p>"
        },
        "equippedBulk": {
            "value": ""
        },
        "hardness": 0,
        "hp": {
            "brokenThreshold": 0,
            "max": 0,
            "value": 0
        },
        "level": {
            "value": 8
        },
        "negateBulk": {
            "value": "0"
        },
        "preciousMaterial": {
            "value": ""
        },
        "preciousMaterialGrade": {
            "value": ""
        },
        "price": {
            "value": {
                "gp": 500
            }
        },
        "quantity": 1,
        "rules": [],
        "size": "med",
        "source": {
            "value": "Pathfinder Core Rulebook"
        },
        "stackGroup": null,
        "traits": {
            "custom": "",
            "rarity": "common",
            "value": [
                "cold",
                "conjuration",
                "magical"
            ]
        },
        "usage": {
            "value": "etched-onto-a-weapon"
        },
        "weight": {
            "value": "-"
        }
    },
    "img": "systems/pf2ettw/icons/equipment/runes/weapon-property-runes/weapon-property-runes.webp",
    "name": "Frost",
    "type": "equipment"
}
