{
    "_id": "Ua9KWFlVjXW8sSXm",
    "data": {
        "baseItem": null,
        "containerId": "null",
        "description": {
            "value": "<p>This stone figurine of a chariot pulled by two horses was used by Tekritanin adults during strategy game competitions. Sometimes, though, mischievous adolescents snatched pieces like this one for joyriding.</p>\n<p><strong>Activate</strong> <span class=\"pf2-icon\">2</span> Interact</p>\n<p><strong>Frequency</strong> once per day</p>\n<hr />\n<p><strong>Effect</strong> You place the figurine on the ground and roll it forward. As the chariot begins to move, it rapidly expands to the size of a Large heavy chariot pulled by two animated stone war horses. You can board the chariot and drive it up to 80 feet in a straight line. You can move through spaces occupied by creatures of size Medium or smaller, dealing [[/r {4d8+10}[bludgeoning]]]{4d8+10 bludgeoning damage} to those creatures. Affected creatures must attempt a @Check[type:reflex|dc:28|basic:true] save; on a failure, a creature is knocked @Compendium[pf2ettw.conditionitems.Prone]{Prone}. The chariot returns to its figurine form once it stops moving.</p>"
        },
        "equippedBulk": {
            "value": ""
        },
        "hardness": 0,
        "hp": {
            "brokenThreshold": 0,
            "max": 0,
            "value": 0
        },
        "level": {
            "value": 11
        },
        "negateBulk": {
            "value": "0"
        },
        "preciousMaterial": {
            "value": null
        },
        "preciousMaterialGrade": {
            "value": null
        },
        "price": {
            "value": {
                "gp": 1200
            }
        },
        "quantity": 1,
        "rules": [],
        "size": "med",
        "source": {
            "value": "Pathfinder Lost Omens: Monsters of Myth"
        },
        "stackGroup": null,
        "traits": {
            "custom": "",
            "rarity": "rare",
            "value": [
                "conjuration",
                "magical"
            ]
        },
        "usage": {
            "value": "held-in-one-hand"
        },
        "weight": {
            "value": "-"
        }
    },
    "img": "systems/pf2ettw/icons/equipment/treasure/art-objects/moderate-art-object/parade-armor-with-flourishes.webp",
    "name": "Gamepiece Chariot",
    "type": "equipment"
}
