{
    "_id": "K7VHhUamFz3kTnm5",
    "data": {
        "baseItem": null,
        "containerId": null,
        "description": {
            "value": "<p>The opaque crystal lenses of these sleek goggles do not obscure vision, but rather enhance it. While wearing the goggles, you gain a +1 item bonus to Perception checks involving sight.</p>\n<p><strong>Activate</strong> <span class=\"pf2-icon\">A</span> Interact</p>\n<p><strong>Frequency</strong> once per day</p>\n<hr />\n<p><strong>Effect</strong> Rotating the lenses 90 degrees, you gain darkvision for 1 hour.</p>"
        },
        "equippedBulk": {
            "value": ""
        },
        "hardness": 0,
        "hp": {
            "brokenThreshold": 0,
            "max": 0,
            "value": 0
        },
        "level": {
            "value": 5
        },
        "negateBulk": {
            "value": "0"
        },
        "preciousMaterial": {
            "value": ""
        },
        "preciousMaterialGrade": {
            "value": ""
        },
        "price": {
            "value": {
                "gp": 150
            }
        },
        "quantity": 1,
        "rules": [
            {
                "key": "FlatModifier",
                "label": "Goggles of Night (sight)",
                "predicate": {
                    "all": [
                        "sight"
                    ]
                },
                "selector": "perception",
                "type": "item",
                "value": 1
            }
        ],
        "size": "med",
        "source": {
            "value": "Pathfinder Core Rulebook"
        },
        "stackGroup": null,
        "traits": {
            "custom": "",
            "rarity": "common",
            "value": [
                "invested",
                "magical",
                "transmutation"
            ]
        },
        "usage": {
            "value": "worneyepiece"
        },
        "weight": {
            "value": "-"
        }
    },
    "img": "systems/pf2ettw/icons/equipment/worn-items/other-worn-items/goggles-of-night.webp",
    "name": "Goggles of Night",
    "type": "equipment"
}
