{
    "_id": "PkrpCUXdV3I1boRQ",
    "data": {
        "activation": {
            "condition": "",
            "cost": 0,
            "type": ""
        },
        "autoDestroy": {
            "_deprecated": true,
            "value": true
        },
        "autoUse": {
            "_deprecated": true,
            "value": true
        },
        "baseItem": null,
        "charges": {
            "_deprecated": true,
            "max": 0,
            "value": 0
        },
        "consumableType": {
            "value": "talisman"
        },
        "consume": {
            "_deprecated": true,
            "value": ""
        },
        "containerId": null,
        "description": {
            "value": "<p><strong>Activate</strong> <span class=\"pf2-icon\">1</span> Interact</p>\n<p><strong>Requirements</strong> You're an expert in Stealth.</p>\n<hr />\n<p>The Golden Gunners are dreaded for their use of their golden silencers, which they put to good use in clandestine raids. They silence both the loud gunshot and the screams of creatures wounded by its shot. A weapon with a golden silencer attached emits no light and makes no noise when fired. A target hit by a ranged Strike from the affixed weapon must succeed at a @Check[type:fortitude|dc:27] save or be silenced as well for 1 minute. A silenced creature can't call for help or use sonic abilities, nor can it use abilities with the auditory trait. This prevents it from casting spells that include verbal components.</p>\n<p>The silenced creature can attempt a new Fortitude save at the end of each of its turns to end the duration early.</p>"
        },
        "duration": {
            "units": "",
            "value": null
        },
        "equippedBulk": {
            "value": ""
        },
        "hardness": 0,
        "hp": {
            "brokenThreshold": 0,
            "max": 0,
            "value": 0
        },
        "level": {
            "value": 10
        },
        "negateBulk": {
            "value": "0"
        },
        "preciousMaterial": {
            "value": null
        },
        "preciousMaterialGrade": {
            "value": null
        },
        "price": {
            "value": {
                "gp": 200
            }
        },
        "quantity": 1,
        "range": {
            "long": null,
            "units": "",
            "value": null
        },
        "rules": [],
        "size": "med",
        "source": {
            "value": "Pathfinder #179: Cradle of Quartz"
        },
        "spell": {
            "data": null,
            "heightenedLevel": null
        },
        "stackGroup": "",
        "target": {
            "type": "",
            "units": "",
            "value": null
        },
        "traits": {
            "custom": "",
            "rarity": "uncommon",
            "value": [
                "consumable",
                "illusion",
                "magical",
                "talisman"
            ]
        },
        "usage": {
            "value": "affixed-to-firearm"
        },
        "uses": {
            "autoDestroy": true,
            "autoUse": true,
            "max": 0,
            "per": null,
            "value": 0
        },
        "weight": {
            "value": "L"
        }
    },
    "img": "systems/pf2ettw/icons/equipment/consumables/other-consumables/golden-silencer.webp",
    "name": "Golden Silencer (Greater)",
    "type": "consumable"
}
