{
    "_id": "CDuN9kzyxBZ4cShq",
    "data": {
        "baseItem": null,
        "containerId": null,
        "description": {
            "value": "<p>These gleaming golden epaulets are issued to Eagle Knight officers and worn as part of the uniform. While they can be enchanted to provide a variety of effects, the Golden Legion epaulet remains the most common.</p>\n<hr />\n<p><strong>Activate</strong> <span class=\"pf2-icon\">A</span> (Command)</p>\n<p><strong>Frequency</strong> once per day</p>\n<hr />\n<p><strong>Effect</strong> Issue an order as part of the command. You and each ally within 60 feet who follows that order gain a +1 status bonus to attack rolls, damage rolls, and saving throws against fear until the beginning of your next turn.</p>\n<p>@Compendium[pf2ettw.equipment-effects.Effect: Golden Legion Epaulet]{Effect: Golden Legion Epaulet}</p>"
        },
        "equippedBulk": {
            "value": ""
        },
        "hardness": 0,
        "hp": {
            "brokenThreshold": 0,
            "max": 0,
            "value": 0
        },
        "level": {
            "value": 3
        },
        "negateBulk": {
            "value": ""
        },
        "preciousMaterial": {
            "value": ""
        },
        "preciousMaterialGrade": {
            "value": ""
        },
        "price": {
            "value": {
                "gp": 55
            }
        },
        "quantity": 1,
        "rules": [],
        "size": "med",
        "source": {
            "value": "Pathfinder Lost Omens: World Guide"
        },
        "stackGroup": null,
        "traits": {
            "custom": "",
            "rarity": "uncommon",
            "value": [
                "enchantment",
                "invested",
                "magical"
            ]
        },
        "usage": {
            "value": "wornepaulet"
        },
        "weight": {
            "value": "L"
        }
    },
    "img": "systems/pf2ettw/icons/equipment/worn-items/other-worn-items/golden-legion-epaulet.webp",
    "name": "Golden Legion Epaulet",
    "type": "equipment"
}
