{
    "_id": "beHqICAYt9ZuyBay",
    "data": {
        "baseItem": null,
        "containerId": "null",
        "description": {
            "value": "<p>One bulb of this tiny hourglass contains black sand, the other white. After even a few grains pass from one side to the other, it reverses its flow to keep the two sides in equilibrium. The spell DC of any spell cast by Activating this item is 29.</p>\n<ul>\n<li>Armor You gain resistance 10 to negative.</li>\n<li>Weapon After you cast a necromancy spell by Activating the sandglass, your Strikes with the weapon deal an additional 1d8 negative damage until the end of your next turn.</li>\n</ul>\n<p><strong>Activate</strong> Cast a Spell</p>\n<hr />\n<p><strong>Effect</strong> You cast <em>@Compendium[pf2ettw.spells-srd.Chill Touch]{Chill Touch}</em>.</p>\n<hr />\n<p><strong>Activate</strong> Cast a Spell</p>\n<p><strong>Frequency</strong> once per day</p>\n<hr />\n<p><strong>Effect</strong> You cast 4th-level <em>@Compendium[pf2ettw.spells-srd.Harm]{Harm}</em> or <em>@Compendium[pf2ettw.spells-srd.Heal]{Heal}</em>.</p>\n<hr />\n<p><strong>Activate</strong> Cast a Spell</p>\n<p><strong>Frequency</strong> once per day</p>\n<hr />\n<p><strong>Effect</strong> You cast <em>@Compendium[pf2ettw.spells-srd.Enervation]{Enervation}</em> or 4th-level <em>@Compendium[pf2ettw.spells-srd.Restoration]{Restoration}</em>.</p>"
        },
        "equippedBulk": {
            "value": ""
        },
        "hardness": 0,
        "hp": {
            "brokenThreshold": 0,
            "max": 0,
            "value": 0
        },
        "level": {
            "value": 12
        },
        "negateBulk": {
            "value": "0"
        },
        "preciousMaterial": {
            "value": null
        },
        "preciousMaterialGrade": {
            "value": null
        },
        "price": {
            "value": {
                "gp": 2000
            }
        },
        "quantity": 1,
        "rules": [],
        "size": "med",
        "source": {
            "value": "Pathfinder Secrets of Magic"
        },
        "stackGroup": "",
        "traits": {
            "custom": "",
            "rarity": "common",
            "value": [
                "magical",
                "necromancy",
                "spellheart"
            ]
        },
        "usage": {
            "value": "held-in-one-hand"
        },
        "weight": {
            "value": "-"
        }
    },
    "img": "systems/pf2ettw/icons/equipment/other/spellhearts/grim-sandglass.webp",
    "name": "Grim Sandglass (Major)",
    "type": "equipment"
}
