{
    "_id": "ssS1yEAZwZun8yFw",
    "data": {
        "MAP": {
            "value": ""
        },
        "baseItem": "hand-cannon",
        "bonus": {
            "value": 0
        },
        "bonusDamage": {
            "value": 0
        },
        "category": "simple",
        "containerId": "null",
        "damage": {
            "damageType": "piercing",
            "dice": 1,
            "die": "d6",
            "value": ""
        },
        "description": {
            "value": "<p>A <em>growth gun</em> is a <em>+1 striking hand cannon</em> made from the regenerative flesh of a hydra, troll, or other similar creature. It has an attached flesh sac that slowly replenishes one shot each round and can be loaded like a normal round of ammunition. It fires regenerating gobbets of flesh, bone, or teeth, determined by the damage type selected for its modular trait. A <em>growth gun</em> can be fired underwater, though it's still limited by the selected damage type as normal.</p>\n<hr />\n<p><strong>Activate</strong> <span class=\"pf2-icon\">2</span> Interact (magical, transmutation)</p>\n<p><strong>Frequency</strong> once per minute</p>\n<hr />\n<p><strong>Effect</strong> Make a ranged Strike. On a hit, the creature becomes covered in a mass of flesh that continues to grow on the target for a brief time. The creature becomes @Compendium[pf2ettw.conditionitems.Slowed]{Slowed 1} for 1 round, after which the growth withers and falls off.</p>\n<hr />\n<p><strong>Craft Requirements</strong> The initial raw materials must include the flesh of a creature with regeneration.</p>"
        },
        "equippedBulk": {
            "value": ""
        },
        "group": "firearm",
        "hardness": 0,
        "hp": {
            "brokenThreshold": 0,
            "max": 0,
            "value": 0
        },
        "level": {
            "value": 9
        },
        "negateBulk": {
            "value": "0"
        },
        "potencyRune": {
            "value": 1
        },
        "preciousMaterial": {
            "value": null
        },
        "preciousMaterialGrade": {
            "value": null
        },
        "price": {
            "value": {
                "gp": 700
            }
        },
        "property1": {
            "critDamage": "",
            "critDamageType": "",
            "critDice": 0,
            "critDie": "",
            "criticalConditionType": "",
            "criticalConditionValue": null,
            "damageType": "",
            "dice": 0,
            "die": "",
            "strikeConditionType": "",
            "strikeConditionValue": null,
            "value": ""
        },
        "propertyRune1": {
            "value": null
        },
        "propertyRune2": {
            "value": null
        },
        "propertyRune3": {
            "value": null
        },
        "propertyRune4": {
            "value": null
        },
        "quantity": 1,
        "range": 30,
        "reload": {
            "value": "1"
        },
        "rules": [],
        "size": "med",
        "source": {
            "value": "Pathfinder Guns & Gears"
        },
        "specific": {
            "material": null,
            "price": "700 gp",
            "runes": {
                "potency": 1,
                "striking": "striking"
            },
            "value": true
        },
        "splashDamage": {
            "value": 0
        },
        "stackGroup": null,
        "strikingRune": {
            "value": "striking"
        },
        "traits": {
            "custom": "",
            "rarity": "uncommon",
            "value": [
                "magical",
                "modular",
                "transmutation"
            ]
        },
        "usage": {
            "value": "held-in-one-hand"
        },
        "weight": {
            "value": "1"
        }
    },
    "img": "systems/pf2ettw/icons/default-icons/weapon.svg",
    "name": "Growth Gun",
    "type": "weapon"
}
