{
    "_id": "KrmSuQIyu6OEi5ew",
    "data": {
        "baseItem": null,
        "containerId": null,
        "description": {
            "value": "<p>This strand of ordinary-looking prayer beads glows with a soft light and becomes warm to the touch the first time you cast a divine spell while holding it. When you do, the prayer beads become attuned to your deity, changing their form and iconography to prominently incorporate your deity's religious symbol and iconography. The beads don't transform or function for an evil spellcaster.</p>\n<p>Whenever you cast a divine spell from your own spell slots while holding the prayer beads, you recover 1 Hit Point; this is a positive healing effect. If the spell you cast was a healing spell, you can grant this additional healing to one of the spell's targets instead of yourself.</p>\n<p><strong>Activate</strong> Cast a Spell</p>\n<hr />\n<p><strong>Effect</strong> Cast <em>@Compendium[pf2ettw.spells-srd.Bless]{Bless}</em> or <em>@Compendium[pf2ettw.spells-srd.Heal]{Heal}</em>, each once per day.</p>\n<hr />\n<p><strong>Craft Requirements</strong> You have a spellcasting class feature with the divine tradition.</p>"
        },
        "equippedBulk": {
            "value": ""
        },
        "hardness": 0,
        "hp": {
            "brokenThreshold": 0,
            "max": 0,
            "value": 0
        },
        "level": {
            "value": 5
        },
        "negateBulk": {
            "value": ""
        },
        "preciousMaterial": {
            "value": ""
        },
        "preciousMaterialGrade": {
            "value": ""
        },
        "price": {
            "value": {
                "gp": 160
            }
        },
        "quantity": 1,
        "rules": [],
        "size": "med",
        "source": {
            "value": "Pathfinder Core Rulebook"
        },
        "stackGroup": null,
        "traits": {
            "custom": "",
            "rarity": "uncommon",
            "value": [
                "divine",
                "healing",
                "necromancy",
                "positive"
            ]
        },
        "usage": {
            "value": "held-in-one-hand"
        },
        "weight": {
            "value": "-"
        }
    },
    "img": "systems/pf2ettw/icons/equipment/held-items/holy-prayer-beads.webp",
    "name": "Holy Prayer Beads",
    "type": "equipment"
}
