{
    "_id": "SemkRkQPVBljg9Id",
    "data": {
        "baseItem": null,
        "containerId": null,
        "description": {
            "value": "<p>You regain triple the normal number of Hit Points when resting (meaning you regain triple your Constitution modifier multiplied by your level). The healing you gain from long-term rest is similarly tripled. Once per day, from any distance, Abrogail Thrune II can recite a voidability clause in your Thrune contract as a 1-minute activity to prevent you from regaining Hit Points from resting for 1 day.</p>\n<p><strong>Activate</strong> <span class=\"pf2-icon\">1</span> Command</p>\n<p><strong>Frequency</strong> once per day</p>\n<hr />\n<p><strong>Effect</strong> You recite a subclause regarding mandatory remediation from your Thrune contract. For 6 rounds, at the start of your turn each round, you recover 25 Hit Points unless you took good damage since the start of your previous turn.</p>"
        },
        "equippedBulk": {
            "value": ""
        },
        "hardness": 0,
        "hp": {
            "brokenThreshold": 0,
            "max": 0,
            "value": 0
        },
        "level": {
            "value": 15
        },
        "negateBulk": {
            "value": "0"
        },
        "preciousMaterial": {
            "value": ""
        },
        "preciousMaterialGrade": {
            "value": ""
        },
        "price": {
            "value": {}
        },
        "quantity": 1,
        "rules": [],
        "size": "med",
        "source": {
            "value": "Pathfinder Lost Omens: Legends"
        },
        "stackGroup": null,
        "traits": {
            "custom": "",
            "rarity": "rare",
            "value": [
                "contract",
                "healing",
                "invested",
                "magical"
            ]
        },
        "usage": {
            "value": "held-in-one-hand"
        },
        "weight": {
            "value": "-"
        }
    },
    "img": "systems/pf2ettw/icons/equipment/contracts/infernal-contracts/infernal-health.webp",
    "name": "Infernal Health",
    "type": "equipment"
}
