{
    "_id": "dYydONniFSGwAdL1",
    "data": {
        "MAP": {
            "value": ""
        },
        "baseItem": "jezail",
        "bonus": {
            "value": 0
        },
        "bonusDamage": {
            "value": 0
        },
        "category": "martial",
        "containerId": "null",
        "damage": {
            "damageType": "piercing",
            "dice": 1,
            "die": "d8",
            "value": ""
        },
        "description": {
            "value": "<p>This <em>+1 striking jezail</em> is built from white hot metal and has a ruby fused into the palm wood stock. When the <em>iris of the sky</em> misfires, you take [[/r {5}[persistent,fire]]]{5} @Compendium[pf2ettw.conditionitems.Persistent Damage]{Persistent Fire Damage}.</p>\n<p>The first firearm of this type came as the result of a gunslinger who entreated an efreeti, wishing for the might of the desert sun. The weapon constantly glows and burns with a brilliant intensity. The firearm has since belonged to an extensive string of users and been replicated several times, though each wielder of the weapon, whether the original or one of its copies, has eventually ended up as a charred husk, slain by fire in battle or unusual accidents that no one could quite explain except, perhaps, the efreet.</p>\n<hr />\n<p><strong>Activate</strong> <span class=\"pf2-icon\">1</span> envision</p>\n<p><strong>Frequency</strong> once per minute</p>\n<hr />\n<p><strong>Effect</strong> You focus the solar energy housed in the ruby to release a gout of solar flame instead of a bullet. Make a Strike with the <em>iris of the sky</em>. All damage from this Strike is fire damage and the target takes an additional [[/r {1d6}[fire]]]{1d6 fire damage} and [[/r {1d6}[persistent,fire]]]{1d6} @Compendium[pf2ettw.conditionitems.Persistent Damage]{Persistent Fire Damage}.</p>\n<hr />\n<p><strong>Activate</strong> <span class=\"pf2-icon\">1</span> command, envision (fortune)</p>\n<p><strong>Frequency</strong> once per minute</p>\n<hr />\n<p><strong>Effect</strong> You make a wish into the <em>iris of the sky</em>, yearning for it to strike true, and then fire. Strike against a foe with the iris, rolling the attack roll twice and taking the better result. If the attack is a failure, you take [[/r {5}[persistent,fire]]]{5} @Compendium[pf2ettw.conditionitems.Persistent Damage]{Persistent Fire Damage}.</p>"
        },
        "equippedBulk": {
            "value": ""
        },
        "group": "firearm",
        "hardness": 0,
        "hp": {
            "brokenThreshold": 0,
            "max": 0,
            "value": 0
        },
        "level": {
            "value": 6
        },
        "negateBulk": {
            "value": "0"
        },
        "potencyRune": {
            "value": 1
        },
        "preciousMaterial": {
            "value": null
        },
        "preciousMaterialGrade": {
            "value": null
        },
        "price": {
            "value": {
                "gp": 240
            }
        },
        "property1": {
            "critDamage": "",
            "critDamageType": "",
            "critDice": 0,
            "critDie": "",
            "criticalConditionType": "",
            "criticalConditionValue": null,
            "damageType": "",
            "dice": 0,
            "die": "",
            "strikeConditionType": "",
            "strikeConditionValue": null,
            "value": ""
        },
        "propertyRune1": {
            "value": null
        },
        "propertyRune2": {
            "value": null
        },
        "propertyRune3": {
            "value": null
        },
        "propertyRune4": {
            "value": null
        },
        "quantity": 1,
        "range": 90,
        "reload": {
            "value": "1"
        },
        "rules": [
            {
                "damageType": "fire",
                "diceNumber": 1,
                "dieSize": "d6",
                "key": "DamageDice",
                "predicate": {
                    "all": [
                        "solarFlame"
                    ]
                },
                "selector": "{item|_id}-damage"
            },
            {
                "domain": "all",
                "key": "RollOption",
                "label": "Firing Solar Flame",
                "option": "solarFlame",
                "toggleable": true
            },
            {
                "key": "DamageDice",
                "override": {
                    "damageType": "fire"
                },
                "predicate": {
                    "all": [
                        "solarFlame"
                    ]
                },
                "selector": "{item|_id}-damage"
            }
        ],
        "size": "med",
        "source": {
            "value": "Pathfinder Guns & Gears"
        },
        "specific": {
            "material": null,
            "price": "240 gp",
            "runes": {
                "potency": 1,
                "striking": "striking"
            },
            "value": true
        },
        "splashDamage": {
            "value": 0
        },
        "stackGroup": null,
        "strikingRune": {
            "value": "striking"
        },
        "traits": {
            "custom": "",
            "rarity": "unique",
            "value": [
                "concussive",
                "fatal-aim-d12"
            ]
        },
        "usage": {
            "value": "held-in-one-hand"
        },
        "weight": {
            "value": "1"
        }
    },
    "img": "systems/pf2ettw/icons/equipment/weapons/jezail.webp",
    "name": "Iris of the Sky",
    "type": "weapon"
}
