{
    "_id": "EmTK4nPOORXtb58X",
    "data": {
        "MAP": {
            "value": ""
        },
        "baseItem": "lance",
        "bonus": {
            "value": 0
        },
        "bonusDamage": {
            "value": 0
        },
        "category": "martial",
        "containerId": null,
        "damage": {
            "damageType": "piercing",
            "dice": 1,
            "die": "d8",
            "value": ""
        },
        "description": {
            "value": "<p>The appearance of this beautifully crafted <em>+2 disrupting greater striking lance</em> changes to match the armor of its wielder. It has a cloth flag attached behind the lance point that displays whatever heraldry the wielder wishes.</p>\n<p>If a cavalier with the @Compendium[pf2ettw.feats-srd.Cavalier's Banner]{Cavalier's Banner} feat takes the <em>knight captain's lance</em>, it instead automatically displays the banner of their pledge.</p>\n<hr />\n<p><strong>Activate</strong> <span class=\"pf2-icon\">R</span> Interact</p>\n<p><strong>Trigger</strong> Your attack roll with the knight captain's lance is a critical success</p>\n<p><strong>Effect</strong> You raise the lance, inspiring those around you. Allies within 30 feet that can see you receive a +1 status bonus to their attack rolls and damage rolls for 1 round.</p>"
        },
        "equippedBulk": {
            "value": ""
        },
        "group": "spear",
        "hardness": 0,
        "hp": {
            "brokenThreshold": 0,
            "max": 0,
            "value": 0
        },
        "level": {
            "value": 13
        },
        "negateBulk": {
            "value": "0"
        },
        "potencyRune": {
            "value": 2
        },
        "preciousMaterial": {
            "value": null
        },
        "preciousMaterialGrade": {
            "value": null
        },
        "price": {
            "value": {
                "gp": 3000
            }
        },
        "property1": {
            "critDamage": "",
            "critDamageType": "",
            "critDice": null,
            "critDie": "",
            "criticalConditionType": "",
            "criticalConditionValue": null,
            "damageType": "",
            "dice": null,
            "die": "",
            "strikeConditionType": "",
            "strikeConditionValue": null,
            "value": ""
        },
        "propertyRune1": {
            "value": "disrupting"
        },
        "propertyRune2": {
            "value": null
        },
        "propertyRune3": {
            "value": null
        },
        "propertyRune4": {
            "value": null
        },
        "quantity": 1,
        "range": null,
        "reload": {
            "value": ""
        },
        "rules": [],
        "size": "med",
        "source": {
            "value": "Pathfinder Core Rulebook"
        },
        "specific": {
            "material": {
                "base": [
                    {
                        "thickness": "thin",
                        "type": "steel"
                    }
                ],
                "precious": null
            },
            "price": {
                "cp": 0,
                "gp": 2150,
                "pp": 0,
                "sp": 0
            },
            "runes": {
                "potency": 2,
                "striking": "greaterStriking"
            },
            "value": true
        },
        "splashDamage": {
            "value": 0
        },
        "stackGroup": null,
        "strikingRune": {
            "value": "greaterStriking"
        },
        "traits": {
            "custom": "",
            "rarity": "uncommon",
            "value": [
                "deadly-d6",
                "divine",
                "enchantment",
                "jousting-d6",
                "reach"
            ]
        },
        "usage": {
            "value": "held-in-two-hands"
        },
        "weight": {
            "value": "2"
        }
    },
    "img": "systems/pf2ettw/icons/equipment/weapons/lance.webp",
    "name": "Knight Captain's Lance",
    "type": "weapon"
}
