{
    "_id": "VcEd9Bh4q5vQfpLv",
    "data": {
        "activation": {
            "condition": "",
            "cost": 0,
            "type": ""
        },
        "autoDestroy": {
            "_deprecated": true,
            "value": true
        },
        "autoUse": {
            "_deprecated": true,
            "value": true
        },
        "baseItem": null,
        "charges": {
            "_deprecated": true,
            "max": 1,
            "value": 1
        },
        "consumableType": {
            "value": "elixir"
        },
        "consume": {
            "_deprecated": true,
            "value": ""
        },
        "containerId": null,
        "description": {
            "value": "<p><strong>Activate</strong> 1 minute (Interact)</p>\n<hr />\n<p>Crimson Reclaimers make this rich, hearty soup using herbs that baffle the senses of the undead. A bowl of Lastwall soup is as nourishing as a full meal. Gravelands Herbalists have spent time with the Knights of Lastwall, and have learned how to improve upon Lastwall soup.</p>\n<p>For 1 hour after consuming a bowl of improved Lastwall soup, you gain a +3 item bonus to Stealth checks and DCs against undead.</p>\n<hr />\n<p>@Compendium[pf2ettw.consumable-effects.Effect: Lastwall Soup (Improved)]{Effect: Lastwall Soup (Improved)}</p>\n<hr />\n<p><em>Note: Paizo did not provide a price for this item, so we set it as appropriate for a level 10 consumable.</em></p>"
        },
        "duration": {
            "units": "",
            "value": null
        },
        "equippedBulk": {
            "value": ""
        },
        "hardness": 0,
        "hp": {
            "brokenThreshold": 0,
            "max": 0,
            "value": 0
        },
        "level": {
            "value": 10
        },
        "negateBulk": {
            "value": "0"
        },
        "preciousMaterial": {
            "value": null
        },
        "preciousMaterialGrade": {
            "value": null
        },
        "price": {
            "value": {
                "gp": 160
            }
        },
        "quantity": 1,
        "range": {
            "long": null,
            "units": "",
            "value": null
        },
        "rules": [],
        "size": "med",
        "source": {
            "value": "Pathfinder Lost Omens: Knights of Lastwall"
        },
        "spell": {
            "data": null,
            "heightenedLevel": null
        },
        "stackGroup": "",
        "target": {
            "type": "",
            "units": "",
            "value": null
        },
        "traits": {
            "custom": "",
            "rarity": "uncommon",
            "value": [
                "alchemical",
                "consumable",
                "elixir"
            ]
        },
        "usage": {
            "value": "held-in-one-hand"
        },
        "uses": {
            "autoDestroy": true,
            "autoUse": true,
            "max": 0,
            "per": null,
            "value": 0
        },
        "weight": {
            "value": "L"
        }
    },
    "img": "systems/pf2ettw/icons/equipment/alchemical-items/alchemical-elixirs/lastwall-soup.webp",
    "name": "Lastwall Soup (Improved)",
    "type": "consumable"
}
