{
    "_id": "nza9skYTNtJe2Wd3",
    "data": {
        "baseItem": null,
        "containerId": "null",
        "description": {
            "value": "<p>Obtained from @Compendium[pf2ettw.feats-srd.Lucky Keepsake]{Lucky Keepsake}</p>"
        },
        "equippedBulk": {
            "value": ""
        },
        "hardness": 0,
        "hp": {
            "brokenThreshold": 0,
            "max": 0,
            "value": 0
        },
        "level": {
            "value": 9
        },
        "negateBulk": {
            "value": "0"
        },
        "preciousMaterial": {
            "value": null
        },
        "preciousMaterialGrade": {
            "value": null
        },
        "price": {
            "value": {}
        },
        "quantity": 1,
        "rules": [
            {
                "key": "FlatModifier",
                "predicate": {
                    "any": [
                        "arcane",
                        "divine",
                        "primal",
                        "occult"
                    ]
                },
                "selector": "saving-throw",
                "type": "circumstance",
                "value": 1
            }
        ],
        "size": "med",
        "source": {
            "value": "Pathfinder Lost Omens: Character Guide"
        },
        "stackGroup": "",
        "traits": {
            "custom": "",
            "rarity": "common",
            "value": [
                "leshy"
            ]
        },
        "usage": {
            "value": "held-in-one-hand"
        },
        "weight": {
            "value": "-"
        }
    },
    "img": "systems/pf2ettw/icons/equipment/consumables/talismans/vanishing-coin.webp",
    "name": "Lucky Keepsake",
    "type": "equipment"
}
