{
    "_id": "I2FmQuFJiJYmsTUd",
    "data": {
        "activation": {
            "condition": "",
            "cost": 0,
            "type": ""
        },
        "autoDestroy": {
            "_deprecated": true,
            "value": true
        },
        "autoUse": {
            "_deprecated": true,
            "value": true
        },
        "baseItem": null,
        "charges": {
            "_deprecated": true,
            "max": 0,
            "value": 0
        },
        "consumableType": {
            "value": "fulu"
        },
        "consume": {
            "_deprecated": true,
            "value": ""
        },
        "containerId": "null",
        "description": {
            "value": "<p><strong>Usage</strong> affixed to a door, window, or container</p>\n<p><strong>Duration</strong> 1 hour</p>\n<hr />\n<p>The symbols on this fulu depict a lock and winding chains. Affixing this fulu over the seam or frame of the target locks it, even if it has no latch or existing lock. As many as nine fulus can be applied to the same target. One fulu equates a @Compendium[pf2ettw.equipment-srd.Lock (Poor)]{Poor Lock} (DC 15), three a @Compendium[pf2ettw.equipment-srd.Lock (Simple)]{Simple Lock} (DC 20), and nine an @Compendium[pf2ettw.equipment-srd.Lock (Average)]{Average Lock} (DC 25).</p>"
        },
        "duration": {
            "units": "",
            "value": null
        },
        "equippedBulk": {
            "value": ""
        },
        "hardness": 0,
        "hp": {
            "brokenThreshold": 0,
            "max": 0,
            "value": 0
        },
        "level": {
            "value": 4
        },
        "negateBulk": {
            "value": "0"
        },
        "preciousMaterial": {
            "value": null
        },
        "preciousMaterialGrade": {
            "value": null
        },
        "price": {
            "value": {
                "gp": 15
            }
        },
        "quantity": 1,
        "range": {
            "long": null,
            "units": "",
            "value": null
        },
        "rules": [],
        "size": "med",
        "source": {
            "value": "Pathfinder Secrets of Magic"
        },
        "spell": {
            "data": null,
            "heightenedLevel": null
        },
        "stackGroup": null,
        "target": {
            "type": "",
            "units": "",
            "value": null
        },
        "traits": {
            "custom": "",
            "rarity": "common",
            "value": [
                "consumable",
                "fulu",
                "magical",
                "transmutation"
            ]
        },
        "usage": {
            "value": "held-in-one-hand"
        },
        "uses": {
            "autoDestroy": true,
            "autoUse": true,
            "max": 0,
            "per": null,
            "value": 0
        },
        "weight": {
            "value": "-"
        }
    },
    "img": "systems/pf2ettw/icons/equipment/consumables/fulus/fulu-modest.webp",
    "name": "Magical Lock Fulu",
    "type": "consumable"
}
