{
    "_id": "wYpWQCD2IYqDtqpc",
    "data": {
        "baseItem": null,
        "containerId": null,
        "description": {
            "value": "<p>This set of healer's tools contains a seemingly endless supply of bandages, herbs, and healing items of impeccable quality, granting you a +3 item bonus to Medicine checks.</p>\n<p><strong>Activate</strong> <span class=\"pf2-icon\">A</span> Treat Poison or 8 hours (Treat Disease)</p>\n<hr />\n<p><strong>Effect</strong> You can activate the tools when you use them to Treat Poison in order to produce the effects of a 6th-level <em>@Compendium[pf2ettw.spells-srd.Neutralize Poison]{Neutralize Poison}</em>, or when you Treat Disease in order to produce the effects of a 6th-level <em>@Compendium[pf2ettw.spells-srd.Remove Disease]{Remove Disease}</em>.</p>\n<p>Once these medicines have been used to treat a patient's poison or disease, they can't be used again to treat the same affliction for that patient.</p>"
        },
        "equippedBulk": {
            "value": ""
        },
        "hardness": 0,
        "hp": {
            "brokenThreshold": 0,
            "max": 0,
            "value": 0
        },
        "level": {
            "value": 18
        },
        "negateBulk": {
            "value": "0"
        },
        "preciousMaterial": {
            "value": ""
        },
        "preciousMaterialGrade": {
            "value": ""
        },
        "price": {
            "value": {
                "gp": 19000
            }
        },
        "quantity": 1,
        "rules": [
            {
                "key": "FlatModifier",
                "selector": "medicine",
                "type": "item",
                "value": 3
            }
        ],
        "size": "med",
        "source": {
            "value": "Pathfinder Core Rulebook"
        },
        "stackGroup": null,
        "traits": {
            "custom": "",
            "rarity": "common",
            "value": [
                "magical",
                "necromancy"
            ]
        },
        "usage": {
            "value": "held-in-two-hands"
        },
        "weight": {
            "value": "1"
        }
    },
    "img": "systems/pf2ettw/icons/equipment/held-items/marvelous-medicines.webp",
    "name": "Marvelous Medicines (Greater)",
    "type": "equipment"
}
