{
    "_id": "b2shhButUcNimET9",
    "data": {
        "baseItem": null,
        "containerId": null,
        "description": {
            "value": "<p>This ice-blue half-mask is adorned with a wicked silver grin that covers the wearer's mouth, leaving the rest of the face uncovered. You gain a +3 item bonus to Intimidation checks.</p>\n<p><strong>Activate</strong> <span class=\"pf2-icon\">2 </span>envision, Interact</p>\n<p><strong>Frequency</strong> once per day</p>\n<hr />\n<p><strong>Effect</strong> The mask emits a soul-chilling scream that deals [[/r 8d10]] negative damage to each living creature in a @Template[type:emanation|distance:40] (@Check[type:fortitude|dc:41|basic:true|name:Greater Mask of the Banshee] save).</p>\n<p><strong>Craft Requirements</strong> Supply a casting of <em>wail of the banshee</em>.</p>"
        },
        "equippedBulk": {
            "value": ""
        },
        "hardness": 0,
        "hp": {
            "brokenThreshold": 0,
            "max": 0,
            "value": 0
        },
        "level": {
            "value": 19
        },
        "negateBulk": {
            "value": "0"
        },
        "preciousMaterial": {
            "value": ""
        },
        "preciousMaterialGrade": {
            "value": ""
        },
        "price": {
            "value": {
                "gp": 35000
            }
        },
        "quantity": 1,
        "rules": [
            {
                "key": "FlatModifier",
                "selector": "intimidation",
                "type": "item",
                "value": 3
            }
        ],
        "size": "med",
        "source": {
            "value": "Pathfinder Advanced Player's Guide"
        },
        "stackGroup": null,
        "traits": {
            "custom": "",
            "rarity": "common",
            "value": [
                "auditory",
                "invested",
                "magical",
                "necromancy",
                "negative"
            ]
        },
        "usage": {
            "value": "wornmask"
        },
        "weight": {
            "value": "-"
        }
    },
    "img": "systems/pf2ettw/icons/equipment/worn-items/other-worn-items/mask-of-the-banshee.webp",
    "name": "Mask of the Banshee (Greater)",
    "type": "equipment"
}
