{
    "_id": "KyIYS1RDED6gL33N",
    "data": {
        "baseItem": null,
        "containerId": "null",
        "description": {
            "value": "<p>A <em>memory palace</em> is an elaborate magical structure that safely stores memories for easy access. It appears to be a miniature Taldan villa small enough to fit in the palm of a human hand.</p>\n<p><strong>Activate</strong> (10 minutes) envision, Interact</p>\n<p><strong>Frequency</strong> once per day</p>\n<hr />\n<p><strong>Effect</strong> The miniature grows into a building connected to the Astral Plane for 1 hour. The memory palace has a 30-foot-square central courtyard surrounded by 12 10‑foot-square chambers. Arranged within these chambers are various items referred to as the palace's nodes-statues, tapestries, fountains, and other works of art are common, but a node can take other forms at the GM's discretion. As a 10‑minute activity, you can imprint one extended memory onto a node: the contents of a specific simple book, for example, or the events of a recent adventure. When you do, the node changes its shape and appearance to visually represent the memory you have imprinted onto it. If the node was already imprinted with a memory, the old one can be overwritten to repurpose the node.</p>\n<p>Memories you have imprinted on a node can be mentally accessed at any time by a creature holding the <em>memory palace</em> in its miniature form, regardless of who imprinted them. This grants a +2 item bonus to Recall Knowledge checks relating to details specifically occurring within the memory. What exactly qualifies is up to the GM's discretion, but a node shouldn't grant the benefits for most uses of a given skill. For example, a node dedicated to a book about trees found in the Mwangi Expanse would help with Recall Knowledge checks for such trees, but it wouldn't grant the benefits for all Nature checks to Recall Knowledge.</p>\n<p>A <em>memory palace</em> node can also store the text from a spellbook or magical tome, but these memories aren't a substitute for having the book in your possession. A wizard can't prepare spells from a <em>memory palace</em>, though they could use it as source material to try to Learn a Spell. However, since storing spells in a node would only benefit someone else who later discovers the memory palace, few choose to take such an action. The memories contained within the nodes aren't real, and thus don't cause harmful effects, even if the source of the memory was a mental danger. Many <em>memory palaces</em> have leftover memories from previous users-now long dead-imprinted on their various nodes.</p>"
        },
        "equippedBulk": {
            "value": ""
        },
        "hardness": 0,
        "hp": {
            "brokenThreshold": 0,
            "max": 0,
            "value": 0
        },
        "level": {
            "value": 14
        },
        "negateBulk": {
            "value": "0"
        },
        "preciousMaterial": {
            "value": null
        },
        "preciousMaterialGrade": {
            "value": null
        },
        "price": {
            "value": {
                "gp": 4200
            }
        },
        "quantity": 1,
        "rules": [],
        "size": "med",
        "source": {
            "value": "Pathfinder Lost Omens: The Grand Bazaar"
        },
        "stackGroup": null,
        "traits": {
            "custom": "",
            "rarity": "uncommon",
            "value": []
        },
        "usage": {
            "value": "held-in-one-hand"
        },
        "weight": {
            "value": "-"
        }
    },
    "img": "systems/pf2ettw/icons/default-icons/equipment.svg",
    "name": "Memory Palace",
    "type": "equipment"
}
