{
    "_id": "b9YHyjOL4sg7tjI4",
    "data": {
        "baseItem": null,
        "containerId": null,
        "description": {
            "value": "<p>This silver signet ring changes to match the insignia of a lord or organization you serve (or your own face, if you serve no one else). It grants you a +3 item bonus to Diplomacy checks and lets you cast <em>@Compendium[pf2ettw.spells-srd.Message]{Message}</em> as an arcane innate spell at will.</p>\n<hr />\n<p><strong>Activate</strong> 1 minute (envision)</p>\n<p><strong>Frequency</strong> once per day</p>\n<hr />\n<p><strong>Effect</strong> The ring casts <em>@Compendium[pf2ettw.spells-srd.Animal Messenger]{Animal Messenger}</em> to your specification. The animal is a magical creature that springs from the ring, and its appearance suits the iconography or heraldry of the lord or organization represented by the ring.</p>\n<hr />\n<p><strong>Activate</strong> <span class=\"pf2-icon\">T</span> command</p>\n<p><strong>Frequency</strong> once per hour</p>\n<hr />\n<p><strong>Effect</strong> The ring casts <em>@Compendium[pf2ettw.spells-srd.Sending]{Sending}</em> to your specifications.</p>"
        },
        "equippedBulk": {
            "value": ""
        },
        "hardness": 0,
        "hp": {
            "brokenThreshold": 0,
            "max": 0,
            "value": 0
        },
        "level": {
            "value": 17
        },
        "negateBulk": {
            "value": "0"
        },
        "preciousMaterial": {
            "value": ""
        },
        "preciousMaterialGrade": {
            "value": ""
        },
        "price": {
            "value": {
                "gp": 13500
            }
        },
        "quantity": 1,
        "rules": [
            {
                "key": "FlatModifier",
                "selector": "diplomacy",
                "type": "item",
                "value": 3
            }
        ],
        "size": "med",
        "source": {
            "value": "Pathfinder Core Rulebook"
        },
        "stackGroup": null,
        "traits": {
            "custom": "",
            "rarity": "common",
            "value": [
                "enchantment",
                "invested",
                "magical"
            ]
        },
        "usage": {
            "value": "worn"
        },
        "weight": {
            "value": "-"
        }
    },
    "img": "systems/pf2ettw/icons/equipment/worn-items/other-worn-items/messengers-ring.webp",
    "name": "Messenger's Ring (Greater)",
    "type": "equipment"
}
