{
    "_id": "Gzz2F90inajTPvcX",
    "data": {
        "baseItem": null,
        "containerId": "null",
        "description": {
            "value": "<p>This jeweled mirror grants you gain greater control over your dreaming self. While invested, you can watch over your sleeping body from the Dreamlands, letting you see your own body and a @Template[type:emanation|distance:5] around you, though you can't hear, smell, or use other senses from your dreaming self. You do not take the -4 status penalty to visual Perception checks in that area or gain the @Compendium[pf2ettw.conditionitems.Blinded]{Blinded} condition from being @Compendium[pf2ettw.conditionitems.Unconscious]{Unconscious} against creatures in that area. As long as you fell asleep voluntarily and not from a sleep effect, you can automatically wake up from sleep if there is visible activity around you.</p>"
        },
        "equippedBulk": {
            "value": ""
        },
        "hardness": 0,
        "hp": {
            "brokenThreshold": 0,
            "max": 0,
            "value": 0
        },
        "level": {
            "value": 7
        },
        "negateBulk": {
            "value": "0"
        },
        "preciousMaterial": {
            "value": null
        },
        "preciousMaterialGrade": {
            "value": null
        },
        "price": {
            "value": {
                "gp": 300
            }
        },
        "quantity": 1,
        "rules": [],
        "size": "med",
        "source": {
            "value": "Pathfinder Lost Omens: The Grand Bazaar"
        },
        "stackGroup": null,
        "traits": {
            "custom": "",
            "rarity": "uncommon",
            "value": [
                "illusion",
                "invested",
                "magical",
                "sleep"
            ]
        },
        "usage": {
            "value": "worn"
        },
        "weight": {
            "value": "L"
        }
    },
    "img": "systems/pf2ettw/icons/default-icons/equipment.svg",
    "name": "Mirror of Sleeping Vigil",
    "type": "equipment"
}
