{
    "_id": "NBmOTmE2GAEI766h",
    "data": {
        "baseItem": null,
        "bulkCapacity": {
            "value": "1"
        },
        "collapsed": false,
        "containerId": "null",
        "description": {
            "value": "<p>This brown leather satchel is made from a heavily oiled and rustic leather. The satchel is large enough to hold up to 1 Bulk worth of items.</p>\n<hr />\n<p><strong>Activate</strong> 1 minute (envision, Interact)</p>\n<hr />\n<p><strong>Effect</strong> Documents inside the haversack become magically disguised as documents of a similar type but with misleading information. Anyone inspecting a document notices the disguise with a successful @Check[type:perception|dc:20|name:Determine Documents are Misleading|showDC:all] check, but determining the actual text requires a successful @Check[type:society|dc:20|name:Decipher Writing|traits:action:decipher-writing|showDC:all] check to Decipher Writing. This lasts until you use this activation again, which ends the effect for all previously disguised documents; until you use the second activation to end the effect for a single document; or until a document in the haversack remains outside the haversack for at least 1 hour, ending the effect for that document.</p>\n<hr />\n<p><strong>Activate</strong> <span class=\"pf2-icon\">1</span> command</p>\n<hr />\n<p><strong>Effect</strong> You revert one of the documents back to its original state.</p>"
        },
        "equippedBulk": {
            "value": ""
        },
        "hardness": 0,
        "hp": {
            "brokenThreshold": 0,
            "max": 0,
            "value": 0
        },
        "level": {
            "value": 6
        },
        "negateBulk": {
            "value": "0"
        },
        "preciousMaterial": {
            "value": null
        },
        "preciousMaterialGrade": {
            "value": null
        },
        "price": {
            "value": {
                "gp": 200
            }
        },
        "quantity": 1,
        "rules": [],
        "size": "med",
        "source": {
            "value": "Pathfinder Lost Omens: The Grand Bazaar"
        },
        "stackGroup": null,
        "stowing": false,
        "traits": {
            "custom": "",
            "rarity": "uncommon",
            "value": [
                "illusion",
                "magical"
            ]
        },
        "usage": {
            "value": "worn"
        },
        "weight": {
            "value": "L"
        }
    },
    "img": "systems/pf2ettw/icons/default-icons/backpack.svg",
    "name": "Misdirecting Haversack",
    "type": "backpack"
}
