{
    "_id": "YGaO4HyH6jn3P731",
    "data": {
        "activation": {
            "condition": "",
            "cost": 0,
            "type": ""
        },
        "autoDestroy": {
            "_deprecated": true,
            "value": true
        },
        "autoUse": {
            "_deprecated": true,
            "value": true
        },
        "baseItem": null,
        "charges": {
            "_deprecated": true,
            "max": 1,
            "value": 1
        },
        "consumableType": {
            "value": "talisman"
        },
        "consume": {
            "_deprecated": true,
            "value": ""
        },
        "containerId": null,
        "description": {
            "value": "<p><strong>Usage</strong> affixed to a weapon</p>\n<p><strong>Activate</strong> <span class=\"pf2-icon\">F</span> Command</p>\n<p><strong>Trigger</strong> You damage a flat-footed creature with a Strike using the Affixed weapon</p>\n<p><strong>Requirements</strong> You are an expert with the affixed weapon</p>\n<p>This black strand of leather is tied to look like a peace knot when the weapon is stowed, but it doesn't hamper drawing the weapon. When you activate the knot, the creature you damaged takes @Localize[pf2ettw.PersistentDamage.Bleed1d6.success].</p>\n<p>If you have the @Compendium[pf2ettw.feats-srd.Twist the Knife]{Twist the Knife} feat, the talisman instead deals persistent bleed damage equal to your sneak attack damage.</p>"
        },
        "duration": {
            "units": "",
            "value": null
        },
        "equippedBulk": {
            "value": ""
        },
        "hardness": 0,
        "hp": {
            "brokenThreshold": 0,
            "max": 0,
            "value": 0
        },
        "level": {
            "value": 7
        },
        "negateBulk": {
            "value": "0"
        },
        "preciousMaterial": {
            "value": ""
        },
        "preciousMaterialGrade": {
            "value": ""
        },
        "price": {
            "value": {
                "gp": 66
            }
        },
        "quantity": 1,
        "range": {
            "long": null,
            "units": "",
            "value": null
        },
        "rules": [],
        "size": "med",
        "source": {
            "value": "Pathfinder Core Rulebook"
        },
        "spell": {
            "data": null,
            "heightenedLevel": null
        },
        "stackGroup": null,
        "target": {
            "type": "",
            "units": "",
            "value": null
        },
        "traits": {
            "custom": "",
            "rarity": "common",
            "value": [
                "consumable",
                "evocation",
                "magical",
                "talisman"
            ]
        },
        "usage": {
            "value": "affixed-to-weapon"
        },
        "uses": {
            "autoDestroy": true,
            "autoUse": true,
            "max": 0,
            "per": null,
            "value": 0
        },
        "weight": {
            "value": "-"
        }
    },
    "img": "systems/pf2ettw/icons/equipment/consumables/talismans/murderers-knot.webp",
    "name": "Murderer's Knot",
    "type": "consumable"
}
