{
    "_id": "dRi775Uhzqgn7aBs",
    "data": {
        "activation": {
            "condition": "",
            "cost": 0,
            "type": ""
        },
        "autoDestroy": {
            "_deprecated": true,
            "value": true
        },
        "autoUse": {
            "_deprecated": true,
            "value": true
        },
        "baseItem": null,
        "charges": {
            "_deprecated": true,
            "max": 1,
            "value": 1
        },
        "consumableType": {
            "value": "poison"
        },
        "consume": {
            "_deprecated": true,
            "value": ""
        },
        "containerId": null,
        "description": {
            "value": "<p>This potent poison consists of crystals whose flavor and appearance mimics edible salt but whose effects are deadly: victims experience periods of waking nightmares that overload the senses and eventually result in death through a combination of shock and exhaustion.</p>\n<hr />\n<p><strong>Activate</strong> <span class=\"pf2-icon\">T</span> Interact (Ingested)</p>\n<p><strong>Saving Throw</strong> @Check[type:fortitude|dc:43]</p>\n<p><strong>Onset</strong> 1 hour</p>\n<p><strong>Maximum Duration</strong> 5 days</p>\n<p><strong>Stage 1</strong> @Compendium[pf2ettw.conditionitems.Frightened]{Frightened 2} once every [[/r 1d4]] hours, plus @Compendium[pf2ettw.conditionitems.Fatigued]{Fatigued} (1 day)</p>\n<p><strong>Stage 2</strong> @Compendium[pf2ettw.conditionitems.Confused]{Confused} for 1 minute once every [[/r 1d4]] hours, plus frightened 3 and fatigued (1 day)</p>\n<p><strong>Stage 3</strong> frightened 3, plus confused for [[/r 1d4]] minutes, once every hour, plus fatigued (1 day)</p>\n<p><strong>Stage 4</strong> death</p>"
        },
        "duration": {
            "units": "",
            "value": null
        },
        "equippedBulk": {
            "value": ""
        },
        "hardness": 0,
        "hp": {
            "brokenThreshold": 0,
            "max": 0,
            "value": 0
        },
        "level": {
            "value": 20
        },
        "negateBulk": {
            "value": "0"
        },
        "preciousMaterial": {
            "value": ""
        },
        "preciousMaterialGrade": {
            "value": ""
        },
        "price": {
            "value": {
                "gp": 14000
            }
        },
        "quantity": 1,
        "range": {
            "long": null,
            "units": "",
            "value": null
        },
        "rules": [],
        "size": "med",
        "source": {
            "value": "Pathfinder #149: Against the Scarlet Triad"
        },
        "spell": {
            "data": null,
            "heightenedLevel": null
        },
        "stackGroup": null,
        "target": {
            "type": "",
            "units": "",
            "value": null
        },
        "traits": {
            "custom": "",
            "rarity": "rare",
            "value": [
                "alchemical",
                "consumable",
                "ingested",
                "poison"
            ]
        },
        "usage": {
            "value": "held-in-one-hand"
        },
        "uses": {
            "autoDestroy": true,
            "autoUse": true,
            "max": 0,
            "per": null,
            "value": 0
        },
        "weight": {
            "value": "L"
        }
    },
    "img": "systems/pf2ettw/icons/equipment/alchemical-items/alchemical-poisons/nightmare-salt.webp",
    "name": "Nightmare Salt",
    "type": "consumable"
}
