{
    "_id": "VFkMAtJvtWclDNx3",
    "data": {
        "armor": {
            "value": 2
        },
        "baseItem": null,
        "category": "shield",
        "check": {
            "value": 0
        },
        "containerId": "null",
        "description": {
            "value": "<p>Noqual shields are notoriously difficult to make, requiring high‑grade materials, but they're especially effective against magic. When you have a noqual shield Raised, you gain its circumstance bonus to saving throws against spells that target you (as well as AC).</p>\n<p>Additionally, while the shield is Raised, when an opponent casting a spell that targets you critically fails a spell attack roll against your AC, you can reflect the spell back toward them as a reaction. Attempt a ranged attack roll against the triggering creature using your highest proficiency with a ranged weapon. If you succeed, your opponent takes the effects of a successful spell attack roll for their own spell (or the effects of a critical success if your attack roll was a critical success).</p>\n<p><strong>Craft Requirements</strong> noqual worth at least 7,700 gp</p>"
        },
        "dex": {
            "value": 0
        },
        "equippedBulk": {
            "value": ""
        },
        "group": null,
        "hardness": 10,
        "hp": {
            "brokenThreshold": 20,
            "max": 0,
            "value": 40
        },
        "level": {
            "value": 17
        },
        "negateBulk": {
            "value": "0"
        },
        "potencyRune": {
            "value": 0
        },
        "preciousMaterial": {
            "value": null
        },
        "preciousMaterialGrade": {
            "value": null
        },
        "price": {
            "value": {
                "gp": 15400
            }
        },
        "propertyRune1": {
            "value": ""
        },
        "propertyRune2": {
            "value": ""
        },
        "propertyRune3": {
            "value": ""
        },
        "propertyRune4": {
            "value": ""
        },
        "quantity": 1,
        "resiliencyRune": {
            "value": ""
        },
        "rules": [
            {
                "key": "FlatModifier",
                "predicate": {
                    "all": [
                        "self:shield:raised",
                        "spell"
                    ]
                },
                "selector": "saving-throw",
                "type": "circumstance",
                "value": 2
            }
        ],
        "size": "med",
        "source": {
            "value": "Pathfinder Lost Omens: The Grand Bazaar"
        },
        "speed": {
            "value": 0
        },
        "stackGroup": null,
        "strength": {
            "value": 0
        },
        "traits": {
            "custom": "",
            "rarity": "rare",
            "value": [
                "shove"
            ]
        },
        "usage": {
            "value": "held-in-one-hand"
        },
        "weight": {
            "value": "1"
        }
    },
    "img": "systems/pf2ettw/icons/default-icons/armor.svg",
    "name": "Noqual Shield (High Grade)",
    "type": "armor"
}
