{
    "_id": "hHOi8jV85CN8WRJT",
    "data": {
        "baseItem": null,
        "containerId": null,
        "description": {
            "value": "<p>Parade armor is an armor adjustment that creates a set of pseudo-decorative armor to wear during noncombat functions. Any medium or heavy armor can be fashioned into parade armor, which features custom designs based on the wearer's affiliation, military branch, or rank. A particular faction typically has one uniform appearance for its set of parade armor. While wearing this armor, you gain a +1 item bonus to Diplomacy and Intimidation checks against creatures of the same affiliation as your parade armor, though the bonus to Intimidation doesn't apply when interacting with creatures of higher rank than you. The armor is slightly bulkier, increasing the Bulk by 1.</p>"
        },
        "equippedBulk": {
            "value": ""
        },
        "hardness": 0,
        "hp": {
            "brokenThreshold": 0,
            "max": 0,
            "value": 0
        },
        "level": {
            "value": 2
        },
        "negateBulk": {
            "value": "0"
        },
        "preciousMaterial": {
            "value": null
        },
        "preciousMaterialGrade": {
            "value": null
        },
        "price": {
            "value": {
                "gp": 10
            }
        },
        "quantity": 1,
        "rules": [
            {
                "key": "FlatModifier",
                "label": "Against a Creature of the Same Affiliation",
                "predicate": {
                    "all": [
                        "same-affiliation"
                    ]
                },
                "selector": "diplomacy",
                "type": "item",
                "value": 1
            },
            {
                "key": "FlatModifier",
                "label": "Against a Creature of the Same Affiliation",
                "predicate": {
                    "all": [
                        "same-affiliation"
                    ]
                },
                "selector": "intimidation",
                "type": "item",
                "value": 1
            }
        ],
        "size": "med",
        "source": {
            "value": "Pathfinder Lost Omens: Knights of Lastwall"
        },
        "stackGroup": "",
        "traits": {
            "custom": "",
            "rarity": "uncommon",
            "value": [
                "adjustment"
            ]
        },
        "usage": {
            "value": "affixed-to-medium-heavy-armor"
        },
        "weight": {
            "value": "-"
        }
    },
    "img": "systems/pf2ettw/icons/equipment/other/attached-items/parade-armor.webp",
    "name": "Parade Armor",
    "type": "equipment"
}
