{
    "_id": "b4hSaH0ITd5fbR08",
    "data": {
        "baseItem": null,
        "containerId": null,
        "description": {
            "value": "<p>Peachwood, often cultivated by Pharasmin priests, can ward against undead—even incorporeal ones. However, the wood loses its magical properties when it comes in contact with metal, requiring advanced carpentry to make full use of it.</p>\n<hr />\n<h2>Peachwood Items</h2>\n<table class=\"pf2-table\">\n<thead>\n<tr>\n<th>Peachwood Items</th>\n<th>Hardness</th>\n<th>HP</th>\n<th>BT</th>\n</tr>\n</thead>\n<tbody>\n<tr>\n<td><strong>Thin Items</strong></td>\n<td> </td>\n<td> </td>\n<td> </td>\n</tr>\n<tr>\n<td>Standard-grade</td>\n<td>4</td>\n<td>16</td>\n<td>8</td>\n</tr>\n<tr>\n<td>High-grade</td>\n<td>6</td>\n<td>24</td>\n<td>12</td>\n</tr>\n<tr>\n<td><strong>Items</strong></td>\n<td> </td>\n<td> </td>\n<td> </td>\n</tr>\n<tr>\n<td>Standard-grade</td>\n<td>5</td>\n<td>20</td>\n<td>10</td>\n</tr>\n<tr>\n<td>High-grade</td>\n<td>8</td>\n<td>32</td>\n<td>16</td>\n</tr>\n<tr>\n<td><strong>Structure</strong></td>\n<td> </td>\n<td> </td>\n<td> </td>\n</tr>\n<tr>\n<td>Standard-grade</td>\n<td>12</td>\n<td>48</td>\n<td>24</td>\n</tr>\n<tr>\n<td>High-grade</td>\n<td>18</td>\n<td>64</td>\n<td>32</td>\n</tr>\n</tbody>\n</table>"
        },
        "equippedBulk": {
            "value": ""
        },
        "hardness": 0,
        "hp": {
            "brokenThreshold": 0,
            "max": 0,
            "value": 0
        },
        "level": {
            "value": 0
        },
        "negateBulk": {
            "value": "0"
        },
        "preciousMaterial": {
            "value": null
        },
        "preciousMaterialGrade": {
            "value": null
        },
        "price": {
            "value": {
                "gp": 6000
            }
        },
        "quantity": 1,
        "rules": [],
        "size": "med",
        "source": {
            "value": "Pathfinder Book of the Dead"
        },
        "stackGroup": "",
        "traits": {
            "custom": "",
            "rarity": "uncommon",
            "value": [
                "precious"
            ]
        },
        "usage": {
            "value": "held-in-one-hand"
        },
        "weight": {
            "value": "1"
        }
    },
    "img": "systems/pf2ettw/icons/equipment/materials/darkwood-lumber.webp",
    "name": "Peachwood Lumber",
    "type": "equipment"
}
