{
    "_id": "gp5kgCySEOuntQPF",
    "data": {
        "armor": {
            "value": 6
        },
        "baseItem": "full-plate",
        "category": "heavy",
        "check": {
            "value": -3
        },
        "containerId": null,
        "description": {
            "value": "<p>This suit of +2 greater resilient full plate is decorated with swirling, ornate motifs of waves and fish scales.</p>\n<p>While wearing it, you take no Speed reduction or check penalty from armor when Swimming, gain a +2 item bonus to Athletics checks to Swim, can breathe underwater, and can speak Aquan.</p>"
        },
        "dex": {
            "value": 0
        },
        "equippedBulk": {
            "value": "4"
        },
        "group": "plate",
        "hardness": 0,
        "hp": {
            "brokenThreshold": 0,
            "max": 0,
            "value": 0
        },
        "level": {
            "value": 15
        },
        "negateBulk": {
            "value": "0"
        },
        "potency": {},
        "potencyRune": {
            "value": 2
        },
        "preciousMaterial": {
            "value": ""
        },
        "preciousMaterialGrade": {
            "value": ""
        },
        "price": {
            "value": {
                "gp": 6500
            }
        },
        "propertyRune1": {
            "value": ""
        },
        "propertyRune2": {
            "value": ""
        },
        "propertyRune3": {
            "value": ""
        },
        "propertyRune4": {
            "value": ""
        },
        "quantity": 1,
        "resiliencyRune": {
            "value": "greaterResilient"
        },
        "rules": [
            {
                "key": "FlatModifier",
                "label": "Plate Armor of the Deep (Swim)",
                "predicate": {
                    "all": [
                        "action:swim"
                    ]
                },
                "selector": "athletics",
                "type": "item",
                "value": 2
            }
        ],
        "size": "med",
        "source": {
            "value": "Pathfinder Core Rulebook"
        },
        "speed": {
            "value": -10
        },
        "stackGroup": null,
        "strength": {
            "value": 18
        },
        "traits": {
            "custom": "",
            "rarity": "uncommon",
            "value": [
                "abjuration",
                "bulwark",
                "invested",
                "magical"
            ]
        },
        "usage": {
            "value": "wornarmor"
        },
        "weight": {
            "value": "5"
        }
    },
    "img": "systems/pf2ettw/icons/equipment/armor/specific-magic-armor/plate-armor-of-the-deep.webp",
    "name": "Plate Armor of the Deep",
    "type": "armor"
}
