{
    "_id": "RKPAHGFV3mq3a3dt",
    "data": {
        "baseItem": null,
        "containerId": "null",
        "description": {
            "value": "<p>Powerful firearms like the arquebus were originally used to defend fortifications or ships, mounted on casements or pintles to steady their aim and offset their recoil. More mobile means of stabilizing weapons with kickback were developed as firearms began to spread across the Inner Sea. The standard tripod takes an Interact action to deploy using one hand.</p>\n<p>A shielded tripod resembles a squat shield on a tripod. You can deploy and retrieve a shielded tripod with an Interact action, as normal, but while a shielded tripod is in your square, you can use the @Compendium[pf2ettw.actionspf2ettw.Take Cover]{Take Cover} action to gain standard cover behind the tripod's shield. You can't use this cover to Hide or @Compendium[pf2ettw.actionspf2ettw.Sneak]{Sneak}, as normal for times when your cover still leaves your position obvious.</p>"
        },
        "equippedBulk": {
            "value": ""
        },
        "hardness": 0,
        "hp": {
            "brokenThreshold": 0,
            "max": 0,
            "value": 0
        },
        "level": {
            "value": 5
        },
        "negateBulk": {
            "value": "0"
        },
        "preciousMaterial": {
            "value": null
        },
        "preciousMaterialGrade": {
            "value": null
        },
        "price": {
            "value": {
                "gp": 50
            }
        },
        "quantity": 1,
        "rules": [],
        "size": "med",
        "source": {
            "value": "Pathfinder Guns & Gears"
        },
        "stackGroup": "",
        "traits": {
            "custom": "",
            "rarity": "uncommon",
            "value": []
        },
        "usage": {
            "value": "held-in-one-hand"
        },
        "weight": {
            "value": "3"
        }
    },
    "img": "systems/pf2ettw/icons/equipment/other/attached-items/shielded-tripod.webp",
    "name": "Portable Weapon Mount (Shielded Tripod)",
    "type": "equipment"
}
