{
    "_id": "Otd9pV58s2LFK1gW",
    "data": {
        "MAP": {
            "value": ""
        },
        "baseItem": "alchemical-bomb",
        "bonus": {
            "value": 3
        },
        "bonusDamage": {
            "value": 0
        },
        "category": "martial",
        "containerId": "null",
        "damage": {
            "damageType": "bludgeoning",
            "dice": 4,
            "die": "d4",
            "value": ""
        },
        "description": {
            "value": "<p>This tightly sealed metal container is filled with highly pressurized gas that can explode to release a powerful shockwave. A pressure bomb deals [[/r {4d4}[bludgeoning]]]{4d4 bludgeoning damage} and [[/r {4}[splash,bludgeoning]]]{4 bludgeoning splash damage}. On a critical hit, the target is knocked @Compendium[pf2ettw.conditionitems.Prone]{Prone}.</p>\n<p>Medium or smaller creatures who take splash damage are pushed 5 feet away from the target, and then, if the target is Large or smaller, it is pushed 5 feet away from you.</p>\n<p>You gain a +3 item bonus to attack rolls.</p>"
        },
        "equippedBulk": {
            "value": ""
        },
        "group": "bomb",
        "hardness": 0,
        "hp": {
            "brokenThreshold": 0,
            "max": 0,
            "value": 0
        },
        "level": {
            "value": 17
        },
        "negateBulk": {
            "value": "0"
        },
        "potencyRune": {
            "value": 0
        },
        "preciousMaterial": {
            "value": null
        },
        "preciousMaterialGrade": {
            "value": null
        },
        "price": {
            "value": {
                "gp": 2750
            }
        },
        "property1": {
            "critDamage": "",
            "critDamageType": "",
            "critDice": 0,
            "critDie": "",
            "criticalConditionType": "",
            "criticalConditionValue": null,
            "damageType": "",
            "dice": 0,
            "die": "",
            "strikeConditionType": "",
            "strikeConditionValue": null,
            "value": ""
        },
        "propertyRune1": {
            "value": null
        },
        "propertyRune2": {
            "value": null
        },
        "propertyRune3": {
            "value": null
        },
        "propertyRune4": {
            "value": null
        },
        "quantity": 1,
        "range": 20,
        "reload": {
            "value": "-"
        },
        "rules": [
            {
                "key": "Note",
                "outcome": [
                    "success"
                ],
                "selector": "{item|_id}-damage",
                "text": "pf2ettw.BombNotes.PressureBomb.Major.success"
            },
            {
                "key": "Note",
                "outcome": [
                    "criticalSuccess"
                ],
                "selector": "{item|_id}-damage",
                "text": "pf2ettw.BombNotes.PressureBomb.Major.criticalSuccess"
            }
        ],
        "size": "med",
        "source": {
            "value": "Pathfinder Special: Fumbus!"
        },
        "specific": {
            "value": false
        },
        "splashDamage": {
            "value": 4
        },
        "stackGroup": null,
        "strikingRune": {
            "value": ""
        },
        "traits": {
            "custom": "",
            "rarity": "uncommon",
            "value": [
                "alchemical",
                "bomb",
                "consumable",
                "force",
                "splash"
            ]
        },
        "usage": {
            "value": "held-in-one-hand"
        },
        "weight": {
            "value": "L"
        }
    },
    "img": "systems/pf2ettw/icons/default-icons/weapon.svg",
    "name": "Pressure Bomb (Major)",
    "type": "weapon"
}
