{
    "_id": "idAyVZxTkPSNLbnt",
    "data": {
        "baseItem": null,
        "containerId": null,
        "description": {
            "value": "<p>This black-feathered quill has a glowing nib with a small amount of glowing ink inside it.</p>\n<hr />\n<p><strong>Activate</strong> <span class=\"pf2-icon\">2</span> command, Interact</p>\n<p><strong>Frequency</strong> once per day</p>\n<hr />\n<p><strong>Effect</strong> Placing the tip of the quill against a wall of wood, plaster, or stone and speaking a command word causes the ink to flow from the nib onto the wall in the shape of a glowing doorway, casting <em>@Compendium[pf2ettw.spells-srd.Passwall]{Passwall}</em> on the touched surface.</p>"
        },
        "equippedBulk": {
            "value": ""
        },
        "hardness": 0,
        "hp": {
            "brokenThreshold": 0,
            "max": 0,
            "value": 0
        },
        "level": {
            "value": 11
        },
        "negateBulk": {
            "value": "0"
        },
        "preciousMaterial": {
            "value": ""
        },
        "preciousMaterialGrade": {
            "value": ""
        },
        "price": {
            "value": {
                "gp": 1200
            }
        },
        "quantity": 1,
        "rules": [],
        "size": "med",
        "source": {
            "value": "Pathfinder Lost Omens: Pathfinder Society Guide"
        },
        "stackGroup": null,
        "traits": {
            "custom": "",
            "rarity": "uncommon",
            "value": [
                "conjuration",
                "magical"
            ]
        },
        "usage": {
            "value": "held-in-one-hand"
        },
        "weight": {
            "value": "-"
        }
    },
    "img": "systems/pf2ettw/icons/equipment/held-items/quill-of-passage.webp",
    "name": "Quill of Passage",
    "type": "equipment"
}
