{
    "_id": "rvxphQJrycwqejMW",
    "data": {
        "MAP": {
            "value": ""
        },
        "baseItem": "trident",
        "bonus": {
            "value": 2
        },
        "bonusDamage": {
            "value": null
        },
        "category": "martial",
        "containerId": null,
        "damage": {
            "damageType": "piercing",
            "dice": 1,
            "die": "d8",
            "value": ""
        },
        "description": {
            "value": "<p>The haft of this +2 striking trident is carved with intricate designs of swarming rodents sacred to Hanspur, the drowned god of the Sellen River.</p>\n<p>When used against a swarm, it ignores the swarm's resistance to piercing damage, if any.</p>\n<p><strong>Activate</strong> <span class=\"pf2-icon\">A</span> Interact</p>\n<p><strong>Frequency</strong> once per day</p>\n<hr />\n<p><strong>Effect</strong> While floating down a river on a raft or boat, you plunge the <em>rat-catcher trident</em> into the water. The trident casts a 5th-level <em>@Compendium[pf2ettw.spells-srd.Control Water]{Control Water}</em> spell on the body of water.</p>"
        },
        "equippedBulk": {
            "value": ""
        },
        "group": "spear",
        "hardness": 0,
        "hp": {
            "brokenThreshold": 0,
            "max": 0,
            "value": 0
        },
        "level": {
            "value": 11
        },
        "negateBulk": {
            "value": "0"
        },
        "potencyRune": {
            "value": 2
        },
        "preciousMaterial": {
            "value": null
        },
        "preciousMaterialGrade": {
            "value": null
        },
        "price": {
            "value": {
                "gp": 1200
            }
        },
        "property1": {
            "critDamage": "",
            "critDamageType": "",
            "critDice": null,
            "critDie": "",
            "criticalConditionType": "",
            "criticalConditionValue": null,
            "damageType": "",
            "dice": null,
            "die": "",
            "strikeConditionType": "",
            "strikeConditionValue": null,
            "value": ""
        },
        "propertyRune1": {
            "value": null
        },
        "propertyRune2": {
            "value": null
        },
        "propertyRune3": {
            "value": null
        },
        "propertyRune4": {
            "value": null
        },
        "quantity": 1,
        "range": null,
        "reload": {
            "value": "-"
        },
        "rules": [],
        "size": "med",
        "source": {
            "value": "Pathfinder Lost Omens: Gods & Magic"
        },
        "specific": {
            "material": null,
            "runes": {
                "potency": 2,
                "striking": "striking"
            },
            "value": true
        },
        "splashDamage": {
            "value": null
        },
        "stackGroup": null,
        "strikingRune": {
            "value": "striking"
        },
        "traits": {
            "custom": "",
            "rarity": "uncommon",
            "value": [
                "conjuration",
                "magical",
                "thrown-20"
            ]
        },
        "usage": {
            "value": "held-in-one-hand"
        },
        "weight": {
            "value": "1"
        }
    },
    "img": "systems/pf2ettw/icons/equipment/weapons/specific-magic-weapons/rat-catcher-trident.webp",
    "name": "Rat-Catcher Trident",
    "type": "weapon"
}
