{
    "_id": "fumxKes1z2hLN2U7",
    "data": {
        "baseItem": null,
        "containerId": null,
        "description": {
            "value": "<p>A <em>greater ready</em> rune draws component pieces of a suit of armor toward one another, making it easier and faster to get into. You can don light armor with this rune as a single action activity or medium or heavy armor with this rune with a 3-action activity.</p>"
        },
        "equippedBulk": {
            "value": ""
        },
        "hardness": 0,
        "hp": {
            "brokenThreshold": 0,
            "max": 0,
            "value": 0
        },
        "level": {
            "value": 11
        },
        "negateBulk": {
            "value": "0"
        },
        "preciousMaterial": {
            "value": ""
        },
        "preciousMaterialGrade": {
            "value": ""
        },
        "price": {
            "value": {
                "gp": 1200
            }
        },
        "quantity": 1,
        "rules": [],
        "size": "med",
        "source": {
            "value": "Pathfinder Advanced Player's Guide"
        },
        "stackGroup": null,
        "traits": {
            "custom": "",
            "rarity": "common",
            "value": [
                "evocation",
                "magical"
            ]
        },
        "usage": {
            "value": "etched-onto-armor"
        },
        "weight": {
            "value": "-"
        }
    },
    "img": "systems/pf2ettw/icons/equipment/runes/armor-property-runes/armor-property-runes.webp",
    "name": "Ready (Greater)",
    "type": "equipment"
}
