{
    "_id": "8htAYiRxpAmVn9uK",
    "data": {
        "baseItem": null,
        "containerId": null,
        "description": {
            "value": "<p>This band of interwoven gold and copper, traced with Aklo symbols, is topped with a gleaming, luminescent opal gently bleeding wisps of shadowstuff.</p>\n<hr />\n<p><strong>Activate</strong> <span class=\"pf2-icon\">3</span> command</p>\n<hr />\n<p><strong>Effect</strong> You attempt to make the ring cast an arcane <em>@Compendium[pf2ettw.spells-srd.Wish]{Wish}</em> spell. However, if the ring doesn't deem the wish to be sufficiently selfless, the wish isn't cast and the ring can't be activated for 24 hours.</p>\n<p>You are @Compendium[pf2ettw.conditionitems.Drained]{Drained 3}, whether or not the ring refuses the wish.</p>\n<hr />\n<p>Once the wish is cast, the Ring of Recalcitrant Wishes has no powers, though it is rumored that the wearer's death in an act of profound self-sacrifice restores the wish to the ring.</p>"
        },
        "equippedBulk": {
            "value": ""
        },
        "hardness": 0,
        "hp": {
            "brokenThreshold": 0,
            "max": 0,
            "value": 0
        },
        "level": {
            "value": 20
        },
        "negateBulk": {
            "value": "0"
        },
        "preciousMaterial": {
            "value": ""
        },
        "preciousMaterialGrade": {
            "value": ""
        },
        "price": {
            "value": {
                "gp": 10000
            }
        },
        "quantity": 1,
        "rules": [],
        "size": "med",
        "source": {
            "value": "Pathfinder #162: Ruins of the Radiant Siege"
        },
        "stackGroup": null,
        "traits": {
            "custom": "",
            "rarity": "rare",
            "value": [
                "divination",
                "invested",
                "magical"
            ]
        },
        "usage": {
            "value": "worn"
        },
        "weight": {
            "value": "-"
        }
    },
    "img": "systems/pf2ettw/icons/equipment/worn-items/other-worn-items/ring-of-maniacal-devices.webp",
    "name": "Ring Of Recalcitrant Wishes",
    "type": "equipment"
}
