{
    "_id": "GpuzMoZYehYvZ50E",
    "data": {
        "baseItem": null,
        "containerId": null,
        "description": {
            "value": "<p>Claw-like prongs on his thick golden band bears extend to dig deep into sheer surfaces when you are Climbing. This ring grants you a climb Speed equal to half your land Speed. Penalties to your Speed (including those from your armor) apply before halving.</p>"
        },
        "equippedBulk": {
            "value": ""
        },
        "hardness": 0,
        "hp": {
            "brokenThreshold": 0,
            "max": 0,
            "value": 0
        },
        "level": {
            "value": 12
        },
        "negateBulk": {
            "value": "0"
        },
        "preciousMaterial": {
            "value": ""
        },
        "preciousMaterialGrade": {
            "value": ""
        },
        "price": {
            "value": {
                "gp": 1750
            }
        },
        "quantity": 1,
        "rules": [
            {
                "key": "BaseSpeed",
                "selector": "climb",
                "value": "@actor.attributes.speed.value*0.5"
            }
        ],
        "size": "med",
        "source": {
            "value": "Pathfinder Core Rulebook"
        },
        "stackGroup": null,
        "traits": {
            "custom": "",
            "rarity": "common",
            "value": [
                "invested",
                "magical",
                "transmutation"
            ]
        },
        "usage": {
            "value": "worn"
        },
        "weight": {
            "value": "-"
        }
    },
    "img": "systems/pf2ettw/icons/equipment/worn-items/other-worn-items/ring-of-climbing.webp",
    "name": "Ring of Climbing",
    "type": "equipment"
}
