{
    "_id": "0KHgAaDi3tmu32Hq",
    "data": {
        "armor": {
            "value": 4
        },
        "baseItem": null,
        "category": "medium",
        "check": {
            "value": -2
        },
        "containerId": "null",
        "description": {
            "value": "<p><strong>Note</strong> Conrasu Rite of Reinforcement Heritage Only</p>\n<hr />\n <p>Your woven exoskeleton rivals the hardest armors that can be found. Your exoskeleton is medium armor in the plate armor group that grants a +4 item bonus to AC, a Dex cap of +1, a check penalty of -2, a speed penalty of -5 feet, and a Strength value of 16, and has the comfort trait. You can never wear other armor or remove your exoskeleton. You can etch armor runes onto your exoskeleton as normal.</p>"
        },
        "dex": {
            "value": 1
        },
        "equippedBulk": {
            "value": ""
        },
        "group": "plate",
        "hardness": 0,
        "hp": {
            "brokenThreshold": 0,
            "max": 0,
            "value": 0
        },
        "level": {
            "value": 1
        },
        "negateBulk": {
            "value": "0"
        },
        "potencyRune": {
            "value": 0
        },
        "preciousMaterial": {
            "value": null
        },
        "preciousMaterialGrade": {
            "value": null
        },
        "price": {
            "value": {}
        },
        "propertyRune1": {
            "value": ""
        },
        "propertyRune2": {
            "value": ""
        },
        "propertyRune3": {
            "value": ""
        },
        "propertyRune4": {
            "value": ""
        },
        "quantity": 1,
        "resiliencyRune": {
            "value": ""
        },
        "rules": [],
        "size": "med",
        "source": {
            "value": "Pathfinder Lost Omens: The Mwangi Expanse"
        },
        "speed": {
            "value": -5
        },
        "stackGroup": null,
        "strength": {
            "value": 12
        },
        "traits": {
            "custom": "",
            "rarity": "rare",
            "value": [
                "comfort"
            ]
        },
        "usage": {
            "value": "wornarmor"
        },
        "weight": {
            "value": "-"
        }
    },
    "img": "systems/pf2ettw/icons/default-icons/armor.svg",
    "name": "Rite of Reinforcement Exoskeleton",
    "type": "armor"
}
