{
    "_id": "QFAHoE7FJ9TPCGWL",
    "data": {
        "baseItem": null,
        "containerId": null,
        "description": {
            "value": "<p>By using a rubbing set, you can quickly make a copy of carvings or etchings you find during your explorations, making them easier to accurately reproduce. This kit consists of a roll of thin onion-skin paper in a waterproof leather case, several thick wax crayons, and a bar of sealing wax that can be melted and used to temporarily hold the paper in place while you take the rubbing. Using the kit consumes the materials and provides a +1 item bonus on checks to document or reproduce artwork or writing that has been carved, etched, or otherwise physically added to a surface.</p>"
        },
        "equippedBulk": {
            "value": ""
        },
        "hardness": 0,
        "hp": {
            "brokenThreshold": 0,
            "max": 0,
            "value": 0
        },
        "level": {
            "value": 0
        },
        "negateBulk": {
            "value": "0"
        },
        "preciousMaterial": {
            "value": ""
        },
        "preciousMaterialGrade": {
            "value": ""
        },
        "price": {
            "value": {
                "gp": 1
            }
        },
        "quantity": 1,
        "rules": [],
        "size": "med",
        "source": {
            "value": "Pathfinder Lost Omens: Pathfinder Society Guide"
        },
        "stackGroup": null,
        "traits": {
            "custom": "",
            "rarity": "uncommon",
            "value": []
        },
        "usage": {
            "value": "held-in-two-hands"
        },
        "weight": {
            "value": "1"
        }
    },
    "img": "systems/pf2ettw/icons/equipment/adventuring-gear/rubbing-set.webp",
    "name": "Rubbing Set",
    "type": "equipment"
}
