{
    "_id": "3vKhyjBGjaN4rNyl",
    "data": {
        "baseItem": null,
        "containerId": "null",
        "description": {
            "value": "<p>This jagged glyph, the wrath Thassilonian rune of sin, reacts to evocation magic. When you Cast an evocation Spell, you gain resistance 5 to damage from spells until the start of your next turn. This resistance is increased to 7 against evocation spells.</p>"
        },
        "equippedBulk": {
            "value": ""
        },
        "hardness": 0,
        "hp": {
            "brokenThreshold": 0,
            "max": 0,
            "value": 0
        },
        "level": {
            "value": 12
        },
        "negateBulk": {
            "value": "0"
        },
        "preciousMaterial": {
            "value": null
        },
        "preciousMaterialGrade": {
            "value": null
        },
        "price": {
            "value": {
                "gp": 1700
            }
        },
        "quantity": 1,
        "rules": [],
        "size": "med",
        "source": {
            "value": "Pathfinder Secrets of Magic"
        },
        "stackGroup": "",
        "traits": {
            "custom": "",
            "rarity": "uncommon",
            "value": [
                "arcane",
                "evocation",
                "invested",
                "tattoo"
            ]
        },
        "usage": {
            "value": "held-in-one-hand"
        },
        "weight": {
            "value": "-"
        }
    },
    "img": "systems/pf2ettw/icons/equipment/tattoos/rune-of-sin.webp",
    "name": "Rune of Sin (Wrath)",
    "type": "equipment"
}
