{
    "_id": "NXYEgMq4ERIzbJKx",
    "data": {
        "activation": {
            "condition": "",
            "cost": 0,
            "type": ""
        },
        "autoDestroy": {
            "_deprecated": true,
            "value": true
        },
        "autoUse": {
            "_deprecated": true,
            "value": true
        },
        "baseItem": null,
        "charges": {
            "_deprecated": true,
            "max": 0,
            "value": 0
        },
        "consumableType": {
            "value": "snare"
        },
        "consume": {
            "_deprecated": true,
            "value": ""
        },
        "containerId": "null",
        "description": {
            "value": "<p>This snare emits puffs of oxidizing chemicals that rapidly degrade metal items; skymetals and most precious metals are immune. The chemicals affect a non-magical metal item of up to 1 Bulk that the triggering creature is holding or openly wearing (determined randomly if the creature is holding or wearing more than one). The triggering creature must attempt a @Check[type:reflex|dc:25] saving throw. The snare deals [[/r 2d6]]{2d6 damage} to the item; this damage ignores the item's Hardness and might deal persistent damage on a failed Reflex save. The creature, or an adjacent creature, can attempt to scrape off the chemicals as an Interact action to prevent the persistent damage; doing so reduces the DC of the flat check to end persistent damage to 10 and grants an immediate flat check. Thin iron or steel items, such as weapons, typically have 20 HP and a Broken Threshold of 10, and thicker iron or steel items, such as most suits of armor, typically have 36 HP and a Broken Threshold of 18. Other materials' statistics can be found on pages 577-579 of the Core Rulebook.</p>\n<hr />\n<p><strong>Critical Success</strong> The object is unaffected.</p>\n<p><strong>Success</strong> The object takes full damage.</p>\n<p><strong>Failure</strong> The object takes full damage as well as [[/r {1d6}[persistent]]]{1d6 persistent damage}.</p>\n<p><strong>Critical Failure</strong> The object takes double damage as well as [[/r {2d6}[persistent]]]{2d6 persistent damage}.</p>"
        },
        "duration": {
            "units": "",
            "value": null
        },
        "equippedBulk": {
            "value": ""
        },
        "hardness": 0,
        "hp": {
            "brokenThreshold": 0,
            "max": 0,
            "value": 0
        },
        "level": {
            "value": 8
        },
        "negateBulk": {
            "value": "0"
        },
        "preciousMaterial": {
            "value": null
        },
        "preciousMaterialGrade": {
            "value": null
        },
        "price": {
            "value": {
                "gp": 75
            }
        },
        "quantity": 1,
        "range": {
            "long": null,
            "units": "",
            "value": null
        },
        "rules": [],
        "size": "med",
        "source": {
            "value": "Pathfinder Lost Omens: Monsters of Myth"
        },
        "spell": {
            "data": null,
            "heightenedLevel": null
        },
        "stackGroup": null,
        "target": {
            "type": "",
            "units": "",
            "value": null
        },
        "traits": {
            "custom": "",
            "rarity": "rare",
            "value": [
                "consumable",
                "mechanical",
                "snare",
                "trap"
            ]
        },
        "usage": {
            "value": "held-in-one-hand"
        },
        "uses": {
            "autoDestroy": true,
            "autoUse": true,
            "max": 0,
            "per": null,
            "value": 0
        },
        "weight": {
            "value": "-"
        }
    },
    "img": "systems/pf2ettw/icons/default-icons/consumable.svg",
    "name": "Rusting Snare",
    "type": "consumable"
}
