{
    "_id": "iwC6V10pTd6Sk0ML",
    "data": {
        "baseItem": null,
        "containerId": null,
        "description": {
            "value": "<p>Vigilant Seal members use these containers when transporting samples and relics.</p>\n<p>The containers are soundproof, airtight, and studded with lead sheets, mistletoe, and other materials that block magical auras. Up to 1 Bulk of objects can be placed inside a sealing chest; the magic auras and curses of any objects placed within the chest cannot extend beyond the box unless they are of a greater level than the chest. Artifacts and similarly powerful items are unaffected regardless of level. Many cursed items prevent their bearer from removing them, but a successful remove curse gives enough time to stash the item in the chest.</p>"
        },
        "equippedBulk": {
            "value": ""
        },
        "hardness": 0,
        "hp": {
            "brokenThreshold": 0,
            "max": 0,
            "value": 0
        },
        "level": {
            "value": 14
        },
        "negateBulk": {
            "value": "0"
        },
        "preciousMaterial": {
            "value": ""
        },
        "preciousMaterialGrade": {
            "value": ""
        },
        "price": {
            "value": {
                "gp": 3750
            }
        },
        "quantity": 1,
        "rules": [],
        "size": "med",
        "source": {
            "value": "Pathfinder Lost Omens: Pathfinder Society Guide"
        },
        "stackGroup": null,
        "traits": {
            "custom": "",
            "rarity": "uncommon",
            "value": [
                "abjuration",
                "magical"
            ]
        },
        "usage": {
            "value": "held-in-two-hands"
        },
        "weight": {
            "value": "L"
        }
    },
    "img": "systems/pf2ettw/icons/equipment/held-items/sealing-chest.webp",
    "name": "Sealing Chest (Major)",
    "type": "equipment"
}
