{
    "_id": "kOanU8MQt6KFmRy0",
    "data": {
        "baseItem": null,
        "containerId": null,
        "description": {
            "value": "<p>This gold-inlaid wooden mask depicts the reptilian visage of a mokele-mbembe, a jungle predator seen by the Mwangi as embodiments of nature's strength and majesty. If you're a Magaambyan who already has a mask, you can use <em>Shadowed Scale, the Jungle Secret</em> in lieu of your own mask for the purposes of mask-related abilities, such as @Compendium[pf2ettw.feats-srd.Magic Warrior Dedication]{Magic Warrior Dedication}. When you wear the mask, you are always @Compendium[pf2ettw.conditionitems.Concealed]{Concealed} while in a jungle.</p>\n<hr />\n<p><strong>Activate</strong> <span class=\"pf2-icon\">1</span> envision</p>\n<p><strong>Requirements</strong> Your last action was a melee Strike that killed a living creature or destroyed an undead creature</p>\n<hr />\n<p><strong>Effect</strong> You cause the body to decompose into a pile of fertile soil. The creature's body is completely destroyed at the start of your next turn, and it can only be returned to life with the use of powerful magic such as <em>@Compendium[pf2ettw.spells-srd.Miracle]{Miracle}</em> or <em>@Compendium[pf2ettw.spells-srd.Wish]{Wish}</em>.</p>\n<hr />\n<p><strong>Activate</strong> <span class=\"pf2-icon\">1</span> Interact</p>\n<p><strong>Frequency</strong> once per hour</p>\n<p><strong>Requirements</strong> You are adjacent to the body of a creature you killed that has decomposed into soil</p>\n<hr />\n<p><strong>Effect</strong> You pull a seed from the mask and throw it into the soil, where it sprouts. You cast <em>@Compendium[pf2ettw.spells-srd.Summon Plant or Fungus]{Summon Plant or Fungus}</em>; the spell is heightened to a level equal to one-half of the slain creature's level, rounded up. When the spell's duration ends, the plant creature returns to the soil, where it roots itself and becomes a non-creature piece of flora.</p>\n<hr />\n<p><strong>Destruction</strong> If the progenitor of all mokele-mbembes stomps on the mask, it is crushed to splinters.</p>"
        },
        "equippedBulk": {
            "value": ""
        },
        "hardness": 0,
        "hp": {
            "brokenThreshold": 0,
            "max": 0,
            "value": 0
        },
        "level": {
            "value": 22
        },
        "negateBulk": {
            "value": "0"
        },
        "preciousMaterial": {
            "value": null
        },
        "preciousMaterialGrade": {
            "value": null
        },
        "price": {
            "value": {}
        },
        "quantity": 1,
        "rules": [],
        "size": "med",
        "source": {
            "value": "Pathfinder #174: Shadows of the Ancients"
        },
        "stackGroup": "",
        "traits": {
            "custom": "",
            "rarity": "unique",
            "value": [
                "artifact",
                "conjuration",
                "invested",
                "magical",
                "primal"
            ]
        },
        "usage": {
            "value": "wornmask"
        },
        "weight": {
            "value": "L"
        }
    },
    "img": "systems/pf2ettw/icons/default-icons/equipment.svg",
    "name": "Shadowed Scale, the Jungle Secret",
    "type": "equipment"
}
