{
    "_id": "Tj4uaNw2lgevxGl7",
    "data": {
        "activation": {
            "condition": "",
            "cost": 0,
            "type": ""
        },
        "autoDestroy": {
            "_deprecated": true,
            "value": true
        },
        "autoUse": {
            "_deprecated": true,
            "value": true
        },
        "baseItem": null,
        "charges": {
            "_deprecated": true,
            "max": 1,
            "value": 1
        },
        "consumableType": {
            "value": "talisman"
        },
        "consume": {
            "_deprecated": true,
            "value": ""
        },
        "containerId": null,
        "description": {
            "value": "<p>This dried seaweed bracelet is lined with charms shaped like small shark teeth. When you activate the bracelet, if you roll a success on the triggering check, you get a critical success instead (if you roll a critical failure, you get a failure instead). If you fail the Acrobatics check against a grabbing creature, the creature must either release you as a free action or take 2d8 piercing damage as shark's teeth momentarily emerge from your skin.</p>\n<p><strong>Usage</strong> affixed to armor</p>\n<p><strong>Activate</strong> <span class=\"pf2-icon\">F</span> Command</p>\n<p><strong>Trigger</strong> You attempt to Escape using Acrobatics for your roll, but you haven't rolled yet</p>\n<p><strong>Requirements</strong> You are an expert in Acrobatics</p>"
        },
        "duration": {
            "units": "",
            "value": null
        },
        "equippedBulk": {
            "value": ""
        },
        "hardness": 0,
        "hp": {
            "brokenThreshold": 0,
            "max": 0,
            "value": 0
        },
        "level": {
            "value": 5
        },
        "negateBulk": {
            "value": "0"
        },
        "preciousMaterial": {
            "value": ""
        },
        "preciousMaterialGrade": {
            "value": ""
        },
        "price": {
            "value": {
                "gp": 23
            }
        },
        "quantity": 1,
        "range": {
            "long": null,
            "units": "",
            "value": null
        },
        "rules": [],
        "size": "med",
        "source": {
            "value": "Pathfinder Core Rulebook"
        },
        "spell": {
            "data": null,
            "heightenedLevel": null
        },
        "stackGroup": null,
        "target": {
            "type": "",
            "units": "",
            "value": null
        },
        "traits": {
            "custom": "",
            "rarity": "common",
            "value": [
                "abjuration",
                "consumable",
                "magical",
                "talisman"
            ]
        },
        "usage": {
            "value": "affixed-to-armor"
        },
        "uses": {
            "autoDestroy": true,
            "autoUse": true,
            "max": 0,
            "per": null,
            "value": 0
        },
        "weight": {
            "value": "-"
        }
    },
    "img": "systems/pf2ettw/icons/equipment/consumables/talismans/shark-tooth-charm.webp",
    "name": "Shark Tooth Charm",
    "type": "consumable"
}
