{
    "_id": "z6eQdPTgSxTLR1Qr",
    "data": {
        "baseItem": null,
        "containerId": null,
        "description": {
            "value": "<p>A shining wayfinder is a polished silver compass blessed by the power of benevolent deities. It has the usual functions of a @Compendium[pf2ettw.equipment-srd.Wayfinder]{Wayfinder}, except instead of an activation to cast light, the shining wayfinder has the following two activations.</p>\n<hr />\n<p><strong>Activate</strong> <span class=\"pf2-icon\">2</span> command, Interact</p>\n<hr />\n<p><strong>Effect</strong> You hold the wayfinder and ask for guidance. The wayfinder casts <em>@Compendium[pf2ettw.spells-srd.Guidance]{Guidance}</em> on you.</p>\n<hr />\n<p><strong>Activate</strong> <span class=\"pf2-icon\">2</span> command, Interact</p>\n<p><strong>Frequency</strong> once per day</p>\n<hr />\n<p><strong>Effect</strong> You call upon the wayfinder's divine blessings for yourself and your allies. The wayfinder casts <em>@Compendium[pf2ettw.spells-srd.Bless]{Bless}</em>, with an emanation centered on itself. Once per turn, you can use a single action, which has the concentrate trait, to increase the emanation's radius by 5 feet.</p>"
        },
        "equippedBulk": {
            "value": ""
        },
        "hardness": 0,
        "hp": {
            "brokenThreshold": 0,
            "max": 0,
            "value": 0
        },
        "level": {
            "value": 4
        },
        "negateBulk": {
            "value": ""
        },
        "preciousMaterial": {
            "value": ""
        },
        "preciousMaterialGrade": {
            "value": ""
        },
        "price": {
            "value": {
                "gp": 100
            }
        },
        "quantity": 1,
        "rules": [
            {
                "domain": "skill-check",
                "key": "RollOption",
                "option": "compass-in-possession",
                "requiresEquipped": false
            }
        ],
        "size": "med",
        "source": {
            "value": "Pathfinder Lost Omens: Character Guide"
        },
        "stackGroup": null,
        "traits": {
            "custom": "",
            "rarity": "uncommon",
            "value": [
                "abjuration",
                "divination",
                "evocation",
                "invested",
                "magical"
            ]
        },
        "usage": {
            "value": "worn"
        },
        "weight": {
            "value": "-"
        }
    },
    "img": "systems/pf2ettw/icons/equipment/worn-items/other-worn-items/shining-wayfinder.webp",
    "name": "Shining Wayfinder",
    "type": "equipment"
}
