{
    "_id": "ieVRS2BjiWqauly6",
    "data": {
        "activation": {
            "condition": "",
            "cost": 0,
            "type": ""
        },
        "autoDestroy": {
            "_deprecated": true,
            "value": true
        },
        "autoUse": {
            "_deprecated": true,
            "value": true
        },
        "baseItem": null,
        "charges": {
            "_deprecated": true,
            "max": 1,
            "value": 1
        },
        "consumableType": {
            "value": "elixir"
        },
        "consume": {
            "_deprecated": true,
            "value": ""
        },
        "containerId": null,
        "description": {
            "value": "<p><strong>Activation</strong> <span class=\"pf2-icon\">1</span> Interact</p>\n<p>This gritty, spicy fluid causes you to grow a sixth finger on each hand and gives you a spiderlike grip.</p>\n<p>You gain a +2 item bonus to your Reflex DC to keep from being @Compendium[pf2ettw.actionspf2ettw.Disarm]{Disarmed} and a @Compendium[pf2ettw.actionspf2ettw.Climb]{Climb} Speed of 20 feet for the listed duration.</p>\n<hr />\n<p><strong>Duration</strong> 1 hour.</p>\n<p>@Compendium[pf2ettw.consumable-effects.Effect: Sixfingers Elixir (Moderate)]{Effect: Sixfingers Elixir (Moderate)}</p>"
        },
        "duration": {
            "units": "",
            "value": null
        },
        "equippedBulk": {
            "value": ""
        },
        "hardness": 0,
        "hp": {
            "brokenThreshold": 0,
            "max": 0,
            "value": 0
        },
        "level": {
            "value": 11
        },
        "negateBulk": {
            "value": "0"
        },
        "preciousMaterial": {
            "value": ""
        },
        "preciousMaterialGrade": {
            "value": ""
        },
        "price": {
            "value": {
                "gp": 250
            }
        },
        "quantity": 1,
        "range": {
            "long": null,
            "units": "",
            "value": null
        },
        "rules": [],
        "size": "med",
        "source": {
            "value": "Pathfinder Adventure: The Slithering"
        },
        "spell": {
            "data": null,
            "heightenedLevel": null
        },
        "stackGroup": null,
        "target": {
            "type": "",
            "units": "",
            "value": null
        },
        "traits": {
            "custom": "",
            "rarity": "uncommon",
            "value": [
                "alchemical",
                "consumable",
                "elixir",
                "polymorph"
            ]
        },
        "usage": {
            "value": "held-in-one-hand"
        },
        "uses": {
            "autoDestroy": true,
            "autoUse": true,
            "max": 0,
            "per": null,
            "value": 0
        },
        "weight": {
            "value": "L"
        }
    },
    "img": "systems/pf2ettw/icons/equipment/alchemical-items/alchemical-elixirs/sixfingers-elixir.webp",
    "name": "Sixfingers Elixir (Moderate)",
    "type": "consumable"
}
