{
    "_id": "AFE073UYI0mkWuUs",
    "data": {
        "baseItem": null,
        "containerId": null,
        "description": {
            "value": "<p>A grinning skull tops the bow of this macabre key. This key can be used in place of thieves' tools when attempting to Pick a Lock, and it grants a +2 item bonus to the Thievery check.</p>\n<p>If the <em>skeleton key</em> becomes broken due to a critical failure on the check, it works as normal thieves' tools and loses its benefits until repaired.</p>\n<p><strong>Activate</strong> <span class=\"pf2-icon\">F</span> Interact</p>\n<p><strong>Frequency</strong> once per hour</p>\n<p><strong>Trigger</strong> You attempt to Pick a Lock but haven't rolled yet</p>\n<hr />\n<p><strong>Effect</strong> The key casts <em>@Compendium[pf2ettw.spells-srd.Knock]{Knock}</em> on the lock you're trying to pick.</p>"
        },
        "equippedBulk": {
            "value": ""
        },
        "hardness": 0,
        "hp": {
            "brokenThreshold": 0,
            "max": 0,
            "value": 0
        },
        "level": {
            "value": 11
        },
        "negateBulk": {
            "value": "0"
        },
        "preciousMaterial": {
            "value": ""
        },
        "preciousMaterialGrade": {
            "value": ""
        },
        "price": {
            "value": {
                "gp": 1250
            }
        },
        "quantity": 1,
        "rules": [
            {
                "key": "FlatModifier",
                "label": "Skeleton Key, Greater (Pick a Lock)",
                "predicate": {
                    "all": [
                        "action:pick-a-lock"
                    ]
                },
                "selector": "thievery",
                "type": "item",
                "value": 2
            }
        ],
        "size": "med",
        "source": {
            "value": "Pathfinder Core Rulebook"
        },
        "stackGroup": null,
        "traits": {
            "custom": "",
            "rarity": "common",
            "value": [
                "magical",
                "transmutation"
            ]
        },
        "usage": {
            "value": "held-in-one-hand"
        },
        "weight": {
            "value": "-"
        }
    },
    "img": "systems/pf2ettw/icons/equipment/held-items/skeleton-key.webp",
    "name": "Skeleton Key (Greater)",
    "type": "equipment"
}
