{
    "_id": "jBn5TdnxOvzf6a1F",
    "data": {
        "MAP": {
            "value": ""
        },
        "baseItem": "composite-shortbow",
        "bonus": {
            "value": 0
        },
        "bonusDamage": {
            "value": 0
        },
        "category": "martial",
        "containerId": null,
        "damage": {
            "damageType": "piercing",
            "dice": 1,
            "die": "d6",
            "value": ""
        },
        "description": {
            "value": "<p>This shortbow is made from horn, wood, and sinew laminated together to increase the power of its pull and the force of its projectile. Its compact size and power make it a favorite of mounted archers. Any time an ability is specifically restricted to a shortbow, it also applies to composite shortbows unless otherwise stated.</p>\n<p>Large turquoise gems stud the outer edge of this sturdy +3 greater striking ghost touch composite shortbow. Arrows shot from the bow are unimpaired by wind and air effects.</p>\n<hr />\n<p><strong>Activate</strong> <span class=\"pf2-icon\">2 </span> Interact (conjuration, teleportation)</p>\n<p><strong>Frequency</strong> once per day</p>\n<hr />\n<p><strong>Effect</strong> You shoot an arrow at an open space on a surface within 500 feet and momentarily vanish into a wind that carries the arrow. You teleport to that location.</p>\n<hr />\n<p><strong>Activate</strong> <span class=\"pf2-icon\">2 </span> command, Interact (electricity)</p>\n<p><strong>Frequency</strong> once per hour</p>\n<hr />\n<p><strong>Effect</strong> You shoot an arrow at the sky and it tears an extraplanar rift that resembles a storm cloud in a @Template[type:burst|distance:30] centered on a point within 200 feet. A torrent of rain pours down from the rift for 1 minute or until you Dismiss the effect. The area within the torrent becomes difficult terrain for all movement (including Flying). As an Interact action, you can fire an arrow into the rift to cause a bolt of lightning to strike a creature in the area. The creature takes [[/r {5d12}[electricity]]]{5d12 Electricity Damage} and must attempt a @Check[type:reflex|dc:41|basic:true|name:Sky Piercing Bow|traits:damage-dealing,electricity|showDC:owner] save.</p>\n<hr />\n<p><strong>Activate</strong> 10 minutes (command, envision, Interact)</p>\n<p><strong>Frequency</strong> once per week</p>\n<hr />\n<p><strong>Effect</strong> You fire a volley of arrows into the sky. You create the effects of a successful <em>@Compendium[pf2ettw.spells-srd.Control Weather]{Control Weather}</em> ritual.</p>"
        },
        "equippedBulk": {
            "value": ""
        },
        "group": "bow",
        "hardness": 0,
        "hp": {
            "brokenThreshold": 0,
            "max": 0,
            "value": 0
        },
        "level": {
            "value": 19
        },
        "negateBulk": {
            "value": "0"
        },
        "potencyRune": {
            "value": 3
        },
        "preciousMaterial": {
            "value": null
        },
        "preciousMaterialGrade": {
            "value": null
        },
        "price": {
            "value": {
                "gp": 40000
            }
        },
        "property1": {
            "critDamage": "",
            "critDamageType": "",
            "critDice": null,
            "critDie": "",
            "criticalConditionType": "",
            "criticalConditionValue": null,
            "damageType": "",
            "dice": null,
            "die": "",
            "strikeConditionType": "",
            "strikeConditionValue": null,
            "value": ""
        },
        "propertyRune1": {
            "value": "ghostTouch"
        },
        "propertyRune2": {
            "value": null
        },
        "propertyRune3": {
            "value": null
        },
        "propertyRune4": {
            "value": null
        },
        "quantity": 1,
        "range": 60,
        "reload": {
            "value": "0"
        },
        "rules": [],
        "size": "med",
        "source": {
            "value": "Pathfinder #167: Ready? Fight!"
        },
        "specific": {
            "material": null,
            "runes": {
                "potency": 3,
                "striking": "greaterStriking"
            },
            "value": true
        },
        "splashDamage": {
            "value": 0
        },
        "stackGroup": null,
        "strikingRune": {
            "value": "greaterStriking"
        },
        "traits": {
            "custom": "",
            "rarity": "rare",
            "value": [
                "deadly-d10",
                "evocation",
                "magical",
                "propulsive",
                "transmutation"
            ]
        },
        "usage": {
            "value": "held-in-one-plus-hands"
        },
        "weight": {
            "value": "1"
        }
    },
    "img": "systems/pf2ettw/icons/equipment/weapons/composite-shortbow.webp",
    "name": "Sky-Piercing Bow",
    "type": "weapon"
}
