{
    "_id": "eaYNVLnTX9VejnaA",
    "data": {
        "MAP": {
            "value": ""
        },
        "baseItem": "staff",
        "bonus": {
            "value": 0
        },
        "bonusDamage": {
            "value": 0
        },
        "category": "simple",
        "containerId": null,
        "damage": {
            "damageType": "bludgeoning",
            "dice": 1,
            "die": "d4",
            "value": ""
        },
        "description": {
            "value": "<p>A mesmerizing gemstone caps the head of this handsomely crafted wooden staff. While wielding the staff, you gain a +2 circumstance bonus to checks to identify enchantment magic.</p>\n<p><strong>Activate</strong> Cast a Spell</p>\n<hr />\n<p><strong>Effect</strong> You expend a number of charges from the staff to cast a spell from its list.</p>\n<ul>\n<li><strong>Cantrip</strong> <em>@Compendium[pf2ettw.spells-srd.Daze]{Daze}</em></li>\n<li><strong>1st</strong> <em>@Compendium[pf2ettw.spells-srd.Charm]{Charm}</em>, <em>@Compendium[pf2ettw.spells-srd.Command]{Command}</em></li>\n<li><strong>2nd</strong> <em>@Compendium[pf2ettw.spells-srd.Hideous Laughter]{Hideous Laughter}</em>, <em>@Compendium[pf2ettw.spells-srd.Touch of Idiocy]{Touch of Idiocy}</em></li>\n</ul>\n<p><strong>Craft Requirements</strong> Supply one casting of all listed levels of all listed spells.</p>"
        },
        "equippedBulk": {
            "value": ""
        },
        "group": "club",
        "hardness": 0,
        "hp": {
            "brokenThreshold": 0,
            "max": 0,
            "value": 0
        },
        "level": {
            "value": 6
        },
        "negateBulk": {
            "value": "0"
        },
        "potencyRune": {
            "value": null
        },
        "preciousMaterial": {
            "value": ""
        },
        "preciousMaterialGrade": {
            "value": ""
        },
        "price": {
            "value": {
                "gp": 230
            }
        },
        "property1": {
            "critDamage": "",
            "critDamageType": "",
            "critDice": null,
            "critDie": "",
            "criticalConditionType": "",
            "criticalConditionValue": null,
            "damageType": "",
            "dice": null,
            "die": "",
            "strikeConditionType": "",
            "strikeConditionValue": null,
            "value": ""
        },
        "propertyRune1": {
            "value": ""
        },
        "propertyRune2": {
            "value": ""
        },
        "propertyRune3": {
            "value": ""
        },
        "propertyRune4": {
            "value": ""
        },
        "quantity": 1,
        "range": null,
        "reload": {
            "value": ""
        },
        "rules": [
            {
                "key": "FlatModifier",
                "label": "Staff of Enchantment (identify enchantment magic)",
                "predicate": {
                    "all": [
                        "action:identify-magic",
                        "enchantment"
                    ]
                },
                "selector": "skill-check",
                "type": "circumstance",
                "value": 2
            }
        ],
        "size": "med",
        "source": {
            "value": "Pathfinder Core Rulebook"
        },
        "splashDamage": {
            "value": 0
        },
        "stackGroup": null,
        "strikingRune": {
            "value": ""
        },
        "traits": {
            "custom": "",
            "rarity": "common",
            "value": [
                "enchantment",
                "magical",
                "staff",
                "two-hand-d8"
            ]
        },
        "usage": {
            "value": "held-in-one-hand"
        },
        "weight": {
            "value": "1"
        }
    },
    "img": "systems/pf2ettw/icons/equipment/staves/staff-of-enchantment.webp",
    "name": "Staff of Enchantment",
    "type": "weapon"
}
