{
    "_id": "hnx3dOQrYLBtsu3V",
    "data": {
        "MAP": {
            "value": ""
        },
        "baseItem": "staff",
        "bonus": {
            "value": 0
        },
        "bonusDamage": {
            "value": 0
        },
        "category": "simple",
        "containerId": null,
        "damage": {
            "damageType": "bludgeoning",
            "dice": 1,
            "die": "d4",
            "value": ""
        },
        "description": {
            "value": "<p>This stout staff is made from gnarled hawthorn. When used as a weapon, a staff of nature's vengeance permanently has the effects of <em>@Compendium[pf2ettw.spells-srd.Shillelagh]{Shillelagh}</em></p>\n<p><strong>Activate</strong> Cast a Spell</p>\n<hr />\n<p><strong>Effect</strong> You expend a number of charges from the staff to cast a spell from its list.</p>\n<p><strong>Craft Requirements</strong> Supply one casting of all listed levels of all listed spells.</p>\n<ul>\n<li><strong>Cantrip</strong> <em>@Compendium[pf2ettw.spells-srd.Tanglefoot]{Tanglefoot}</em></li>\n<li><strong>1st</strong> <em>@Compendium[pf2ettw.spells-srd.Shocking Grasp]{Shocking Grasp}</em>, <em>@Compendium[pf2ettw.spells-srd.Spider Sting]{Spider Sting}</em></li>\n<li><strong>2nd</strong> <em>@Compendium[pf2ettw.spells-srd.Flaming Sphere]{Flaming Sphere}</em>, <em>@Compendium[pf2ettw.spells-srd.Vomit Swarm]{Vomit Swarm}</em></li>\n<li><strong>3rd</strong> <em>@Compendium[pf2ettw.spells-srd.Earthbind]{Earthbind}</em>, <em>@Compendium[pf2ettw.spells-srd.Wall of Thorns]{Wall of Thorns}</em></li>\n<li><strong>4th</strong> <em>@Compendium[pf2ettw.spells-srd.Bestial Curse]{Bestial Curse}</em>, <em>@Compendium[pf2ettw.spells-srd.Spike Stones]{Spike Stones}</em></li>\n<li><strong>5th</strong> <em>@Compendium[pf2ettw.spells-srd.Cloudkill]{Cloudkill}</em>, <em>@Compendium[pf2ettw.spells-srd.Control Water]{Control Water}</em></li>\n<li><strong>6th</strong> <em>@Compendium[pf2ettw.spells-srd.Purple Worm Sting]{Purple Worm Sting}</em>, <em>@Compendium[pf2ettw.spells-srd.Tangling Creepers]{Tangling Creepers}</em></li>\n<li><strong>7th</strong> <em>@Compendium[pf2ettw.spells-srd.Sunburst]{Sunburst}</em>, <em>@Compendium[pf2ettw.spells-srd.Volcanic Eruption]{Volcanic Eruption}</em></li>\n<li><strong>8th</strong> <em>@Compendium[pf2ettw.spells-srd.Earthquake]{Earthquake}</em>, <em>@Compendium[pf2ettw.spells-srd.Punishing Winds]{Punishing Winds}</em></li>\n</ul>"
        },
        "equippedBulk": {
            "value": ""
        },
        "group": "club",
        "hardness": 0,
        "hp": {
            "brokenThreshold": 0,
            "max": 0,
            "value": 0
        },
        "level": {
            "value": 18
        },
        "negateBulk": {
            "value": "0"
        },
        "potencyRune": {
            "value": null
        },
        "preciousMaterial": {
            "value": ""
        },
        "preciousMaterialGrade": {
            "value": ""
        },
        "price": {
            "value": {
                "gp": 24000
            }
        },
        "property1": {
            "critDamage": "",
            "critDamageType": "",
            "critDice": null,
            "critDie": "",
            "criticalConditionType": "",
            "criticalConditionValue": null,
            "damageType": "",
            "dice": null,
            "die": "",
            "strikeConditionType": "",
            "strikeConditionValue": null,
            "value": ""
        },
        "propertyRune1": {
            "value": ""
        },
        "propertyRune2": {
            "value": ""
        },
        "propertyRune3": {
            "value": ""
        },
        "propertyRune4": {
            "value": ""
        },
        "quantity": 1,
        "range": null,
        "reload": {
            "value": ""
        },
        "rules": [],
        "size": "med",
        "source": {
            "value": "Pathfinder Advanced Player's Guide"
        },
        "splashDamage": {
            "value": 0
        },
        "stackGroup": null,
        "strikingRune": {
            "value": ""
        },
        "traits": {
            "custom": "",
            "rarity": "common",
            "value": [
                "evocation",
                "magical",
                "staff",
                "two-hand-d8"
            ]
        },
        "usage": {
            "value": "held-in-one-hand"
        },
        "weight": {
            "value": "1"
        }
    },
    "img": "systems/pf2ettw/icons/equipment/staves/staff-of-natures-vengeance.webp",
    "name": "Staff of Nature's Vengeance (Major)",
    "type": "weapon"
}
