{
    "_id": "IEmYcavVfSy58aYx",
    "data": {
        "MAP": {
            "value": ""
        },
        "baseItem": "staff",
        "bonus": {
            "value": 0
        },
        "bonusDamage": {
            "value": 0
        },
        "category": "simple",
        "containerId": null,
        "damage": {
            "damageType": "bludgeoning",
            "dice": 1,
            "die": "d4",
            "value": ""
        },
        "description": {
            "value": "<p>This crooked staff is made from twisting acacia wood and has a sphere of rough sandstone embedded in the top, to channel the magic of the desert. When wielding this staff in deserts, you gain a +1 circumstance bonus to Survival checks to Subsist, Track, and Cover Tracks.</p>\n<p><strong>Activate</strong> Cast a Spell</p>\n<hr />\n<p><strong>Effect</strong> You expend a number of charges from the staff to cast a spell from the staff's list.</p>\n<hr />\n<ul>\n<li><strong>Cantrip</strong> <em>@Compendium[pf2ettw.spells-srd.Know Direction]{Know Direction}</em></li>\n<li><strong>1st</strong> <em>@Compendium[pf2ettw.spells-srd.Create Water]{Create Water}</em>, <em>@Compendium[pf2ettw.spells-srd.Pass Without Trace]{Pass Without Trace}</em></li>\n<li><strong>2nd</strong> <em>@Compendium[pf2ettw.spells-srd.Endure Elements]{Endure Elements}</em>, <em>@Compendium[pf2ettw.spells-srd.Enhance Victuals]{Enhance Victuals}</em></li>\n<li><strong>3rd</strong> <em>@Compendium[pf2ettw.spells-srd.Remove Disease]{Remove Disease}</em>, <em>@Compendium[pf2ettw.spells-srd.Wall of Wind]{Wall of Wind}</em></li>\n<li><strong>4th</strong> <em>@Compendium[pf2ettw.spells-srd.Air Walk]{Air Walk}</em></li>\n<li><strong>5th</strong> <em>@Compendium[pf2ettw.spells-srd.Elemental Form]{Elemental Form}</em></li>\n<li><strong>6th</strong> <em>@Compendium[pf2ettw.spells-srd.Flesh to Stone]{Flesh to Stone}</em>, <em>@Compendium[pf2ettw.spells-srd.Stone to Flesh]{Stone to Flesh}</em></li>\n<li><strong>7th</strong> <em>@Compendium[pf2ettw.spells-srd.Fiery Body]{Fiery Body}</em></li>\n<li><strong>8th</strong> <em>@Compendium[pf2ettw.spells-srd.Horrid Wilting]{Horrid Wilting}</em>, <em>@Compendium[pf2ettw.spells-srd.Wind Walk]{Wind Walk}</em></li>\n<li><strong>9th</strong> <em>@Compendium[pf2ettw.spells-srd.Storm of Vengeance]{Storm of Vengeance}</em></li>\n</ul>\n<hr />\n<p><strong>Craft Requirements</strong> Supply one casting of all listed levels of all listed spells</p>"
        },
        "equippedBulk": {
            "value": ""
        },
        "group": "club",
        "hardness": 0,
        "hp": {
            "brokenThreshold": 0,
            "max": 0,
            "value": 0
        },
        "level": {
            "value": 20
        },
        "negateBulk": {
            "value": "0"
        },
        "potencyRune": {
            "value": 0
        },
        "preciousMaterial": {
            "value": null
        },
        "preciousMaterialGrade": {
            "value": null
        },
        "price": {
            "value": {
                "gp": 70000
            }
        },
        "property1": {
            "critDamage": "",
            "critDamageType": "",
            "critDice": 0,
            "critDie": "",
            "criticalConditionType": "",
            "criticalConditionValue": null,
            "damageType": "",
            "dice": 0,
            "die": "",
            "strikeConditionType": "",
            "strikeConditionValue": null,
            "value": ""
        },
        "propertyRune1": {
            "value": null
        },
        "propertyRune2": {
            "value": null
        },
        "propertyRune3": {
            "value": null
        },
        "propertyRune4": {
            "value": null
        },
        "quantity": 1,
        "range": null,
        "reload": {
            "value": ""
        },
        "rules": [
            {
                "key": "FlatModifier",
                "predicate": {
                    "any": [
                        "action:subsist",
                        "action:track",
                        "action:cover-tracks"
                    ]
                },
                "selector": "survival",
                "type": "circumstance",
                "value": 1
            }
        ],
        "size": "med",
        "source": {
            "value": "Pathfinder Secrets of Magic"
        },
        "specific": {
            "value": false
        },
        "splashDamage": {
            "value": 0
        },
        "stackGroup": null,
        "strikingRune": {
            "value": ""
        },
        "traits": {
            "custom": "",
            "rarity": "common",
            "value": [
                "abjuration",
                "magical",
                "staff",
                "two-hand-d8"
            ]
        },
        "usage": {
            "value": "held-in-one-hand"
        },
        "weight": {
            "value": "1"
        }
    },
    "img": "systems/pf2ettw/icons/equipment/staves/staff-of-the-desert-winds.webp",
    "name": "Staff of the Desert Winds (True)",
    "type": "weapon"
}
