{
    "_id": "4F87PHMIzLHOUABL",
    "data": {
        "activation": {
            "condition": "",
            "cost": 0,
            "type": ""
        },
        "autoDestroy": {
            "_deprecated": true,
            "value": true
        },
        "autoUse": {
            "_deprecated": true,
            "value": true
        },
        "baseItem": null,
        "charges": {
            "_deprecated": true,
            "max": 0,
            "value": 0
        },
        "consumableType": {
            "value": "ammo"
        },
        "consume": {
            "_deprecated": true,
            "value": ""
        },
        "containerId": "null",
        "description": {
            "value": "<p><strong>Ammunition</strong> arrow, bolt</p>\n<p><strong>Activate</strong> <span class=\"pf2-icon\">1</span> Interact</p>\n<hr />\n<p>Each piece of stonethroat ammunition is tipped with an unusual yellow stone. When an activated piece of stonethroat ammunition hits a target, the target must attempt a DC 30 Fortitude save.</p>\n<hr />\n<p><strong>Critical Success</strong> The creature is unaffected.</p>\n<p><strong>Success</strong> The ammunition lodges itself loosely into the target's throat. For 1 round, the target takes a -2 status penalty to attack rolls with its jaws or fangs, and to Athletics checks.</p>\n<p>@Compendium[pf2ettw.equipment-effects.Effect: Stonethroat Ammunition (Success)]{Effect: Stonethroat Ammunition (Success)}</p>\n<p><strong>Failure</strong> The ammunition embeds itself deep in the target's throat. The target can't use its jaws or fangs Strike (if it has one) or the Swallow Whole ability until the end of its next turn.</p>\n<p><strong>Critical Failure</strong> As failure, and the target is @Compendium[pf2ettw.conditionitems.Enfeebled]{Enfeebled 2} for 1 round.</p>"
        },
        "duration": {
            "units": "",
            "value": null
        },
        "equippedBulk": {
            "value": ""
        },
        "hardness": 0,
        "hp": {
            "brokenThreshold": 0,
            "max": 0,
            "value": 0
        },
        "level": {
            "value": 12
        },
        "negateBulk": {
            "value": "0"
        },
        "preciousMaterial": {
            "value": null
        },
        "preciousMaterialGrade": {
            "value": null
        },
        "price": {
            "value": {
                "gp": 325
            }
        },
        "quantity": 1,
        "range": {
            "long": null,
            "units": "",
            "value": null
        },
        "rules": [],
        "size": "med",
        "source": {
            "value": "Pathfinder Lost Omens: The Grand Bazaar"
        },
        "spell": {
            "data": null,
            "heightenedLevel": null
        },
        "stackGroup": null,
        "target": {
            "type": "",
            "units": "",
            "value": null
        },
        "traits": {
            "custom": "",
            "rarity": "uncommon",
            "value": [
                "consumable",
                "magical",
                "transmutation"
            ]
        },
        "usage": {
            "value": "held-in-one-hand"
        },
        "uses": {
            "autoDestroy": true,
            "autoUse": true,
            "max": 0,
            "per": null,
            "value": 0
        },
        "weight": {
            "value": "-"
        }
    },
    "img": "systems/pf2ettw/icons/equipment/consumables/ammunition/stonethroat-ammunition.webp",
    "name": "Stonethroat Ammunition",
    "type": "consumable"
}
