{
    "_id": "qwCefJjr7AJSqYay",
    "data": {
        "activation": {
            "condition": "",
            "cost": 0,
            "type": ""
        },
        "autoDestroy": {
            "_deprecated": true,
            "value": true
        },
        "autoUse": {
            "_deprecated": true,
            "value": true
        },
        "baseItem": null,
        "charges": {
            "_deprecated": true,
            "max": 0,
            "value": 0
        },
        "consumableType": {
            "value": "drug"
        },
        "consume": {
            "_deprecated": true,
            "value": ""
        },
        "containerId": "null",
        "description": {
            "value": "<p><strong>Activate</strong> <span class=\"pf2-icon\">1</span> Interact</p>\n<hr />\n<p>The save for addiction to succubus kiss is @Check[type:fortitude|dc:28|name:Succubus Kiss Addiction|traits:virulent|showDC:owner], and the addiction has the virulent trait.</p>\n<p><strong>Saving Throw</strong> @Check[type:fortitude|dc:24|showDC:owner]</p>\n<p><strong>Onset</strong> 1 minute</p>\n<p><strong>Maximum Duration</strong> 8 hours</p>\n<p><strong>Stage 1</strong> +2 item bonus to initiative checks (10 minutes) and to all saving throws against emotion and mental effects</p>\n<p><strong>Stage 2</strong> as stage 1 plus @Compendium[pf2ettw.conditionitems.Drained]{Drained 1} (1 hour)</p>\n<p><strong>Stage 3</strong> as stage 2 plus blindness or deafness (1 hour)</p>\n<p><strong>Stage 4</strong> blindness and deafness (1 hour)</p>\n<p><strong>Stage 5</strong> @Compendium[pf2ettw.conditionitems.Unconscious]{Unconscious}</p>"
        },
        "duration": {
            "units": "",
            "value": null
        },
        "equippedBulk": {
            "value": ""
        },
        "hardness": 0,
        "hp": {
            "brokenThreshold": 0,
            "max": 0,
            "value": 0
        },
        "level": {
            "value": 7
        },
        "negateBulk": {
            "value": "0"
        },
        "preciousMaterial": {
            "value": null
        },
        "preciousMaterialGrade": {
            "value": null
        },
        "price": {
            "value": {
                "gp": 70
            }
        },
        "quantity": 1,
        "range": {
            "long": null,
            "units": "",
            "value": null
        },
        "rules": [],
        "size": "med",
        "source": {
            "value": "Pathfinder Lost Omens: Absalom, City of Lost Omens"
        },
        "spell": {
            "data": null,
            "heightenedLevel": null
        },
        "stackGroup": null,
        "target": {
            "type": "",
            "units": "",
            "value": null
        },
        "traits": {
            "custom": "",
            "rarity": "rare",
            "value": [
                "alchemical",
                "consumable",
                "drug",
                "ingested",
                "poison"
            ]
        },
        "usage": {
            "value": "held-in-one-hand"
        },
        "uses": {
            "autoDestroy": true,
            "autoUse": true,
            "max": 0,
            "per": null,
            "value": 0
        },
        "weight": {
            "value": "-"
        }
    },
    "img": "systems/pf2ettw/icons/equipment/alchemical-items/drugs/succubus-kiss.webp",
    "name": "Succubus Kiss",
    "type": "consumable"
}
