{
    "_id": "2GngLv6m3uHObFGZ",
    "data": {
        "MAP": {
            "value": ""
        },
        "baseItem": "alchemical-bomb",
        "bonus": {
            "value": 2
        },
        "bonusDamage": {
            "value": 0
        },
        "category": "martial",
        "containerId": "null",
        "damage": {
            "damageType": "acid",
            "dice": 3,
            "die": "d4",
            "value": ""
        },
        "description": {
            "value": "<p><strong>Activate</strong> <span class=\"pf2-icon\">1</span> Strike</p>\n<hr />\n<p>A thick, sulfurous, irritating gas fills this golden‑yellow flask. You gain a +3 item bonus to attack rolls. The bomb deals [[/r {3d4}[acid]]]{3d4 acid damage} and [[/r {3}[splash,acid]]]{3 acid splash damage}. On a hit, the target takes a -1 status penalty to Perception checks and attack rolls until the end of its next turn, or becomes @Compendium[pf2ettw.conditionitems.Sickened]{Sickened 1} on a critical hit. Creatures hit with this bomb are temporarily immune to the effects of the bomb for 1 minute.</p>\n<p>@Compendium[pf2ettw.equipment-effects.Effect: Sulfur Bomb (Failure)]{Effect: Sulfur Bomb (Failure)}</p>"
        },
        "equippedBulk": {
            "value": ""
        },
        "group": "bomb",
        "hardness": 0,
        "hp": {
            "brokenThreshold": 0,
            "max": 0,
            "value": 0
        },
        "level": {
            "value": 11
        },
        "negateBulk": {
            "value": "0"
        },
        "potencyRune": {
            "value": 0
        },
        "preciousMaterial": {
            "value": null
        },
        "preciousMaterialGrade": {
            "value": null
        },
        "price": {
            "value": {
                "gp": 275
            }
        },
        "property1": {
            "critDamage": "",
            "critDamageType": "",
            "critDice": 0,
            "critDie": "",
            "criticalConditionType": "",
            "criticalConditionValue": null,
            "damageType": "",
            "dice": 0,
            "die": "",
            "strikeConditionType": "",
            "strikeConditionValue": null,
            "value": ""
        },
        "propertyRune1": {
            "value": null
        },
        "propertyRune2": {
            "value": null
        },
        "propertyRune3": {
            "value": null
        },
        "propertyRune4": {
            "value": null
        },
        "quantity": 1,
        "range": 20,
        "reload": {
            "value": "-"
        },
        "rules": [
            {
                "key": "Note",
                "outcome": [
                    "success"
                ],
                "selector": "{item|_id}-damage",
                "text": "pf2ettw.BombNotes.SulfurBomb.Greater.success"
            },
            {
                "key": "Note",
                "outcome": [
                    "criticalSuccess"
                ],
                "selector": "{item|_id}-damage",
                "text": "pf2ettw.BombNotes.SulfurBomb.Greater.criticalSuccess"
            }
        ],
        "size": "med",
        "source": {
            "value": "Pathfinder Lost Omens: The Grand Bazaar"
        },
        "specific": {
            "value": false
        },
        "splashDamage": {
            "value": 3
        },
        "stackGroup": null,
        "strikingRune": {
            "value": ""
        },
        "traits": {
            "custom": "",
            "rarity": "uncommon",
            "value": [
                "acid",
                "alchemical",
                "bomb",
                "consumable",
                "olfactory",
                "splash"
            ]
        },
        "usage": {
            "value": "held-in-one-hand"
        },
        "weight": {
            "value": "L"
        }
    },
    "img": "systems/pf2ettw/icons/equipment/alchemical-items/alchemical-bombs/sulfur-bomb.webp",
    "name": "Sulfur Bomb (Greater)",
    "type": "weapon"
}
