{
    "_id": "sfKzk4bzplyT4zax",
    "data": {
        "MAP": {
            "value": ""
        },
        "baseItem": "dragon-mouth-pistol",
        "bonus": {
            "value": 0
        },
        "bonusDamage": {
            "value": 0
        },
        "category": "martial",
        "containerId": "null",
        "damage": {
            "damageType": "piercing",
            "dice": 1,
            "die": "d6",
            "value": ""
        },
        "description": {
            "value": "<p><strong>Perception</strong> +12; precise vision 30 feet, imprecise hearing 30 feet</p>\n<p><strong>Communication</strong> speech (Common) Skills Intimidation +19, Navigation Lore +14, Sailing Lore +14</p>\n<p><strong>Int</strong> +0, <strong>Wis</strong> +2, <strong>Cha</strong> +4</p>\n<p><strong>Will</strong> +16</p>\n<p>A <em>sunken pistol</em> is imbued with the unfulfilled desires and insatiable greed of its previous wielder, a notorious pirate drowned at sea. Once a beautiful and artistically wrought weapon, a <em>sunken pistol</em> is coated in a fine layer of dried salt and encrusted with barnacles. Each shot fired from this <em>+1 striking dragon mouth pistol</em> is now coated in a layer of salty ectoplasm and has the effects of a ghost touch rune. You can shoot the <em>sunken pistol</em> underwater, even when using black powder ammunition.</p>\n<p>A <em>sunken pistol</em> urges you to amass a horde of treasure even a dragon would be proud of. The methods used to acquire these riches matter not to the greedy pirate pistol, so long as you amass and hoard excessive wealth. Above all else, a <em>sunken pistol</em> desires the return of its own treasure, which might rest in the wreck of its sunken ship's hold or be @Compendium[pf2ettw.conditionitems.Hidden]{Hidden} on a dangerous island.</p>\n<p>In pursuit of treasure, a <em>sunken pistol</em> offers nautical and navigation advice to you, though it refuses such aid during less lucrative ventures. If you prove a profitable partner, the <em>sunken pistol</em> aids you in combat by Demoralizing your opponents (see the first Activation below). If you prove charitable or unwilling to retrieve its treasure, the <em>sunken pistol</em> turns its ire on you, Demoralizing you during combat until you relent. If you repeatedly refuse the <em>sunken pistol</em>, it would be wise to not accept water breathing from it, as it might attempt to drown you to allow a more suitable wielder to acquire it from your corpse. The <em>sunken pistol</em> can use the following activations.</p>\n<hr />\n<p><strong>Activate</strong> <span class=\"pf2-icon\">1</span> command</p>\n<p><strong>Frequency</strong> once per minute</p>\n<hr />\n<p><strong>Effect</strong> The <em>sunken pistol</em> curses and insults a creature it can see, attempting an Intimidation check to @Compendium[pf2ettw.actionspf2ettw.Demoralize]{Demoralize} that creature.</p>\n<hr />\n<p><strong>Activate</strong> <span class=\"pf2-icon\">3</span> command</p>\n<p><strong>Frequency</strong> once per day</p>\n<hr />\n<p><strong>Effect</strong> The <em>sunken pistol</em> casts water breathing on you as a 3rd-level arcane spell. The <em>sunken pistol</em> can Dismiss this spell, so be sure to keep the gun happy if you're relying on its good graces to breathe!</p>"
        },
        "equippedBulk": {
            "value": ""
        },
        "group": "firearm",
        "hardness": 0,
        "hp": {
            "brokenThreshold": 0,
            "max": 0,
            "value": 0
        },
        "level": {
            "value": 8
        },
        "negateBulk": {
            "value": "0"
        },
        "potencyRune": {
            "value": 1
        },
        "preciousMaterial": {
            "value": null
        },
        "preciousMaterialGrade": {
            "value": null
        },
        "price": {
            "value": {
                "gp": 100
            }
        },
        "property1": {
            "critDamage": "",
            "critDamageType": "",
            "critDice": 0,
            "critDie": "",
            "criticalConditionType": "",
            "criticalConditionValue": null,
            "damageType": "",
            "dice": 0,
            "die": "",
            "strikeConditionType": "",
            "strikeConditionValue": null,
            "value": ""
        },
        "propertyRune1": {
            "value": null
        },
        "propertyRune2": {
            "value": null
        },
        "propertyRune3": {
            "value": null
        },
        "propertyRune4": {
            "value": null
        },
        "quantity": 1,
        "range": 30,
        "reload": {
            "value": "1"
        },
        "rules": [],
        "size": "med",
        "source": {
            "value": "Pathfinder Guns & Gears"
        },
        "specific": {
            "material": null,
            "price": "100 gp",
            "runes": {
                "potency": 1,
                "striking": "striking"
            },
            "value": true
        },
        "splashDamage": {
            "value": 0
        },
        "stackGroup": null,
        "strikingRune": {
            "value": "striking"
        },
        "traits": {
            "custom": "",
            "rarity": "rare",
            "value": [
                "concussive",
                "scatter-5"
            ]
        },
        "usage": {
            "value": "held-in-one-hand"
        },
        "weight": {
            "value": "1"
        }
    },
    "img": "systems/pf2ettw/icons/equipment/weapons/dragon-mouth-pistol.webp",
    "name": "Sunken Pistol",
    "type": "weapon"
}
