{
    "_id": "TmXTijJIpOxLJLXb",
    "data": {
        "activation": {
            "condition": "",
            "cost": 0,
            "type": ""
        },
        "autoDestroy": {
            "_deprecated": true,
            "value": true
        },
        "autoUse": {
            "_deprecated": true,
            "value": true
        },
        "baseItem": null,
        "charges": {
            "_deprecated": true,
            "max": 0,
            "value": 0
        },
        "consumableType": {
            "value": "other"
        },
        "consume": {
            "_deprecated": true,
            "value": ""
        },
        "containerId": "null",
        "description": {
            "value": "<p><strong>Activate</strong> <span class=\"pf2-icon\">1</span> Interact</p>\n<hr />\n<p>Frying mudwings-the remains of magical winged creatures found in blighted swamps-is a delicate balance. Cooked for too long and they lose their potency; cooked too briefly and the toxins in their system could end up harming whoever eats them. When you consume a perfectly cooked tapas, you grow two sets of mudwings that grant you a fly Speed of 30 feet or your Speed, whichever is lower, for 10 minutes. You can also use the following Activation.</p>\n<hr />\n<p><strong>Activate</strong> <span class=\"pf2-icon\">r</span> Interact</p>\n<p><strong>Trigger</strong> You would take damage from a physical attack</p>\n<hr />\n<p><strong>Effect</strong> You intercept the attack with a pair of your wings. You gain resistance 15 against physical damage for the triggering attack only, shattering one set of your wings in the process. The first time you use this Activation, your fly Speed becomes 15 feet, or half your Speed, whichever is lower, for the duration. After the second time, your mudwings are shattered entirely, ending the effect.</p>"
        },
        "duration": {
            "units": "",
            "value": null
        },
        "equippedBulk": {
            "value": ""
        },
        "hardness": 0,
        "hp": {
            "brokenThreshold": 0,
            "max": 0,
            "value": 0
        },
        "level": {
            "value": 12
        },
        "negateBulk": {
            "value": "0"
        },
        "preciousMaterial": {
            "value": null
        },
        "preciousMaterialGrade": {
            "value": null
        },
        "price": {
            "value": {
                "gp": 350
            }
        },
        "quantity": 1,
        "range": {
            "long": null,
            "units": "",
            "value": null
        },
        "rules": [],
        "size": "med",
        "source": {
            "value": "Pathfinder Lost Omens: The Grand Bazaar"
        },
        "spell": {
            "data": null,
            "heightenedLevel": null
        },
        "stackGroup": null,
        "target": {
            "type": "",
            "units": "",
            "value": null
        },
        "traits": {
            "custom": "",
            "rarity": "uncommon",
            "value": [
                "abjuration",
                "consumable",
                "magical"
            ]
        },
        "usage": {
            "value": "held-in-one-hand"
        },
        "uses": {
            "autoDestroy": true,
            "autoUse": true,
            "max": 0,
            "per": null,
            "value": 0
        },
        "weight": {
            "value": "L"
        }
    },
    "img": "systems/pf2ettw/icons/default-icons/consumable.svg",
    "name": "Thrice-Fried Mudwings",
    "type": "consumable"
}
