{
    "_id": "1YROvQsCdq8WFWRj",
    "data": {
        "activation": {
            "condition": "",
            "cost": 0,
            "type": ""
        },
        "autoDestroy": {
            "_deprecated": true,
            "value": true
        },
        "autoUse": {
            "_deprecated": true,
            "value": true
        },
        "baseItem": null,
        "charges": {
            "_deprecated": true,
            "max": "1",
            "value": "1"
        },
        "consumableType": {
            "value": "potion"
        },
        "consume": {
            "_deprecated": true,
            "value": ""
        },
        "containerId": null,
        "description": {
            "value": "<p><strong>Activate</strong> <span class=\"pf2-icon\">1</span> Interact</p>\n<p>This purple potion has a bitter taste and seems to blur with motion. When you drink a time shield potion, you are frozen in time for [[/r 2d4 #rounds]]{2d4 rounds}. You can't act or be targeted, you become immune to all effects, and you vanish from your space; as far as the universe is concerned, you simply don't exist as long as the potion lasts. The durations of any effects targeting you when you drink the potion are suspended until it wears off.</p>\n<p>Once the potion's duration expires, you return to the normal flow of time and your former space; if that space is now occupied, you get shunted to the nearest unoccupied space. Effects with durations immediately resume affecting you, elapsing as though no time has passed. If you are within the area of an effect created while you were outside of time, you immediately take those effects upon returning. The GM might determine that other changes that occurred while you were outside of time (such as the ground beneath you crumbling) also affect you upon your return.</p>"
        },
        "duration": {
            "units": "",
            "value": null
        },
        "equippedBulk": {
            "value": ""
        },
        "hardness": 0,
        "hp": {
            "brokenThreshold": 0,
            "max": 0,
            "value": 0
        },
        "level": {
            "value": 13
        },
        "negateBulk": {
            "value": "0"
        },
        "preciousMaterial": {
            "value": ""
        },
        "preciousMaterialGrade": {
            "value": ""
        },
        "price": {
            "value": {
                "gp": 600
            }
        },
        "quantity": 1,
        "range": {
            "long": null,
            "units": "",
            "value": null
        },
        "rules": [],
        "size": "med",
        "source": {
            "value": "Pathfinder Advanced Player's Guide"
        },
        "spell": {
            "data": null,
            "heightenedLevel": null
        },
        "stackGroup": null,
        "target": {
            "type": "",
            "units": "",
            "value": null
        },
        "traits": {
            "custom": "",
            "rarity": "common",
            "value": [
                "consumable",
                "magical",
                "potion",
                "transmutation"
            ]
        },
        "usage": {
            "value": "held-in-one-hand"
        },
        "uses": {
            "autoDestroy": true,
            "autoUse": true,
            "max": 0,
            "per": null,
            "value": 0
        },
        "weight": {
            "value": "L"
        }
    },
    "img": "systems/pf2ettw/icons/equipment/consumables/potions/time-shield-potion.webp",
    "name": "Time Shield Potion",
    "type": "consumable"
}
