{
    "_id": "SHhSOqzt89GRk9kL",
    "data": {
        "baseItem": null,
        "containerId": "null",
        "description": {
            "value": "<p>A miniature toy carriage is carved from wood and has fully functioning wheels. It can vary in size from 2 to 8 inches long, too small for even Tiny creatures to ride. If pushed or propelled, obstacles and terrain might slow, stop, tip, or divert the carriage's course.</p>\n<hr />\n<p>A tiny crank protrudes from the side of this carriage. If the crank is wound and the carriage is released on the ground, the carriage propels in a straight line at a Speed of 10 feet. Each Interact action spent winding the crank propels the carriage for 1 round. A windup toy carriage can be wound for a maximum of 9 actions total, at which point it's too tight to wind further.</p>"
        },
        "equippedBulk": {
            "value": ""
        },
        "hardness": 0,
        "hp": {
            "brokenThreshold": 0,
            "max": 0,
            "value": 0
        },
        "level": {
            "value": 2
        },
        "negateBulk": {
            "value": "0"
        },
        "preciousMaterial": {
            "value": null
        },
        "preciousMaterialGrade": {
            "value": null
        },
        "price": {
            "value": {
                "gp": 5
            }
        },
        "quantity": 1,
        "rules": [],
        "size": "med",
        "source": {
            "value": "Pathfinder Lost Omens: The Grand Bazaar"
        },
        "stackGroup": null,
        "traits": {
            "custom": "",
            "rarity": "common",
            "value": []
        },
        "usage": {
            "value": "held-in-two-hands"
        },
        "weight": {
            "value": "L"
        }
    },
    "img": "systems/pf2ettw/icons/default-icons/equipment.svg",
    "name": "Toy Carriage (Windup)",
    "type": "equipment"
}
