{
    "_id": "ty9LXqqYAnlsTh46",
    "data": {
        "baseItem": null,
        "containerId": "null",
        "description": {
            "value": "<p>Tripods are designed for use with kickback weapons, as a way for gunslingers with lower strength to accurately use these more powerful weapons by sacrificing mobility instead. They can be set up and attached to a firearm with a single Interact action using one hand, setting the tripod in your square. While this sturdy piece of engineering is in use, you don't take the -2 penalty for firing a kickback weapon, even if your Strength isn't high enough to avoid the penalty. However, you must retrieve the tripod with a single Interact action before you can move the firearm to a different position. Normally, when you're @Compendium[pf2ettw.conditionitems.Hidden]{Hidden} or @Compendium[pf2ettw.conditionitems.Undetected]{Undetected}, you become observed if you do anything except @Compendium[pf2ettw.actionspf2ettw.Hide]{Hide}, @Compendium[pf2ettw.actionspf2ettw.Sneak]{Sneak}, or Step. However, deploying or retrieving a tripod with an Interact action doesn't automatically make you observed, so long as you don't set up or remove the tripod when it's in a spot where creatures can see the tripod itself.</p>"
        },
        "equippedBulk": {
            "value": ""
        },
        "hardness": 0,
        "hp": {
            "brokenThreshold": 0,
            "max": 0,
            "value": 0
        },
        "level": {
            "value": 0
        },
        "negateBulk": {
            "value": "0"
        },
        "preciousMaterial": {
            "value": null
        },
        "preciousMaterialGrade": {
            "value": null
        },
        "price": {
            "value": {
                "sp": 2
            }
        },
        "quantity": 1,
        "rules": [],
        "size": "med",
        "source": {
            "value": "Pathfinder Guns & Gears"
        },
        "stackGroup": "",
        "traits": {
            "custom": "",
            "rarity": "uncommon",
            "value": []
        },
        "usage": {
            "value": "held-in-two-hands"
        },
        "weight": {
            "value": "1"
        }
    },
    "img": "systems/pf2ettw/icons/equipment/other/attached-items/tripod.webp",
    "name": "Tripod",
    "type": "equipment"
}
