{
    "_id": "4yUa5JicrhnHUggC",
    "data": {
        "baseItem": null,
        "containerId": null,
        "description": {
            "value": "<p>The best minds among the Magaambyan, Iomedaean, and Pharasmin Knights of Lastwall joined together to create these small, leather-bound journals. While you're holding an <em>undead compendium</em>, the information it contains slips into your mind, granting you a +2 item bonus to Recall Knowledge checks to obtain information about undead creatures.</p>\n<hr />\n<p><strong>Activate</strong> 10 minutes (envision, Interact; auditory, linguistic)</p>\n<p><strong>Frequency</strong> once per day</p>\n<p><strong>Effect</strong> You study the journal, focusing on a specific type of undead creature, and as the information fills the pages, you recite it aloud to your allies. Select ghost, ghoul, graveknight, lich, mummy, vampire, wight, or zombie. You and up to four allies that hear you read the information aloud during the activation gain a +2 item bonus on attack rolls and saving throws against that type of undead for the next 10 minutes. To benefit from the bonus, your allies must listen attentively and can't perform any other activities during the activation time.</p>"
        },
        "equippedBulk": {
            "value": ""
        },
        "hardness": 0,
        "hp": {
            "brokenThreshold": 0,
            "max": 0,
            "value": 0
        },
        "level": {
            "value": 14
        },
        "negateBulk": {
            "value": "0"
        },
        "preciousMaterial": {
            "value": null
        },
        "preciousMaterialGrade": {
            "value": null
        },
        "price": {
            "value": {
                "gp": 6300
            }
        },
        "quantity": 1,
        "rules": [
            {
                "key": "FlatModifier",
                "predicate": {
                    "all": [
                        "action:recall-knowledge"
                    ]
                },
                "selector": "religion",
                "type": "item",
                "value": 2
            }
        ],
        "size": "med",
        "source": {
            "value": "Pathfinder Lost Omens: Knights of Lastwall"
        },
        "stackGroup": "",
        "traits": {
            "custom": "",
            "rarity": "uncommon",
            "value": [
                "enchantment",
                "magical"
            ]
        },
        "usage": {
            "value": "held-in-one-hand"
        },
        "weight": {
            "value": "-"
        }
    },
    "img": "systems/pf2ettw/icons/equipment/held-items/undead-compendium.webp",
    "name": "Undead Compendium",
    "type": "equipment"
}
