{
    "_id": "WGbE7qAGw8O5yH07",
    "data": {
        "activation": {
            "condition": "",
            "cost": 0,
            "type": ""
        },
        "autoDestroy": {
            "_deprecated": true,
            "value": true
        },
        "autoUse": {
            "_deprecated": true,
            "value": true
        },
        "baseItem": null,
        "charges": {
            "_deprecated": true,
            "max": "1",
            "value": "1"
        },
        "consumableType": {
            "value": "other"
        },
        "consume": {
            "_deprecated": true,
            "value": null
        },
        "containerId": null,
        "description": {
            "value": "<p>Activate <span class=\"pf2-icon\">3</span> Interact</p>\n<hr />\n<p>This specialized cream serves as a repellent to stave off insects.</p>\n<p>The repellent also binds with a number of common insect venoms, dulling the potency and giving the wearer's immune system a boost to resist venoms.</p>\n<p>Once applied to your skin, the repellent grants you a +2 item bonus to Fortitude saving throws against poisons for 4 hours.</p>\n<p>@Compendium[pf2ettw.consumable-effects.Effect: Vermin Repellent Agent (Moderate)]{Effect: Vermin Repellent Agent (Moderate)}</p>\n<hr />\n<p>In addition, any arthropods (insects, spiders, scorpions, crabs, and similar invertebrate animals) must attempt a Will save (DC 24) when attempting to attack you with a melee Strike, or with a swarm attack such as the spider swarm's swarming bites. The arthropod then becomes temporarily immune for 1 minute.</p>\n<hr />\n<p><strong>Critical Success</strong> The creature can act normally.</p>\n<p><strong>Success</strong> The creature is @Compendium[pf2ettw.conditionitems.Frightened]{Frightened 1}.</p>\n<p><strong>Failure</strong> The creature is frightened 2.</p>\n<p><strong>Critical Failure</strong> The creature is frightened 2 and @Compendium[pf2ettw.conditionitems.Fleeing]{Fleeing}.</p>"
        },
        "duration": {
            "units": "",
            "value": null
        },
        "equippedBulk": {
            "value": ""
        },
        "hardness": 0,
        "hp": {
            "brokenThreshold": 0,
            "max": 0,
            "value": 0
        },
        "level": {
            "value": 8
        },
        "negateBulk": {
            "value": "0"
        },
        "preciousMaterial": {
            "value": ""
        },
        "preciousMaterialGrade": {
            "value": ""
        },
        "price": {
            "value": {
                "gp": 75
            }
        },
        "quantity": 1,
        "range": {
            "long": null,
            "units": "",
            "value": null
        },
        "rules": [],
        "size": "med",
        "source": {
            "value": "Pathfinder Lost Omens: Pathfinder Society Guide"
        },
        "spell": {
            "data": null,
            "heightenedLevel": null
        },
        "stackGroup": null,
        "target": {
            "type": "",
            "units": "",
            "value": null
        },
        "traits": {
            "custom": "",
            "rarity": "uncommon",
            "value": [
                "alchemical",
                "consumable"
            ]
        },
        "usage": {
            "value": "held-in-two-hands"
        },
        "uses": {
            "autoDestroy": true,
            "autoUse": true,
            "max": 0,
            "per": null,
            "value": 0
        },
        "weight": {
            "value": "L"
        }
    },
    "img": "systems/pf2ettw/icons/equipment/alchemical-items/alchemical-tools/vermin-repellent-agent.webp",
    "name": "Vermin Repellent Agent (Moderate)",
    "type": "consumable"
}
