{
    "_id": "xlwcMtJTKpS6EkSw",
    "data": {
        "activation": {
            "condition": "",
            "cost": 0,
            "type": ""
        },
        "autoDestroy": {
            "_deprecated": true,
            "value": false
        },
        "autoUse": {
            "_deprecated": true,
            "value": true
        },
        "baseItem": null,
        "charges": {
            "_deprecated": true,
            "max": 0,
            "value": 0
        },
        "consumableType": {
            "value": "wand"
        },
        "consume": {
            "_deprecated": true,
            "value": ""
        },
        "containerId": "null",
        "description": {
            "value": "<p>This dirty metal wand is covered in an oily acrid smelling film.</p>\n<hr />\n<p><strong>Activate</strong> @Compendium[pf2ettw.actionspf2ettw.Cast a Spell]{Cast a Spell}</p>\n<p><strong>Frequency</strong> once per day, plus overcharge</p>\n<hr />\n<p><strong>Effect</strong> You cast <em>@Compendium[pf2ettw.spells-srd.Grease]{Grease}</em>, but the grease is caustic. If you cast this spell on an area, any creature that fails their Reflex save and falls @Compendium[pf2ettw.conditionitems.Prone]{Prone}, or that begins their turn prone, takes [[/r {1d6}[acid]]]{1d6 acid damage}. If you cast this spell on an unattended object, the first creature to pick up the object during the duration takes [[/r {1d6}[persistent,acid]]] @Compendium[pf2ettw.conditionitems.Persistent Damage]{Persistent Acid Damage}. If you cast this spell on an attended object and the holder or wielder fails their Acrobatics or Reflex save, the holder or wielder takes [[/r {1d6}[persistent,acid]]] @Compendium[pf2ettw.conditionitems.Persistent Damage]{Persistent Acid Damage}. If you cast this spell on a worn object, any creature who @Compendium[pf2ettw.actionspf2ettw.Grapple]{Grapple}s or Grabs the wearer takes [[/r {1d6}[acid]]]{1d6 acid damage}.</p>\n<hr />\n<p><strong>Craft Requirements</strong> Supply a casting of <em>grease</em></p>"
        },
        "duration": {
            "units": "",
            "value": null
        },
        "equippedBulk": {
            "value": ""
        },
        "hardness": 0,
        "hp": {
            "brokenThreshold": 0,
            "max": 0,
            "value": 0
        },
        "level": {
            "value": 5
        },
        "negateBulk": {
            "value": "0"
        },
        "preciousMaterial": {
            "value": null
        },
        "preciousMaterialGrade": {
            "value": null
        },
        "price": {
            "value": {
                "gp": 160
            }
        },
        "quantity": 1,
        "range": {
            "long": null,
            "units": "",
            "value": null
        },
        "rules": [],
        "size": "med",
        "source": {
            "value": "Pathfinder Special: Fumbus!"
        },
        "spell": {
            "data": null,
            "heightenedLevel": null
        },
        "stackGroup": null,
        "target": {
            "type": "",
            "units": "",
            "value": null
        },
        "traits": {
            "custom": "",
            "rarity": "rare",
            "value": [
                "acid",
                "conjuration",
                "magical",
                "wand"
            ]
        },
        "usage": {
            "value": "held-in-one-hand"
        },
        "uses": {
            "autoDestroy": true,
            "autoUse": true,
            "max": 0,
            "per": null,
            "value": 0
        },
        "weight": {
            "value": "L"
        }
    },
    "img": "systems/pf2ettw/icons/default-icons/consumable.svg",
    "name": "Wand of Caustic Effluence",
    "type": "consumable"
}
