{
    "_id": "ut83Grf73Z8ZTaV1",
    "data": {
        "baseItem": null,
        "containerId": null,
        "description": {
            "value": "<p>This wand is a slender length of ice-blue glass.</p>\n<p><strong>Activate</strong> Cast a spell</p>\n<p><strong>Frequency</strong> Once per day, plus overcharge</p>\n<hr />\n<p><strong>Effect</strong> You cast <em>@Compendium[pf2ettw.spells-srd.Cone of Cold]{Cone of Cold}</em> at 5th level.</p>\n<p>The ground within the spell's area is swathed in deep snow, becoming difficult terrain for 1 minute.</p>\n<p><strong>Craft Requirements</strong> Supply a casting of cone of cold at 5th-level.</p>"
        },
        "equippedBulk": {
            "value": ""
        },
        "hardness": 0,
        "hp": {
            "brokenThreshold": 0,
            "max": 0,
            "value": 0
        },
        "level": {
            "value": 14
        },
        "negateBulk": {
            "value": "0"
        },
        "preciousMaterial": {
            "value": ""
        },
        "preciousMaterialGrade": {
            "value": ""
        },
        "price": {
            "value": {
                "gp": 4500
            }
        },
        "quantity": 1,
        "rules": [],
        "size": "med",
        "source": {
            "value": "Pathfinder Advanced Player's Guide"
        },
        "stackGroup": null,
        "traits": {
            "custom": "",
            "rarity": "common",
            "value": [
                "cold",
                "evocation",
                "magical",
                "wand"
            ]
        },
        "usage": {
            "value": "held-in-one-hand"
        },
        "weight": {
            "value": "L"
        }
    },
    "img": "systems/pf2ettw/icons/equipment/wands/specialty-wands/wand-of-the-snowfields.webp",
    "name": "Wand of the Snowfields (5th-Level Spell)",
    "type": "equipment"
}
