{
    "_id": "j6laknUcsOA6utvf",
    "data": {
        "baseItem": null,
        "containerId": "null",
        "description": {
            "value": "<p>This chime's carvings depict a series of warding runes that evoke feelings of serene protection. When activated, you touch the chime to yourself or a willing creature. The target gains the effects of <em>@Compendium[pf2ettw.spells-srd.Sanctuary]{Sanctuary}</em> (@Check[type:will|dc:20|traits:abjuration,uncommon|showDC:all] save). You can use this chime up to five times per day, but each use must target a different creature.</p>"
        },
        "equippedBulk": {
            "value": ""
        },
        "hardness": 0,
        "hp": {
            "brokenThreshold": 0,
            "max": 0,
            "value": 0
        },
        "level": {
            "value": 8
        },
        "negateBulk": {
            "value": "0"
        },
        "preciousMaterial": {
            "value": null
        },
        "preciousMaterialGrade": {
            "value": null
        },
        "price": {
            "value": {
                "gp": 500
            }
        },
        "quantity": 1,
        "rules": [],
        "size": "med",
        "source": {
            "value": "Pathfinder #170: Spoken on the Song Wind"
        },
        "stackGroup": null,
        "traits": {
            "custom": "",
            "rarity": "uncommon",
            "value": [
                "evocation",
                "magical"
            ]
        },
        "usage": {
            "value": "held-in-one-hand"
        },
        "weight": {
            "value": "L"
        }
    },
    "img": "systems/pf2ettw/icons/default-icons/equipment.svg",
    "name": "Warcaller's Chime of Refuge",
    "type": "equipment"
}
