{
    "_id": "i2JwyZJpVZhlOObL",
    "data": {
        "baseItem": null,
        "containerId": null,
        "description": {
            "value": "<p>This leather-bound tome is specially treated to protect from water damage and comes with a key and a treated slipcase that bears a simple lock to keep the tome secure. This journal is commonly used by adventuring scholars and ship navigators for recording their journeys.</p>"
        },
        "equippedBulk": {
            "value": ""
        },
        "hardness": 0,
        "hp": {
            "brokenThreshold": 0,
            "max": 0,
            "value": 0
        },
        "level": {
            "value": 1
        },
        "negateBulk": {
            "value": "0"
        },
        "preciousMaterial": {
            "value": ""
        },
        "preciousMaterialGrade": {
            "value": ""
        },
        "price": {
            "value": {
                "gp": 5
            }
        },
        "quantity": 1,
        "rules": [],
        "size": "med",
        "source": {
            "value": "Pathfinder Lost Omens: Pathfinder Society Guide"
        },
        "stackGroup": null,
        "traits": {
            "custom": "",
            "rarity": "uncommon",
            "value": []
        },
        "usage": {
            "value": "held-in-one-hand"
        },
        "weight": {
            "value": "1"
        }
    },
    "img": "systems/pf2ettw/icons/equipment/adventuring-gear/waterproof-journal.webp",
    "name": "Waterproof Journal",
    "type": "equipment"
}
