{
    "_id": "AxUJfrOmu7dY3XHP",
    "data": {
        "baseItem": null,
        "containerId": "null",
        "description": {
            "value": "<p>This buttoned, leather case protects a firearm and up to 6 rounds of ammunition from being damaged by water or other environmental effects.</p>"
        },
        "equippedBulk": {
            "value": ""
        },
        "hardness": 0,
        "hp": {
            "brokenThreshold": 0,
            "max": 0,
            "value": 0
        },
        "level": {
            "value": 0
        },
        "negateBulk": {
            "value": "0"
        },
        "preciousMaterial": {
            "value": null
        },
        "preciousMaterialGrade": {
            "value": null
        },
        "price": {
            "value": {
                "sp": 2
            }
        },
        "quantity": 1,
        "rules": [],
        "size": "med",
        "source": {
            "value": "Pathfinder Guns & Gears"
        },
        "stackGroup": "",
        "traits": {
            "custom": "",
            "rarity": "uncommon",
            "value": []
        },
        "usage": {
            "value": "held-in-two-hands"
        },
        "weight": {
            "value": "L"
        }
    },
    "img": "systems/pf2ettw/icons/equipment/held-items/waterproof-firearm-carrying-case.webp",
    "name": "Waterproof Firearm Carrying Case",
    "type": "equipment"
}
