{
    "_id": "me7GsgRKnqA7vaB5",
    "data": {
        "baseItem": null,
        "containerId": "null",
        "description": {
            "value": "<p>This light barding is covered in wavelike patterns. The barding adjusts to fit your animal companion regardless of its shape.</p>\n<hr />\n<p><strong>Activate</strong> <span class=\"pf2-icon\">2</span> Interact</p>\n<p><strong>Frequency</strong> once per day</p>\n<hr />\n<p><strong>Effect</strong> You trace a finger along the wave patterns on the barding, granting your companion a swim Speed of 30 feet for 10 minutes. If your companion already had a swim Speed, it gains a +10-foot item bonus to its swim Speed for 10 minutes instead. Even if the companion doesn't have the mount special ability, it can still Swim while being ridden.</p>"
        },
        "equippedBulk": {
            "value": ""
        },
        "hardness": 0,
        "hp": {
            "brokenThreshold": 0,
            "max": 0,
            "value": 0
        },
        "level": {
            "value": 5
        },
        "negateBulk": {
            "value": "0"
        },
        "preciousMaterial": {
            "value": null
        },
        "preciousMaterialGrade": {
            "value": null
        },
        "price": {
            "value": {
                "gp": 130
            }
        },
        "quantity": 1,
        "rules": [],
        "size": "med",
        "source": {
            "value": "Pathfinder Lost Omens: The Grand Bazaar"
        },
        "stackGroup": null,
        "traits": {
            "custom": "",
            "rarity": "uncommon",
            "value": [
                "companion",
                "invested",
                "primal",
                "transmutation"
            ]
        },
        "usage": {
            "value": "wornbarding"
        },
        "weight": {
            "value": "L"
        }
    },
    "img": "systems/pf2ettw/icons/default-icons/equipment.svg",
    "name": "Waverider Barding",
    "type": "equipment"
}
