{
    "_id": "MNaLwkkyKx86NKKq",
    "data": {
        "baseItem": null,
        "containerId": null,
        "description": {
            "value": "<p>A <em>whistle of calling</em> appears to be a simple brass whistle. It changes slightly in appearance depending on the type of creature to which it's attuned, depicting small carvings of hooves, feather patterns, claws, or other appropriate motifs.</p>\n<hr />\n<p><strong>Activate</strong> 10 minutes (Interact)</p>\n<p><strong>Effect</strong> You blow the whistle at different tones in the presence of a companion or another allied creature willing to be your mount. At the end of the 10 minutes, the whistle is attuned to that creature. The whistle can be attuned to only one creature at any time, but you can attune it to a new one with another 10-minute activation.</p>\n<hr />\n<p><strong>Activate</strong> <span class=\"pf2-icon\">2</span> Interact</p>\n<p><strong>Frequency</strong> once per day</p>\n<p><strong>Effect</strong> You blow the whistle and the creature to which it is attuned teleports instantly from as far as 1 mile away to an unoccupied space within 30 feet of you. The whistle has no effect if the attuned creature is dead, on another plane, or outside the range.</p>"
        },
        "equippedBulk": {
            "value": ""
        },
        "hardness": 0,
        "hp": {
            "brokenThreshold": 0,
            "max": 0,
            "value": 0
        },
        "level": {
            "value": 15
        },
        "negateBulk": {
            "value": "0"
        },
        "preciousMaterial": {
            "value": null
        },
        "preciousMaterialGrade": {
            "value": null
        },
        "price": {
            "value": {
                "gp": 6300
            }
        },
        "quantity": 1,
        "rules": [],
        "size": "med",
        "source": {
            "value": "Pathfinder Lost Omens: Knights of Lastwall"
        },
        "stackGroup": "",
        "traits": {
            "custom": "",
            "rarity": "uncommon",
            "value": [
                "conjuration",
                "magical"
            ]
        },
        "usage": {
            "value": "held-in-one-hand"
        },
        "weight": {
            "value": "-"
        }
    },
    "img": "systems/pf2ettw/icons/equipment/held-items/whistle-of-calling.webp",
    "name": "Whistle of Calling",
    "type": "equipment"
}
