{
    "_id": "aKoMqPDmVzPI7Q20",
    "data": {
        "baseItem": null,
        "containerId": null,
        "description": {
            "value": "<p>Made from soft leather, with delicate white wings attached to the heel, these boots are ensorcelled with powerful air magic.</p>\n<p>Whenever you fall while wearing these boots, the boots automatically cast <em>@Compendium[pf2ettw.spells-srd.Feather Fall]{Feather Fall}</em> on you. This benefit can't trigger again for 10 minutes.</p>\n<hr />\n<p><strong>Activate</strong> <span class=\"pf2-icon\">D</span> command, Interact</p>\n<p><strong>Frequency</strong> once per day</p>\n<hr />\n<p><strong>Effect</strong> You speak a command word and click the boots' heels together to cause the wings to animate and flap rapidly, granting you a fly Speed of 30 feet for 10 minutes.</p>\n<p>@Compendium[pf2ettw.equipment-effects.Effect: Winged Boots]{Effect: Winged Boots}</p>"
        },
        "equippedBulk": {
            "value": ""
        },
        "hardness": 0,
        "hp": {
            "brokenThreshold": 0,
            "max": 0,
            "value": 0
        },
        "level": {
            "value": 10
        },
        "negateBulk": {
            "value": "0"
        },
        "preciousMaterial": {
            "value": ""
        },
        "preciousMaterialGrade": {
            "value": ""
        },
        "price": {
            "value": {
                "gp": 850
            }
        },
        "quantity": 1,
        "rules": [],
        "size": "med",
        "source": {
            "value": "Pathfinder Core Rulebook"
        },
        "stackGroup": null,
        "traits": {
            "custom": "",
            "rarity": "common",
            "value": [
                "invested",
                "magical",
                "transmutation"
            ]
        },
        "usage": {
            "value": "wornshoes"
        },
        "weight": {
            "value": "L"
        }
    },
    "img": "systems/pf2ettw/icons/equipment/worn-items/other-worn-items/winged-boots.webp",
    "name": "Winged Boots",
    "type": "equipment"
}
