{
    "_id": "EN3mp0sVObP8ou3p",
    "data": {
        "abilities": {
            "cha": {
                "mod": 2
            },
            "con": {
                "mod": 0
            },
            "dex": {
                "mod": 2
            },
            "int": {
                "mod": -1
            },
            "str": {
                "mod": 5
            },
            "wis": {
                "mod": 4
            }
        },
        "attributes": {
            "ac": {
                "details": "",
                "value": 24
            },
            "allSaves": {
                "value": "+1 status vs. poison"
            },
            "hp": {
                "details": "",
                "max": 120,
                "temp": 0,
                "value": 120
            },
            "initiative": {
                "ability": "perception"
            },
            "perception": {
                "value": 14
            },
            "speed": {
                "otherSpeeds": [],
                "value": "25"
            }
        },
        "details": {
            "alignment": {
                "value": "NE"
            },
            "blurb": "Male human werewolf stalker",
            "creatureType": "",
            "level": {
                "value": 6
            },
            "privateNotes": "",
            "publicNotes": "",
            "source": {
                "value": "Pathfinder #163: Ruins of Gauntlight"
            }
        },
        "resources": {
            "focus": {
                "max": 1,
                "value": 1
            }
        },
        "saves": {
            "fortitude": {
                "saveDetail": "",
                "value": 12
            },
            "reflex": {
                "saveDetail": "",
                "value": 14
            },
            "will": {
                "saveDetail": "",
                "value": 16
            }
        },
        "traits": {
            "ci": [],
            "di": {
                "custom": "",
                "value": []
            },
            "dr": [
                {
                    "type": "poison",
                    "value": 3
                }
            ],
            "dv": [
                {
                    "type": "silver",
                    "value": 7
                }
            ],
            "languages": {
                "custom": "Wolf Empathy",
                "selected": [],
                "value": [
                    "common"
                ]
            },
            "rarity": "unique",
            "senses": {
                "value": "low-light vision, scent (imprecise) 30 feet"
            },
            "size": {
                "value": "med"
            },
            "traits": {
                "custom": "",
                "value": [
                    "beast",
                    "human",
                    "humanoid",
                    "werecreature"
                ]
            }
        }
    },
    "img": "systems/pf2ettw/icons/default-icons/npc.svg",
    "items": [
        {
            "_id": "i4Z53PbHjjlFshli",
            "data": {
                "autoHeightenLevel": {
                    "value": null
                },
                "description": {
                    "value": ""
                },
                "displayLevels": {
                    "0": false,
                    "1": false,
                    "2": false,
                    "3": false
                },
                "prepared": {
                    "flexible": false,
                    "value": "prepared"
                },
                "proficiency": {
                    "value": 1
                },
                "rules": [],
                "showSlotlessLevels": {
                    "value": false
                },
                "showUnpreparedSpells": {
                    "value": false
                },
                "slots": {
                    "slot0": {
                        "max": 4,
                        "prepared": {
                            "0": {
                                "id": "BEzJK3f8Z0Z6kVVq"
                            },
                            "1": {
                                "id": "5YTf8nFRwGkR75rr"
                            },
                            "2": {
                                "id": "0vDYCFzBJSXPEA1G"
                            },
                            "3": {
                                "id": "6KoAHfwCFZ9XAglK"
                            }
                        },
                        "value": 0
                    },
                    "slot1": {
                        "max": 3,
                        "prepared": {
                            "0": {
                                "id": "z9fodQZeMkUOMomH"
                            },
                            "1": {
                                "id": "2zV0npFDdwAGHdam"
                            },
                            "2": {
                                "id": "lInapOsFKanSPpRv"
                            }
                        },
                        "value": 0
                    },
                    "slot10": {
                        "max": 0,
                        "prepared": [],
                        "value": 0
                    },
                    "slot11": {
                        "max": 0,
                        "prepared": [],
                        "value": 0
                    },
                    "slot2": {
                        "max": 3,
                        "prepared": {
                            "0": {
                                "id": "Lk1bKLrtbGWtz7mk"
                            },
                            "1": {
                                "id": "gK6ll1qVTeDYLSR0"
                            },
                            "2": {
                                "id": "AFlU1pau6zlQ2NcR"
                            }
                        },
                        "value": 0
                    },
                    "slot3": {
                        "max": 3,
                        "prepared": {
                            "0": {
                                "id": "Lk1bKLrtbGWtz7mk"
                            },
                            "1": {
                                "id": "YaBXXRYT0511L1Rh"
                            },
                            "2": {
                                "id": "h5RX2LxfbBrZj3DW"
                            }
                        },
                        "value": 0
                    },
                    "slot4": {
                        "max": 0,
                        "prepared": [],
                        "value": 0
                    },
                    "slot5": {
                        "max": 0,
                        "prepared": [],
                        "value": 0
                    },
                    "slot6": {
                        "max": 0,
                        "prepared": [],
                        "value": 0
                    },
                    "slot7": {
                        "max": 0,
                        "prepared": [],
                        "value": 0
                    },
                    "slot8": {
                        "max": 0,
                        "prepared": [],
                        "value": 0
                    },
                    "slot9": {
                        "max": 0,
                        "prepared": [],
                        "value": 0
                    }
                },
                "slug": null,
                "source": {
                    "value": ""
                },
                "spelldc": {
                    "dc": 24,
                    "mod": 0,
                    "value": 15
                },
                "tradition": {
                    "value": "primal"
                },
                "traits": {
                    "custom": "",
                    "rarity": "common",
                    "value": []
                }
            },
            "img": "systems/pf2ettw/icons/default-icons/spellcastingEntry.svg",
            "name": "Primal Prepared Spells",
            "sort": 100000,
            "type": "spellcastingEntry"
        },
        {
            "_id": "EDPFYDhj0ZOTpRmX",
            "data": {
                "autoHeightenLevel": {
                    "value": null
                },
                "description": {
                    "value": ""
                },
                "displayLevels": {},
                "prepared": {
                    "flexible": false,
                    "value": "focus"
                },
                "proficiency": {
                    "value": 1
                },
                "rules": [],
                "showSlotlessLevels": {
                    "value": true
                },
                "showUnpreparedSpells": {
                    "value": true
                },
                "slots": {
                    "slot0": {
                        "max": 0,
                        "prepared": [],
                        "value": 0
                    },
                    "slot1": {
                        "max": 0,
                        "prepared": [],
                        "value": 0
                    },
                    "slot10": {
                        "max": 0,
                        "prepared": [],
                        "value": 0
                    },
                    "slot11": {
                        "max": 0,
                        "prepared": [],
                        "value": 0
                    },
                    "slot2": {
                        "max": 0,
                        "prepared": [],
                        "value": 0
                    },
                    "slot3": {
                        "max": 0,
                        "prepared": [],
                        "value": 0
                    },
                    "slot4": {
                        "max": 0,
                        "prepared": [],
                        "value": 0
                    },
                    "slot5": {
                        "max": 0,
                        "prepared": [],
                        "value": 0
                    },
                    "slot6": {
                        "max": 0,
                        "prepared": [],
                        "value": 0
                    },
                    "slot7": {
                        "max": 0,
                        "prepared": [],
                        "value": 0
                    },
                    "slot8": {
                        "max": 0,
                        "prepared": [],
                        "value": 0
                    },
                    "slot9": {
                        "max": 0,
                        "prepared": [],
                        "value": 0
                    }
                },
                "slug": null,
                "source": {
                    "value": ""
                },
                "spelldc": {
                    "dc": 24,
                    "mod": 0,
                    "value": 16
                },
                "tradition": {
                    "value": "primal"
                },
                "traits": {
                    "custom": "",
                    "rarity": "common",
                    "value": []
                }
            },
            "img": "systems/pf2ettw/icons/default-icons/spellcastingEntry.svg",
            "name": "Animal Order Spells",
            "sort": 200000,
            "type": "spellcastingEntry"
        },
        {
            "_id": "YaBXXRYT0511L1Rh",
            "data": {
                "ability": {
                    "value": ""
                },
                "area": {
                    "areaType": "line",
                    "value": "120"
                },
                "areasize": {
                    "value": "120-foot line"
                },
                "category": {
                    "value": "spell"
                },
                "components": {
                    "focus": false,
                    "material": false,
                    "somatic": true,
                    "verbal": true
                },
                "cost": {
                    "value": ""
                },
                "damage": {
                    "value": {
                        "0": {
                            "applyMod": false,
                            "type": {
                                "categories": [],
                                "subtype": "",
                                "value": "electricity"
                            },
                            "value": "4d12"
                        }
                    }
                },
                "description": {
                    "value": "<p>A bolt of lightning strikes outward from your hand, dealing 4d12 electricity damage.</p>\n<hr />\n<p><strong>Heightened (+1)</strong> The damage increases by 1d12.</p>"
                },
                "duration": {
                    "value": ""
                },
                "hasCounteractCheck": {
                    "value": false
                },
                "heightening": {
                    "damage": {
                        "0": "1d12"
                    },
                    "interval": 1,
                    "type": "interval"
                },
                "level": {
                    "value": 3
                },
                "location": {
                    "value": "i4Z53PbHjjlFshli"
                },
                "materials": {
                    "value": ""
                },
                "prepared": {
                    "value": ""
                },
                "primarycheck": {
                    "value": ""
                },
                "range": {
                    "value": ""
                },
                "rules": [],
                "save": {
                    "basic": "basic",
                    "value": "reflex"
                },
                "school": {
                    "value": "evocation"
                },
                "secondarycasters": {
                    "value": ""
                },
                "secondarycheck": {
                    "value": ""
                },
                "slug": "lightning-bolt",
                "source": {
                    "value": "Pathfinder Core Rulebook"
                },
                "spellType": {
                    "value": "save"
                },
                "sustained": {
                    "value": false
                },
                "target": {
                    "value": ""
                },
                "time": {
                    "value": "2"
                },
                "traditions": {
                    "value": [
                        "arcane",
                        "primal"
                    ]
                },
                "traits": {
                    "custom": "",
                    "rarity": "common",
                    "value": [
                        "electricity"
                    ]
                }
            },
            "flags": {
                "core": {
                    "sourceId": "Compendium.pf2ettw.spells-srd.9AAkVUCwF6WVNNY2"
                }
            },
            "img": "systems/pf2ettw/icons/spells/lightning-bolt.webp",
            "name": "Lightning Bolt",
            "sort": 300000,
            "type": "spell"
        },
        {
            "_id": "h5RX2LxfbBrZj3DW",
            "data": {
                "ability": {
                    "value": ""
                },
                "area": {
                    "areaType": "",
                    "value": null
                },
                "areasize": {
                    "value": ""
                },
                "category": {
                    "value": "spell"
                },
                "components": {
                    "focus": false,
                    "material": true,
                    "somatic": true,
                    "verbal": true
                },
                "cost": {
                    "value": ""
                },
                "damage": {
                    "value": {
                        "0": {
                            "type": {
                                "categories": [],
                                "value": "piercing"
                            },
                            "value": "3d4"
                        }
                    }
                },
                "description": {
                    "value": "<p>Over the course of a minute, you cause a thick wall of thorny brambles to grow from the ground. You create a 5-foot-thick wall of brambles and thorns in a straight line up to 60 feet long and 10 feet high. You must create the wall in an unbroken open space so its edges don't pass through any creatures or objects, or the spell is lost. The wall stands vertically. If you wish, the wall can be of a shorter length or height. Everything on each side of the wall has cover from creatures on the opposite side, and the wall's spaces are difficult terrain. For every move action a creature uses to enter at least one of the wall's spaces, that creature takes 3d4 piercing damage.</p>\n<p>Each 5-foot-by-5-foot section of the wall has AC 10, Hardness 10, and 20 Hit Points. It's immune to critical hits and precision damage. A destroyed section can be moved through freely.</p>\n<hr />\n<p><strong>Heightened (+1)</strong> The Hit Points of each section of the wall increase by 5, and the piercing damage increases by 1d4.</p>"
                },
                "duration": {
                    "value": "1 minute"
                },
                "hasCounteractCheck": {
                    "value": false
                },
                "heightening": {
                    "damage": {
                        "0": "1d4"
                    },
                    "interval": 1,
                    "type": "interval"
                },
                "level": {
                    "value": 3
                },
                "location": {
                    "value": "i4Z53PbHjjlFshli"
                },
                "materials": {
                    "value": ""
                },
                "prepared": {
                    "value": ""
                },
                "primarycheck": {
                    "value": ""
                },
                "range": {
                    "value": "60 feet"
                },
                "rules": [],
                "save": {
                    "basic": "",
                    "value": ""
                },
                "school": {
                    "value": "conjuration"
                },
                "secondarycasters": {
                    "value": ""
                },
                "secondarycheck": {
                    "value": ""
                },
                "slug": "wall-of-thorns",
                "source": {
                    "value": "Pathfinder Core Rulebook"
                },
                "spellType": {
                    "value": "utility"
                },
                "sustained": {
                    "value": false
                },
                "target": {
                    "value": ""
                },
                "time": {
                    "value": "3"
                },
                "traditions": {
                    "value": [
                        "primal"
                    ]
                },
                "traits": {
                    "custom": "",
                    "rarity": "common",
                    "value": [
                        "plant"
                    ]
                }
            },
            "flags": {
                "core": {
                    "sourceId": "Compendium.pf2ettw.spells-srd.KsWhliKfUs3IpW3c"
                }
            },
            "img": "systems/pf2ettw/icons/spells/wall-of-thorns.webp",
            "name": "Wall of Thorns",
            "sort": 400000,
            "type": "spell"
        },
        {
            "_id": "AFlU1pau6zlQ2NcR",
            "data": {
                "ability": {
                    "value": ""
                },
                "area": {
                    "areaType": "",
                    "value": null
                },
                "areasize": {
                    "value": ""
                },
                "category": {
                    "value": "spell"
                },
                "components": {
                    "focus": false,
                    "material": false,
                    "somatic": true,
                    "verbal": true
                },
                "cost": {
                    "value": ""
                },
                "damage": {
                    "value": {}
                },
                "description": {
                    "value": "<p>The targets can breathe underwater.</p>\n<hr />\n<p><strong>Heightened (3rd)</strong> The duration increases to 8 hours.</p>\n<p><strong>Heightened (4th)</strong> The duration increases to until your next daily preparations.</p>"
                },
                "duration": {
                    "value": "1 hour"
                },
                "hasCounteractCheck": {
                    "value": false
                },
                "level": {
                    "value": 2
                },
                "location": {
                    "value": "i4Z53PbHjjlFshli"
                },
                "materials": {
                    "value": ""
                },
                "prepared": {
                    "value": ""
                },
                "primarycheck": {
                    "value": ""
                },
                "range": {
                    "value": "30 feet"
                },
                "rules": [],
                "save": {
                    "basic": "",
                    "value": ""
                },
                "school": {
                    "value": "transmutation"
                },
                "secondarycasters": {
                    "value": ""
                },
                "secondarycheck": {
                    "value": ""
                },
                "slug": "water-breathing",
                "source": {
                    "value": "Pathfinder Core Rulebook"
                },
                "spellType": {
                    "value": "utility"
                },
                "sustained": {
                    "value": false
                },
                "target": {
                    "value": "up to 5 creatures"
                },
                "time": {
                    "value": "1 minute"
                },
                "traditions": {
                    "value": [
                        "arcane",
                        "divine",
                        "primal"
                    ]
                },
                "traits": {
                    "custom": "",
                    "rarity": "common",
                    "value": []
                }
            },
            "flags": {
                "core": {
                    "sourceId": "Compendium.pf2ettw.spells-srd.MZGkMsPBztFN0pUO"
                }
            },
            "img": "systems/pf2ettw/icons/spells/water-breathing.webp",
            "name": "Water Breathing",
            "sort": 500000,
            "type": "spell"
        },
        {
            "_id": "BEzJK3f8Z0Z6kVVq",
            "data": {
                "ability": {
                    "value": ""
                },
                "area": {
                    "areaType": "",
                    "value": ""
                },
                "areasize": {
                    "value": ""
                },
                "category": {
                    "value": "spell"
                },
                "components": {
                    "focus": false,
                    "material": false,
                    "somatic": true,
                    "verbal": true
                },
                "cost": {
                    "value": ""
                },
                "damage": {
                    "value": {
                        "0": {
                            "applyMod": false,
                            "type": {
                                "categories": [],
                                "subtype": "",
                                "value": "acid"
                            },
                            "value": "1d6+1"
                        }
                    }
                },
                "description": {
                    "value": "<p>You splash a glob of acid that splatters your target and nearby creatures. Make a spell attack. If you hit, you deal 1d6 acid damage plus [[/r {1}[splash,acid]]]{1 splash acid damage}. On a critical success, the target also takes [[/r {1}[persistent,acid]]] @Compendium[pf2ettw.conditionitems.Persistent Damage]{Persistent Acid Damage}.</p>\n<hr />\n<p><strong>Heightened (3rd)</strong> The initial damage increases to 1d6 + your spellcasting ability modifier, and the @Compendium[pf2ettw.conditionitems.Persistent Damage]{Persistent Damage} increases to [[/r {2}[persistent,acid]]].</p>\n<p><strong>Heightened (5th)</strong> The initial damage increases to 2d6 + your spellcasting ability modifier, the Persistent Damage increases to [[/r {3}[persistent,acid]]], and the splash damage increases to [[/r {2}[splash,acid]]].</p>\n<p><strong>Heightened (7th)</strong> The initial damage increases to 3d6 + your spellcasting ability modifier, the Persistent Damage increases to [[/r {4}[persistent,acid]]], and the splash damage increases to [[/r {3}[splash,acid]]].</p>\n<p><strong>Heightened (9th)</strong> The initial damage increases to 4d6 + your spellcasting ability modifier, the Persistent Damage increases to [[/r {5}[persistent,acid]]], and the splash damage increases to [[/r {4}[splash,acid]]].</p>"
                },
                "duration": {
                    "value": ""
                },
                "hasCounteractCheck": {
                    "value": false
                },
                "level": {
                    "value": 1
                },
                "location": {
                    "value": "i4Z53PbHjjlFshli"
                },
                "materials": {
                    "value": ""
                },
                "prepared": {
                    "value": ""
                },
                "primarycheck": {
                    "value": ""
                },
                "range": {
                    "value": "30 feet"
                },
                "rules": [],
                "save": {
                    "basic": "",
                    "value": ""
                },
                "school": {
                    "value": "evocation"
                },
                "secondarycasters": {
                    "value": ""
                },
                "secondarycheck": {
                    "value": ""
                },
                "slug": "acid-splash",
                "source": {
                    "value": "Pathfinder Core Rulebook"
                },
                "spellType": {
                    "value": "attack"
                },
                "sustained": {
                    "value": false
                },
                "target": {
                    "value": "1 creature"
                },
                "time": {
                    "value": "2"
                },
                "traditions": {
                    "custom": "",
                    "value": [
                        "arcane",
                        "primal"
                    ]
                },
                "traits": {
                    "custom": "",
                    "rarity": "common",
                    "value": [
                        "attack",
                        "acid",
                        "cantrip"
                    ]
                }
            },
            "flags": {
                "core": {
                    "sourceId": "Compendium.pf2ettw.spells-srd.gISYsBFby1TiXfBt"
                }
            },
            "img": "systems/pf2ettw/icons/spells/acid-splash.webp",
            "name": "Acid Splash",
            "sort": 600000,
            "type": "spell"
        },
        {
            "_id": "5YTf8nFRwGkR75rr",
            "data": {
                "ability": {
                    "value": ""
                },
                "area": {
                    "areaType": "emanation",
                    "value": "30"
                },
                "areasize": {
                    "value": "30-foot emanation"
                },
                "category": {
                    "value": "spell"
                },
                "components": {
                    "focus": false,
                    "material": false,
                    "somatic": true,
                    "verbal": true
                },
                "cost": {
                    "value": ""
                },
                "damage": {
                    "value": {}
                },
                "description": {
                    "value": "<p>You send out a pulse that registers the presence of magic. You receive no information beyond the presence or absence of magic. You can choose to ignore magic you're fully aware of, such as the magic items and ongoing spells of you and your allies.</p>\n<p>You detect illusion magic only if that magic's effect has a lower level than the level of your detect magic spell. However, items that have an illusion aura but aren't deceptive in appearance (such as an invisibility potion) typically are detected normally.</p>\n<hr />\n<p><strong>Heightened (3rd)</strong> You learn the school of magic for the highest-level effect within range that the spell detects. If multiple effects are equally strong, the GM determines which you learn.</p>\n<p><strong>Heightened (4th)</strong> As 3rd level, but you also pinpoint the source of the highest-level magic. Like for an imprecise sense, you don't learn the exact location, but can narrow down the source to within a 5-foot cube (or the nearest if larger than that).</p>"
                },
                "duration": {
                    "value": ""
                },
                "hasCounteractCheck": {
                    "value": false
                },
                "level": {
                    "value": 1
                },
                "location": {
                    "value": "i4Z53PbHjjlFshli"
                },
                "materials": {
                    "value": ""
                },
                "prepared": {
                    "value": ""
                },
                "primarycheck": {
                    "value": ""
                },
                "range": {
                    "value": ""
                },
                "rules": [],
                "save": {
                    "basic": "",
                    "value": ""
                },
                "school": {
                    "value": "divination"
                },
                "secondarycasters": {
                    "value": ""
                },
                "secondarycheck": {
                    "value": ""
                },
                "slug": "detect-magic",
                "source": {
                    "value": "Pathfinder Core Rulebook"
                },
                "spellType": {
                    "value": "utility"
                },
                "sustained": {
                    "value": false
                },
                "target": {
                    "value": ""
                },
                "time": {
                    "value": "2"
                },
                "traditions": {
                    "custom": "",
                    "value": [
                        "arcane",
                        "divine",
                        "occult",
                        "primal"
                    ]
                },
                "traits": {
                    "custom": "",
                    "rarity": "common",
                    "value": [
                        "detection",
                        "cantrip"
                    ]
                }
            },
            "flags": {
                "core": {
                    "sourceId": "Compendium.pf2ettw.spells-srd.gpzpAAAJ1Lza2JVl"
                }
            },
            "img": "systems/pf2ettw/icons/spells/detect-magic.webp",
            "name": "Detect Magic",
            "sort": 700000,
            "type": "spell"
        },
        {
            "_id": "z9fodQZeMkUOMomH",
            "data": {
                "ability": {
                    "value": ""
                },
                "area": {
                    "areaType": "",
                    "value": null
                },
                "areasize": {
                    "value": ""
                },
                "category": {
                    "value": "spell"
                },
                "components": {
                    "focus": false,
                    "material": false,
                    "somatic": false,
                    "verbal": true
                },
                "cost": {
                    "value": ""
                },
                "damage": {
                    "value": {}
                },
                "description": {
                    "value": "<p><strong>Trigger</strong> a creature within range is falling</p>\n<hr />\n<p>You cause the air itself to arrest a fall. The target's fall slows to 60 feet per round, and the portion of the fall during the spell's duration doesn't count when calculating falling damage. If the target reaches the ground while the spell is in effect, it takes no damage from the fall. The spell ends as soon as the target lands.</p>"
                },
                "duration": {
                    "value": "1 minute"
                },
                "hasCounteractCheck": {
                    "value": false
                },
                "level": {
                    "value": 1
                },
                "location": {
                    "value": "i4Z53PbHjjlFshli"
                },
                "materials": {
                    "value": ""
                },
                "prepared": {
                    "value": ""
                },
                "primarycheck": {
                    "value": ""
                },
                "range": {
                    "value": "60 feet"
                },
                "rules": [],
                "save": {
                    "basic": "",
                    "value": ""
                },
                "school": {
                    "value": "abjuration"
                },
                "secondarycasters": {
                    "value": ""
                },
                "secondarycheck": {
                    "value": ""
                },
                "slug": "feather-fall",
                "source": {
                    "value": "Pathfinder Core Rulebook"
                },
                "spellType": {
                    "value": "utility"
                },
                "sustained": {
                    "value": false
                },
                "target": {
                    "value": "1 falling creature"
                },
                "time": {
                    "value": "reaction"
                },
                "traditions": {
                    "value": [
                        "arcane",
                        "primal"
                    ]
                },
                "traits": {
                    "custom": "",
                    "rarity": "common",
                    "value": []
                }
            },
            "flags": {
                "core": {
                    "sourceId": "Compendium.pf2ettw.spells-srd.TTwOKGqmZeKSyNMH"
                }
            },
            "img": "systems/pf2ettw/icons/spells/feather-fall.webp",
            "name": "Feather Fall",
            "sort": 800000,
            "type": "spell"
        },
        {
            "_id": "2zV0npFDdwAGHdam",
            "data": {
                "ability": {
                    "value": ""
                },
                "area": {
                    "areaType": "",
                    "value": null
                },
                "areasize": {
                    "value": "4 contiguous 5-foot squares or Targets 1 object of 1 Bulk or less"
                },
                "category": {
                    "value": "spell"
                },
                "components": {
                    "focus": false,
                    "material": false,
                    "somatic": true,
                    "verbal": true
                },
                "cost": {
                    "value": ""
                },
                "damage": {
                    "value": {}
                },
                "description": {
                    "value": "<p>You conjure grease, with effects based on choosing area or target.</p>\n<ul>\n<li><strong>Area</strong> <strong>[4 contiguous 5-foot squares]</strong> All solid ground in the area is covered with grease. Each creature standing on the greasy surface must succeed at a Reflex save or an Acrobatics check against your spell DC or fall @Compendium[pf2ettw.conditionitems.Prone]{Prone}. Creatures using an action to move onto the greasy surface during the spell's duration must attempt either a Reflex save or an Acrobatics check to Balance. A creature that Steps or Crawls doesn't have to attempt a check or save.</li>\n<li><strong>Target</strong> <strong>[1 object of Bulk 1 or less]</strong> If you cast the spell on an unattended object, anyone trying to pick up the object must succeed at an Acrobatics check or Reflex save against your spell DC to do so. If you target an attended object, the creature that has the object must attempt an Acrobatics check or Reflex save. On a failure, the holder or wielder takes a -2 circumstance penalty to all checks that involve using the object; on a critical failure, the holder or wielder releases the item. The object lands in an adjacent square of the GM's choice. If you cast this spell on a worn object, the wearer gains a +2 circumstance bonus to Fortitude saves against attempts to grapple them.</li>\n</ul>"
                },
                "duration": {
                    "value": "1 minute"
                },
                "hasCounteractCheck": {
                    "value": false
                },
                "level": {
                    "value": 1
                },
                "location": {
                    "value": "i4Z53PbHjjlFshli"
                },
                "materials": {
                    "value": ""
                },
                "prepared": {
                    "value": ""
                },
                "primarycheck": {
                    "value": ""
                },
                "range": {
                    "value": "30 feet"
                },
                "rules": [],
                "save": {
                    "basic": "",
                    "value": "reflex"
                },
                "school": {
                    "value": "conjuration"
                },
                "secondarycasters": {
                    "value": ""
                },
                "secondarycheck": {
                    "value": ""
                },
                "slug": "grease",
                "source": {
                    "value": "Pathfinder Core Rulebook"
                },
                "spellType": {
                    "value": "save"
                },
                "sustained": {
                    "value": false
                },
                "target": {
                    "value": "1 object of Bulk 1 or less"
                },
                "time": {
                    "value": "2"
                },
                "traditions": {
                    "value": [
                        "arcane",
                        "primal"
                    ]
                },
                "traits": {
                    "custom": "",
                    "rarity": "common",
                    "value": []
                }
            },
            "flags": {
                "core": {
                    "sourceId": "Compendium.pf2ettw.spells-srd.Wu0xFpewMKRK3HG8"
                }
            },
            "img": "systems/pf2ettw/icons/spells/grease.webp",
            "name": "Grease",
            "sort": 900000,
            "type": "spell"
        },
        {
            "_id": "Lk1bKLrtbGWtz7mk",
            "data": {
                "ability": {
                    "value": ""
                },
                "area": {
                    "areaType": "emanation",
                    "value": "30"
                },
                "areasize": {
                    "value": "varies"
                },
                "category": {
                    "value": "spell"
                },
                "components": {
                    "focus": false,
                    "material": false,
                    "somatic": false,
                    "verbal": false
                },
                "cost": {
                    "value": ""
                },
                "damage": {
                    "value": {
                        "0": {
                            "applyMod": false,
                            "type": {
                                "categories": [],
                                "subtype": "",
                                "value": "positive"
                            },
                            "value": "1d8"
                        }
                    }
                },
                "description": {
                    "value": "<p>You channel positive energy to heal the living or damage the undead. If the target is a willing living creature, you restore 1d8 Hit Points. If the target is undead, you deal that amount of positive damage to it, and it gets a basic Fortitude save. The number of actions you spend when Casting this Spell determines its targets, range, area, and other parameters.</p>\n<p><span class=\"pf2-icon\">1</span> (somatic) The spell has a range of touch.</p>\n<p><span class=\"pf2-icon\">2</span> (verbal, somatic) The spell has a range of 30 feet. If you're healing a living creature, increase the Hit Points restored by 8. [[/r (@item.level)d8[positive]+@item.level*8[healing]]]{2-Action Healing}</p>\n<p><span class=\"pf2-icon\">3</span> (material, somatic, verbal) You disperse positive energy in a 30-foot emanation. This targets all living and undead creatures in the burst.</p>\n<hr />\n<p><strong>Heightened (+1)</strong> The amount of healing or damage increases by 1d8, and the extra healing for the 2-action version increases by 8.</p>"
                },
                "duration": {
                    "value": ""
                },
                "hasCounteractCheck": {
                    "value": false
                },
                "heightening": {
                    "damage": {
                        "0": "1d8"
                    },
                    "interval": 1,
                    "type": "interval"
                },
                "level": {
                    "value": 1
                },
                "location": {
                    "value": "i4Z53PbHjjlFshli"
                },
                "materials": {
                    "value": ""
                },
                "prepared": {
                    "value": ""
                },
                "primarycheck": {
                    "value": ""
                },
                "range": {
                    "value": "varies"
                },
                "rules": [],
                "save": {
                    "basic": "basic",
                    "value": "fortitude"
                },
                "school": {
                    "value": "necromancy"
                },
                "secondarycasters": {
                    "value": ""
                },
                "secondarycheck": {
                    "value": ""
                },
                "slug": "heal",
                "source": {
                    "value": "Pathfinder Core Rulebook"
                },
                "spellType": {
                    "value": "heal"
                },
                "sustained": {
                    "value": false
                },
                "target": {
                    "value": "1 willing living creature or 1 undead"
                },
                "time": {
                    "value": "1 to 3"
                },
                "traditions": {
                    "custom": "",
                    "value": [
                        "divine",
                        "primal"
                    ]
                },
                "traits": {
                    "custom": "",
                    "rarity": "common",
                    "value": [
                        "healing",
                        "positive"
                    ]
                }
            },
            "flags": {
                "core": {
                    "sourceId": "Compendium.pf2ettw.spells-srd.rfZpqmj0AIIdkVIs"
                }
            },
            "img": "systems/pf2ettw/icons/spells/heal.webp",
            "name": "Heal",
            "sort": 1000000,
            "type": "spell"
        },
        {
            "_id": "DxEwuPcLg99ky8KI",
            "data": {
                "ability": {
                    "value": ""
                },
                "area": {
                    "areaType": "",
                    "value": null
                },
                "areasize": {
                    "value": ""
                },
                "category": {
                    "value": "focus"
                },
                "components": {
                    "focus": false,
                    "material": false,
                    "somatic": true,
                    "verbal": false
                },
                "cost": {
                    "value": ""
                },
                "damage": {
                    "value": {
                        "0": {
                            "type": {
                                "categories": [],
                                "value": "healing"
                            },
                            "value": "1d8"
                        }
                    }
                },
                "description": {
                    "value": "<p>You heal an animal's wounds, restoring 1d8 Hit Points to the target. The number of actions spent Casting this Spell determines its effect.</p>\n<ul>\n<li><span class=\"pf2-icon\">1</span> <strong>somatic</strong> The spell has a range of touch.</li>\n<li><span class=\"pf2-icon\">2</span> <strong>somatic, verbal</strong> The spell has a range of 30 feet and restores an additional 8 Hit Points to the target.</li>\n</ul>\n<hr />\n<p><strong>Heightened (+1)</strong> The amount of healing increases by 1d8, and the additional healing for the 2-action version increases by 8.</p>"
                },
                "duration": {
                    "value": ""
                },
                "hasCounteractCheck": {
                    "value": false
                },
                "heightening": {
                    "damage": {
                        "0": "1d8"
                    },
                    "interval": 1,
                    "type": "interval"
                },
                "level": {
                    "value": 1
                },
                "location": {
                    "value": "EDPFYDhj0ZOTpRmX"
                },
                "materials": {
                    "value": ""
                },
                "prepared": {
                    "value": ""
                },
                "primarycheck": {
                    "value": ""
                },
                "range": {
                    "value": "varies"
                },
                "rules": [],
                "save": {
                    "basic": "",
                    "value": ""
                },
                "school": {
                    "value": "necromancy"
                },
                "secondarycasters": {
                    "value": ""
                },
                "secondarycheck": {
                    "value": ""
                },
                "slug": "heal-animal",
                "source": {
                    "value": "Pathfinder Core Rulebook"
                },
                "spellType": {
                    "value": "heal"
                },
                "sustained": {
                    "value": false
                },
                "target": {
                    "value": "1 willing living animal creature"
                },
                "time": {
                    "value": "1 to 2"
                },
                "traditions": {
                    "value": []
                },
                "traits": {
                    "custom": "",
                    "rarity": "uncommon",
                    "value": [
                        "druid",
                        "healing",
                        "positive"
                    ]
                }
            },
            "flags": {
                "core": {
                    "sourceId": "Compendium.pf2ettw.spells-srd.Zmh4ynfnCtwKeAYl"
                }
            },
            "img": "systems/pf2ettw/icons/spells/heal-animal.webp",
            "name": "Heal Animal",
            "sort": 1100000,
            "type": "spell"
        },
        {
            "_id": "lInapOsFKanSPpRv",
            "data": {
                "ability": {
                    "value": ""
                },
                "area": {
                    "areaType": "",
                    "value": ""
                },
                "areasize": {
                    "value": ""
                },
                "category": {
                    "value": "spell"
                },
                "components": {
                    "focus": false,
                    "material": false,
                    "somatic": true,
                    "verbal": true
                },
                "cost": {
                    "value": ""
                },
                "damage": {
                    "value": {}
                },
                "description": {
                    "value": "<p>Choose one of the target's unarmed attacks. You cause that unarmed attack to shine with primal energy. The unarmed attack becomes a +1 striking unarmed attack, gaining a +1 item bonus to attack rolls and increasing the number of damage dice to two if it had only one.</p>"
                },
                "duration": {
                    "value": "1 minute"
                },
                "hasCounteractCheck": {
                    "value": false
                },
                "level": {
                    "value": 1
                },
                "location": {
                    "value": "i4Z53PbHjjlFshli"
                },
                "materials": {
                    "value": ""
                },
                "prepared": {
                    "value": ""
                },
                "primarycheck": {
                    "value": ""
                },
                "range": {
                    "value": "touch"
                },
                "rules": [],
                "save": {
                    "basic": "",
                    "value": ""
                },
                "school": {
                    "value": "transmutation"
                },
                "secondarycasters": {
                    "value": ""
                },
                "secondarycheck": {
                    "value": ""
                },
                "slug": "magic-fang",
                "source": {
                    "value": "Pathfinder Core Rulebook"
                },
                "spellType": {
                    "value": "utility"
                },
                "sustained": {
                    "value": false
                },
                "target": {
                    "value": "1 willing creature"
                },
                "time": {
                    "value": "2"
                },
                "traditions": {
                    "value": [
                        "primal"
                    ]
                },
                "traits": {
                    "custom": "",
                    "rarity": "common",
                    "value": []
                }
            },
            "flags": {
                "core": {
                    "sourceId": "Compendium.pf2ettw.spells-srd.EE7Q5BHIrfWNCPtT"
                }
            },
            "img": "systems/pf2ettw/icons/spells/magic-fang.webp",
            "name": "Magic Fang",
            "sort": 1200000,
            "type": "spell"
        },
        {
            "_id": "0vDYCFzBJSXPEA1G",
            "data": {
                "ability": {
                    "value": ""
                },
                "area": {
                    "areaType": "",
                    "value": null
                },
                "areasize": {
                    "value": ""
                },
                "category": {
                    "value": "spell"
                },
                "components": {
                    "focus": false,
                    "material": false,
                    "somatic": true,
                    "verbal": true
                },
                "cost": {
                    "value": ""
                },
                "damage": {
                    "value": {
                        "0": {
                            "applyMod": true,
                            "type": {
                                "categories": [],
                                "value": "fire"
                            },
                            "value": "1d4"
                        }
                    }
                },
                "description": {
                    "value": "<p>A small ball of flame appears in the palm of your hand, and you lash out with it either in melee or at range. Make a spell attack roll against your target's AC. This is normally a ranged attack, but you can also make a melee attack against a creature in your unarmed reach.</p>\n<p>On a success, you deal 1d4 fire damage plus your spellcasting ability modifier. On a critical success, the target takes double damage and [[/r {1d4}[persistent,fire]]] @Compendium[pf2ettw.conditionitems.Persistent Damage]{Persistent Fire Damage}.</p>\n<hr />\n<p><strong>Heightened (+1)</strong> Increase the damage by 1d4 and the @Compendium[pf2ettw.conditionitems.Persistent Damage]{Persistent Damage} on a critical hit by 1d4.</p>"
                },
                "duration": {
                    "value": ""
                },
                "hasCounteractCheck": {
                    "value": false
                },
                "heightening": {
                    "damage": {
                        "0": "1d4"
                    },
                    "interval": 1,
                    "type": "interval"
                },
                "level": {
                    "value": 1
                },
                "location": {
                    "value": "i4Z53PbHjjlFshli"
                },
                "materials": {
                    "value": ""
                },
                "prepared": {
                    "value": ""
                },
                "primarycheck": {
                    "value": ""
                },
                "range": {
                    "value": "30 feet"
                },
                "rules": [],
                "save": {
                    "basic": "",
                    "value": ""
                },
                "school": {
                    "value": "evocation"
                },
                "secondarycasters": {
                    "value": ""
                },
                "secondarycheck": {
                    "value": ""
                },
                "slug": "produce-flame",
                "source": {
                    "value": "Pathfinder Core Rulebook"
                },
                "spellType": {
                    "value": "attack"
                },
                "sustained": {
                    "value": false
                },
                "target": {
                    "value": "1 creature"
                },
                "time": {
                    "value": "2"
                },
                "traditions": {
                    "custom": "",
                    "value": [
                        "arcane",
                        "primal"
                    ]
                },
                "traits": {
                    "custom": "",
                    "rarity": "common",
                    "value": [
                        "attack",
                        "fire",
                        "cantrip"
                    ]
                }
            },
            "flags": {
                "core": {
                    "sourceId": "Compendium.pf2ettw.spells-srd.O9w7r4BKgPogYDDe"
                }
            },
            "img": "systems/pf2ettw/icons/spells/produce-flame.webp",
            "name": "Produce Flame",
            "sort": 1300000,
            "type": "spell"
        },
        {
            "_id": "gK6ll1qVTeDYLSR0",
            "data": {
                "ability": {
                    "value": ""
                },
                "area": {
                    "areaType": "",
                    "value": null
                },
                "areasize": {
                    "value": ""
                },
                "category": {
                    "value": "spell"
                },
                "components": {
                    "focus": false,
                    "material": true,
                    "somatic": true,
                    "verbal": true
                },
                "cost": {
                    "value": ""
                },
                "damage": {
                    "value": {}
                },
                "description": {
                    "value": "<p>You conjure an animal to fight for you. You summon a common creature that has the animal trait and whose level is -1, such as those found in Pathfinder Bestiary volumes. Heightening the spell increases the maximum level of creature you can summon.</p>\n<hr />\n<p><strong>Heightened (2nd)</strong> Level 1</p>\n<p><strong>Heightened (3rd)</strong> Level 2</p>\n<p><strong>Heightened (4th)</strong> Level 3</p>\n<p><strong>Heightened (5th)</strong> Level 5</p>\n<p><strong>Heightened (6th)</strong> Level 7</p>\n<p><strong>Heightened (7th)</strong> Level 9</p>\n<p><strong>Heightened (8th)</strong> Level 11</p>\n<p><strong>Heightened (9th)</strong> Level 13</p>\n<p><strong>Heightened (10th)</strong> Level 15</p>"
                },
                "duration": {
                    "value": "sustained up to 1 minute"
                },
                "hasCounteractCheck": {
                    "value": false
                },
                "level": {
                    "value": 1
                },
                "location": {
                    "value": "i4Z53PbHjjlFshli"
                },
                "materials": {
                    "value": ""
                },
                "prepared": {
                    "value": ""
                },
                "primarycheck": {
                    "value": ""
                },
                "range": {
                    "value": "30 feet"
                },
                "rules": [],
                "save": {
                    "basic": "",
                    "value": ""
                },
                "school": {
                    "value": "conjuration"
                },
                "secondarycasters": {
                    "value": ""
                },
                "secondarycheck": {
                    "value": ""
                },
                "slug": "summon-animal",
                "source": {
                    "value": "Pathfinder Core Rulebook"
                },
                "spellType": {
                    "value": "utility"
                },
                "sustained": {
                    "value": false
                },
                "target": {
                    "value": ""
                },
                "time": {
                    "value": "3"
                },
                "traditions": {
                    "value": [
                        "arcane",
                        "primal"
                    ]
                },
                "traits": {
                    "custom": "",
                    "rarity": "common",
                    "value": []
                }
            },
            "flags": {
                "core": {
                    "sourceId": "Compendium.pf2ettw.spells-srd.4YnON9JHYqtLzccu"
                }
            },
            "img": "systems/pf2ettw/icons/spells/summon-animal.webp",
            "name": "Summon Animal",
            "sort": 1400000,
            "type": "spell"
        },
        {
            "_id": "6KoAHfwCFZ9XAglK",
            "data": {
                "ability": {
                    "value": ""
                },
                "area": {
                    "areaType": "",
                    "value": ""
                },
                "areasize": {
                    "value": ""
                },
                "category": {
                    "value": "spell"
                },
                "components": {
                    "focus": false,
                    "material": false,
                    "somatic": true,
                    "verbal": true
                },
                "cost": {
                    "value": ""
                },
                "damage": {
                    "value": {}
                },
                "description": {
                    "value": "<p>A vine covered in sticky sap appears from thin air, flicking from your hand and lashing itself to the target. Attempt a spell attack against the target.</p>\n<hr />\n<p><strong>Critical Success</strong> The target gains the @Compendium[pf2ettw.conditionitems.Immobilized]{Immobilized} condition and takes a -10-foot circumstance penalty to its Speeds for 1 round. It can attempt to Escape against your spell DC to remove the penalty and the @Compendium[pf2ettw.conditionitems.Immobilized]{Immobilized} condition.</p>\n<p><strong>Success</strong> The target takes a -10-foot circumstance penalty to its Speeds for 1 round. It can attempt to Escape against your spell DC to remove the penalty.</p>\n<p>@Compendium[pf2ettw.spell-effects.Spell Effect: Tanglefoot]{Spell Effect: Tanglefoot}</p>\n<p><strong>Failure</strong> The target is unaffected.</p>\n<hr />\n<p><strong>Heightened (2nd)</strong> The effects last for 2 rounds.</p>\n<p><strong>Heightened (4th)</strong> The effects last for 1 minute.</p>"
                },
                "duration": {
                    "value": ""
                },
                "hasCounteractCheck": {
                    "value": false
                },
                "level": {
                    "value": 1
                },
                "location": {
                    "value": "i4Z53PbHjjlFshli"
                },
                "materials": {
                    "value": ""
                },
                "prepared": {
                    "value": ""
                },
                "primarycheck": {
                    "value": ""
                },
                "range": {
                    "value": "30 feet"
                },
                "rules": [],
                "save": {
                    "basic": "",
                    "value": ""
                },
                "school": {
                    "value": "conjuration"
                },
                "secondarycasters": {
                    "value": ""
                },
                "secondarycheck": {
                    "value": ""
                },
                "slug": "tanglefoot",
                "source": {
                    "value": "Pathfinder Core Rulebook"
                },
                "spellType": {
                    "value": "attack"
                },
                "sustained": {
                    "value": false
                },
                "target": {
                    "value": "1 creature"
                },
                "time": {
                    "value": "2"
                },
                "traditions": {
                    "custom": "",
                    "value": [
                        "arcane",
                        "primal"
                    ]
                },
                "traits": {
                    "custom": "",
                    "rarity": "common",
                    "value": [
                        "attack",
                        "cantrip",
                        "plant"
                    ]
                }
            },
            "flags": {
                "core": {
                    "sourceId": "Compendium.pf2ettw.spells-srd.uZK2BYzPnxUBnDjr"
                }
            },
            "img": "systems/pf2ettw/icons/spells/tanglefoot.webp",
            "name": "Tanglefoot",
            "sort": 1500000,
            "type": "spell"
        },
        {
            "_id": "E952Mn29Vyncndfi",
            "data": {
                "MAP": {
                    "value": ""
                },
                "baseItem": "katar",
                "bonus": {
                    "value": 0
                },
                "bonusDamage": {
                    "value": 0
                },
                "category": "simple",
                "containerId": null,
                "damage": {
                    "damageType": "piercing",
                    "dice": 1,
                    "die": "d4",
                    "value": ""
                },
                "description": {
                    "value": "<p>Also known as punching daggers, katars are characterized by their H‑shaped hand grip that allows the blade to jut out from the knuckles.</p>"
                },
                "equipped": {
                    "carryType": "worn",
                    "handsHeld": 0,
                    "invested": null
                },
                "equippedBulk": {
                    "value": ""
                },
                "group": "knife",
                "hardness": 0,
                "hp": {
                    "brokenThreshold": 0,
                    "max": 0,
                    "value": 0
                },
                "level": {
                    "value": 0
                },
                "negateBulk": {
                    "value": "0"
                },
                "potencyRune": {
                    "value": 1
                },
                "preciousMaterial": {
                    "value": null
                },
                "preciousMaterialGrade": {
                    "value": null
                },
                "price": {
                    "value": {
                        "sp": 3
                    }
                },
                "property1": {
                    "critDamage": "",
                    "critDamageType": "",
                    "critDice": null,
                    "critDie": "",
                    "criticalConditionType": "",
                    "criticalConditionValue": null,
                    "damageType": "",
                    "dice": null,
                    "die": "",
                    "strikeConditionType": "",
                    "strikeConditionValue": null,
                    "value": ""
                },
                "propertyRune1": {
                    "value": null
                },
                "propertyRune2": {
                    "value": null
                },
                "propertyRune3": {
                    "value": null
                },
                "propertyRune4": {
                    "value": null
                },
                "quantity": 2,
                "range": null,
                "reload": {
                    "value": ""
                },
                "rules": [],
                "size": "med",
                "slug": "katar",
                "source": {
                    "value": "Pathfinder Core Rulebook"
                },
                "specific": {
                    "value": false
                },
                "splashDamage": {
                    "value": null
                },
                "stackGroup": null,
                "strikingRune": {
                    "value": "striking"
                },
                "traits": {
                    "custom": "",
                    "rarity": "uncommon",
                    "value": [
                        "agile",
                        "deadly-d6",
                        "monk"
                    ]
                },
                "usage": {
                    "value": "held-in-one-hand"
                },
                "weight": {
                    "value": "L"
                }
            },
            "flags": {
                "core": {
                    "sourceId": "Compendium.pf2ettw.equipment-srd.Fg3GkCDkszj5WtgQ"
                }
            },
            "img": "systems/pf2ettw/icons/equipment/weapons/katar.webp",
            "name": "Katar",
            "sort": 1600000,
            "type": "weapon"
        },
        {
            "_id": "txASc5iIQvLV4Nxv",
            "data": {
                "baseItem": null,
                "containerId": null,
                "description": {
                    "value": "<p>Ayla, My Beloved</p>"
                },
                "equipped": {
                    "carryType": "worn",
                    "handsHeld": 0
                },
                "equippedBulk": {
                    "value": ""
                },
                "hardness": 0,
                "hp": {
                    "brokenThreshold": 0,
                    "max": 0,
                    "value": 0
                },
                "level": {
                    "value": 0
                },
                "negateBulk": {
                    "value": "0"
                },
                "preciousMaterial": {
                    "value": null
                },
                "preciousMaterialGrade": {
                    "value": null
                },
                "price": {
                    "value": {
                        "gp": 10
                    }
                },
                "quantity": 1,
                "rules": [],
                "size": "med",
                "slug": null,
                "source": {
                    "value": ""
                },
                "stackGroup": "",
                "traits": {
                    "custom": "",
                    "rarity": "common",
                    "value": []
                },
                "usage": {
                    "value": ""
                },
                "weight": {
                    "value": "-"
                }
            },
            "img": "systems/pf2ettw/icons/equipment/worn-items/other-worn-items/aluum-charm.webp",
            "name": "Bejeweled Necklace featuring a Porpoise",
            "sort": 1700000,
            "type": "treasure"
        },
        {
            "_id": "G3bgPlOpXpztjTdf",
            "data": {
                "attack": {
                    "value": ""
                },
                "attackEffects": {
                    "custom": "",
                    "value": []
                },
                "bonus": {
                    "value": 17
                },
                "damageRolls": {
                    "0": {
                        "damage": "2d4+7",
                        "damageType": "piercing"
                    }
                },
                "description": {
                    "value": ""
                },
                "rules": [],
                "slug": null,
                "source": {
                    "value": ""
                },
                "traits": {
                    "custom": "",
                    "rarity": "common",
                    "value": [
                        "agile",
                        "deadly-d6",
                        "magical",
                        "monk"
                    ]
                },
                "weaponType": {
                    "value": "melee"
                }
            },
            "img": "systems/pf2ettw/icons/default-icons/melee.svg",
            "name": "Katar",
            "sort": 1800000,
            "type": "melee"
        },
        {
            "_id": "yJVTcQFJpy86gPDG",
            "data": {
                "attack": {
                    "value": ""
                },
                "attackEffects": {
                    "custom": "",
                    "value": []
                },
                "bonus": {
                    "value": 16
                },
                "damageRolls": {
                    "sem8c0jrrtmhqbi2gig9": {
                        "damage": "2d6+7",
                        "damageType": "slashing"
                    }
                },
                "description": {
                    "value": ""
                },
                "rules": [],
                "slug": null,
                "source": {
                    "value": ""
                },
                "traits": {
                    "custom": "",
                    "rarity": "common",
                    "value": [
                        "agile"
                    ]
                },
                "weaponType": {
                    "value": "melee"
                }
            },
            "img": "systems/pf2ettw/icons/default-icons/melee.svg",
            "name": "Claw",
            "sort": 1900000,
            "type": "melee"
        },
        {
            "_id": "8l05kDJb53W6NV0L",
            "data": {
                "attack": {
                    "value": ""
                },
                "attackEffects": {
                    "custom": "",
                    "value": [
                        "werecreature-curse-of-the-werecreature"
                    ]
                },
                "bonus": {
                    "value": 16
                },
                "damageRolls": {
                    "0": {
                        "damage": "2d8+7",
                        "damageType": "piercing"
                    }
                },
                "description": {
                    "value": ""
                },
                "rules": [],
                "slug": null,
                "source": {
                    "value": ""
                },
                "traits": {
                    "custom": "",
                    "rarity": "common",
                    "value": []
                },
                "weaponType": {
                    "value": "melee"
                }
            },
            "img": "systems/pf2ettw/icons/default-icons/melee.svg",
            "name": "Jaws",
            "sort": 2000000,
            "type": "melee"
        },
        {
            "_id": "nETM5TEYK8ufocn0",
            "data": {
                "actionCategory": {
                    "value": "interaction"
                },
                "actionType": {
                    "value": "passive"
                },
                "actions": {
                    "value": null
                },
                "description": {
                    "value": "<p>@Localize[pf2ettw.NPC.Abilities.Glossary.LowLightVision]</p>"
                },
                "requirements": {
                    "value": ""
                },
                "rules": [],
                "slug": "low-light-vision",
                "source": {
                    "value": "Pathfinder Bestiary"
                },
                "traits": {
                    "custom": "",
                    "rarity": "common",
                    "value": []
                },
                "trigger": {
                    "value": ""
                },
                "weapon": {
                    "value": ""
                }
            },
            "flags": {
                "core": {
                    "sourceId": "Compendium.pf2ettw.bestiary-ability-glossary-srd.fFu2sZz4KB01fVRc"
                }
            },
            "img": "systems/pf2ettw/icons/actions/Passive.webp",
            "name": "Low-Light Vision",
            "sort": 2100000,
            "type": "action"
        },
        {
            "_id": "lIpwTEFoDElIQYqN",
            "data": {
                "actionCategory": {
                    "value": "interaction"
                },
                "actionType": {
                    "value": "passive"
                },
                "actions": {
                    "value": null
                },
                "description": {
                    "value": "<p>@Localize[pf2ettw.NPC.Abilities.Glossary.Scent]</p>"
                },
                "requirements": {
                    "value": ""
                },
                "rules": [],
                "slug": "scent",
                "source": {
                    "value": "Pathfinder Bestiary"
                },
                "traits": {
                    "custom": "",
                    "rarity": "common",
                    "value": []
                },
                "trigger": {
                    "value": ""
                },
                "weapon": {
                    "value": ""
                }
            },
            "flags": {
                "core": {
                    "sourceId": "Compendium.pf2ettw.bestiary-ability-glossary-srd.rqfnQ5VHT5hxm25r"
                }
            },
            "img": "systems/pf2ettw/icons/actions/Passive.webp",
            "name": "Scent (Imprecise) 30 feet",
            "sort": 2200000,
            "type": "action"
        },
        {
            "_id": "S0eUokfR9NCiHTkD",
            "data": {
                "actionCategory": {
                    "value": "interaction"
                },
                "actionType": {
                    "value": "passive"
                },
                "actions": {
                    "value": null
                },
                "description": {
                    "value": "<p>Jaul can communicate with lupines.</p>"
                },
                "requirements": {
                    "value": ""
                },
                "rules": [],
                "slug": null,
                "source": {
                    "value": ""
                },
                "traits": {
                    "custom": "",
                    "rarity": "common",
                    "value": [
                        "divination",
                        "primal"
                    ]
                },
                "trigger": {
                    "value": ""
                },
                "weapon": {
                    "value": ""
                }
            },
            "img": "systems/pf2ettw/icons/actions/Passive.webp",
            "name": "Wolf Empathy",
            "sort": 2300000,
            "type": "action"
        },
        {
            "_id": "XsfO4kZKUmGSNSI0",
            "data": {
                "actionCategory": {
                    "value": "defensive"
                },
                "actionType": {
                    "value": "passive"
                },
                "actions": {
                    "value": null
                },
                "description": {
                    "value": ""
                },
                "requirements": {
                    "value": ""
                },
                "rules": [
                    {
                        "key": "FlatModifier",
                        "predicate": {
                            "all": [
                                "poison"
                            ]
                        },
                        "selector": "saving-throw",
                        "type": "status",
                        "value": 1
                    }
                ],
                "slug": "1-status-to-all-saves-vs-magic",
                "source": {
                    "value": ""
                },
                "traits": {
                    "custom": "",
                    "rarity": "common",
                    "value": []
                },
                "trigger": {
                    "value": ""
                },
                "weapon": {
                    "value": ""
                }
            },
            "flags": {
                "core": {
                    "sourceId": "Compendium.pf2ettw.bestiary-ability-glossary-srd.kquBnQ0kObZztnBc"
                }
            },
            "img": "systems/pf2ettw/icons/actions/Passive.webp",
            "name": "+1 Status to All Saves vs Poison",
            "sort": 2400000,
            "type": "action"
        },
        {
            "_id": "C2q1zvPuwqgQMvwX",
            "data": {
                "actionCategory": {
                    "value": "offensive"
                },
                "actionType": {
                    "value": "action"
                },
                "actions": {
                    "value": 1
                },
                "description": {
                    "value": "<ul>\n<li><strong>Human</strong>\n<ul>\n<li><strong>Melee</strong> fist [[/r 1d20+16 #Fist]]{+16}/[[/r 1d20+11 #Fist]]{+12}/[[/r 1d20+6 #Fist]]{+8} (agile, nonlethal), <strong>Damage</strong> [[/r {1d6+7}[bludgeoning]]]{1d6+7 bludgeoning damage}</li>\n</ul>\n</li>\n<li><strong>Wolf</strong>\n<ul>\n<li><strong>Speed</strong> 40 feet</li>\n<li><strong>Melee</strong> jaws[[/r 1d20+16 #Jaws]]{+16}/[[/r 1d20+11 #Jaws]]{+11}/[[/r 1d20+6 #Jaws]]{+6}, <strong>Damage</strong> [[/r {2d8+7}[piercing]]]{2d8+7 piercing damage} plus @Compendium[pf2ettw.bestiary-ability-glossary-srd.Knockdown]{Knockdown}</li>\n</ul>\n</li>\n</ul>\n<hr />\n<p>The werecreature changes into its humanoid, hybrid, or animal shape. Each shape has a specific, persistent appearance. A true werecreature's natural form is its hybrid shape.</p>\n<p>In humanoid shape, the werecreature uses its original humanoid size, loses its jaws and claws Strikes, and gains a melee fist Strike that deals bludgeoning damage equal to the slashing damage dealt by its claw.</p>\n<p>In animal shape, its Speed and size change to that of the animal, it gains any special Strike effects of the animal that it didn't already have (such as Grab), and it loses its weapon Strikes.</p>\n<hr />\n<p>@Localize[pf2ettw.NPC.Abilities.Glossary.ChangeShape]</p>"
                },
                "requirements": {
                    "value": ""
                },
                "rules": [],
                "slug": "werecreature-change-shape",
                "source": {
                    "value": "Pathfinder Bestiary"
                },
                "traits": {
                    "custom": "",
                    "rarity": "common",
                    "value": [
                        "concentrate",
                        "polymorph",
                        "primal",
                        "transmutation"
                    ]
                },
                "trigger": {
                    "value": ""
                },
                "weapon": {
                    "value": ""
                }
            },
            "flags": {
                "core": {
                    "sourceId": "Compendium.pf2ettw.bestiary-family-ability-glossary.08egiRxOvMX97XTc"
                }
            },
            "img": "systems/pf2ettw/icons/actions/OneAction.webp",
            "name": "Change Shape",
            "sort": 2500000,
            "type": "action"
        },
        {
            "_id": "RBjfyeeaXd5gEMNe",
            "data": {
                "actionCategory": {
                    "value": "offensive"
                },
                "actionType": {
                    "value": "passive"
                },
                "actions": {
                    "value": null
                },
                "description": {
                    "value": "<p>This curse affects only humanoids.</p>\n<p><strong>Saving Throw</strong> @Check[type:fortitude|dc:23]</p>\n<hr />\n<p>On each full moon, the cursed creature must succeed at another Fortitude save or turn into a werewolf until dawn.</p>\n<p>The creature is under the GM's control and goes on a rampage for half the night before falling unconscious at dawn.</p>"
                },
                "requirements": {
                    "value": ""
                },
                "rules": [],
                "slug": "werecreature-curse-of-the-werecreature",
                "source": {
                    "value": "Pathfinder Bestiary"
                },
                "traits": {
                    "custom": "",
                    "rarity": "common",
                    "value": [
                        "curse",
                        "necromancy",
                        "primal"
                    ]
                },
                "trigger": {
                    "value": ""
                },
                "weapon": {
                    "value": ""
                }
            },
            "flags": {
                "core": {
                    "sourceId": "Compendium.pf2ettw.bestiary-family-ability-glossary.ICnpftxZEilrYjn0"
                }
            },
            "img": "systems/pf2ettw/icons/actions/Passive.webp",
            "name": "Curse of the Werewolf",
            "sort": 2600000,
            "type": "action"
        },
        {
            "_id": "igyVJ2r1r0X9HNP8",
            "data": {
                "actionCategory": {
                    "value": "offensive"
                },
                "actionType": {
                    "value": "passive"
                },
                "actions": {
                    "value": null
                },
                "description": {
                    "value": "<p>When a full moon appears in the night sky, Jaul must enter his hybrid form, can't Change Shape thereafter, becomes Large, increases his reach by 5 feet, and increases the damage of his jaws by 2.</p>\n<p>When the moon sets or the sun rises, Jaul returns to humanoid form and is @Compendium[pf2ettw.conditionitems.Fatigued]{Fatigued} for [[/br 2d4 #Fatigued duration]]{2d4 hours}.</p>\n<hr />\n<p>@Compendium[pf2ettw.bestiary-effects.Effect: Moon Frenzy]{Effect: Moon Frenzy}</p>"
                },
                "requirements": {
                    "value": ""
                },
                "rules": [],
                "slug": "werecreature-moon-frenzy",
                "source": {
                    "value": "Pathfinder Bestiary"
                },
                "traits": {
                    "custom": "",
                    "rarity": "common",
                    "value": [
                        "polymorph",
                        "primal",
                        "transmutation"
                    ]
                },
                "trigger": {
                    "value": ""
                },
                "weapon": {
                    "value": ""
                }
            },
            "flags": {
                "core": {
                    "sourceId": "Compendium.pf2ettw.bestiary-family-ability-glossary.FA0ri2fAcMa1HgZe"
                }
            },
            "img": "systems/pf2ettw/icons/actions/Passive.webp",
            "name": "Moon Frenzy",
            "sort": 2700000,
            "type": "action"
        },
        {
            "_id": "5rrKtIIzYEri3htn",
            "data": {
                "actionCategory": {
                    "value": "offensive"
                },
                "actionType": {
                    "value": "passive"
                },
                "actions": {
                    "value": null
                },
                "description": {
                    "value": "<p>Jaul's Strikes deal [[/r {1d6}]]{1d6 extra damage} to creatures within his wolf's reach.</p>"
                },
                "requirements": {
                    "value": ""
                },
                "rules": [
                    {
                        "domain": "damage-roll",
                        "key": "RollOption",
                        "option": "wolf-coordination",
                        "toggleable": true
                    },
                    {
                        "diceNumber": 1,
                        "dieSize": "d6",
                        "key": "DamageDice",
                        "predicate": {
                            "all": [
                                "wolf-coordination"
                            ]
                        },
                        "selector": "strike-damage"
                    }
                ],
                "slug": null,
                "source": {
                    "value": ""
                },
                "traits": {
                    "custom": "",
                    "rarity": "common",
                    "value": []
                },
                "trigger": {
                    "value": ""
                },
                "weapon": {
                    "value": ""
                }
            },
            "img": "systems/pf2ettw/icons/actions/Passive.webp",
            "name": "Wolf Coordination",
            "sort": 2800000,
            "type": "action"
        },
        {
            "_id": "riAt0Gd9aNKeIzpx",
            "data": {
                "description": {
                    "value": ""
                },
                "mod": {
                    "value": 12
                },
                "proficient": {
                    "value": 0
                },
                "rules": [],
                "slug": null,
                "source": {
                    "value": ""
                },
                "traits": {
                    "custom": "",
                    "rarity": "common",
                    "value": []
                }
            },
            "img": "systems/pf2ettw/icons/default-icons/lore.svg",
            "name": "Acrobatics",
            "sort": 2900000,
            "type": "lore"
        },
        {
            "_id": "7s5OmRIhr4RKjoVc",
            "data": {
                "description": {
                    "value": ""
                },
                "mod": {
                    "value": 15
                },
                "proficient": {
                    "value": 0
                },
                "rules": [],
                "slug": null,
                "source": {
                    "value": ""
                },
                "traits": {
                    "custom": "",
                    "rarity": "common",
                    "value": []
                }
            },
            "img": "systems/pf2ettw/icons/default-icons/lore.svg",
            "name": "Athletics",
            "sort": 3000000,
            "type": "lore"
        },
        {
            "_id": "f7L13V4yKGH0Vc7j",
            "data": {
                "description": {
                    "value": ""
                },
                "mod": {
                    "value": 12
                },
                "proficient": {
                    "value": 0
                },
                "rules": [],
                "slug": null,
                "source": {
                    "value": ""
                },
                "traits": {
                    "custom": "",
                    "rarity": "common",
                    "value": []
                }
            },
            "img": "systems/pf2ettw/icons/default-icons/lore.svg",
            "name": "Deception",
            "sort": 3100000,
            "type": "lore"
        },
        {
            "_id": "6heXaBhRw3aBaP3K",
            "data": {
                "description": {
                    "value": ""
                },
                "mod": {
                    "value": 14
                },
                "proficient": {
                    "value": 0
                },
                "rules": [],
                "slug": null,
                "source": {
                    "value": ""
                },
                "traits": {
                    "custom": "",
                    "rarity": "common",
                    "value": []
                }
            },
            "img": "systems/pf2ettw/icons/default-icons/lore.svg",
            "name": "Nature",
            "sort": 3200000,
            "type": "lore"
        },
        {
            "_id": "zUeC404Tgl9ZwrQD",
            "data": {
                "description": {
                    "value": ""
                },
                "mod": {
                    "value": 14
                },
                "proficient": {
                    "value": 0
                },
                "rules": [],
                "slug": null,
                "source": {
                    "value": ""
                },
                "traits": {
                    "custom": "",
                    "rarity": "common",
                    "value": []
                }
            },
            "img": "systems/pf2ettw/icons/default-icons/lore.svg",
            "name": "Survival",
            "sort": 3300000,
            "type": "lore"
        }
    ],
    "name": "Jaul Mezmin",
    "token": {
        "disposition": -1,
        "height": 1,
        "img": "systems/pf2ettw/icons/default-icons/npc.svg",
        "name": "Jaul Mezmin",
        "width": 1
    },
    "type": "npc"
}
