{
    "_id": "CS1XbH7GYfP6Ve61",
    "data": {
        "badge": null,
        "description": {
            "value": "<p>The drinker is unable to yell or sing for 8 hours.</p>"
        },
        "duration": {
            "expiry": "turn-start",
            "sustained": false,
            "unit": "hours",
            "value": 8
        },
        "level": {
            "value": 1
        },
        "rules": [],
        "source": {
            "value": ""
        },
        "start": {
            "initiative": null,
            "value": 0
        },
        "target": null,
        "tokenIcon": {
            "show": true
        },
        "traits": {
            "custom": "",
            "rarity": "common",
            "value": []
        }
    },
    "img": "systems/pf2ettw/icons/spells/bottomless-stomach.webp",
    "name": "Effect: Burned Mouth and Throat (No Singing or Yelling)",
    "type": "effect"
}
