{
    "_id": "Luti1qjFOKYwZio0",
    "data": {
        "badge": null,
        "description": {
            "value": "<p>You can’t willingly ingest anything, even other drinks, for 8 hours</p>"
        },
        "duration": {
            "expiry": "turn-start",
            "sustained": false,
            "unit": "hours",
            "value": 8
        },
        "level": {
            "value": 1
        },
        "rules": [],
        "source": {
            "value": ""
        },
        "start": {
            "initiative": null,
            "value": 0
        },
        "target": null,
        "tokenIcon": {
            "show": true
        },
        "traits": {
            "custom": "",
            "rarity": "common",
            "value": []
        }
    },
    "img": "systems/pf2ettw/icons/spells/shrink.webp",
    "name": "Effect: Extreme stomach cramps",
    "type": "effect"
}
