{
    "_id": "N5pG7rsbN1lL1ysb",
    "data": {
        "abilities": {
            "cha": {
                "mod": 0
            },
            "con": {
                "mod": 6
            },
            "dex": {
                "mod": 4
            },
            "int": {
                "mod": -2
            },
            "str": {
                "mod": 6
            },
            "wis": {
                "mod": 3
            }
        },
        "attributes": {
            "ac": {
                "details": "",
                "value": 27
            },
            "allSaves": {
                "value": ""
            },
            "hp": {
                "details": "",
                "max": 140,
                "temp": 0,
                "value": 140
            },
            "initiative": {
                "ability": "perception"
            },
            "perception": {
                "value": 19
            },
            "speed": {
                "otherSpeeds": [],
                "value": "30"
            }
        },
        "details": {
            "alignment": {
                "value": "CE"
            },
            "blurb": "",
            "creatureType": "",
            "level": {
                "value": 8
            },
            "privateNotes": "",
            "publicNotes": "<p>Aigamuxas are towering humanoids that stalk arid deserts in search of prey. Carnivorous and voracious, they hunt anything that moves but especially relish eating sentient creatures. Many Mwangi people incorrectly refer to aigamuxas as demons, while others more accurately describe them as having descended from giants. Aigamuxas resemble large humans with smooth hollows where their eyes should be, but their eyes are actually embedded in the soles of their feet. They sport long, sharp claws and teeth that they use to tear their prey apart once they catch them. A moving aigamuxa's odd gait resembles dancing more than a typical walk or run, but its speed is alarming, if difficult to correctly estimate at a distance.</p>\n<p>An aigamuxa's unique physiology makes catching prey difficult, and most aigamuxas are constantly hungry. When pursuing prey, an aigamuxa must occasionally stop to lift its feet in order to regain their bearings. Most stand on their hands while looking around, which allows them to immediately backflip back into a run. An aigamuxa's eyes are generally resistant to the sands of their native desert habitats, but irritants such as chilies or caltrops can seriously impair their hunting ability, and desert travelers often carry a bag of these in case they need to deal with an aigamuxa.</p>\n<p>Clever aigamuxas know that attacking wandering prey can be very dangerous, instead using their powerful hands to dig deep into sand dunes or dirt and wait to ambush passersby. Aigamuxas are particularly good at hiding in their home environments, and unfortunate travelers often don't notice the barely visible eyes of an aigamuxa until it's too late.</p>",
            "source": {
                "value": "Pathfinder Lost Omens: The Mwangi Expanse"
            }
        },
        "resources": {},
        "saves": {
            "fortitude": {
                "saveDetail": "",
                "value": 19
            },
            "reflex": {
                "saveDetail": "",
                "value": 16
            },
            "will": {
                "saveDetail": "",
                "value": 13
            }
        },
        "traits": {
            "ci": [],
            "di": {
                "custom": "",
                "value": []
            },
            "dr": [],
            "dv": [],
            "languages": {
                "custom": "",
                "selected": [],
                "value": [
                    "mwangi"
                ]
            },
            "rarity": "uncommon",
            "senses": {
                "value": "scent (imprecise) 30 feet"
            },
            "size": {
                "value": "lg"
            },
            "traits": {
                "custom": "",
                "value": [
                    "giant",
                    "humanoid"
                ]
            }
        }
    },
    "img": "systems/pf2ettw/icons/default-icons/npc.svg",
    "items": [
        {
            "_id": "qCRYzxalKMvt2eOZ",
            "data": {
                "attack": {
                    "value": ""
                },
                "attackEffects": {
                    "custom": "",
                    "value": [
                        "grab"
                    ]
                },
                "bonus": {
                    "value": 20
                },
                "damageRolls": {
                    "tu99ad6gmtgjihagbq39": {
                        "damage": "2d8+9",
                        "damageType": "slashing"
                    }
                },
                "description": {
                    "value": ""
                },
                "rules": [],
                "slug": null,
                "source": {
                    "value": ""
                },
                "traits": {
                    "custom": "",
                    "rarity": "common",
                    "value": [
                        "agile",
                        "reach-10"
                    ]
                },
                "weaponType": {
                    "value": "melee"
                }
            },
            "img": "systems/pf2ettw/icons/default-icons/melee.svg",
            "name": "Claw",
            "sort": 100000,
            "type": "melee"
        },
        {
            "_id": "kPGbuie2boUJmwwM",
            "data": {
                "attack": {
                    "value": ""
                },
                "attackEffects": {
                    "value": []
                },
                "bonus": {
                    "value": 20
                },
                "damageRolls": {
                    "k4rjruz85tdn8j0pawax": {
                        "damage": "2d12+9",
                        "damageType": "piercing"
                    }
                },
                "description": {
                    "value": ""
                },
                "rules": [],
                "slug": null,
                "source": {
                    "value": ""
                },
                "traits": {
                    "custom": "",
                    "rarity": "common",
                    "value": []
                },
                "weaponType": {
                    "value": "melee"
                }
            },
            "img": "systems/pf2ettw/icons/default-icons/melee.svg",
            "name": "Jaws",
            "sort": 200000,
            "type": "melee"
        },
        {
            "_id": "SwU7bw7xCeBBV1Qf",
            "data": {
                "actionCategory": {
                    "value": "interaction"
                },
                "actionType": {
                    "value": "passive"
                },
                "actions": {
                    "value": null
                },
                "description": {
                    "value": "<p>@Localize[pf2ettw.NPC.Abilities.Glossary.Scent]</p>"
                },
                "requirements": {
                    "value": ""
                },
                "rules": [],
                "slug": "scent",
                "source": {
                    "value": "Pathfinder Bestiary"
                },
                "traits": {
                    "custom": "",
                    "rarity": "common",
                    "value": []
                },
                "trigger": {
                    "value": ""
                },
                "weapon": {
                    "value": ""
                }
            },
            "flags": {
                "core": {
                    "sourceId": "Compendium.pf2ettw.bestiary-ability-glossary-srd.rqfnQ5VHT5hxm25r"
                }
            },
            "img": "systems/pf2ettw/icons/actions/Passive.webp",
            "name": "Scent (Imprecise) 30 feet",
            "sort": 300000,
            "type": "action"
        },
        {
            "_id": "AAqmK3Yvg7ChGpRl",
            "data": {
                "actionCategory": {
                    "value": "interaction"
                },
                "actionType": {
                    "value": "passive"
                },
                "actions": {
                    "value": null
                },
                "description": {
                    "value": "<p>An aigamuxa's eyes are located on the bottom of their feet, making it difficult for them to see. An aigamuxa is typically @Compendium[pf2ettw.conditionitems.Blinded]{blind}. If they @Compendium[pf2ettw.actionspf2ettw.Seek]{Seek}, they can see normally until the end of their turn.</p>"
                },
                "requirements": {
                    "value": ""
                },
                "rules": [],
                "slug": null,
                "source": {
                    "value": ""
                },
                "traits": {
                    "custom": "",
                    "rarity": "common",
                    "value": []
                },
                "trigger": {
                    "value": ""
                },
                "weapon": {
                    "value": ""
                }
            },
            "img": "systems/pf2ettw/icons/actions/Passive.webp",
            "name": "Limited Vision",
            "sort": 400000,
            "type": "action"
        },
        {
            "_id": "5ptRIaj3SWZbrDDO",
            "data": {
                "actionCategory": {
                    "value": "interaction"
                },
                "actionType": {
                    "value": "passive"
                },
                "actions": {
                    "value": null
                },
                "description": {
                    "value": "<p>If an aigamuxa takes damage from Striding or Stepping into hazardous terrain or a square with similar grounded hazards (such as caltrops), they can't Seek until the end of their next turn.</p>"
                },
                "requirements": {
                    "value": ""
                },
                "rules": [],
                "slug": null,
                "source": {
                    "value": ""
                },
                "traits": {
                    "custom": "",
                    "rarity": "common",
                    "value": []
                },
                "trigger": {
                    "value": ""
                },
                "weapon": {
                    "value": ""
                }
            },
            "img": "systems/pf2ettw/icons/actions/Passive.webp",
            "name": "Weak Feet",
            "sort": 500000,
            "type": "action"
        },
        {
            "_id": "mBWCH69hMveboorN",
            "data": {
                "actionCategory": {
                    "value": "offensive"
                },
                "actionType": {
                    "value": "action"
                },
                "actions": {
                    "value": 2
                },
                "description": {
                    "value": "<p><strong>Requirements</strong> The aigamuxa is @Compendium[pf2ettw.actionspf2ettw.Hide]{Hiding} in dirt, sand, or another soft surface</p>\n<hr />\n<p><strong>Effect</strong> The aigamuxa makes a claw Strike against a creature within reach. On a hit, the aigamuxa automatically Grabs the creature. Whether or not they hit, the aigamuxa then Strides. If they have a creature grabbed, the creature moves with the aigamuxa.</p>"
                },
                "requirements": {
                    "value": ""
                },
                "rules": [],
                "slug": null,
                "source": {
                    "value": ""
                },
                "traits": {
                    "custom": "",
                    "rarity": "common",
                    "value": []
                },
                "trigger": {
                    "value": ""
                },
                "weapon": {
                    "value": ""
                }
            },
            "img": "systems/pf2ettw/icons/actions/TwoActions.webp",
            "name": "Burrowed Ambush",
            "sort": 600000,
            "type": "action"
        },
        {
            "_id": "FH4V8Xw43HQPNctv",
            "data": {
                "actionCategory": {
                    "value": "offensive"
                },
                "actionType": {
                    "value": "action"
                },
                "actions": {
                    "value": 2
                },
                "description": {
                    "value": "<p><strong>Requirement</strong> The aigamuxa is standing on dirt, sand, or another soft surface</p>\n<hr />\n<p><strong>Effect</strong> The aigamuxa quickly digs into the surface and @Compendium[pf2ettw.actionspf2ettw.Hide]{Hides}. They leave their feet partially exposed, allowing them to see out from the surface. The aigamuxa can hold their breath for up to 10 minutes while hiding in this way.</p>"
                },
                "requirements": {
                    "value": ""
                },
                "rules": [],
                "slug": null,
                "source": {
                    "value": ""
                },
                "traits": {
                    "custom": "",
                    "rarity": "common",
                    "value": []
                },
                "trigger": {
                    "value": ""
                },
                "weapon": {
                    "value": ""
                }
            },
            "img": "systems/pf2ettw/icons/actions/TwoActions.webp",
            "name": "Burrowing Concealment",
            "sort": 700000,
            "type": "action"
        },
        {
            "_id": "2rc7rftQQ1MLECXG",
            "data": {
                "actionCategory": {
                    "value": "offensive"
                },
                "actionType": {
                    "value": "action"
                },
                "actions": {
                    "value": 1
                },
                "description": {
                    "value": "<p>Small, [[/r {2d12+4}[bludgeoning]]]{2d12+4 bludgeoning damage}, Rupture 22</p>\n<hr />\n<p>@Localize[pf2ettw.NPC.Abilities.Glossary.SwallowWhole]</p>"
                },
                "requirements": {
                    "value": ""
                },
                "rules": [],
                "slug": "swallow-whole",
                "source": {
                    "value": "Pathfinder Bestiary"
                },
                "traits": {
                    "custom": "",
                    "rarity": "common",
                    "value": [
                        "attack"
                    ]
                },
                "trigger": {
                    "value": ""
                },
                "weapon": {
                    "value": ""
                }
            },
            "flags": {
                "core": {
                    "sourceId": "Compendium.pf2ettw.bestiary-ability-glossary-srd.uJSseLa57HZYSMUu"
                }
            },
            "img": "systems/pf2ettw/icons/actions/OneAction.webp",
            "name": "Swallow Whole",
            "sort": 800000,
            "type": "action"
        },
        {
            "_id": "NWWUgiN78Gu0F9Wh",
            "data": {
                "actionCategory": {
                    "value": "offensive"
                },
                "actionType": {
                    "value": "action"
                },
                "actions": {
                    "value": 1
                },
                "description": {
                    "value": "<p>@Localize[pf2ettw.NPC.Abilities.Glossary.Grab]</p>"
                },
                "requirements": {
                    "value": ""
                },
                "rules": [],
                "slug": "grab",
                "source": {
                    "value": "Pathfinder Bestiary"
                },
                "traits": {
                    "custom": "",
                    "rarity": "common",
                    "value": []
                },
                "trigger": {
                    "value": ""
                },
                "weapon": {
                    "value": ""
                }
            },
            "flags": {
                "core": {
                    "sourceId": "Compendium.pf2ettw.bestiary-ability-glossary-srd.Tkd8sH4pwFIPzqTr"
                }
            },
            "img": "systems/pf2ettw/icons/actions/OneAction.webp",
            "name": "Grab",
            "sort": 900000,
            "type": "action"
        },
        {
            "_id": "XJTGUHju5wQ6QZAL",
            "data": {
                "description": {
                    "value": ""
                },
                "mod": {
                    "value": 18
                },
                "proficient": {
                    "value": 0
                },
                "rules": [],
                "slug": null,
                "source": {
                    "value": ""
                },
                "traits": {
                    "custom": "",
                    "rarity": "common",
                    "value": []
                }
            },
            "img": "systems/pf2ettw/icons/default-icons/lore.svg",
            "name": "Athletics",
            "sort": 1000000,
            "type": "lore"
        },
        {
            "_id": "iJTBy1ZdzkoigGIu",
            "data": {
                "description": {
                    "value": ""
                },
                "mod": {
                    "value": 16
                },
                "proficient": {
                    "value": 0
                },
                "rules": [],
                "slug": null,
                "source": {
                    "value": ""
                },
                "traits": {
                    "custom": "",
                    "rarity": "common",
                    "value": []
                }
            },
            "img": "systems/pf2ettw/icons/default-icons/lore.svg",
            "name": "Intimidation",
            "sort": 1100000,
            "type": "lore"
        },
        {
            "_id": "E7FKwcsNXjtCJHHE",
            "data": {
                "description": {
                    "value": ""
                },
                "mod": {
                    "value": 14
                },
                "proficient": {
                    "value": 0
                },
                "rules": [
                    {
                        "key": "FlatModifier",
                        "label": "In Desert",
                        "predicate": {
                            "all": [
                                "terrain:desert"
                            ]
                        },
                        "selector": "stealth",
                        "value": 4
                    }
                ],
                "slug": null,
                "source": {
                    "value": ""
                },
                "traits": {
                    "custom": "",
                    "rarity": "common",
                    "value": []
                },
                "variants": {
                    "0": {
                        "label": "+18 in deserts",
                        "options": "terrain:desert"
                    }
                }
            },
            "img": "systems/pf2ettw/icons/default-icons/lore.svg",
            "name": "Stealth",
            "sort": 1200000,
            "type": "lore"
        }
    ],
    "name": "Aigamuxa",
    "token": {
        "disposition": -1,
        "height": 2,
        "img": "systems/pf2ettw/icons/default-icons/npc.svg",
        "name": "Aigamuxa",
        "width": 2
    },
    "type": "npc"
}
