{
    "_id": "H8kJUgCxKicEMUFz",
    "data": {
        "attributes": {
            "ac": {
                "value": 24
            },
            "hardness": 0,
            "hp": {
                "details": "",
                "max": 98,
                "temp": 0,
                "value": 98
            },
            "stealth": {
                "details": "<p>(trained)</p>",
                "value": 15
            }
        },
        "creatureType": "",
        "details": {
            "description": "<p>This <em>mushroom ring</em> forms a portal to the First World, allowing the Thorned Monarch's reinforcements into the Material Plane. When the PCs approach, a creature emerges. Creatures continue to emerge until the mushroom ring is disabled. Disabling the mushroom ring also causes any creatures that have emerged to disappear.</p>",
            "disable": "<p>@Check[type:thievery|dc:21|traits:action:disable-device](expert) or @Check[type:nature|dc:25](trained) to rearrange the mushrooms to disrupt the portal (two actions) or <em>@Compendium[pf2ettw.spells-srd.Dispel Magic]{Dispel Magic}</em> (3rd level, counteract DC 23) to counteract the magical properties; three successes are required to disable the portal</p>",
            "isComplex": true,
            "level": {
                "value": 6
            },
            "reset": "",
            "routine": "<p><span class=\"pf2-icon\">1</span> A @Compendium[pf2ettw.pathfinder-bestiary-2.Korred]{Korred} emerges from the <em>mushroom ring</em> and defends it. All korreds use the <em>mushroom ring's</em> initiative.</p>"
        },
        "saves": {
            "fortitude": {
                "saveDetail": "",
                "value": 17
            },
            "reflex": {
                "saveDetail": "",
                "value": 11
            },
            "will": {
                "saveDetail": "",
                "value": 0
            }
        },
        "source": {
            "author": "",
            "value": "Pathfinder Society Scenario #2-00: The King in Thorns"
        },
        "statusEffects": [],
        "traits": {
            "di": {
                "custom": "",
                "selected": {},
                "value": [
                    "critical-hits",
                    "object-immunities",
                    "precision"
                ]
            },
            "dr": [],
            "dv": [],
            "rarity": "rare",
            "size": {
                "value": "med"
            },
            "traits": {
                "custom": "",
                "value": [
                    "magical",
                    "trap"
                ]
            }
        }
    },
    "img": "systems/pf2ettw/icons/default-icons/hazard.svg",
    "items": [
        {
            "_id": "XGHvG5nJL9DIIU2p",
            "data": {
                "actionCategory": {
                    "value": "defensive"
                },
                "actionType": {
                    "value": "reaction"
                },
                "actions": {
                    "value": null
                },
                "description": {
                    "value": "<p><strong>Trigger</strong> The PCs approach the <em>mushroom ring</em>;</p>\n<p><strong>Effect</strong> A @Compendium[pf2ettw.pathfinder-bestiary-2.Korred]{Korred} emerges from the portal to defend it, and the hazard then rolls initiative.</p>"
                },
                "requirements": {
                    "value": ""
                },
                "rules": [],
                "slug": null,
                "source": {
                    "value": ""
                },
                "traits": {
                    "custom": "",
                    "rarity": "common",
                    "value": [
                        "magical"
                    ]
                },
                "trigger": {
                    "value": ""
                }
            },
            "img": "systems/pf2ettw/icons/actions/Reaction.webp",
            "name": "Portal",
            "sort": 0,
            "type": "action"
        }
    ],
    "name": "Mushroom Ring (5-6)",
    "token": {
        "disposition": -1,
        "height": 1,
        "img": "systems/pf2ettw/icons/default-icons/hazard.svg",
        "name": "Mushroom Ring",
        "width": 1
    },
    "type": "hazard"
}
