{
    "_id": "OMEVkAFReRtjj1zb",
    "data": {
        "attributes": {
            "ac": {
                "value": 19
            },
            "hardness": 0,
            "hasHealth": true,
            "hp": {
                "details": "",
                "max": 0,
                "temp": 0,
                "tempmax": 0,
                "value": 0
            },
            "stealth": {
                "details": "",
                "value": 14
            }
        },
        "creatureType": "",
        "details": {
            "description": "<p>Discreet webbing at throat level snags a creature that walks into it.</p>",
            "disable": "<p>@Check[type:survival|dc:20] (trained) or @Check[type:thievery|dc:20] (expert) to rearrange the webbing.</p>",
            "isComplex": false,
            "level": {
                "value": 3
            },
            "reset": "",
            "routine": ""
        },
        "saves": {
            "fortitude": {
                "saveDetail": "",
                "value": 12
            },
            "reflex": {
                "saveDetail": "",
                "value": 6
            },
            "will": {
                "saveDetail": "",
                "value": 0
            }
        },
        "source": {
            "value": "Pathfinder Society Scenario #2-18: The Fanciful March of Urwal"
        },
        "statusEffects": [],
        "traits": {
            "ci": [],
            "di": {
                "custom": "",
                "selected": {},
                "value": []
            },
            "dr": [],
            "dv": [],
            "rarity": "common",
            "size": {
                "value": "med"
            },
            "traits": {
                "custom": "",
                "value": []
            }
        }
    },
    "img": "systems/pf2ettw/icons/default-icons/hazard.svg",
    "items": [
        {
            "_id": "LZTjCUaLv54zwB8W",
            "data": {
                "actionCategory": {
                    "value": ""
                },
                "actionType": {
                    "value": "reaction"
                },
                "actions": {
                    "value": null
                },
                "description": {
                    "value": "<p><strong>Trigger</strong> A creature steps into the square with the web tripwire.</p>\n<hr />\n<p><strong>Effect</strong> The web lurker noose makes a noose Strike against the triggering creature.</p>"
                },
                "requirements": {
                    "value": ""
                },
                "rules": [],
                "slug": null,
                "source": {
                    "value": ""
                },
                "traits": {
                    "custom": "",
                    "rarity": "common",
                    "value": [
                        "attack"
                    ]
                },
                "trigger": {
                    "value": ""
                },
                "weapon": {
                    "value": ""
                }
            },
            "img": "systems/pf2ettw/icons/actions/Reaction.webp",
            "name": "Web Noose",
            "sort": 100000,
            "type": "action"
        },
        {
            "_id": "VNaaW87S24zzxXZh",
            "data": {
                "attack": {
                    "value": ""
                },
                "attackEffects": {
                    "custom": "",
                    "value": []
                },
                "bonus": {
                    "value": 15
                },
                "damageRolls": {
                    "mwdx5rvny9h800405t75e": {
                        "damage": "4d6",
                        "damageType": "bludgeoning"
                    }
                },
                "description": {
                    "value": "<p>On a successful strike, the target is grabbed and pulled off the ground (Escape DC 22). The target takes [[/r {1d6}[bludgeoning]]]{1d6 bludgeoning damage} at the end of each of its turns as long as it's caught in the noose.</p>"
                },
                "rules": [],
                "slug": null,
                "source": {
                    "value": ""
                },
                "traits": {
                    "custom": "",
                    "rarity": "common",
                    "value": [
                        "deadly-d10"
                    ]
                },
                "weaponType": {
                    "value": "melee"
                }
            },
            "img": "systems/pf2ettw/icons/default-icons/melee.svg",
            "name": "Noose Strike",
            "sort": 200000,
            "type": "melee"
        }
    ],
    "name": "Sticky Web Lurker Noose",
    "token": {
        "disposition": 0,
        "height": 1,
        "img": "systems/pf2ettw/icons/default-icons/hazard.svg",
        "name": "Web Lurker Noose",
        "width": 1
    },
    "type": "hazard"
}
