{
    "_id": "AkKxh2OXfWEb5OHt",
    "data": {
        "attributes": {
            "ac": {
                "value": 0
            },
            "hardness": 0,
            "hp": {
                "details": "",
                "max": 0,
                "temp": 0,
                "value": 0
            },
            "stealth": {
                "details": "<p>(expert)</p>",
                "value": 15
            }
        },
        "creatureType": "",
        "customModifiers": {},
        "details": {
            "description": "<p>Abyssal fire rains from the sky.</p>",
            "disable": "<p>@Check[type:arcana|dc:28], @Check[type:nature|dc:28], @Check[type:occultism|dc:28], or  @Check[type:religion|dc:28] (trained) twice or <em>@Compendium[pf2ettw.spells-srd.Dispel Magic]{Dispel Magic}</em> (3rd level; counteract DC 22) to cause a temporary, local disruption to the Disciple of Urxehl's ritual. Checks to disrupt the firestorm require two actions. Defeating the Disciple of Urxehl also disables the hazard.</span></p>",
            "isComplex": true,
            "level": {
                "value": 6
            },
            "reset": "<p>The hazard activates when the PCs reach <strong>Event: Rain of Fire</strong>, area <strong>A1</strong>, and area <strong>A9</strong>. If the PCs defeat the Disciple of Urxehl, the hazard is permanently destroyed.</p>",
            "routine": ""
        },
        "saves": {
            "fortitude": {
                "saveDetail": "",
                "value": 0
            },
            "reflex": {
                "saveDetail": "",
                "value": 0
            },
            "will": {
                "saveDetail": "",
                "value": 0
            }
        },
        "source": {
            "value": "Pathfinder Society Scenario #2-22: Breaking the Storm: Excising Ruination"
        },
        "statusEffects": [],
        "traits": {
            "di": {
                "custom": "",
                "selected": {},
                "value": []
            },
            "dr": [],
            "dv": [],
            "rarity": "rare",
            "size": {
                "value": "med"
            },
            "traits": {
                "custom": "",
                "value": [
                    "environmental",
                    "evil",
                    "fire",
                    "magical"
                ]
            }
        }
    },
    "img": "systems/pf2ettw/icons/default-icons/hazard.svg",
    "items": [
        {
            "_id": "FHqDQpzkqnIwlrD0",
            "data": {
                "actionCategory": {
                    "value": "offensive"
                },
                "actionType": {
                    "value": "reaction"
                },
                "actions": {
                    "value": null
                },
                "description": {
                    "value": "<p><strong>Trigger</strong> A creature who doesn't worship Urxehl walks into the hazard's area;</p>\n<hr />\n<p><strong>Effect</strong> The hazard rolls initiative as bolts of profane fire begin to target the intruders.</p>"
                },
                "requirements": {
                    "value": ""
                },
                "rules": [],
                "slug": null,
                "source": {
                    "value": ""
                },
                "traits": {
                    "custom": "",
                    "rarity": "common",
                    "value": []
                },
                "trigger": {
                    "value": ""
                }
            },
            "img": "systems/pf2ettw/icons/actions/Reaction.webp",
            "name": "Urxehl's Ire",
            "sort": 0,
            "type": "action"
        },
        {
            "_id": "1PyZ8r3XpchSv9Wb",
            "data": {
                "actionCategory": {
                    "value": "offensive"
                },
                "actionType": {
                    "value": "passive"
                },
                "actions": {
                    "value": null
                },
                "description": {
                    "value": "<p>Multiple Attack Penalties do not apply to the corrupted fire bolt strike.</p>"
                },
                "requirements": {
                    "value": ""
                },
                "rules": [],
                "slug": null,
                "source": {
                    "value": ""
                },
                "traits": {
                    "custom": "",
                    "rarity": "common",
                    "value": []
                },
                "trigger": {
                    "value": ""
                }
            },
            "img": "systems/pf2ettw/icons/actions/Passive.webp",
            "name": "No MAP",
            "sort": 0,
            "type": "action"
        },
        {
            "_id": "NNsvPEKeWr0bXQGz",
            "data": {
                "attack": {
                    "value": ""
                },
                "attackEffects": {
                    "custom": "",
                    "value": [
                        "no-map"
                    ]
                },
                "bonus": {
                    "value": 17
                },
                "damageRolls": {
                    "uztzova2a3xkij7adhxc": {
                        "damage": "2d6+7",
                        "damageType": "fire"
                    },
                    "45j0lu8tdnmz645ry91y": {
                        "damage": "1d6",
                        "damageType": "evil"
                    }
                },
                "description": {
                    "value": ""
                },
                "rules": [],
                "slug": null,
                "source": {
                    "value": ""
                },
                "traits": {
                    "custom": "",
                    "rarity": "common",
                    "value": [
                        "evil",
                        "fire",
                        "magical"
                    ]
                },
                "weaponType": {
                    "value": "ranged"
                }
            },
            "img": "systems/pf2ettw/icons/default-icons/melee.svg",
            "name": "Corrupted Fire Bolt",
            "sort": 0,
            "type": "melee"
        }
    ],
    "name": "Urxehl's Firestorm (7-8)",
    "token": {
        "disposition": -1,
        "height": 1,
        "img": "systems/pf2ettw/icons/default-icons/hazard.svg",
        "name": "Urxehl's Firestorm",
        "width": 1
    },
    "type": "hazard"
}
