{
    "_id": "iEQyYzFBvgyD5yBy",
    "data": {
        "abilities": {
            "cha": {
                "mod": 0
            },
            "con": {
                "mod": 6
            },
            "dex": {
                "mod": 3
            },
            "int": {
                "mod": -4
            },
            "str": {
                "mod": 5
            },
            "wis": {
                "mod": 1
            }
        },
        "attributes": {
            "ac": {
                "details": "",
                "value": 22
            },
            "allSaves": {
                "value": ""
            },
            "hp": {
                "details": "",
                "max": 50,
                "temp": 0,
                "value": 50
            },
            "initiative": {
                "ability": "perception"
            },
            "perception": {
                "value": 10
            },
            "speed": {
                "otherSpeeds": [
                    {
                        "type": "fly",
                        "value": "50"
                    }
                ],
                "value": "0"
            }
        },
        "details": {
            "alignment": {
                "value": "NE"
            },
            "blurb": "",
            "creatureType": "",
            "level": {
                "value": 5
            },
            "privateNotes": "",
            "publicNotes": "",
            "source": {
                "value": "Pathfinder Society Scenario 2-02: Mountain of Sea and Sky"
            }
        },
        "resources": {},
        "saves": {
            "fortitude": {
                "saveDetail": "",
                "value": 9
            },
            "reflex": {
                "saveDetail": "",
                "value": 14
            },
            "will": {
                "saveDetail": "",
                "value": 9
            }
        },
        "traits": {
            "ci": [],
            "di": {
                "custom": "",
                "value": [
                    "bleed",
                    "paralyzed",
                    "poison",
                    "sleep"
                ]
            },
            "dr": [],
            "dv": [],
            "languages": {
                "custom": "",
                "selected": [],
                "value": []
            },
            "rarity": "uncommon",
            "senses": {
                "value": "darkvision"
            },
            "size": {
                "value": "sm"
            },
            "traits": {
                "custom": "",
                "value": [
                    "air",
                    "elemental"
                ]
            }
        }
    },
    "img": "systems/pf2ettw/icons/default-icons/npc.svg",
    "items": [
        {
            "_id": "21yFJ9CtjGVqNRyl",
            "data": {
                "attack": {
                    "value": ""
                },
                "attackEffects": {
                    "value": []
                },
                "bonus": {
                    "value": 14
                },
                "damageRolls": {
                    "20yh59rk1faxy135ps0i": {
                        "damage": "2d8+7",
                        "damageType": "slashing"
                    }
                },
                "description": {
                    "value": ""
                },
                "rules": [],
                "slug": null,
                "source": {
                    "value": ""
                },
                "traits": {
                    "custom": "",
                    "rarity": "common",
                    "value": []
                },
                "weaponType": {
                    "value": "melee"
                }
            },
            "img": "systems/pf2ettw/icons/default-icons/melee.svg",
            "name": "Vacuum Sickle",
            "sort": 100000,
            "type": "melee"
        },
        {
            "_id": "giQZtrNtX4gG4RwO",
            "data": {
                "actionCategory": {
                    "value": "interaction"
                },
                "actionType": {
                    "value": "passive"
                },
                "actions": {
                    "value": null
                },
                "description": {
                    "value": "<p>@Localize[pf2ettw.NPC.Abilities.Glossary.Darkvision]</p>"
                },
                "requirements": {
                    "value": ""
                },
                "rules": [],
                "slug": "darkvision",
                "source": {
                    "value": "Pathfinder Bestiary"
                },
                "traits": {
                    "custom": "",
                    "rarity": "common",
                    "value": []
                },
                "trigger": {
                    "value": ""
                },
                "weapon": {
                    "value": ""
                }
            },
            "flags": {
                "core": {
                    "sourceId": "Compendium.pf2ettw.bestiary-ability-glossary-srd.qCCLZhnp2HhP3Ex6"
                }
            },
            "img": "systems/pf2ettw/icons/actions/Passive.webp",
            "name": "Darkvision",
            "sort": 200000,
            "type": "action"
        },
        {
            "_id": "blnlbHg4zm5aPODb",
            "data": {
                "actionCategory": {
                    "value": "defensive"
                },
                "actionType": {
                    "value": "reaction"
                },
                "actions": {
                    "value": null
                },
                "description": {
                    "value": "<p><strong>Trigger</strong> The wind malevolent would be hit by an effect that deals bludgeoning, piercing, or slashing damage</p>\n<hr />\n<p><strong>Effect</strong> The wind malevolent dissociates into component elemental wisps while vaguely retaining its weasel-like form. This grants it bludgeoning resistance 7, piercing resistance 7, slashing resistance 7, weakness 5 to area damage, and weakness 5 to splash damage. While in this dissociated form, it can't use its vacuum sickle Strike. The wind malevolent automatically re-forms into its normal form at the beginning of its next turn.</p>"
                },
                "requirements": {
                    "value": ""
                },
                "rules": [],
                "slug": null,
                "source": {
                    "value": ""
                },
                "traits": {
                    "custom": "",
                    "rarity": "common",
                    "value": []
                },
                "trigger": {
                    "value": ""
                },
                "weapon": {
                    "value": ""
                }
            },
            "img": "systems/pf2ettw/icons/actions/Reaction.webp",
            "name": "Dissociate",
            "sort": 300000,
            "type": "action"
        },
        {
            "_id": "Ti3KfyPNzLlgmzGC",
            "data": {
                "description": {
                    "value": ""
                },
                "mod": {
                    "value": 14
                },
                "proficient": {
                    "value": 0
                },
                "rules": [],
                "slug": null,
                "source": {
                    "value": ""
                },
                "traits": {
                    "custom": "",
                    "rarity": "common",
                    "value": []
                }
            },
            "img": "systems/pf2ettw/icons/default-icons/lore.svg",
            "name": "Acrobatics",
            "sort": 400000,
            "type": "lore"
        },
        {
            "_id": "3n4wEqQ4KTWPnNPD",
            "data": {
                "description": {
                    "value": ""
                },
                "mod": {
                    "value": 12
                },
                "proficient": {
                    "value": 0
                },
                "rules": [],
                "slug": null,
                "source": {
                    "value": ""
                },
                "traits": {
                    "custom": "",
                    "rarity": "common",
                    "value": []
                }
            },
            "img": "systems/pf2ettw/icons/default-icons/lore.svg",
            "name": "Stealth",
            "sort": 500000,
            "type": "lore"
        }
    ],
    "name": "Wind Malevolent (5-6)",
    "token": {
        "disposition": -1,
        "height": 1,
        "img": "systems/pf2ettw/icons/default-icons/npc.svg",
        "name": "Wind Malevolent",
        "width": 1
    },
    "type": "npc"
}
