{
    "_id": "QUzBzxRy6HLeK7ja",
    "data": {
        "abilities": {
            "cha": {
                "mod": 8
            },
            "con": {
                "mod": 0
            },
            "dex": {
                "mod": 7
            },
            "int": {
                "mod": 1
            },
            "str": {
                "mod": -5
            },
            "wis": {
                "mod": 6
            }
        },
        "attributes": {
            "ac": {
                "details": "",
                "value": 35
            },
            "allSaves": {
                "value": null
            },
            "hp": {
                "details": "negative healing",
                "max": 175,
                "temp": 0,
                "value": 175
            },
            "initiative": {
                "ability": "perception"
            },
            "perception": {
                "value": 27
            },
            "speed": {
                "otherSpeeds": [
                    {
                        "type": "fly",
                        "value": "50"
                    }
                ],
                "value": "0"
            }
        },
        "details": {
            "alignment": {
                "value": "NE"
            },
            "blurb": "",
            "creatureType": "",
            "level": {
                "value": 15
            },
            "privateNotes": "",
            "publicNotes": "<p>The discorporated spirits called dybbuks arise from souls denied respite in the afterlife, often because they committed some great transgression in life. A priest can appease dybbuks by helping them achieve some esoteric mission, though these tricksters are prone to deceiving anyone who offers them aid. Only by trapping, cowing, or destroying such spirits can a mortal hope to drive them back. Dybbuks hide within household objects or possessed victims. They particularly enjoy taking over the body of someone their target loves and then slowly destroying the lives of both.</p>",
            "source": {
                "value": "Pathfinder Bestiary 3"
            }
        },
        "resources": {
            "focus": {
                "max": 0,
                "value": 0
            }
        },
        "saves": {
            "fortitude": {
                "saveDetail": "",
                "value": 21
            },
            "reflex": {
                "saveDetail": "",
                "value": 28
            },
            "will": {
                "saveDetail": "",
                "value": 29
            }
        },
        "traits": {
            "attitude": {
                "value": "hostile"
            },
            "ci": [],
            "di": {
                "custom": "",
                "value": [
                    "death-effects",
                    "disease",
                    "paralyzed",
                    "poison",
                    "precision",
                    "unconscious"
                ]
            },
            "dr": [
                {
                    "exceptions": "except force, ghost touch, or positive; double resistance vs. non-magical",
                    "type": "all",
                    "value": 10
                }
            ],
            "dv": [],
            "languages": {
                "custom": "Telepathy 100 feet",
                "selected": [],
                "value": [
                    "abyssal",
                    "aklo",
                    "common"
                ]
            },
            "rarity": "uncommon",
            "senses": {
                "value": "darkvision"
            },
            "size": {
                "value": "med"
            },
            "traits": {
                "custom": "",
                "value": [
                    "incorporeal",
                    "spirit",
                    "undead"
                ]
            }
        }
    },
    "img": "systems/pf2ettw/icons/default-icons/npc.svg",
    "items": [
        {
            "_id": "HYr6s9EXaFLh9DwX",
            "data": {
                "autoHeightenLevel": {
                    "value": null
                },
                "description": {
                    "value": ""
                },
                "displayLevels": {},
                "prepared": {
                    "flexible": false,
                    "value": "innate"
                },
                "proficiency": {
                    "value": 0
                },
                "rules": [],
                "showSlotlessLevels": {
                    "value": true
                },
                "showUnpreparedSpells": {
                    "value": false
                },
                "slots": {
                    "slot0": {
                        "max": 1,
                        "prepared": {
                            "0": {
                                "id": "h5DP6TnebUzpsqgB"
                            }
                        },
                        "value": 1
                    },
                    "slot1": {
                        "max": 0,
                        "prepared": {},
                        "value": 0
                    },
                    "slot10": {
                        "max": 0,
                        "prepared": {},
                        "value": 0
                    },
                    "slot11": {
                        "max": 0,
                        "prepared": {},
                        "value": 0
                    },
                    "slot2": {
                        "max": 0,
                        "prepared": {},
                        "value": 0
                    },
                    "slot3": {
                        "max": 1,
                        "prepared": {},
                        "value": 1
                    },
                    "slot4": {
                        "max": 1,
                        "prepared": {
                            "0": {
                                "id": "8tsYJuFI7qycCYm8"
                            }
                        },
                        "value": 1
                    },
                    "slot5": {
                        "max": 3,
                        "prepared": {
                            "0": {
                                "id": "XwrtQuqEwYiyT2Jv"
                            },
                            "1": {
                                "id": "XwrtQuqEwYiyT2Jv"
                            },
                            "2": {
                                "id": "696HhGkgBf7Pz0fR"
                            }
                        },
                        "value": 3
                    },
                    "slot6": {
                        "max": 3,
                        "prepared": {
                            "0": {
                                "id": "DXDM141i760l9SLl"
                            },
                            "1": {
                                "id": "YJmwXjtv2msrGPfz"
                            }
                        },
                        "value": 3
                    },
                    "slot7": {
                        "max": 0,
                        "prepared": {},
                        "value": 0
                    },
                    "slot8": {
                        "max": 0,
                        "prepared": {},
                        "value": 0
                    },
                    "slot9": {
                        "max": 0,
                        "prepared": {},
                        "value": 0
                    }
                },
                "slug": null,
                "source": {
                    "value": ""
                },
                "spelldc": {
                    "dc": 36,
                    "item": 0,
                    "mod": 0,
                    "value": 30
                },
                "tradition": {
                    "value": "divine"
                },
                "traits": {
                    "custom": "",
                    "rarity": "common",
                    "value": []
                }
            },
            "img": "systems/pf2ettw/icons/default-icons/spellcastingEntry.svg",
            "name": "Occult Innate Spells",
            "sort": 100000,
            "type": "spellcastingEntry"
        },
        {
            "_id": "DXDM141i760l9SLl",
            "data": {
                "ability": {
                    "value": ""
                },
                "area": {
                    "areaType": "",
                    "value": null
                },
                "areasize": {
                    "value": ""
                },
                "category": {
                    "value": "spell"
                },
                "components": {
                    "focus": false,
                    "material": false,
                    "somatic": true,
                    "verbal": true
                },
                "cost": {
                    "value": ""
                },
                "damage": {
                    "value": {}
                },
                "description": {
                    "value": "<p>You take command of the target, forcing it to obey your orders. If you issue an obviously self-destructive order, the target doesn't act until you issue a new order. The effect depends on its Will save.</p>\n<hr /><strong>Critical Success</strong> The target is unaffected.\n<p><strong>Success</strong> The target is @Compendium[pf2ettw.conditionitems.Stunned]{Stunned 1} as it fights off your commands.</p>\n<p><strong>Failure</strong> The target follows your orders but can attempt a Will save at the end of each of its turns. On a success, the spell ends.</p>\n<p><strong>Critical Failure</strong> As a failure, but the target receives a new save only if you give it a new order that is against its nature, such as killing its allies.</p>\n<hr /><strong>Heightened (10th)</strong> The duration is unlimited."
                },
                "duration": {
                    "value": "until the next time you make your daily preparations"
                },
                "hasCounteractCheck": {
                    "value": false
                },
                "level": {
                    "value": 6
                },
                "location": {
                    "value": "HYr6s9EXaFLh9DwX"
                },
                "materials": {
                    "value": ""
                },
                "prepared": {
                    "value": ""
                },
                "primarycheck": {
                    "value": ""
                },
                "range": {
                    "value": "30 feet"
                },
                "rules": [],
                "save": {
                    "basic": "",
                    "value": "will"
                },
                "school": {
                    "value": "enchantment"
                },
                "secondarycasters": {
                    "value": ""
                },
                "secondarycheck": {
                    "value": ""
                },
                "slug": "dominate",
                "source": {
                    "value": ""
                },
                "spellType": {
                    "value": "save"
                },
                "sustained": {
                    "value": false
                },
                "target": {
                    "value": "1 creature"
                },
                "time": {
                    "value": "2"
                },
                "traditions": {
                    "value": [
                        "arcane",
                        "occult"
                    ]
                },
                "traits": {
                    "custom": "",
                    "rarity": "uncommon",
                    "value": [
                        "incapacitation",
                        "mental"
                    ]
                }
            },
            "flags": {
                "core": {
                    "sourceId": "Compendium.pf2ettw.spells-srd.OsOhx3TGIZ7AhD0P"
                }
            },
            "img": "systems/pf2ettw/icons/spells/dominate.webp",
            "name": "Dominate",
            "sort": 200000,
            "type": "spell"
        },
        {
            "_id": "YJmwXjtv2msrGPfz",
            "data": {
                "ability": {
                    "value": ""
                },
                "area": {
                    "areaType": "",
                    "value": null
                },
                "areasize": {
                    "value": ""
                },
                "category": {
                    "value": "spell"
                },
                "components": {
                    "focus": false,
                    "material": false,
                    "somatic": true,
                    "verbal": true
                },
                "cost": {
                    "value": ""
                },
                "damage": {
                    "value": {}
                },
                "description": {
                    "value": "<p>You drastically reduce the target's mental faculties. The target must attempt a Will save.</p>\n<hr />\n<p><strong>Critical Success</strong> The target is unaffected. The effects of this curse can be removed only through remove curse or another effect that targets curses.</p>\n<p><strong>Success</strong> The target is @Compendium[pf2ettw.conditionitems.Stupefied]{Stupefied 2} for 1 round.</p>\n<p><strong>Failure</strong> The target is @Compendium[pf2ettw.conditionitems.Stupefied]{Stupefied 4} with an unlimited duration.</p>\n<p><strong>Critical Failure</strong> The target's intellect is permanently reduced below that of an animal, and it treats its Charisma, Intelligence, and Wisdom modifiers as -5. It loses all class abilities that require mental faculties, including all spellcasting. If the target is a PC, they become an NPC under the GM's control.</p>"
                },
                "duration": {
                    "value": "varies"
                },
                "hasCounteractCheck": {
                    "value": false
                },
                "level": {
                    "value": 6
                },
                "location": {
                    "value": "HYr6s9EXaFLh9DwX"
                },
                "materials": {
                    "value": ""
                },
                "prepared": {
                    "value": ""
                },
                "primarycheck": {
                    "value": ""
                },
                "range": {
                    "value": "30 feet"
                },
                "rules": [],
                "save": {
                    "basic": "",
                    "value": "will"
                },
                "school": {
                    "value": "enchantment"
                },
                "secondarycasters": {
                    "value": ""
                },
                "secondarycheck": {
                    "value": ""
                },
                "slug": "feeblemind",
                "source": {
                    "value": ""
                },
                "spellType": {
                    "value": "save"
                },
                "sustained": {
                    "value": false
                },
                "target": {
                    "value": "1 creature"
                },
                "time": {
                    "value": "2"
                },
                "traditions": {
                    "value": [
                        "arcane",
                        "occult"
                    ]
                },
                "traits": {
                    "custom": "",
                    "rarity": "common",
                    "value": [
                        "curse",
                        "incapacitation",
                        "mental"
                    ]
                }
            },
            "flags": {
                "core": {
                    "sourceId": "Compendium.pf2ettw.spells-srd.5BbU1V6wGSGbrmRD"
                }
            },
            "img": "systems/pf2ettw/icons/spells/feeblemind.webp",
            "name": "Feeblemind",
            "sort": 300000,
            "type": "spell"
        },
        {
            "_id": "J1Aczmj6wOsMGnKl",
            "data": {
                "ability": {
                    "value": ""
                },
                "area": {
                    "areaType": "",
                    "value": null
                },
                "areasize": {
                    "value": ""
                },
                "category": {
                    "value": "spell"
                },
                "components": {
                    "focus": false,
                    "material": false,
                    "somatic": true,
                    "verbal": true
                },
                "cost": {
                    "value": ""
                },
                "damage": {
                    "value": {}
                },
                "description": {
                    "value": "<p>With a rush of telekinetic power, you move a foe or something they carry. You can attempt to Disarm, Shove, or Trip the target using a spell attack roll instead of an Athletics check.</p>"
                },
                "duration": {
                    "value": ""
                },
                "hasCounteractCheck": {
                    "value": false
                },
                "level": {
                    "value": 6
                },
                "location": {
                    "value": "HYr6s9EXaFLh9DwX"
                },
                "materials": {
                    "value": ""
                },
                "prepared": {
                    "value": ""
                },
                "primarycheck": {
                    "value": ""
                },
                "range": {
                    "value": "60 feet"
                },
                "rules": [],
                "save": {
                    "basic": "",
                    "value": ""
                },
                "school": {
                    "value": "evocation"
                },
                "secondarycasters": {
                    "value": ""
                },
                "secondarycheck": {
                    "value": ""
                },
                "slug": "telekinetic-maneuver",
                "source": {
                    "value": ""
                },
                "spellType": {
                    "value": "attack"
                },
                "sustained": {
                    "value": false
                },
                "target": {
                    "value": "1 creature"
                },
                "time": {
                    "value": "2"
                },
                "traditions": {
                    "value": [
                        "arcane",
                        "occult"
                    ]
                },
                "traits": {
                    "custom": "",
                    "rarity": "common",
                    "value": [
                        "attack",
                        "force"
                    ]
                }
            },
            "flags": {
                "core": {
                    "sourceId": "Compendium.pf2ettw.spells-srd.mrDi3v933gsmnw25"
                }
            },
            "img": "systems/pf2ettw/icons/spells/telekinetic-maneuver.webp",
            "name": "Telekinetic Maneuver (At Will)",
            "sort": 400000,
            "type": "spell"
        },
        {
            "_id": "XwrtQuqEwYiyT2Jv",
            "data": {
                "ability": {
                    "value": ""
                },
                "area": {
                    "areaType": "",
                    "value": null
                },
                "areasize": {
                    "value": ""
                },
                "category": {
                    "value": "spell"
                },
                "components": {
                    "focus": false,
                    "material": false,
                    "somatic": true,
                    "verbal": true
                },
                "cost": {
                    "value": ""
                },
                "damage": {
                    "value": {
                        "0": {
                            "type": {
                                "categories": [],
                                "value": "cold"
                            },
                            "value": "9d6"
                        }
                    }
                },
                "description": {
                    "value": "<p>You shoot an utterly cold ray of darkness tinged with unholy energy. Make a ranged spell attack against the target. You deal 9d6 cold damage, plus 9d6 evil damage if the target is a celestial.</p>\n<p>If the ray passes through an area of magical light or targets a creature affected by magical light, chilling darkness attempts to counteract the light. If you need to determine whether the ray passes through an area of light, draw a line between yourself and the spell's target.</p>\n<hr />\n<p><strong>Critical Success</strong> The target takes double damage.</p>\n<p><strong>Success</strong> The target takes full damage.</p>\n<hr />\n<p><strong>Heightened (+1)</strong> The cold damage increases by 2d6, and the evil damage against celestials increases by 2d6.</p>"
                },
                "duration": {
                    "value": ""
                },
                "hasCounteractCheck": {
                    "value": true
                },
                "heightening": {
                    "damage": {
                        "0": "2d6"
                    },
                    "interval": 1,
                    "type": "interval"
                },
                "level": {
                    "value": 5
                },
                "location": {
                    "uses": {
                        "max": 2,
                        "value": 2
                    },
                    "value": "HYr6s9EXaFLh9DwX"
                },
                "materials": {
                    "value": ""
                },
                "prepared": {
                    "value": ""
                },
                "primarycheck": {
                    "value": ""
                },
                "range": {
                    "value": "120 feet"
                },
                "rules": [],
                "save": {
                    "basic": "",
                    "value": ""
                },
                "school": {
                    "value": "evocation"
                },
                "secondarycasters": {
                    "value": ""
                },
                "secondarycheck": {
                    "value": ""
                },
                "slug": "chilling-darkness",
                "source": {
                    "value": ""
                },
                "spellType": {
                    "value": "attack"
                },
                "sustained": {
                    "value": false
                },
                "target": {
                    "value": "1 creature"
                },
                "time": {
                    "value": "2"
                },
                "traditions": {
                    "value": [
                        "divine"
                    ]
                },
                "traits": {
                    "custom": "",
                    "rarity": "common",
                    "value": [
                        "attack",
                        "cold",
                        "darkness",
                        "evil"
                    ]
                }
            },
            "flags": {
                "core": {
                    "sourceId": "Compendium.pf2ettw.spells-srd.sRfSBHWHdbIa0aGc"
                }
            },
            "img": "systems/pf2ettw/icons/spells/chilling-darkness.webp",
            "name": "Chilling Darkness",
            "sort": 500000,
            "type": "spell"
        },
        {
            "_id": "q4tGOfc7hKS21kd7",
            "data": {
                "ability": {
                    "value": ""
                },
                "area": {
                    "areaType": "",
                    "value": null
                },
                "areasize": {
                    "value": ""
                },
                "category": {
                    "value": "spell"
                },
                "components": {
                    "focus": false,
                    "material": false,
                    "somatic": true,
                    "verbal": true
                },
                "cost": {
                    "value": ""
                },
                "damage": {
                    "value": {}
                },
                "description": {
                    "value": "<p>You plant fear in the target; it must attempt a Will save.</p>\n<hr />\n<p><strong>Critical Success</strong> The target is unaffected.</p>\n<p><strong>Success</strong> The target is @Compendium[pf2ettw.conditionitems.Frightened]{Frightened 1}.</p>\n<p><strong>Failure</strong> The target is @Compendium[pf2ettw.conditionitems.Frightened]{Frightened 2}.</p>\n<p><strong>Critical Failure</strong> The target is @Compendium[pf2ettw.conditionitems.Frightened]{Frightened 3} and @Compendium[pf2ettw.conditionitems.Fleeing]{Fleeing} for 1 round.</p>\n<hr />\n<p><strong>Heightened (3rd)</strong> You can target up to five creatures.</p>"
                },
                "duration": {
                    "value": "varies"
                },
                "hasCounteractCheck": {
                    "value": false
                },
                "level": {
                    "value": 5
                },
                "location": {
                    "value": "HYr6s9EXaFLh9DwX"
                },
                "materials": {
                    "value": ""
                },
                "prepared": {
                    "value": ""
                },
                "primarycheck": {
                    "value": ""
                },
                "range": {
                    "value": "30 feet"
                },
                "rules": [],
                "save": {
                    "basic": "",
                    "value": "will"
                },
                "school": {
                    "value": "enchantment"
                },
                "secondarycasters": {
                    "value": ""
                },
                "secondarycheck": {
                    "value": ""
                },
                "slug": "fear",
                "source": {
                    "value": ""
                },
                "spellType": {
                    "value": "save"
                },
                "sustained": {
                    "value": false
                },
                "target": {
                    "value": "1 creature"
                },
                "time": {
                    "value": "2"
                },
                "traditions": {
                    "value": [
                        "arcane",
                        "divine",
                        "occult",
                        "primal"
                    ]
                },
                "traits": {
                    "custom": "",
                    "rarity": "common",
                    "value": [
                        "emotion",
                        "fear",
                        "mental"
                    ]
                }
            },
            "flags": {
                "core": {
                    "sourceId": "Compendium.pf2ettw.spells-srd.4koZzrnMXhhosn0D"
                }
            },
            "img": "systems/pf2ettw/icons/spells/fear.webp",
            "name": "Fear",
            "sort": 600000,
            "type": "spell"
        },
        {
            "_id": "8tsYJuFI7qycCYm8",
            "data": {
                "ability": {
                    "value": ""
                },
                "area": {
                    "areaType": "",
                    "value": null
                },
                "areasize": {
                    "value": ""
                },
                "category": {
                    "value": "spell"
                },
                "components": {
                    "focus": false,
                    "material": false,
                    "somatic": true,
                    "verbal": true
                },
                "cost": {
                    "value": ""
                },
                "damage": {
                    "value": {}
                },
                "description": {
                    "value": "<p>You alter the target's memories, either erasing a memory, enhancing a memory's clarity, altering a memory, or adding a false memory. The target can attempt a Will save to resist the spell.</p>\n<hr />\n<p><strong>Critical Success</strong> The target is unaffected and realizes you tried to alter its memory.</p>\n<p><strong>Success</strong> The target is unaffected but thinks your spell was something harmless instead of modify memory, unless it identifies the spell.</p>\n<p><strong>Failure</strong> During the first 5 minutes of the spell's duration, you can Sustain the Spell to modify a memory once each round. When you do, you imagine up to 6 seconds of memory to modify, to a maximum of 5 continuous minutes of memory.</p>\n<p>Any memories you've altered remain changed as long as the spell is active. If the target moves out of range before the 5 minutes is up, you can't alter any further memories.</p>\n<hr />\n<p><strong>Heightened (6th)</strong> You can cast the spell on a willing target to suppress all memory of a particular topic, detailed in 50 words or fewer. The effect is permanent, and it patches these omissions with an indistinct haze.</p>"
                },
                "duration": {
                    "value": "unlimited"
                },
                "hasCounteractCheck": {
                    "value": false
                },
                "level": {
                    "value": 4
                },
                "location": {
                    "value": "HYr6s9EXaFLh9DwX"
                },
                "materials": {
                    "value": ""
                },
                "prepared": {
                    "value": ""
                },
                "primarycheck": {
                    "value": ""
                },
                "range": {
                    "value": "30 feet"
                },
                "rules": [],
                "save": {
                    "basic": "",
                    "value": "will"
                },
                "school": {
                    "value": "divination"
                },
                "secondarycasters": {
                    "value": ""
                },
                "secondarycheck": {
                    "value": ""
                },
                "slug": "modify-memory",
                "source": {
                    "value": ""
                },
                "spellType": {
                    "value": "save"
                },
                "sustained": {
                    "value": false
                },
                "target": {
                    "value": "1 creature"
                },
                "time": {
                    "value": "2"
                },
                "traditions": {
                    "value": [
                        "occult"
                    ]
                },
                "traits": {
                    "custom": "",
                    "rarity": "uncommon",
                    "value": [
                        "mental"
                    ]
                }
            },
            "flags": {
                "core": {
                    "sourceId": "Compendium.pf2ettw.spells-srd.FhOaQDTSnsY7tiam"
                }
            },
            "img": "systems/pf2ettw/icons/spells/modify-memory.webp",
            "name": "Modify Memory",
            "sort": 700000,
            "type": "spell"
        },
        {
            "_id": "696HhGkgBf7Pz0fR",
            "data": {
                "ability": {
                    "value": ""
                },
                "area": {
                    "areaType": "",
                    "value": null
                },
                "areasize": {
                    "value": ""
                },
                "category": {
                    "value": "spell"
                },
                "components": {
                    "focus": false,
                    "material": false,
                    "somatic": true,
                    "verbal": true
                },
                "cost": {
                    "value": ""
                },
                "damage": {
                    "value": {}
                },
                "description": {
                    "value": "<p>You plant fear in the target; it must attempt a Will save.</p>\n<hr />\n<p><strong>Critical Success</strong> The target is unaffected.</p>\n<p><strong>Success</strong> The target is @Compendium[pf2ettw.conditionitems.Frightened]{Frightened 1}.</p>\n<p><strong>Failure</strong> The target is @Compendium[pf2ettw.conditionitems.Frightened]{Frightened 2}.</p>\n<p><strong>Critical Failure</strong> The target is @Compendium[pf2ettw.conditionitems.Frightened]{Frightened 3} and @Compendium[pf2ettw.conditionitems.Fleeing]{Fleeing} for 1 round.</p>\n<hr />\n<p><strong>Heightened (3rd)</strong> You can target up to five creatures.</p>"
                },
                "duration": {
                    "value": "varies"
                },
                "hasCounteractCheck": {
                    "value": false
                },
                "level": {
                    "value": 3
                },
                "location": {
                    "value": "HYr6s9EXaFLh9DwX"
                },
                "materials": {
                    "value": ""
                },
                "prepared": {
                    "value": ""
                },
                "primarycheck": {
                    "value": ""
                },
                "range": {
                    "value": "30 feet"
                },
                "rules": [],
                "save": {
                    "basic": "",
                    "value": "will"
                },
                "school": {
                    "value": "enchantment"
                },
                "secondarycasters": {
                    "value": ""
                },
                "secondarycheck": {
                    "value": ""
                },
                "slug": "fear",
                "source": {
                    "value": ""
                },
                "spellType": {
                    "value": "save"
                },
                "sustained": {
                    "value": false
                },
                "target": {
                    "value": "1 creature"
                },
                "time": {
                    "value": "2"
                },
                "traditions": {
                    "value": [
                        "arcane",
                        "divine",
                        "occult",
                        "primal"
                    ]
                },
                "traits": {
                    "custom": "",
                    "rarity": "common",
                    "value": [
                        "emotion",
                        "fear",
                        "mental"
                    ]
                }
            },
            "flags": {
                "core": {
                    "sourceId": "Compendium.pf2ettw.spells-srd.4koZzrnMXhhosn0D"
                }
            },
            "img": "systems/pf2ettw/icons/spells/fear.webp",
            "name": "Fear (At Will)",
            "sort": 800000,
            "type": "spell"
        },
        {
            "_id": "h5DP6TnebUzpsqgB",
            "data": {
                "ability": {
                    "value": ""
                },
                "area": {
                    "areaType": "",
                    "value": null
                },
                "areasize": {
                    "value": ""
                },
                "category": {
                    "value": "spell"
                },
                "components": {
                    "focus": false,
                    "material": false,
                    "somatic": true,
                    "verbal": true
                },
                "cost": {
                    "value": ""
                },
                "damage": {
                    "value": {
                        "0": {
                            "applyMod": true,
                            "type": {
                                "categories": [],
                                "value": "untyped"
                            },
                            "value": "1d6"
                        }
                    }
                },
                "description": {
                    "value": "<p>You hurl a loose, unattended object that is within range and that has 1 Bulk or less at the target. Make a spell attack attack against the target. If you hit, you deal bludgeoning, piercing, or slashing damage-as appropriate for the object you hurled-equal to 1d6 plus your spellcasting ability modifier. No specific traits or magic properties of the hurled item affect the attack or the damage.</p>\n<hr /><strong>Critical Success</strong> You deal double damage.\n<p><strong>Success</strong> You deal full damage.</p>\n<hr /><strong>Heightened (+1)</strong> The damage increases by 1d6."
                },
                "duration": {
                    "value": ""
                },
                "hasCounteractCheck": {
                    "value": false
                },
                "heightening": {
                    "damage": {
                        "0": "1d6"
                    },
                    "interval": 1,
                    "type": "interval"
                },
                "level": {
                    "value": 1
                },
                "location": {
                    "value": "HYr6s9EXaFLh9DwX"
                },
                "materials": {
                    "value": ""
                },
                "prepared": {
                    "value": ""
                },
                "primarycheck": {
                    "value": ""
                },
                "range": {
                    "value": "30 feet"
                },
                "rules": [],
                "save": {
                    "basic": "",
                    "value": ""
                },
                "school": {
                    "value": "evocation"
                },
                "secondarycasters": {
                    "value": ""
                },
                "secondarycheck": {
                    "value": ""
                },
                "slug": "telekinetic-projectile",
                "source": {
                    "value": ""
                },
                "spellType": {
                    "value": "attack"
                },
                "sustained": {
                    "value": false
                },
                "target": {
                    "value": "1 creature"
                },
                "time": {
                    "value": "2"
                },
                "traditions": {
                    "value": [
                        "arcane",
                        "occult"
                    ]
                },
                "traits": {
                    "custom": "",
                    "rarity": "common",
                    "value": [
                        "attack",
                        "cantrip"
                    ]
                }
            },
            "flags": {
                "core": {
                    "sourceId": "Compendium.pf2ettw.spells-srd.60sgbuMWN0268dB7"
                }
            },
            "img": "systems/pf2ettw/icons/spells/telekinetic-projectile.webp",
            "name": "Telekinetic Projectile",
            "sort": 900000,
            "type": "spell"
        },
        {
            "_id": "Taw4K2MqiOVhIddu",
            "data": {
                "attack": {
                    "value": ""
                },
                "attackEffects": {
                    "custom": "",
                    "value": []
                },
                "bonus": {
                    "value": 28
                },
                "damageRolls": {
                    "0": {
                        "damage": "3d10+14",
                        "damageType": "negative"
                    },
                    "g44ms7qssdrgv6abbpgc": {
                        "damage": "2d6",
                        "damageType": "evil"
                    }
                },
                "description": {
                    "value": ""
                },
                "rules": [],
                "slug": null,
                "source": {
                    "value": ""
                },
                "traits": {
                    "custom": "",
                    "rarity": "common",
                    "value": [
                        "agile",
                        "evil",
                        "finesse",
                        "magical"
                    ]
                },
                "weaponType": {
                    "value": "melee"
                }
            },
            "img": "systems/pf2ettw/icons/default-icons/melee.svg",
            "name": "Pain Touch",
            "sort": 1000000,
            "type": "melee"
        },
        {
            "_id": "tsZ8GnCQamaRzMs3",
            "data": {
                "actionCategory": {
                    "value": "interaction"
                },
                "actionType": {
                    "value": "passive"
                },
                "actions": {
                    "value": null
                },
                "description": {
                    "value": "<p>@Localize[pf2ettw.NPC.Abilities.Glossary.Darkvision]</p>"
                },
                "requirements": {
                    "value": ""
                },
                "rules": [],
                "slug": "darkvision",
                "source": {
                    "value": "Pathfinder Bestiary"
                },
                "traits": {
                    "custom": "",
                    "rarity": "common",
                    "value": []
                },
                "trigger": {
                    "value": ""
                },
                "weapon": {
                    "value": ""
                }
            },
            "flags": {
                "core": {
                    "sourceId": "Compendium.pf2ettw.bestiary-ability-glossary-srd.qCCLZhnp2HhP3Ex6"
                }
            },
            "img": "systems/pf2ettw/icons/actions/Passive.webp",
            "name": "Darkvision",
            "sort": 1100000,
            "type": "action"
        },
        {
            "_id": "eoGlb3oqWZjUaNDi",
            "data": {
                "actionCategory": {
                    "value": "interaction"
                },
                "actionType": {
                    "value": "passive"
                },
                "actions": {
                    "value": null
                },
                "description": {
                    "value": "<p>@Localize[pf2ettw.NPC.Abilities.Glossary.Telepathy]</p>"
                },
                "requirements": {
                    "value": ""
                },
                "rules": [],
                "slug": "telepathy",
                "source": {
                    "value": "Pathfinder Bestiary"
                },
                "traits": {
                    "custom": "",
                    "rarity": "common",
                    "value": [
                        "aura",
                        "divination",
                        "magical"
                    ]
                },
                "trigger": {
                    "value": ""
                },
                "weapon": {
                    "value": ""
                }
            },
            "flags": {
                "core": {
                    "sourceId": "Compendium.pf2ettw.bestiary-ability-glossary-srd.kdhbPaBMK1d1fpbA"
                }
            },
            "img": "systems/pf2ettw/icons/actions/Passive.webp",
            "name": "Telepathy 100 feet",
            "sort": 1200000,
            "type": "action"
        },
        {
            "_id": "yodQpRTpnwuSLWgE",
            "data": {
                "actionCategory": {
                    "value": "interaction"
                },
                "actionType": {
                    "value": "passive"
                },
                "actions": {
                    "value": null
                },
                "description": {
                    "value": "<p>@Localize[pf2ettw.NPC.Abilities.Glossary.AtWillSpells]</p>"
                },
                "requirements": {
                    "value": ""
                },
                "rules": [],
                "slug": "at-will-spells",
                "source": {
                    "value": "Pathfinder Bestiary"
                },
                "traits": {
                    "custom": "",
                    "rarity": "common",
                    "value": []
                },
                "trigger": {
                    "value": ""
                },
                "weapon": {
                    "value": ""
                }
            },
            "flags": {
                "core": {
                    "sourceId": "Compendium.pf2ettw.bestiary-ability-glossary-srd.2YRDYVnC1eljaXKK"
                }
            },
            "img": "systems/pf2ettw/icons/actions/Passive.webp",
            "name": "At-Will Spells",
            "sort": 1300000,
            "type": "action"
        },
        {
            "_id": "YnXG494wllYVpiYZ",
            "data": {
                "actionCategory": {
                    "value": "defensive"
                },
                "actionType": {
                    "value": "passive"
                },
                "actions": {
                    "value": null
                },
                "description": {
                    "value": "<p>@Localize[pf2ettw.NPC.Abilities.Glossary.NegativeHealing]</p>"
                },
                "requirements": {
                    "value": ""
                },
                "rules": [
                    {
                        "key": "ActiveEffectLike",
                        "mode": "override",
                        "path": "data.attributes.hp.negativeHealing",
                        "value": true
                    }
                ],
                "slug": "negative-healing",
                "source": {
                    "value": "Pathfinder Bestiary 2"
                },
                "traits": {
                    "custom": "",
                    "rarity": "common",
                    "value": []
                },
                "trigger": {
                    "value": ""
                },
                "weapon": {
                    "value": ""
                }
            },
            "flags": {
                "core": {
                    "sourceId": "Compendium.pf2ettw.bestiary-ability-glossary-srd.TTCw5NusiSSkJU1x"
                }
            },
            "img": "systems/pf2ettw/icons/actions/Passive.webp",
            "name": "Negative Healing",
            "sort": 1400000,
            "type": "action"
        },
        {
            "_id": "F9z5eqsEuY9xP7v7",
            "data": {
                "actionCategory": {
                    "value": "defensive"
                },
                "actionType": {
                    "value": "passive"
                },
                "actions": {
                    "value": null
                },
                "description": {
                    "value": "<p>@Template[type:emanation|distance:30]{30 feet} @Compendium[pf2ettw.bestiary-ability-glossary-srd.Aura]{Aura} @Check[type:will|dc:33]</p>\n<hr />\n<p>@Localize[pf2ettw.NPC.Abilities.Glossary.FrightfulPresence]</p>"
                },
                "requirements": {
                    "value": ""
                },
                "rules": [],
                "slug": "frightful-presence",
                "source": {
                    "value": "Pathfinder Bestiary"
                },
                "traits": {
                    "custom": "",
                    "rarity": "common",
                    "value": [
                        "aura",
                        "emotion",
                        "fear",
                        "mental"
                    ]
                },
                "trigger": {
                    "value": ""
                },
                "weapon": {
                    "value": ""
                }
            },
            "flags": {
                "core": {
                    "sourceId": "Compendium.pf2ettw.bestiary-ability-glossary-srd.etMnv73EIdEZrYYu"
                }
            },
            "img": "systems/pf2ettw/icons/actions/Passive.webp",
            "name": "Frightful Presence",
            "sort": 1500000,
            "type": "action"
        },
        {
            "_id": "20T7ujLS0ToWyxkl",
            "data": {
                "actionCategory": {
                    "value": "offensive"
                },
                "actionType": {
                    "value": "action"
                },
                "actions": {
                    "value": 1
                },
                "description": {
                    "value": "<p>The dybbuk possesses a Large or smaller unattended object within 20 feet, making it an animated object. This animated object's level can be no higher than the dybbuk's level -2.</p>\n<p>This possession ends when the object is destroyed or the dybbuk leaves it by using this ability again. At this point, the dybbuk reappears in the object's square and can't Inhabit an Object again for [[/br 1d4 #rounds]]{1d4 rounds}. If the object is destroyed, the dybbuk takes [[/r {5d6}[force]]]{5d6 force damage}.</p>"
                },
                "requirements": {
                    "value": ""
                },
                "rules": [],
                "slug": null,
                "source": {
                    "value": ""
                },
                "traits": {
                    "custom": "",
                    "rarity": "common",
                    "value": [
                        "necromancy",
                        "occult",
                        "possession"
                    ]
                },
                "trigger": {
                    "value": ""
                },
                "weapon": {
                    "value": ""
                }
            },
            "img": "systems/pf2ettw/icons/actions/OneAction.webp",
            "name": "Inhabit Object",
            "sort": 1600000,
            "type": "action"
        },
        {
            "_id": "7WVvb1W4IfVQZzSv",
            "data": {
                "actionCategory": {
                    "value": "offensive"
                },
                "actionType": {
                    "value": "action"
                },
                "actions": {
                    "value": 2
                },
                "description": {
                    "value": "<p>The dybbuk attempts to possess an adjacent corporeal creature.</p>\n<p>This has the same effect as the <em>@Compendium[pf2ettw.spells-srd.Possession]{Possession}</em> spell (DC 34) with an unlimited duration, except since the dybbuk doesn't have a physical body, they aren't unconscious, and aren't paralyzed when the effect ends, though they take [[/r {5d6}[force]]]{5d6 force damage} if the body is knocked unconscious or killed.</p>\n<p>If the dybbuk took control of the target with Malevolent Possession, when the dybbuk departs, the target has only incoherent memories of the interval it was possessed. If a creature dies while possessed by the dybbuk and its corpse remains intact, the dybbuk can immediately inhabit the corpse (see Inhabit Object) as a reaction, in which case the corpse becomes an animated object.</p>"
                },
                "requirements": {
                    "value": ""
                },
                "rules": [],
                "slug": null,
                "source": {
                    "value": ""
                },
                "traits": {
                    "custom": "",
                    "rarity": "common",
                    "value": [
                        "incapacitation",
                        "mental",
                        "necromancy",
                        "occult",
                        "possession"
                    ]
                },
                "trigger": {
                    "value": ""
                },
                "weapon": {
                    "value": ""
                }
            },
            "img": "systems/pf2ettw/icons/actions/TwoActions.webp",
            "name": "Malevolent Possession",
            "sort": 1700000,
            "type": "action"
        },
        {
            "_id": "0GRzo4VxrodXHBHq",
            "data": {
                "description": {
                    "value": ""
                },
                "mod": {
                    "value": 28
                },
                "proficient": {
                    "value": 0
                },
                "rules": [],
                "slug": null,
                "source": {
                    "value": ""
                },
                "traits": {
                    "custom": "",
                    "rarity": "common",
                    "value": []
                }
            },
            "img": "systems/pf2ettw/icons/default-icons/lore.svg",
            "name": "Acrobatics",
            "sort": 1800000,
            "type": "lore"
        },
        {
            "_id": "NnlIwJBLECcy5GQM",
            "data": {
                "description": {
                    "value": ""
                },
                "mod": {
                    "value": 31
                },
                "proficient": {
                    "value": 0
                },
                "rules": [],
                "slug": null,
                "source": {
                    "value": ""
                },
                "traits": {
                    "custom": "",
                    "rarity": "common",
                    "value": []
                }
            },
            "img": "systems/pf2ettw/icons/default-icons/lore.svg",
            "name": "Deception",
            "sort": 1900000,
            "type": "lore"
        },
        {
            "_id": "fshMJOyUMpfT2Urs",
            "data": {
                "description": {
                    "value": ""
                },
                "mod": {
                    "value": 27
                },
                "proficient": {
                    "value": 0
                },
                "rules": [],
                "slug": null,
                "source": {
                    "value": ""
                },
                "traits": {
                    "custom": "",
                    "rarity": "common",
                    "value": []
                }
            },
            "img": "systems/pf2ettw/icons/default-icons/lore.svg",
            "name": "Diplomacy",
            "sort": 2000000,
            "type": "lore"
        },
        {
            "_id": "LpdwcLtP5pMqtqRr",
            "data": {
                "description": {
                    "value": ""
                },
                "mod": {
                    "value": 29
                },
                "proficient": {
                    "value": 0
                },
                "rules": [],
                "slug": null,
                "source": {
                    "value": ""
                },
                "traits": {
                    "custom": "",
                    "rarity": "common",
                    "value": []
                }
            },
            "img": "systems/pf2ettw/icons/default-icons/lore.svg",
            "name": "Intimidation",
            "sort": 2100000,
            "type": "lore"
        },
        {
            "_id": "ksE6J3SxoPV9zogX",
            "data": {
                "description": {
                    "value": ""
                },
                "mod": {
                    "value": 28
                },
                "proficient": {
                    "value": 0
                },
                "rules": [],
                "slug": null,
                "source": {
                    "value": ""
                },
                "traits": {
                    "custom": "",
                    "rarity": "common",
                    "value": []
                }
            },
            "img": "systems/pf2ettw/icons/default-icons/lore.svg",
            "name": "Stealth",
            "sort": 2200000,
            "type": "lore"
        }
    ],
    "name": "Dybbuk",
    "token": {
        "disposition": -1,
        "height": 1,
        "img": "systems/pf2ettw/icons/default-icons/npc.svg",
        "name": "Dybbuk",
        "width": 1
    },
    "type": "npc"
}
