{
    "_id": "FOG8qK1bWVxp7vmE",
    "data": {
        "abilities": {
            "cha": {
                "mod": -4
            },
            "con": {
                "mod": 5
            },
            "dex": {
                "mod": 3
            },
            "int": {
                "mod": -5
            },
            "str": {
                "mod": 6
            },
            "wis": {
                "mod": 2
            }
        },
        "attributes": {
            "ac": {
                "details": "",
                "value": 23
            },
            "allSaves": {
                "value": ""
            },
            "hp": {
                "details": "",
                "max": 140,
                "temp": 0,
                "value": 140
            },
            "initiative": {
                "ability": "perception"
            },
            "perception": {
                "value": 13
            },
            "speed": {
                "otherSpeeds": [
                    {
                        "type": "burrow",
                        "value": "40"
                    }
                ],
                "value": "25"
            }
        },
        "details": {
            "alignment": {
                "value": "N"
            },
            "blurb": "",
            "creatureType": "",
            "level": {
                "value": 7
            },
            "privateNotes": "",
            "publicNotes": "<p>When an area lacks sufficient food, the bore worms in a swarm become increasingly agitated and desperate. Eventually, at some chemical signal, the worms begin to cannibalize each other, devouring one other in a frenzy too gruesome to behold. A single worm emerges from this melee victorious; it rapidly grows larger and more voracious until it reaches an absolutely elephantine size.</p>\n<p>This empress bore worm lives only briefly, as it sets out in search of a new feeding ground and eats everything in its path in an attempt to sustain itself. However, the empress bore worm's ravenous metabolism demands more from its body than what it can physically sustain, as it exists only as a vessel for the next generation. Most live only a few days, or weeks at best, traveling and eating nonstop before dying-and in so doing, giving birth to new swarms of bore worms.</p>\n<hr />\n<p>These Darklands vermin produce corrosive, noxious slime and deliver agonizing bites, whether as a revolting, wriggling swarm of finger-length worms or a single massive, lurching beast. Among Darklands communities, most inhabitants regard bore worms much in the same way surface cultures speak of maggots or cockroaches-with general disdain and revulsion. Children consider catching a single bore worm and using it to torment others a rite of passage, albeit a dangerous one.</p>\n<p>The humble bore worm is a small and simple creature, both biologically and magically. These qualities allow it to adapt rapidly to different environments, some of them quite extreme, and also makes it susceptible to magical radiation and experimentation. Many a Darklands apprentice takes their first steps in the school of transmutation by practicing on these worms, while variations-both natural and cultivated-are scattered about beneath Golarion's surface.</p>",
            "source": {
                "value": "Pathfinder Bestiary 3"
            }
        },
        "resources": {},
        "saves": {
            "fortitude": {
                "saveDetail": "",
                "value": 18
            },
            "reflex": {
                "saveDetail": "",
                "value": 14
            },
            "will": {
                "saveDetail": "",
                "value": 11
            }
        },
        "traits": {
            "attitude": {
                "value": "hostile"
            },
            "ci": [],
            "di": {
                "custom": "",
                "value": [
                    "acid"
                ]
            },
            "dr": [],
            "dv": [
                {
                    "type": "water",
                    "value": 10
                }
            ],
            "languages": {
                "custom": "",
                "selected": [],
                "value": []
            },
            "rarity": "common",
            "senses": {
                "value": "tremorsense (imprecise) 60 feet"
            },
            "size": {
                "value": "huge"
            },
            "traits": {
                "custom": "",
                "value": [
                    "animal"
                ]
            }
        }
    },
    "img": "systems/pf2ettw/icons/default-icons/npc.svg",
    "items": [
        {
            "_id": "tauTat1vId2N5H4u",
            "data": {
                "attack": {
                    "value": ""
                },
                "attackEffects": {
                    "custom": "",
                    "value": [
                        "painful-bite"
                    ]
                },
                "bonus": {
                    "value": 17
                },
                "damageRolls": {
                    "gj361eku2o8e4t0kykkj": {
                        "damage": "2d6+9",
                        "damageType": "piercing"
                    },
                    "6283fieltxwavj1plyh6": {
                        "damage": "1d6",
                        "damageType": "acid"
                    }
                },
                "description": {
                    "value": ""
                },
                "rules": [],
                "slug": null,
                "source": {
                    "value": ""
                },
                "traits": {
                    "custom": "",
                    "rarity": "common",
                    "value": [
                        "reach-15"
                    ]
                },
                "weaponType": {
                    "value": "melee"
                }
            },
            "img": "systems/pf2ettw/icons/default-icons/melee.svg",
            "name": "Bite",
            "sort": 100000,
            "type": "melee"
        },
        {
            "_id": "tTRbrpeMS0tQXfb1",
            "data": {
                "actionCategory": {
                    "value": "interaction"
                },
                "actionType": {
                    "value": "passive"
                },
                "actions": {
                    "value": null
                },
                "description": {
                    "value": "<p>@Localize[pf2ettw.NPC.Abilities.Glossary.Tremorsense]</p>"
                },
                "requirements": {
                    "value": ""
                },
                "rules": [],
                "slug": "tremorsense",
                "source": {
                    "value": "Pathfinder Bestiary"
                },
                "traits": {
                    "custom": "",
                    "rarity": "common",
                    "value": []
                },
                "trigger": {
                    "value": ""
                },
                "weapon": {
                    "value": ""
                }
            },
            "flags": {
                "core": {
                    "sourceId": "Compendium.pf2ettw.bestiary-ability-glossary-srd.j2wsK6IsW5yMW1jW"
                }
            },
            "img": "systems/pf2ettw/icons/actions/Passive.webp",
            "name": "Tremorsense (Imprecise) 60 feet",
            "sort": 200000,
            "type": "action"
        },
        {
            "_id": "9uDPkhvDHQvs18xG",
            "data": {
                "actionCategory": {
                    "value": "defensive"
                },
                "actionType": {
                    "value": "passive"
                },
                "actions": {
                    "value": null
                },
                "deathNote": true,
                "description": {
                    "value": "<p>When killed, an empress bore worm violently expels the young it carries. These young erupt as a @Compendium[pf2ettw.pathfinder-bestiary-3.Bore Worm Swarm]{Bore Worm Swarm} in the empress bore worm's space.</p>\n<p>In addition, every creature within @Template[type:emanation|distance:20]{20 feet} takes [[/r {5d10}[acid]]]{5d10 acid damage} (@Check[type:reflex|dc:25|basic:true] save) from the splatter of caustic viscera.</p>"
                },
                "requirements": {
                    "value": ""
                },
                "rules": [],
                "slug": null,
                "source": {
                    "value": ""
                },
                "traits": {
                    "custom": "",
                    "rarity": "common",
                    "value": []
                },
                "trigger": {
                    "value": ""
                },
                "weapon": {
                    "value": ""
                }
            },
            "img": "systems/pf2ettw/icons/actions/Passive.webp",
            "name": "Viviparous Birth",
            "sort": 300000,
            "type": "action"
        },
        {
            "_id": "GFFvPm7EbrqTqDNh",
            "data": {
                "actionCategory": {
                    "value": "offensive"
                },
                "actionType": {
                    "value": "passive"
                },
                "actions": {
                    "value": null
                },
                "description": {
                    "value": "<p>An empress bore worm can leave a tunnel behind itself when it burrows, and it usually does.</p>"
                },
                "requirements": {
                    "value": ""
                },
                "rules": [],
                "slug": null,
                "source": {
                    "value": ""
                },
                "traits": {
                    "custom": "",
                    "rarity": "common",
                    "value": []
                },
                "trigger": {
                    "value": ""
                },
                "weapon": {
                    "value": ""
                }
            },
            "img": "systems/pf2ettw/icons/actions/Passive.webp",
            "name": "Borer",
            "sort": 400000,
            "type": "action"
        },
        {
            "_id": "8jAtUvdgKdyaNzHN",
            "data": {
                "actionCategory": {
                    "value": "offensive"
                },
                "actionType": {
                    "value": "action"
                },
                "actions": {
                    "value": 1
                },
                "description": {
                    "value": "<p>The empress bore worm Strides, leaving behind dribbles of acid in every square that it passes through.</p>\n<p>A creature that enters or begins its turn in such a square takes [[/r {3d6}[acid]]]{3d6 acid damage} (@Check[type:fortitude|dc:22|basic:true] save). The acid becomes inert after 1 minute.</p>"
                },
                "requirements": {
                    "value": ""
                },
                "rules": [],
                "slug": null,
                "source": {
                    "value": ""
                },
                "traits": {
                    "custom": "",
                    "rarity": "common",
                    "value": []
                },
                "trigger": {
                    "value": ""
                },
                "weapon": {
                    "value": ""
                }
            },
            "img": "systems/pf2ettw/icons/actions/OneAction.webp",
            "name": "Corrosive Wake",
            "sort": 500000,
            "type": "action"
        },
        {
            "_id": "HBWRwsQLwNl5P9GZ",
            "data": {
                "actionCategory": {
                    "value": "offensive"
                },
                "actionType": {
                    "value": "passive"
                },
                "actions": {
                    "value": null
                },
                "description": {
                    "value": "<p>The bite of an empress bore worm causes excruciating pain. The target must succeed at a @Check[type:fortitude|dc:25] save or become @Compendium[pf2ettw.conditionitems.Sickened]{Sickened 1} from the pain (@Compendium[pf2ettw.conditionitems.Sickened]{Sickened 2} on a critical failure).</p>"
                },
                "requirements": {
                    "value": ""
                },
                "rules": [],
                "slug": null,
                "source": {
                    "value": ""
                },
                "traits": {
                    "custom": "",
                    "rarity": "common",
                    "value": []
                },
                "trigger": {
                    "value": ""
                },
                "weapon": {
                    "value": ""
                }
            },
            "img": "systems/pf2ettw/icons/actions/Passive.webp",
            "name": "Painful Bite",
            "sort": 600000,
            "type": "action"
        },
        {
            "_id": "3wr5RpC1LwSWS50U",
            "data": {
                "description": {
                    "value": ""
                },
                "mod": {
                    "value": 17
                },
                "proficient": {
                    "value": 0
                },
                "rules": [],
                "slug": null,
                "source": {
                    "value": ""
                },
                "traits": {
                    "custom": "",
                    "rarity": "common",
                    "value": []
                }
            },
            "img": "systems/pf2ettw/icons/default-icons/lore.svg",
            "name": "Athletics",
            "sort": 700000,
            "type": "lore"
        },
        {
            "_id": "wR5ymvtH8uGcOkzd",
            "data": {
                "description": {
                    "value": ""
                },
                "mod": {
                    "value": 14
                },
                "proficient": {
                    "value": 0
                },
                "rules": [],
                "slug": null,
                "source": {
                    "value": ""
                },
                "traits": {
                    "custom": "",
                    "rarity": "common",
                    "value": []
                }
            },
            "img": "systems/pf2ettw/icons/default-icons/lore.svg",
            "name": "Stealth",
            "sort": 800000,
            "type": "lore"
        }
    ],
    "name": "Empress Bore Worm",
    "token": {
        "disposition": -1,
        "height": 3,
        "img": "systems/pf2ettw/icons/default-icons/npc.svg",
        "name": "Empress Bore Worm",
        "width": 3
    },
    "type": "npc"
}
