{
    "_id": "pFUv7BzSjYTOo5mO",
    "data": {
        "abilities": {
            "cha": {
                "mod": 0
            },
            "con": {
                "mod": 0
            },
            "dex": {
                "mod": 3
            },
            "int": {
                "mod": -4
            },
            "str": {
                "mod": 0
            },
            "wis": {
                "mod": 2
            }
        },
        "attributes": {
            "ac": {
                "details": "",
                "value": 14
            },
            "allSaves": {
                "value": null
            },
            "hp": {
                "details": "",
                "max": 9,
                "temp": 0,
                "value": 9
            },
            "initiative": {
                "ability": "perception"
            },
            "perception": {
                "value": 6
            },
            "speed": {
                "otherSpeeds": [
                    {
                        "type": "climb",
                        "value": "20"
                    }
                ],
                "value": "25"
            }
        },
        "details": {
            "alignment": {
                "value": "N"
            },
            "blurb": "",
            "creatureType": "",
            "level": {
                "value": -1
            },
            "privateNotes": "",
            "publicNotes": "<p>Monkeys vary greatly in size, color, and behavior. Some are distinguished by bright orange fur, others for black fur in sharp contrast with a white face. Some produce distinct noises, like howls that can be heard from a village away. Others vie for dominance within ever-changing social hierarchies. Their size and aptitude for climbing allow them to quickly escape threats; combined with being a little too clever for their own good, this allows them to get up to all sorts of mischief and usually escape to do it again.</p>\n<hr />\n<p>When these small, curious primates come in contact with large humanoid populations, they quickly adapt, learning to steal food or small objects before retreating to the nearest tree branch with their prize.</p>",
            "source": {
                "value": "Pathfinder Bestiary 3"
            }
        },
        "resources": {},
        "saves": {
            "fortitude": {
                "saveDetail": "",
                "value": 2
            },
            "reflex": {
                "saveDetail": "",
                "value": 7
            },
            "will": {
                "saveDetail": "",
                "value": 4
            }
        },
        "traits": {
            "ci": [],
            "di": {
                "custom": "",
                "value": []
            },
            "dr": [],
            "dv": [],
            "languages": {
                "custom": "",
                "selected": [],
                "value": []
            },
            "rarity": "common",
            "senses": {
                "value": ""
            },
            "size": {
                "value": "tiny"
            },
            "traits": {
                "custom": "",
                "value": [
                    "animal"
                ]
            }
        }
    },
    "img": "systems/pf2ettw/icons/default-icons/npc.svg",
    "items": [
        {
            "_id": "hNp02EzjCutL6cMN",
            "data": {
                "attack": {
                    "value": ""
                },
                "attackEffects": {
                    "custom": "",
                    "value": []
                },
                "bonus": {
                    "value": 7
                },
                "damageRolls": {
                    "0": {
                        "damage": "1d6",
                        "damageType": "piercing"
                    }
                },
                "description": {
                    "value": ""
                },
                "rules": [],
                "slug": null,
                "source": {
                    "value": ""
                },
                "traits": {
                    "custom": "",
                    "rarity": "common",
                    "value": [
                        "agile",
                        "finesse"
                    ]
                },
                "weaponType": {
                    "value": "melee"
                }
            },
            "img": "systems/pf2ettw/icons/default-icons/melee.svg",
            "name": "Jaws",
            "sort": 100000,
            "type": "melee"
        },
        {
            "_id": "wDXudHrGRboTsL0B",
            "data": {
                "actionCategory": {
                    "value": "offensive"
                },
                "actionType": {
                    "value": "action"
                },
                "actions": {
                    "value": 2
                },
                "description": {
                    "value": "<p>The monkey Strides or Climbs up to its Speed. At any point during this movement, it can Interact to take a single unattended item of light Bulk or less that it can see from a square it moves through or is adjacent to. Alternatively, if not in combat, during this movement it can attempt to Steal from an adjacent creature.</p>"
                },
                "requirements": {
                    "value": ""
                },
                "rules": [],
                "slug": null,
                "source": {
                    "value": ""
                },
                "traits": {
                    "custom": "",
                    "rarity": "common",
                    "value": []
                },
                "trigger": {
                    "value": ""
                },
                "weapon": {
                    "value": ""
                }
            },
            "img": "systems/pf2ettw/icons/actions/TwoActions.webp",
            "name": "Grab and Go",
            "sort": 200000,
            "type": "action"
        },
        {
            "_id": "ELFaFG7wQGKBWsiA",
            "data": {
                "description": {
                    "value": ""
                },
                "mod": {
                    "value": 5
                },
                "proficient": {
                    "value": 0
                },
                "rules": [],
                "slug": null,
                "source": {
                    "value": ""
                },
                "traits": {
                    "custom": "",
                    "rarity": "common",
                    "value": []
                }
            },
            "img": "systems/pf2ettw/icons/default-icons/lore.svg",
            "name": "Acrobatics",
            "sort": 300000,
            "type": "lore"
        },
        {
            "_id": "PnnnIz76jFUFecRb",
            "data": {
                "description": {
                    "value": ""
                },
                "mod": {
                    "value": 5
                },
                "proficient": {
                    "value": 0
                },
                "rules": [],
                "slug": null,
                "source": {
                    "value": ""
                },
                "traits": {
                    "custom": "",
                    "rarity": "common",
                    "value": []
                }
            },
            "img": "systems/pf2ettw/icons/default-icons/lore.svg",
            "name": "Thievery",
            "sort": 400000,
            "type": "lore"
        }
    ],
    "name": "Monkey",
    "token": {
        "disposition": -1,
        "height": 0.5,
        "img": "systems/pf2ettw/icons/default-icons/npc.svg",
        "name": "Monkey",
        "width": 0.5
    },
    "type": "npc"
}
