{
    "_id": "rrkjmcNlODuIpbz6",
    "data": {
        "abilities": {
            "cha": {
                "mod": 8
            },
            "con": {
                "mod": 7
            },
            "dex": {
                "mod": 5
            },
            "int": {
                "mod": -4
            },
            "str": {
                "mod": 10
            },
            "wis": {
                "mod": 4
            }
        },
        "attributes": {
            "ac": {
                "details": "",
                "value": 45
            },
            "allSaves": {
                "value": null
            },
            "hp": {
                "details": "regeneration 50 (deactivated by fire)",
                "max": 500,
                "temp": 0,
                "value": 500
            },
            "initiative": {
                "ability": "perception"
            },
            "perception": {
                "value": 33
            },
            "speed": {
                "otherSpeeds": [
                    {
                        "type": "fly",
                        "value": "100"
                    }
                ],
                "value": "100"
            }
        },
        "details": {
            "alignment": {
                "value": "N"
            },
            "blurb": "",
            "creatureType": "",
            "level": {
                "value": 21
            },
            "privateNotes": "",
            "publicNotes": "<p>Ouroboros are the embodiment of eternity. Though they're prevalent as a symbol, often scrawled across the margins of alchemical tomes, few know that the beasts actually exist in the Astral Plane, where they fly through the silvery-gray void like a serpentine wheel. The ouroboros is usually depicted as a snake devouring its tail. This circular symbol is synonymous with infinity, self-sufficiency, and eternal unity.</p>\n<p>An ouroboros' form exemplifies the unfathomable concepts of forever. Its undulating body is composed of smaller serpents, who are in turn composed of ever smaller serpents, continuing indefinitely. These smaller components are recycled as the ouroboros devours its tail, existing in a perpetual, cyclical process of creation and destruction. It is a massive creature, forming a loop roughly 50 feet in diameter and weighing hundreds of tons.</p>\n<p>An ouroboros's most striking feature is its ability to almost instantly grow new flesh and heal from nearly any wound. This profound regenerative ability comes in part from an ouroboros's magical blood, which is rumored to have many miraculous properties.</p>\n<p>Through their inscrutable behavior suggests that an ouroboros is mindless, the creatures boast crude intellects and can understand speech, though they have no way to speak. They possess an instinctive, almost obsessive will to survive and defend themselves ferociously if threatened in even the slightest way. Often these perceived threats take the form of another creature simply existing within the ouroboros's line of sight, leading other Astral creatures to give these powerful beings a wide berth. The only creature an ouroboros reliably ignores is another ouroboros, but they're so incredibly rare that these meetings occur only once an age.</p>\n<p>Being entirely self-sustaining, an ouroboros rarely deigns to emerge from its consumption to engage with the Material Plane. Yet, the creature remains capable of inflicting tremendous devastation that far surpasses what it could wreak leveraging only its massive size alone. Left to its own devices, an ouroboros is likely to simply roam the Astral Plane in eon-spanning cycles, following some pattern too long and large for any mortal to even chart, much less fully comprehend. When conjured to the Material Plane, however, an ouroboros eagerly begins to initiate the cycle of renewal for which it is best known, beginning with that cycle's first step: destruction.</p>",
            "source": {
                "value": "Pathfinder Bestiary 3"
            }
        },
        "resources": {},
        "saves": {
            "fortitude": {
                "saveDetail": "",
                "value": 38
            },
            "reflex": {
                "saveDetail": "",
                "value": 34
            },
            "will": {
                "saveDetail": "",
                "value": 33
            }
        },
        "traits": {
            "attitude": {
                "value": "hostile"
            },
            "ci": [],
            "di": {
                "custom": "",
                "value": [
                    "acid",
                    "death-effects",
                    "disease",
                    "negative",
                    "poison",
                    "precision"
                ]
            },
            "dr": [],
            "dv": [
                {
                    "exceptions": "",
                    "label": "Piercing",
                    "type": "piercing",
                    "value": 15
                },
                {
                    "exceptions": "",
                    "label": "Slashing",
                    "type": "slashing",
                    "value": 15
                }
            ],
            "languages": {
                "custom": "(Can't Speak Any Language)",
                "selected": [],
                "value": [
                    "aklo"
                ]
            },
            "rarity": "rare",
            "senses": {
                "value": "darkvision"
            },
            "size": {
                "value": "grg"
            },
            "traits": {
                "custom": "",
                "value": [
                    "astral",
                    "beast"
                ]
            }
        }
    },
    "img": "systems/pf2ettw/icons/default-icons/npc.svg",
    "items": [
        {
            "_id": "gJ7hdDvMBTlevMyx",
            "data": {
                "attack": {
                    "value": ""
                },
                "attackEffects": {
                    "custom": "",
                    "value": [
                        "improved-grab"
                    ]
                },
                "bonus": {
                    "value": 39
                },
                "damageRolls": {
                    "0": {
                        "damage": "4d12+18",
                        "damageType": "piercing"
                    }
                },
                "description": {
                    "value": ""
                },
                "rules": [],
                "slug": null,
                "source": {
                    "value": ""
                },
                "traits": {
                    "custom": "",
                    "rarity": "common",
                    "value": [
                        "magical",
                        "reach-30"
                    ]
                },
                "weaponType": {
                    "value": "melee"
                }
            },
            "img": "systems/pf2ettw/icons/default-icons/melee.svg",
            "name": "Maw",
            "sort": 100000,
            "type": "melee"
        },
        {
            "_id": "phH8RreUZhjjwiuo",
            "data": {
                "attack": {
                    "value": ""
                },
                "attackEffects": {
                    "custom": "",
                    "value": []
                },
                "bonus": {
                    "value": 39
                },
                "damageRolls": {
                    "0": {
                        "damage": "4d10+18",
                        "damageType": "bludgeoning"
                    }
                },
                "description": {
                    "value": ""
                },
                "rules": [],
                "slug": null,
                "source": {
                    "value": ""
                },
                "traits": {
                    "custom": "",
                    "rarity": "common",
                    "value": [
                        "magical",
                        "reach-20"
                    ]
                },
                "weaponType": {
                    "value": "melee"
                }
            },
            "img": "systems/pf2ettw/icons/default-icons/melee.svg",
            "name": "Body",
            "sort": 200000,
            "type": "melee"
        },
        {
            "_id": "lIN8nRgTYzPOm90G",
            "data": {
                "attack": {
                    "value": ""
                },
                "attackEffects": {
                    "custom": "",
                    "value": []
                },
                "bonus": {
                    "value": 37
                },
                "damageRolls": {
                    "0": {
                        "damage": "3d6+16",
                        "damageType": "piercing"
                    },
                    "zl22og5rfwrlah77bh0g": {
                        "damage": "2d8",
                        "damageType": "poison"
                    }
                },
                "description": {
                    "value": ""
                },
                "rules": [],
                "slug": null,
                "source": {
                    "value": ""
                },
                "traits": {
                    "custom": "",
                    "rarity": "common",
                    "value": [
                        "agile",
                        "magical",
                        "reach-10"
                    ]
                },
                "weaponType": {
                    "value": "melee"
                }
            },
            "img": "systems/pf2ettw/icons/default-icons/melee.svg",
            "name": "Incalculable Fangs",
            "sort": 300000,
            "type": "melee"
        },
        {
            "_id": "rYN4yg46PUJy1sS9",
            "data": {
                "attack": {
                    "value": ""
                },
                "attackEffects": {
                    "custom": "",
                    "value": []
                },
                "bonus": {
                    "value": 39
                },
                "damageRolls": {
                    "0": {
                        "damage": "4d12+18",
                        "damageType": "bludgeoning"
                    }
                },
                "description": {
                    "value": ""
                },
                "rules": [],
                "slug": null,
                "source": {
                    "value": ""
                },
                "traits": {
                    "custom": "",
                    "rarity": "common",
                    "value": [
                        "magical",
                        "reach-30"
                    ]
                },
                "weaponType": {
                    "value": "melee"
                }
            },
            "img": "systems/pf2ettw/icons/default-icons/melee.svg",
            "name": "Tail",
            "sort": 400000,
            "type": "melee"
        },
        {
            "_id": "Ophbfa4MbDPldjGG",
            "data": {
                "actionCategory": {
                    "value": "interaction"
                },
                "actionType": {
                    "value": "passive"
                },
                "actions": {
                    "value": null
                },
                "description": {
                    "value": "<p>@Localize[pf2ettw.NPC.Abilities.Glossary.Darkvision]</p>"
                },
                "requirements": {
                    "value": ""
                },
                "rules": [],
                "slug": "darkvision",
                "source": {
                    "value": "Pathfinder Bestiary"
                },
                "traits": {
                    "custom": "",
                    "rarity": "common",
                    "value": []
                },
                "trigger": {
                    "value": ""
                },
                "weapon": {
                    "value": ""
                }
            },
            "flags": {
                "core": {
                    "sourceId": "Compendium.pf2ettw.bestiary-ability-glossary-srd.qCCLZhnp2HhP3Ex6"
                }
            },
            "img": "systems/pf2ettw/icons/actions/Passive.webp",
            "name": "Darkvision",
            "sort": 500000,
            "type": "action"
        },
        {
            "_id": "fEwSHWY53TbRJoqX",
            "data": {
                "actionCategory": {
                    "value": "defensive"
                },
                "actionType": {
                    "value": "passive"
                },
                "actions": {
                    "value": null
                },
                "description": {
                    "value": ""
                },
                "requirements": {
                    "value": ""
                },
                "rules": [
                    {
                        "key": "FlatModifier",
                        "predicate": {
                            "any": [
                                "magical",
                                "arcane",
                                "primal",
                                "occult",
                                "divine"
                            ]
                        },
                        "selector": "saving-throw",
                        "type": "status",
                        "value": 1
                    }
                ],
                "slug": null,
                "source": {
                    "value": ""
                },
                "traits": {
                    "custom": "",
                    "rarity": "common",
                    "value": []
                },
                "trigger": {
                    "value": ""
                },
                "weapon": {
                    "value": ""
                }
            },
            "img": "systems/pf2ettw/icons/actions/Passive.webp",
            "name": "+1 Status Bonus on Saves vs Magic",
            "sort": 600000,
            "type": "action"
        },
        {
            "_id": "sGEoB9eohFcV4gEe",
            "data": {
                "actionCategory": {
                    "value": "defensive"
                },
                "actionType": {
                    "value": "passive"
                },
                "actions": {
                    "value": null
                },
                "description": {
                    "value": "<p>@Localize[pf2ettw.NPC.Abilities.Glossary.Regeneration]</p>"
                },
                "requirements": {
                    "value": ""
                },
                "rules": [],
                "slug": "regeneration",
                "source": {
                    "value": "Pathfinder Bestiary"
                },
                "traits": {
                    "custom": "",
                    "rarity": "common",
                    "value": []
                },
                "trigger": {
                    "value": ""
                },
                "weapon": {
                    "value": ""
                }
            },
            "flags": {
                "core": {
                    "sourceId": "Compendium.pf2ettw.bestiary-ability-glossary-srd.lR9R5Vld8Eu2Dha5"
                }
            },
            "img": "systems/pf2ettw/icons/actions/Passive.webp",
            "name": "Regeneration 50 (Deactivated by Fire)",
            "sort": 700000,
            "type": "action"
        },
        {
            "_id": "BD81Ab7NPFAacuhc",
            "data": {
                "actionCategory": {
                    "value": "defensive"
                },
                "actionType": {
                    "value": "free"
                },
                "actions": {
                    "value": null
                },
                "description": {
                    "value": "<p>Incalculable fangs only.</p>\n<p>Because the ouroboros contains an infinite number of snakes that act independently, its Attack of Opportunity is a free action (though it can still use only one per trigger).</p>\n<hr />\n<p>@Localize[pf2ettw.NPC.Abilities.Glossary.AttackOfOpportunity]</p>"
                },
                "requirements": {
                    "value": ""
                },
                "rules": [],
                "slug": "attack-of-opportunity",
                "source": {
                    "value": "Pathfinder Bestiary"
                },
                "traits": {
                    "custom": "",
                    "rarity": "common",
                    "value": []
                },
                "trigger": {
                    "value": ""
                },
                "weapon": {
                    "value": ""
                }
            },
            "flags": {
                "core": {
                    "sourceId": "Compendium.pf2ettw.bestiary-ability-glossary-srd.hFtNbo1LKYCoDy2O"
                }
            },
            "img": "systems/pf2ettw/icons/actions/FreeAction.webp",
            "name": "Attack of Opportunity",
            "sort": 800000,
            "type": "action"
        },
        {
            "_id": "m8Ycgo6ZGdfthZSw",
            "data": {
                "actionCategory": {
                    "value": "defensive"
                },
                "actionType": {
                    "value": "passive"
                },
                "actions": {
                    "value": null
                },
                "description": {
                    "value": "<p>When the ouroboros takes slashing or piercing damage, or when Devour Tail ends, blood gushes from the wound in a @Template[type:cone|distance:15]. Each creature in the area takes [[/r {5d6}[acid]]]{5d6 acid damage} (@Check[type:reflex|dc:41|basic:true] save). A creature that takes any damage is exposed to the ouroboros's regenerative blood.</p>\n<p>.Where the blood falls upon ground, it coagulates into magical snakes that bite at anyone who passes. This is hazardous terrain deals [[/r {17}[piercing]]]{17 piercing damage} and [[/r 5]] poison damage to any non-ouroboros creature that moves through the square or ends its turn there. A creature that avoids all the piercing damage doesn't take the poison damage. After 1 hour, a blood patch permanently becomes a living snake, typically an @Compendium[pf2ettw.pathfinder-bestiary-2.Emperor Cobra]{Emperor Cobra}.</p>"
                },
                "requirements": {
                    "value": ""
                },
                "rules": [],
                "slug": null,
                "source": {
                    "value": ""
                },
                "traits": {
                    "custom": "",
                    "rarity": "common",
                    "value": []
                },
                "trigger": {
                    "value": ""
                },
                "weapon": {
                    "value": ""
                }
            },
            "img": "systems/pf2ettw/icons/actions/Passive.webp",
            "name": "Sanguine Spray",
            "sort": 900000,
            "type": "action"
        },
        {
            "_id": "5JGaGCjUurVrjoyX",
            "data": {
                "actionCategory": {
                    "value": "defensive"
                },
                "actionType": {
                    "value": "passive"
                },
                "actions": {
                    "value": null
                },
                "description": {
                    "value": "<p>@Template[type:emanation|distance:100]{100 feet} @Compendium[pf2ettw.bestiary-ability-glossary-srd.Aura]{Aura}</p>\n<hr />\n<p>The ouroboros is the embodiment of perfect infinity, and this concept pulls at the threads of mortal minds, desperately straining the limits of their comprehension. When a creature ends its turn in the aura, it must attempt a @Check[type:will|dc:41] save. The creature is then temporarily immune for 1 minute.</p>\n<hr />\n<p><strong>Critical Success</strong> The creature is @Compendium[pf2ettw.conditionitems.Stupefied]{Stupefied 1} for 1 round.</p>\n<p><strong>Success</strong> The creature is stupefied 1 for 1 minute.</p>\n<p><strong>Failure</strong> The creature is stupefied 1 for 1 minute and @Compendium[pf2ettw.conditionitems.Stunned]{Stunned 3}.</p>\n<p><strong>Critical Failure</strong> The creature is @Compendium[pf2ettw.conditionitems.Stupefied]{Stupefied 3} and @Compendium[pf2ettw.conditionitems.Stunned]{Stunned}, both for 1 minute.</p>"
                },
                "requirements": {
                    "value": ""
                },
                "rules": [],
                "slug": null,
                "source": {
                    "value": ""
                },
                "traits": {
                    "custom": "",
                    "rarity": "common",
                    "value": [
                        "aura",
                        "incapacitation",
                        "mental",
                        "visual"
                    ]
                },
                "trigger": {
                    "value": ""
                },
                "weapon": {
                    "value": ""
                }
            },
            "img": "systems/pf2ettw/icons/actions/Passive.webp",
            "name": "Unfathomable Infinity",
            "sort": 1000000,
            "type": "action"
        },
        {
            "_id": "tqdfXRytHABtgkJ4",
            "data": {
                "actionCategory": {
                    "value": "offensive"
                },
                "actionType": {
                    "value": "action"
                },
                "actions": {
                    "value": 1
                },
                "description": {
                    "value": "<p>An ouroboros spend most of its life eating its own tail, which perpetually regrows at the same rate it's consumed. The ouroboros places its maw around the end of its tail and begins devouring its own body.</p>\n<p>While the ouroboros is consuming itself, its regeneration can't be suppressed, and it is immune to drained, enfeebled, fatigued, persistent damage, and sickened conditions. If any of these conditions is in effect when the ouroboros takes this action, the condition immediately ends.</p>\n<p>While eating its tail, the ouroboros can't make maw or tail strikes, and its Speeds are 50 feet. It continues devouring its tail even while dying, unconscious, stunned, or otherwise unable to act.</p>\n<p>To end this effect, the ouroboros must first be @Compendium[pf2ettw.conditionitems.Immobilized]{Immobilized}, then a creature must successfully @Compendium[pf2ettw.actionspf2ettw.Grapple]{Grapple} it, which tears the maw free in addition to its normal effects. The ouroboros can also cease Devouring its Tail with a single action. Either of these tears the maw free of the tail, causing the stump to spill blood as described in sanguine spray.</p>"
                },
                "requirements": {
                    "value": ""
                },
                "rules": [],
                "slug": null,
                "source": {
                    "value": ""
                },
                "traits": {
                    "custom": "",
                    "rarity": "common",
                    "value": []
                },
                "trigger": {
                    "value": ""
                },
                "weapon": {
                    "value": ""
                }
            },
            "img": "systems/pf2ettw/icons/actions/OneAction.webp",
            "name": "Devour Tail",
            "sort": 1100000,
            "type": "action"
        },
        {
            "_id": "mNMGvHwMrDdtnVoO",
            "data": {
                "actionCategory": {
                    "value": "offensive"
                },
                "actionType": {
                    "value": "reaction"
                },
                "actions": {
                    "value": null
                },
                "description": {
                    "value": "<p><strong>Trigger</strong> The ouroboros Grabs a creature with their maw</p>\n<hr />\n<p><strong>Effect</strong> The ouroboros uses Swallow Whole.</p>"
                },
                "requirements": {
                    "value": ""
                },
                "rules": [],
                "slug": null,
                "source": {
                    "value": ""
                },
                "traits": {
                    "custom": "",
                    "rarity": "common",
                    "value": []
                },
                "trigger": {
                    "value": ""
                },
                "weapon": {
                    "value": ""
                }
            },
            "img": "systems/pf2ettw/icons/actions/Reaction.webp",
            "name": "Fast Swallow",
            "sort": 1200000,
            "type": "action"
        },
        {
            "_id": "mfNOFpCn3uiKhRac",
            "data": {
                "actionCategory": {
                    "value": "offensive"
                },
                "actionType": {
                    "value": "action"
                },
                "actions": {
                    "value": 2
                },
                "description": {
                    "value": "<p><strong>Requirements</strong> The ouroboros is eating its own tail (see Devour Tail)</p>\n<hr />\n<p><strong>Effect</strong> As Trample, except the ouroboros can Fly up to double its Speed instead of Striding.</p>\n<p>Huge or smaller, body, DC 45</p>\n<p><strong>Trample</strong> The monster Strides up to double its Speed and can move through the spaces of creatures of the listed size, Trampling each creature whose space it enters. The monster can attempt to Trample the same creature only once in a single use of Trample. The monster deals the damage of the listed Strike, but trampled creatures can attempt a basic Reflex save at the listed DC (no damage on a critical success, half damage on a success, double damage on a critical failure).</p>"
                },
                "requirements": {
                    "value": ""
                },
                "rules": [],
                "slug": null,
                "source": {
                    "value": ""
                },
                "traits": {
                    "custom": "",
                    "rarity": "common",
                    "value": []
                },
                "trigger": {
                    "value": ""
                },
                "weapon": {
                    "value": ""
                }
            },
            "img": "systems/pf2ettw/icons/actions/TwoActions.webp",
            "name": "Flying Wheel",
            "sort": 1300000,
            "type": "action"
        },
        {
            "_id": "HAbopgX5BTCYokYc",
            "data": {
                "actionCategory": {
                    "value": "offensive"
                },
                "actionType": {
                    "value": "passive"
                },
                "actions": {
                    "value": null
                },
                "description": {
                    "value": "<p>The regenerative and transmutative properties of ouroboros blood regenerate and mutate a creature's body into ouroboros-like snakes. A creature already affected by regenerative blood is immune to additional exposure.</p>\n<p><strong>Saving Throw</strong> @Check[type:fortitude|dc:42]</p>\n<p><strong>Maximum Duration</strong> 24 hours</p>\n<p><strong>Stage 1</strong> regeneration 5 (deactivated by fire), @Compendium[pf2ettw.conditionitems.Slowed]{Slowed 1}, and @Compendium[pf2ettw.conditionitems.Clumsy]{Clumsy 2} (12 hours)</p>\n<p><strong>Stage 2</strong> regeneration 5 (deactivated by fire), @Compendium[pf2ettw.conditionitems.Slowed]{Slowed 2} and @Compendium[pf2ettw.conditionitems.Clumsy]{Clumsy 4} (12 hours)</p>\n<p><strong>Stage 3</strong> The creature's body transmutes into a mass of writhing snakes, with the effects an 8th-level <em>@Compendium[pf2ettw.spells-srd.Animal Form]{Animal Form}</em> spell but with an unlimited duration.</p>"
                },
                "requirements": {
                    "value": ""
                },
                "rules": [],
                "slug": null,
                "source": {
                    "value": ""
                },
                "traits": {
                    "custom": "",
                    "rarity": "common",
                    "value": [
                        "contact",
                        "curse",
                        "incapacitation",
                        "poison",
                        "polymorph",
                        "primal",
                        "transmutation"
                    ]
                },
                "trigger": {
                    "value": ""
                },
                "weapon": {
                    "value": ""
                }
            },
            "img": "systems/pf2ettw/icons/actions/Passive.webp",
            "name": "Regenerative Blood",
            "sort": 1400000,
            "type": "action"
        },
        {
            "_id": "1sZ0LFXxfqkedyyb",
            "data": {
                "actionCategory": {
                    "value": "offensive"
                },
                "actionType": {
                    "value": "action"
                },
                "actions": {
                    "value": 1
                },
                "description": {
                    "value": "<p>Huge, 4d10+9 acid, Rupture 50</p>\n<hr />\n<p>@Localize[pf2ettw.NPC.Abilities.Glossary.SwallowWhole]</p>"
                },
                "requirements": {
                    "value": ""
                },
                "rules": [],
                "slug": "swallow-whole",
                "source": {
                    "value": "Pathfinder Bestiary"
                },
                "traits": {
                    "custom": "",
                    "rarity": "common",
                    "value": [
                        "attack"
                    ]
                },
                "trigger": {
                    "value": ""
                },
                "weapon": {
                    "value": ""
                }
            },
            "flags": {
                "core": {
                    "sourceId": "Compendium.pf2ettw.bestiary-ability-glossary-srd.uJSseLa57HZYSMUu"
                }
            },
            "img": "systems/pf2ettw/icons/actions/OneAction.webp",
            "name": "Swallow Whole",
            "sort": 1500000,
            "type": "action"
        },
        {
            "_id": "FR0NE1tkGwNuwmOZ",
            "data": {
                "actionCategory": {
                    "value": "offensive"
                },
                "actionType": {
                    "value": "free"
                },
                "actions": {
                    "value": null
                },
                "description": {
                    "value": "<p>@Localize[pf2ettw.NPC.Abilities.Glossary.ImprovedGrab]</p>"
                },
                "requirements": {
                    "value": ""
                },
                "rules": [],
                "slug": "improved-grab",
                "source": {
                    "value": "Pathfinder Bestiary"
                },
                "traits": {
                    "custom": "",
                    "rarity": "common",
                    "value": []
                },
                "trigger": {
                    "value": ""
                },
                "weapon": {
                    "value": ""
                }
            },
            "flags": {
                "core": {
                    "sourceId": "Compendium.pf2ettw.bestiary-ability-glossary-srd.i18TlebMzwONyPhI"
                }
            },
            "img": "systems/pf2ettw/icons/actions/FreeAction.webp",
            "name": "Improved Grab",
            "sort": 1600000,
            "type": "action"
        },
        {
            "_id": "cuHTLYrwNFW9Cw1j",
            "data": {
                "description": {
                    "value": ""
                },
                "mod": {
                    "value": 36
                },
                "proficient": {
                    "value": 0
                },
                "rules": [],
                "slug": null,
                "source": {
                    "value": ""
                },
                "traits": {
                    "custom": "",
                    "rarity": "common",
                    "value": []
                }
            },
            "img": "systems/pf2ettw/icons/default-icons/lore.svg",
            "name": "Acrobatics",
            "sort": 1700000,
            "type": "lore"
        },
        {
            "_id": "Loq58SvarrKBnbhQ",
            "data": {
                "description": {
                    "value": ""
                },
                "mod": {
                    "value": 41
                },
                "proficient": {
                    "value": 0
                },
                "rules": [],
                "slug": null,
                "source": {
                    "value": ""
                },
                "traits": {
                    "custom": "",
                    "rarity": "common",
                    "value": []
                }
            },
            "img": "systems/pf2ettw/icons/default-icons/lore.svg",
            "name": "Athletics",
            "sort": 1800000,
            "type": "lore"
        }
    ],
    "name": "Ouroboros",
    "token": {
        "disposition": -1,
        "height": 4,
        "img": "systems/pf2ettw/icons/default-icons/npc.svg",
        "name": "Ouroboros",
        "width": 4
    },
    "type": "npc"
}
