{
    "_id": "QWx9cIVUeP7dMOez",
    "data": {
        "abilities": {
            "cha": {
                "mod": -5
            },
            "con": {
                "mod": 6
            },
            "dex": {
                "mod": 4
            },
            "int": {
                "mod": -5
            },
            "str": {
                "mod": 4
            },
            "wis": {
                "mod": 0
            }
        },
        "attributes": {
            "ac": {
                "details": "",
                "value": 25
            },
            "allSaves": {
                "value": ""
            },
            "hp": {
                "details": "",
                "max": 155,
                "temp": 0,
                "value": 155
            },
            "initiative": {
                "ability": "perception"
            },
            "perception": {
                "value": 15
            },
            "speed": {
                "otherSpeeds": [
                    {
                        "type": "fly",
                        "value": "40"
                    }
                ],
                "value": "0"
            }
        },
        "details": {
            "alignment": {
                "value": "N"
            },
            "blurb": "",
            "creatureType": "",
            "level": {
                "value": 9
            },
            "privateNotes": "",
            "publicNotes": "<p>Though many spellcasters can harness the forces of magic in a consistent manner, such power can't always be controlled, especially in the hands of reckless researchers, megalomaniacal villains, or untested novices. When magical accidents result in large-scale property damage and the loss of life, these forces sometimes take on lives of their own, forming a dangerous amalgamation of ongoing magical energy known as a roiling incant.</p>\n<p>A roiling incant's appearance depends on the type of magic it sprang forth from, though it always carries with it an echo of the destruction it has caused. A fiery evocation roiling incant might look like a storm of burning ashes echoing with the sounds of crackling timber, while a necromancy roiling incant could be mistaken for ghostly tendrils puppeteering shambling corpses. No matter what it looks like, a roiling incant roams mindlessly, attacking everything it encounters, heedless of further carnage it causes.</p>",
            "source": {
                "value": "Pathfinder Bestiary 3"
            }
        },
        "resources": {
            "focus": {
                "max": 0,
                "value": 0
            }
        },
        "saves": {
            "fortitude": {
                "saveDetail": "",
                "value": 19
            },
            "reflex": {
                "saveDetail": "",
                "value": 17
            },
            "will": {
                "saveDetail": "",
                "value": 15
            }
        },
        "traits": {
            "ci": [],
            "di": {
                "custom": "evocation",
                "value": [
                    "bleed",
                    "death-effects",
                    "detection",
                    "disease",
                    "doomed",
                    "drained",
                    "evocation",
                    "fatigued",
                    "healing",
                    "mental",
                    "necromancy",
                    "negative",
                    "nonlethal-attacks",
                    "paralyzed",
                    "poison",
                    "scrying",
                    "sickened",
                    "unconscious"
                ]
            },
            "dr": [],
            "dv": [],
            "languages": {
                "custom": "",
                "selected": [],
                "value": []
            },
            "rarity": "uncommon",
            "senses": {
                "value": ""
            },
            "size": {
                "value": "lg"
            },
            "traits": {
                "custom": "",
                "value": [
                    "arcane",
                    "evocation",
                    "mindless"
                ]
            }
        }
    },
    "img": "systems/pf2ettw/icons/default-icons/npc.svg",
    "items": [
        {
            "_id": "cz099OgrLsWeaG7T",
            "data": {
                "autoHeightenLevel": {
                    "value": null
                },
                "description": {
                    "value": ""
                },
                "displayLevels": {},
                "prepared": {
                    "flexible": false,
                    "value": "innate"
                },
                "proficiency": {
                    "value": 0
                },
                "rules": [],
                "showSlotlessLevels": {
                    "value": true
                },
                "showUnpreparedSpells": {
                    "value": false
                },
                "slots": {
                    "slot0": {
                        "max": 1,
                        "prepared": {
                            "0": {
                                "id": "FtPeETowLg0ywqNM"
                            }
                        },
                        "value": 1
                    },
                    "slot1": {
                        "max": 0,
                        "prepared": {},
                        "value": 0
                    },
                    "slot10": {
                        "max": 0,
                        "prepared": {},
                        "value": 0
                    },
                    "slot11": {
                        "max": 0,
                        "prepared": {},
                        "value": 0
                    },
                    "slot2": {
                        "max": 1,
                        "prepared": {},
                        "value": 1
                    },
                    "slot3": {
                        "max": 1,
                        "prepared": {},
                        "value": 1
                    },
                    "slot4": {
                        "max": 1,
                        "prepared": {},
                        "value": 1
                    },
                    "slot5": {
                        "max": 0,
                        "prepared": {},
                        "value": 0
                    },
                    "slot6": {
                        "max": 0,
                        "prepared": {},
                        "value": 0
                    },
                    "slot7": {
                        "max": 0,
                        "prepared": {},
                        "value": 0
                    },
                    "slot8": {
                        "max": 0,
                        "prepared": {},
                        "value": 0
                    },
                    "slot9": {
                        "max": 0,
                        "prepared": {},
                        "value": 0
                    }
                },
                "slug": null,
                "source": {
                    "value": ""
                },
                "spelldc": {
                    "dc": 30,
                    "item": 0,
                    "mod": 0,
                    "value": 20
                },
                "tradition": {
                    "value": "divine"
                },
                "traits": {
                    "custom": "",
                    "rarity": "common",
                    "value": []
                }
            },
            "img": "systems/pf2ettw/icons/default-icons/spellcastingEntry.svg",
            "name": "Arcane Innate Spells",
            "sort": 100000,
            "type": "spellcastingEntry"
        },
        {
            "_id": "qv4ZiwawfDdpMBaA",
            "data": {
                "ability": {
                    "value": ""
                },
                "area": {
                    "areaType": "",
                    "value": null
                },
                "areasize": {
                    "value": ""
                },
                "category": {
                    "value": "spell"
                },
                "components": {
                    "focus": false,
                    "material": true,
                    "somatic": true,
                    "verbal": true
                },
                "cost": {
                    "value": ""
                },
                "damage": {
                    "value": {
                        "0": {
                            "type": {
                                "categories": [],
                                "value": "fire"
                            },
                            "value": "4d6"
                        }
                    }
                },
                "description": {
                    "value": "<p>You raise a blazing wall that burns creatures passing through it. You create either a 5-foot-thick wall of flame in a straight line up to 60 feet long and 10 feet high, or a 5-foot-thick, 10-foot-radius ring of flame with the same height. The wall stands vertically in either form; if you wish, the wall can be of a shorter length or height. Everything on each side of the wall is @Compendium[pf2ettw.conditionitems.Concealed]{Concealed} from creatures on the opposite side. Any creature that crosses the wall or is occupying the wall's area at the start of its turn takes 4d6 fire damage.</p>\n<hr />\n<p><strong>Heightened (+1)</strong> The fire damage increases by 1d6.</p>"
                },
                "duration": {
                    "value": "1 minute"
                },
                "hasCounteractCheck": {
                    "value": false
                },
                "heightening": {
                    "damage": {
                        "0": "1d6"
                    },
                    "interval": 1,
                    "type": "interval"
                },
                "level": {
                    "value": 4
                },
                "location": {
                    "value": "cz099OgrLsWeaG7T"
                },
                "materials": {
                    "value": ""
                },
                "prepared": {
                    "value": ""
                },
                "primarycheck": {
                    "value": ""
                },
                "range": {
                    "value": "120 feet"
                },
                "rules": [],
                "save": {
                    "basic": "",
                    "value": ""
                },
                "school": {
                    "value": "evocation"
                },
                "secondarycasters": {
                    "value": ""
                },
                "secondarycheck": {
                    "value": ""
                },
                "slug": "wall-of-fire",
                "source": {
                    "value": ""
                },
                "spellType": {
                    "value": "utility"
                },
                "sustained": {
                    "value": false
                },
                "target": {
                    "value": ""
                },
                "time": {
                    "value": "3"
                },
                "traditions": {
                    "value": [
                        "arcane",
                        "primal"
                    ]
                },
                "traits": {
                    "custom": "",
                    "rarity": "common",
                    "value": [
                        "fire"
                    ]
                }
            },
            "flags": {
                "core": {
                    "sourceId": "Compendium.pf2ettw.spells-srd.IarZrgCeaiUqOuRu"
                }
            },
            "img": "systems/pf2ettw/icons/spells/wall-of-fire.webp",
            "name": "Wall of Fire (At Will, Unstable Magic)",
            "sort": 200000,
            "type": "spell"
        },
        {
            "_id": "fCNUXmrXCxBamZ7A",
            "data": {
                "ability": {
                    "value": ""
                },
                "area": {
                    "areaType": "burst",
                    "value": 20
                },
                "areasize": {
                    "value": "20-foot burst"
                },
                "category": {
                    "value": "spell"
                },
                "components": {
                    "focus": false,
                    "material": false,
                    "somatic": true,
                    "verbal": true
                },
                "cost": {
                    "value": ""
                },
                "damage": {
                    "value": {
                        "0": {
                            "type": {
                                "categories": [],
                                "value": "fire"
                            },
                            "value": "6d6"
                        }
                    }
                },
                "description": {
                    "value": "<p>A roaring blast of fire appears at a spot you designate, dealing 6d6 fire damage.</p>\n<hr />\n<p><strong>Heightened (+1)</strong> The damage increases by 2d6.</p>"
                },
                "duration": {
                    "value": ""
                },
                "hasCounteractCheck": {
                    "value": false
                },
                "heightening": {
                    "damage": {
                        "0": "2d6"
                    },
                    "interval": 1,
                    "type": "interval"
                },
                "level": {
                    "value": 3
                },
                "location": {
                    "value": "cz099OgrLsWeaG7T"
                },
                "materials": {
                    "value": ""
                },
                "prepared": {
                    "value": ""
                },
                "primarycheck": {
                    "value": ""
                },
                "range": {
                    "value": "500 feet"
                },
                "rules": [],
                "save": {
                    "basic": "basic",
                    "value": "reflex"
                },
                "school": {
                    "value": "evocation"
                },
                "secondarycasters": {
                    "value": ""
                },
                "secondarycheck": {
                    "value": ""
                },
                "slug": "fireball",
                "source": {
                    "value": ""
                },
                "spellType": {
                    "value": "save"
                },
                "sustained": {
                    "value": false
                },
                "target": {
                    "value": ""
                },
                "time": {
                    "value": "2"
                },
                "traditions": {
                    "value": [
                        "arcane",
                        "primal"
                    ]
                },
                "traits": {
                    "custom": "",
                    "rarity": "common",
                    "value": [
                        "fire"
                    ]
                }
            },
            "flags": {
                "core": {
                    "sourceId": "Compendium.pf2ettw.spells-srd.sxQZ6yqTn0czJxVd"
                }
            },
            "img": "systems/pf2ettw/icons/spells/fireball.webp",
            "name": "Fireball (At Will, Unstable Magic)",
            "sort": 300000,
            "type": "spell"
        },
        {
            "_id": "7ouyPXphC30EZ6MV",
            "data": {
                "ability": {
                    "value": ""
                },
                "area": {
                    "areaType": "",
                    "value": null
                },
                "areasize": {
                    "value": "5-foot square"
                },
                "category": {
                    "value": "spell"
                },
                "components": {
                    "focus": false,
                    "material": false,
                    "somatic": true,
                    "verbal": true
                },
                "cost": {
                    "value": ""
                },
                "damage": {
                    "value": {
                        "0": {
                            "type": {
                                "categories": [],
                                "value": "fire"
                            },
                            "value": "3d6"
                        }
                    }
                },
                "description": {
                    "value": "<p>You create a sphere of flame in a square within range. The sphere must be supported by a solid surface, such as a stone floor. The sphere deals 3d6 fire damage to each creature in the square where it first appears; each creature must attempt a basic Reflex save. On subsequent rounds, the first time you Sustain this Spell, you can leave the sphere in its square or roll it to another square within range and deal 3d6 fire damage; each creature in its square must attempt a basic Reflex save.</p>\n<p>Creatures that succeed at their save take no damage (instead of half).</p>\n<hr />\n<p><strong>Heightened (+1)</strong> The damage increases by 1d6.</p>"
                },
                "duration": {
                    "value": "sustained up to 1 minute"
                },
                "hasCounteractCheck": {
                    "value": false
                },
                "heightening": {
                    "damage": {
                        "0": "1d6"
                    },
                    "interval": 1,
                    "type": "interval"
                },
                "level": {
                    "value": 2
                },
                "location": {
                    "value": "cz099OgrLsWeaG7T"
                },
                "materials": {
                    "value": ""
                },
                "prepared": {
                    "value": ""
                },
                "primarycheck": {
                    "value": ""
                },
                "range": {
                    "value": "30 feet"
                },
                "rules": [],
                "save": {
                    "basic": "basic",
                    "value": "reflex"
                },
                "school": {
                    "value": "evocation"
                },
                "secondarycasters": {
                    "value": ""
                },
                "secondarycheck": {
                    "value": ""
                },
                "slug": "flaming-sphere",
                "source": {
                    "value": ""
                },
                "spellType": {
                    "value": "save"
                },
                "sustained": {
                    "value": false
                },
                "target": {
                    "value": ""
                },
                "time": {
                    "value": "2"
                },
                "traditions": {
                    "value": [
                        "arcane",
                        "primal"
                    ]
                },
                "traits": {
                    "custom": "",
                    "rarity": "common",
                    "value": [
                        "fire"
                    ]
                }
            },
            "flags": {
                "core": {
                    "sourceId": "Compendium.pf2ettw.spells-srd.2ZdHjnpEQJuqOYSG"
                }
            },
            "img": "systems/pf2ettw/icons/spells/flaming-sphere.webp",
            "name": "Flaming Sphere (At Will, Unstable Magic)",
            "sort": 400000,
            "type": "spell"
        },
        {
            "_id": "FtPeETowLg0ywqNM",
            "data": {
                "ability": {
                    "value": ""
                },
                "area": {
                    "areaType": "",
                    "value": null
                },
                "areasize": {
                    "value": ""
                },
                "category": {
                    "value": "spell"
                },
                "components": {
                    "focus": false,
                    "material": false,
                    "somatic": true,
                    "verbal": true
                },
                "cost": {
                    "value": ""
                },
                "damage": {
                    "value": {
                        "0": {
                            "applyMod": true,
                            "type": {
                                "categories": [],
                                "value": "fire"
                            },
                            "value": "1d4"
                        }
                    }
                },
                "description": {
                    "value": "<p>A small ball of flame appears in the palm of your hand, and you lash out with it either in melee or at range. Make a spell attack roll against your target's AC. This is normally a ranged attack, but you can also make a melee attack against a creature in your unarmed reach.</p>\n<p>On a success, you deal 1d4 fire damage plus your spellcasting ability modifier. On a critical success, the target takes double damage and 1d4 persistent fire damage.</p>\n<hr />\n<p><strong>Heightened (+1)</strong> Increase the damage by 1d4 and the @Compendium[pf2ettw.conditionitems.Persistent Damage]{Persistent Damage} on a critical hit by 1d4.</p>"
                },
                "duration": {
                    "value": ""
                },
                "hasCounteractCheck": {
                    "value": false
                },
                "heightening": {
                    "damage": {
                        "0": "1d4"
                    },
                    "interval": 1,
                    "type": "interval"
                },
                "level": {
                    "value": 1
                },
                "location": {
                    "value": "cz099OgrLsWeaG7T"
                },
                "materials": {
                    "value": ""
                },
                "prepared": {
                    "value": ""
                },
                "primarycheck": {
                    "value": ""
                },
                "range": {
                    "value": "30 feet"
                },
                "rules": [],
                "save": {
                    "basic": "",
                    "value": ""
                },
                "school": {
                    "value": "evocation"
                },
                "secondarycasters": {
                    "value": ""
                },
                "secondarycheck": {
                    "value": ""
                },
                "slug": "produce-flame",
                "source": {
                    "value": ""
                },
                "spellType": {
                    "value": "attack"
                },
                "sustained": {
                    "value": false
                },
                "target": {
                    "value": "1 creature"
                },
                "time": {
                    "value": "2"
                },
                "traditions": {
                    "custom": "",
                    "value": [
                        "arcane",
                        "primal"
                    ]
                },
                "traits": {
                    "custom": "",
                    "rarity": "common",
                    "value": [
                        "attack",
                        "fire",
                        "cantrip"
                    ]
                }
            },
            "flags": {
                "core": {
                    "sourceId": "Compendium.pf2ettw.spells-srd.O9w7r4BKgPogYDDe"
                }
            },
            "img": "systems/pf2ettw/icons/spells/produce-flame.webp",
            "name": "Produce Flame",
            "sort": 500000,
            "type": "spell"
        },
        {
            "_id": "RUqAGMQwHrGpfJPs",
            "data": {
                "attack": {
                    "value": ""
                },
                "attackEffects": {
                    "custom": "",
                    "value": []
                },
                "bonus": {
                    "value": 19
                },
                "damageRolls": {
                    "0": {
                        "damage": "2d12+10",
                        "damageType": "force"
                    }
                },
                "description": {
                    "value": ""
                },
                "rules": [],
                "slug": null,
                "source": {
                    "value": ""
                },
                "traits": {
                    "custom": "",
                    "rarity": "common",
                    "value": [
                        "arcane",
                        "evocation",
                        "magical",
                        "reach-10"
                    ]
                },
                "weaponType": {
                    "value": "melee"
                }
            },
            "img": "systems/pf2ettw/icons/default-icons/melee.svg",
            "name": "Arcane Tendril",
            "sort": 600000,
            "type": "melee"
        },
        {
            "_id": "YnX58rhrT4hsl8zl",
            "data": {
                "attack": {
                    "value": ""
                },
                "attackEffects": {
                    "custom": "",
                    "value": []
                },
                "bonus": {
                    "value": 19
                },
                "damageRolls": {
                    "0": {
                        "damage": "2d10+10",
                        "damageType": "force"
                    }
                },
                "description": {
                    "value": ""
                },
                "rules": [],
                "slug": null,
                "source": {
                    "value": ""
                },
                "traits": {
                    "custom": "",
                    "rarity": "common",
                    "value": [
                        "arcane",
                        "evocation",
                        "magic",
                        "range-increment-30"
                    ]
                },
                "weaponType": {
                    "value": "ranged"
                }
            },
            "img": "systems/pf2ettw/icons/default-icons/melee.svg",
            "name": "Arcane Bolt",
            "sort": 700000,
            "type": "melee"
        },
        {
            "_id": "ADj1D97ZuGgEgAMr",
            "data": {
                "actionCategory": {
                    "value": "interaction"
                },
                "actionType": {
                    "value": "passive"
                },
                "actions": {
                    "value": null
                },
                "description": {
                    "value": "<p>@Localize[pf2ettw.NPC.Abilities.Glossary.AtWillSpells]</p>"
                },
                "requirements": {
                    "value": ""
                },
                "rules": [],
                "slug": "at-will-spells",
                "source": {
                    "value": "Pathfinder Bestiary"
                },
                "traits": {
                    "custom": "",
                    "rarity": "common",
                    "value": []
                },
                "trigger": {
                    "value": ""
                },
                "weapon": {
                    "value": ""
                }
            },
            "flags": {
                "core": {
                    "sourceId": "Compendium.pf2ettw.bestiary-ability-glossary-srd.2YRDYVnC1eljaXKK"
                }
            },
            "img": "systems/pf2ettw/icons/actions/Passive.webp",
            "name": "At-Will Spells",
            "sort": 800000,
            "type": "action"
        },
        {
            "_id": "61RVU0BzmvnLofFj",
            "data": {
                "actionCategory": {
                    "value": "defensive"
                },
                "actionType": {
                    "value": "passive"
                },
                "actions": {
                    "value": null
                },
                "description": {
                    "value": "<p>A roiling incant is made of evocation energy. Any time it would be affected by another creature's non-cantrip evocation spell, after applying its immunity, it also regains [[/r 5]] Hit Points.</p>"
                },
                "requirements": {
                    "value": ""
                },
                "rules": [],
                "slug": null,
                "source": {
                    "value": ""
                },
                "traits": {
                    "custom": "",
                    "rarity": "common",
                    "value": []
                },
                "trigger": {
                    "value": ""
                },
                "weapon": {
                    "value": ""
                }
            },
            "img": "systems/pf2ettw/icons/actions/Passive.webp",
            "name": "Absorb Evocation",
            "sort": 900000,
            "type": "action"
        },
        {
            "_id": "hfbHiFnMOX2vWG3b",
            "data": {
                "actionCategory": {
                    "value": "offensive"
                },
                "actionType": {
                    "value": "action"
                },
                "actions": {
                    "value": 2
                },
                "description": {
                    "value": "<p>DC 28, [[/r {2d8}[force]]]{2d8 force damage} plus [[/r {4d4}[fire]]]{4d4 fire damage}, @Compendium[pf2ettw.actionspf2ettw.Escape]{Escape} DC 28, Rupture 20</p><hr />\n<p>@Localize[pf2ettw.NPC.Abilities.Glossary.Engulf]</p>"
                },
                "requirements": {
                    "value": ""
                },
                "rules": [],
                "slug": "engulf",
                "source": {
                    "value": "Pathfinder Bestiary"
                },
                "traits": {
                    "custom": "",
                    "rarity": "common",
                    "value": []
                },
                "trigger": {
                    "value": ""
                },
                "weapon": {
                    "value": ""
                }
            },
            "flags": {
                "core": {
                    "sourceId": "Compendium.pf2ettw.bestiary-ability-glossary-srd.zU3Ovaet4xQ5Gmvy"
                }
            },
            "img": "systems/pf2ettw/icons/actions/TwoActions.webp",
            "name": "Engulf",
            "sort": 1000000,
            "type": "action"
        },
        {
            "_id": "M6HiBc42J8BI5rZo",
            "data": {
                "actionCategory": {
                    "value": "offensive"
                },
                "actionType": {
                    "value": "passive"
                },
                "actions": {
                    "value": null
                },
                "description": {
                    "value": "<p>A roiling incant is as much a mass of unstable magic as it is a creature. Is isn't living or undead, nor is it even a construct. It can't be healed or Repaired and is destroyed at 0 Hit Points, though it naturally recovers a number of Hit Points equal to its level × its Constitution modifier ([[/r 54]] for most roiling incants) each day.</p>\n<p>Each time a roiling incant casts one of its non-cantrip spells, it drains its own magic to do so, taking [[/r {5}[force]]]{5 force damage}.</p>"
                },
                "requirements": {
                    "value": ""
                },
                "rules": [],
                "slug": null,
                "source": {
                    "value": ""
                },
                "traits": {
                    "custom": "",
                    "rarity": "common",
                    "value": []
                },
                "trigger": {
                    "value": ""
                },
                "weapon": {
                    "value": ""
                }
            },
            "img": "systems/pf2ettw/icons/actions/Passive.webp",
            "name": "Unstable Magic",
            "sort": 1100000,
            "type": "action"
        },
        {
            "_id": "iC7OPusaupNwNDYt",
            "data": {
                "description": {
                    "value": ""
                },
                "mod": {
                    "value": 19
                },
                "proficient": {
                    "value": 0
                },
                "rules": [],
                "slug": null,
                "source": {
                    "value": ""
                },
                "traits": {
                    "custom": "",
                    "rarity": "common",
                    "value": []
                }
            },
            "img": "systems/pf2ettw/icons/default-icons/lore.svg",
            "name": "Acrobatics",
            "sort": 1200000,
            "type": "lore"
        }
    ],
    "name": "Roiling Incant",
    "token": {
        "disposition": -1,
        "height": 2,
        "img": "systems/pf2ettw/icons/default-icons/npc.svg",
        "name": "Roiling Incant",
        "width": 2
    },
    "type": "npc"
}
