{
    "_id": "3OrdGXuPXSlrLlbf",
    "data": {
        "abilities": {
            "cha": {
                "mod": 2
            },
            "con": {
                "mod": 0
            },
            "dex": {
                "mod": 4
            },
            "int": {
                "mod": 2
            },
            "str": {
                "mod": 0
            },
            "wis": {
                "mod": 1
            }
        },
        "attributes": {
            "ac": {
                "details": "",
                "value": 17
            },
            "allSaves": {
                "value": null
            },
            "hp": {
                "details": "",
                "max": 16,
                "temp": 0,
                "value": 16
            },
            "initiative": {
                "ability": "perception"
            },
            "perception": {
                "value": 6
            },
            "speed": {
                "otherSpeeds": [],
                "value": "20"
            }
        },
        "details": {
            "alignment": {
                "value": "N"
            },
            "blurb": "",
            "creatureType": "",
            "level": {
                "value": 1
            },
            "privateNotes": "",
            "publicNotes": "<p>Originally created as sapient magical servants, wyrwoods reclaimed the means to make more of their kind from their oppressive originators; now, they fiercely defend their freedom and autonomy. These small, nimble living machines rely on their wits and speed to evade foes and gather information. Most wyrwoods are precise and calculating, to the point that many outsiders perceive them as unfeeling, but they're also highly curious and passionate about matters that pique their interest. Regardless of personal agenda, wyrwoods prioritize the survival of their people above all else, even to the detriment of others when necessary.</p>\n<p>Despite gaining their freedom, wyrwoods struggle to establish a home in Avistan. Some Avistani still view wyrwoods as tools of a secretive cabal, while others consider them traitorous servants who turned on their creators. Fearing for their safety, many wyrwoods fled the Inner Sea region to create a new home in Arcadia. In the coastal city of Segada, wyrwoods live in relative peace and safety, but they still prefer insular lifestyles.</p>\n<p>Given their extreme self-reliance, wyrwoods have learned a degree of adaptability that far surpasses that of other cultures. When a wyrwood community finds itself in need of a specific skill or function, a member of the community-either a volunteer or one selected communally-takes it upon themself to learn the required abilities. They don't view any task as lesser or demeaning, as hubris is foreign to a wyrwood's construct nature.</p>\n<p>A wyrwood's soul is tied to the magical stone that serves as their heart, which sometimes survives even when their construct body perishes. Another wyrwood might take the surviving heart from a close companion and incorporate it into their own body. In some cases, multiple wyrwoods might live on in a single body.</p>\n<hr />\n<p>Wyrwood sneaks specialize in moving unseen behind enemy lines, performing reconnaissance and quietly eliminating threats.</p>",
            "source": {
                "value": "Pathfinder Bestiary 3"
            }
        },
        "resources": {},
        "saves": {
            "fortitude": {
                "saveDetail": "",
                "value": 3
            },
            "reflex": {
                "saveDetail": "",
                "value": 9
            },
            "will": {
                "saveDetail": "",
                "value": 8
            }
        },
        "traits": {
            "attitude": {
                "value": "indifferent"
            },
            "ci": [],
            "di": {
                "custom": "",
                "value": [
                    "bleed"
                ]
            },
            "dr": [],
            "dv": [],
            "languages": {
                "custom": "One Regional Language",
                "selected": [],
                "value": [
                    "common"
                ]
            },
            "rarity": "rare",
            "senses": {
                "value": "darkvision"
            },
            "size": {
                "value": "sm"
            },
            "traits": {
                "custom": "",
                "value": [
                    "construct",
                    "wyrwood"
                ]
            }
        }
    },
    "img": "systems/pf2ettw/icons/default-icons/npc.svg",
    "items": [
        {
            "_id": "pCv8BT21yPOf8Zou",
            "data": {
                "MAP": {
                    "value": ""
                },
                "baseItem": "shortsword",
                "bonus": {
                    "value": 0
                },
                "bonusDamage": {
                    "value": 0
                },
                "category": "martial",
                "containerId": null,
                "damage": {
                    "damageType": "piercing",
                    "dice": 1,
                    "die": "d6",
                    "value": ""
                },
                "description": {
                    "value": "<p>These blades come in a variety of shapes and styles, but they are typically 2 feet long.</p>"
                },
                "equipped": {
                    "carryType": "worn",
                    "handsHeld": 0,
                    "invested": null
                },
                "equippedBulk": {
                    "value": ""
                },
                "group": "sword",
                "hardness": 0,
                "hp": {
                    "brokenThreshold": 0,
                    "max": 0,
                    "value": 0
                },
                "level": {
                    "value": 0
                },
                "negateBulk": {
                    "value": "0"
                },
                "potencyRune": {
                    "value": null
                },
                "preciousMaterial": {
                    "value": ""
                },
                "preciousMaterialGrade": {
                    "value": ""
                },
                "price": {
                    "value": {
                        "sp": 9
                    }
                },
                "property1": {
                    "critDamage": "",
                    "critDamageType": "",
                    "critDice": null,
                    "critDie": "",
                    "criticalConditionType": "",
                    "criticalConditionValue": null,
                    "damageType": "",
                    "dice": null,
                    "die": "",
                    "strikeConditionType": "",
                    "strikeConditionValue": null,
                    "value": ""
                },
                "propertyRune1": {
                    "value": ""
                },
                "propertyRune2": {
                    "value": ""
                },
                "propertyRune3": {
                    "value": ""
                },
                "propertyRune4": {
                    "value": ""
                },
                "quantity": 1,
                "range": null,
                "reload": {
                    "value": ""
                },
                "rules": [],
                "size": "med",
                "slug": "shortsword",
                "source": {
                    "value": ""
                },
                "specific": {
                    "value": false
                },
                "splashDamage": {
                    "value": 0
                },
                "stackGroup": null,
                "strikingRune": {
                    "value": ""
                },
                "traits": {
                    "custom": "",
                    "rarity": "common",
                    "value": [
                        "agile",
                        "finesse",
                        "versatile-s"
                    ]
                },
                "usage": {
                    "value": "held-in-one-hand"
                },
                "weight": {
                    "value": "L"
                }
            },
            "flags": {
                "core": {
                    "sourceId": "Compendium.pf2ettw.equipment-srd.7tKkkF8eZ4iCLJtp"
                }
            },
            "img": "systems/pf2ettw/icons/equipment/weapons/shortsword.webp",
            "name": "Shortsword",
            "sort": 100000,
            "type": "weapon"
        },
        {
            "_id": "H52mlCLzlA4fUGjy",
            "data": {
                "armor": {
                    "value": 1
                },
                "baseItem": null,
                "category": "shield",
                "check": {
                    "value": 0
                },
                "containerId": null,
                "description": {
                    "value": "<p>This very small shield is a favorite of duelists and quick, lightly armored warriors. It's typically made of steel and strapped to your forearm. You can Raise a Shield with your buckler as long as you have that hand free or are holding a light object that's not a weapon in that hand.</p>\n<table class=\"pf2-table\">\n<thead>\n<tr>\n<th>Hardness</th>\n<th>HP</th>\n<th>BT</th>\n</tr>\n</thead>\n<tbody>\n<tr>\n<td>3</td>\n<td>6</td>\n<td>3</td>\n</tr>\n</tbody>\n</table>"
                },
                "dex": {
                    "value": 0
                },
                "equipped": {
                    "carryType": "held",
                    "handsHeld": 1,
                    "invested": null
                },
                "equippedBulk": {
                    "value": ""
                },
                "group": null,
                "hardness": 3,
                "hp": {
                    "brokenThreshold": 3,
                    "max": 6,
                    "value": 6
                },
                "level": {
                    "value": 0
                },
                "negateBulk": {
                    "value": "0"
                },
                "potency": {},
                "potencyRune": {
                    "value": 0
                },
                "preciousMaterial": {
                    "value": ""
                },
                "preciousMaterialGrade": {
                    "value": ""
                },
                "price": {
                    "value": {
                        "gp": 1
                    }
                },
                "propertyRune1": {
                    "value": ""
                },
                "propertyRune2": {
                    "value": ""
                },
                "propertyRune3": {
                    "value": ""
                },
                "propertyRune4": {
                    "value": ""
                },
                "quantity": 1,
                "resiliencyRune": {
                    "value": ""
                },
                "rules": [],
                "size": "med",
                "slug": "buckler",
                "source": {
                    "value": ""
                },
                "speed": {
                    "value": 0
                },
                "stackGroup": null,
                "strength": {
                    "value": 0
                },
                "traits": {
                    "custom": "",
                    "rarity": "common",
                    "value": []
                },
                "usage": {
                    "value": "held-in-one-hand"
                },
                "weight": {
                    "value": "L"
                }
            },
            "flags": {
                "core": {
                    "sourceId": "Compendium.pf2ettw.equipment-srd.1k3AsSW7lpU0kEpY"
                }
            },
            "img": "systems/pf2ettw/icons/equipment/shields/buckler.webp",
            "name": "Buckler",
            "sort": 200000,
            "type": "armor"
        },
        {
            "_id": "oMZGYxkqoirlCaQm",
            "data": {
                "attack": {
                    "value": ""
                },
                "attackEffects": {
                    "custom": "",
                    "value": []
                },
                "bonus": {
                    "value": 9
                },
                "damageRolls": {
                    "0": {
                        "damage": "1d6",
                        "damageType": "piercing"
                    }
                },
                "description": {
                    "value": ""
                },
                "rules": [],
                "slug": null,
                "source": {
                    "value": ""
                },
                "traits": {
                    "custom": "",
                    "rarity": "common",
                    "value": [
                        "agile",
                        "finesse",
                        "versatile-s"
                    ]
                },
                "weaponType": {
                    "value": "melee"
                }
            },
            "img": "systems/pf2ettw/icons/default-icons/melee.svg",
            "name": "Shortsword",
            "sort": 300000,
            "type": "melee"
        },
        {
            "_id": "WZ8Y5R6xt0YzzTUf",
            "data": {
                "actionCategory": {
                    "value": "interaction"
                },
                "actionType": {
                    "value": "passive"
                },
                "actions": {
                    "value": null
                },
                "description": {
                    "value": "<p>@Localize[pf2ettw.NPC.Abilities.Glossary.Darkvision]</p>"
                },
                "requirements": {
                    "value": ""
                },
                "rules": [],
                "slug": "darkvision",
                "source": {
                    "value": "Pathfinder Bestiary"
                },
                "traits": {
                    "custom": "",
                    "rarity": "common",
                    "value": []
                },
                "trigger": {
                    "value": ""
                },
                "weapon": {
                    "value": ""
                }
            },
            "flags": {
                "core": {
                    "sourceId": "Compendium.pf2ettw.bestiary-ability-glossary-srd.qCCLZhnp2HhP3Ex6"
                }
            },
            "img": "systems/pf2ettw/icons/actions/Passive.webp",
            "name": "Darkvision",
            "sort": 400000,
            "type": "action"
        },
        {
            "_id": "CrApsTeWiiQiyew0",
            "data": {
                "actionCategory": {
                    "value": "defensive"
                },
                "actionType": {
                    "value": "passive"
                },
                "actions": {
                    "value": null
                },
                "deathNote": true,
                "description": {
                    "value": "<p>Though their body is an organic construct, a wyrwood is a living creature. They're not immediately destroyed when reduced to 0 HP, but rather fall unconscious and eventually die. They don't need to eat or drink. They can be targeted by effects that target living creatures or that target constructs.</p>"
                },
                "requirements": {
                    "value": ""
                },
                "rules": [],
                "slug": null,
                "source": {
                    "value": ""
                },
                "traits": {
                    "custom": "",
                    "rarity": "common",
                    "value": []
                },
                "trigger": {
                    "value": ""
                },
                "weapon": {
                    "value": ""
                }
            },
            "img": "systems/pf2ettw/icons/actions/Passive.webp",
            "name": "Living Machine",
            "sort": 500000,
            "type": "action"
        },
        {
            "_id": "OCyAo1qV9dwYv7Ul",
            "data": {
                "actionCategory": {
                    "value": "defensive"
                },
                "actionType": {
                    "value": "passive"
                },
                "actions": {
                    "value": null
                },
                "description": {
                    "value": "<p>A wyrwood doesn't breathe and is immune to effects that require breathing (such as an inhaled poison).</p>"
                },
                "requirements": {
                    "value": ""
                },
                "rules": [],
                "slug": null,
                "source": {
                    "value": ""
                },
                "traits": {
                    "custom": "",
                    "rarity": "common",
                    "value": []
                },
                "trigger": {
                    "value": ""
                },
                "weapon": {
                    "value": ""
                }
            },
            "img": "systems/pf2ettw/icons/actions/Passive.webp",
            "name": "No Breath",
            "sort": 600000,
            "type": "action"
        },
        {
            "_id": "jTr10cfJXMg0qGZO",
            "data": {
                "actionCategory": {
                    "value": "offensive"
                },
                "actionType": {
                    "value": "passive"
                },
                "actions": {
                    "value": null
                },
                "description": {
                    "value": "<p>The wyrwood deals an additional 1d6 precision damage to flat-footed creatures.</p>"
                },
                "requirements": {
                    "value": ""
                },
                "rules": [
                    {
                        "category": "precision",
                        "diceNumber": 1,
                        "dieSize": "d6",
                        "key": "DamageDice",
                        "predicate": {
                            "all": [
                                "target:condition:flat-footed",
                                {
                                    "or": [
                                        "finesse",
                                        "agile",
                                        {
                                            "and": [
                                                "ranged",
                                                {
                                                    "not": "thrown"
                                                }
                                            ]
                                        }
                                    ]
                                }
                            ]
                        },
                        "selector": "strike-damage"
                    }
                ],
                "slug": null,
                "source": {
                    "value": ""
                },
                "traits": {
                    "custom": "",
                    "rarity": "common",
                    "value": []
                },
                "trigger": {
                    "value": ""
                },
                "weapon": {
                    "value": ""
                }
            },
            "img": "systems/pf2ettw/icons/actions/Passive.webp",
            "name": "Sneak Attack",
            "sort": 700000,
            "type": "action"
        },
        {
            "_id": "rumL4hsGQFfEXtCP",
            "data": {
                "description": {
                    "value": ""
                },
                "mod": {
                    "value": 7
                },
                "proficient": {
                    "value": 0
                },
                "rules": [],
                "slug": null,
                "source": {
                    "value": ""
                },
                "traits": {
                    "custom": "",
                    "rarity": "common",
                    "value": []
                }
            },
            "img": "systems/pf2ettw/icons/default-icons/lore.svg",
            "name": "Acrobatics",
            "sort": 800000,
            "type": "lore"
        },
        {
            "_id": "VRv2t2jyh1tLYNN4",
            "data": {
                "description": {
                    "value": ""
                },
                "mod": {
                    "value": 5
                },
                "proficient": {
                    "value": 0
                },
                "rules": [],
                "slug": null,
                "source": {
                    "value": ""
                },
                "traits": {
                    "custom": "",
                    "rarity": "common",
                    "value": []
                }
            },
            "img": "systems/pf2ettw/icons/default-icons/lore.svg",
            "name": "Arcana",
            "sort": 900000,
            "type": "lore"
        },
        {
            "_id": "C1TaHv5zK5Bl77LO",
            "data": {
                "description": {
                    "value": ""
                },
                "mod": {
                    "value": 7
                },
                "proficient": {
                    "value": 0
                },
                "rules": [],
                "slug": null,
                "source": {
                    "value": ""
                },
                "traits": {
                    "custom": "",
                    "rarity": "common",
                    "value": []
                }
            },
            "img": "systems/pf2ettw/icons/default-icons/lore.svg",
            "name": "Deception",
            "sort": 1000000,
            "type": "lore"
        },
        {
            "_id": "fFJ0q0IXsPmKRfQl",
            "data": {
                "description": {
                    "value": ""
                },
                "mod": {
                    "value": 5
                },
                "proficient": {
                    "value": 0
                },
                "rules": [],
                "slug": null,
                "source": {
                    "value": ""
                },
                "traits": {
                    "custom": "",
                    "rarity": "common",
                    "value": []
                }
            },
            "img": "systems/pf2ettw/icons/default-icons/lore.svg",
            "name": "Society",
            "sort": 1100000,
            "type": "lore"
        },
        {
            "_id": "166K6qgcxCjaNx02",
            "data": {
                "description": {
                    "value": ""
                },
                "mod": {
                    "value": 7
                },
                "proficient": {
                    "value": 0
                },
                "rules": [],
                "slug": null,
                "source": {
                    "value": ""
                },
                "traits": {
                    "custom": "",
                    "rarity": "common",
                    "value": []
                }
            },
            "img": "systems/pf2ettw/icons/default-icons/lore.svg",
            "name": "Stealth",
            "sort": 1200000,
            "type": "lore"
        }
    ],
    "name": "Wyrwood Sneak",
    "token": {
        "disposition": 0,
        "height": 1,
        "img": "systems/pf2ettw/icons/default-icons/npc.svg",
        "name": "Wyrwood Sneak",
        "width": 1
    },
    "type": "npc"
}
