{
    "_id": "0B9eEetIbeSPhulD",
    "data": {
        "actionCategory": {
            "value": "offensive"
        },
        "actionType": {
            "value": "passive"
        },
        "actions": {
            "value": null
        },
        "description": {
            "value": "<p>The divine warden selects two of its patron deity's domains. The divine warden can cast the basic domain spell for its chosen domains. The divine warden has a focus pool of 1 Focus Point. It can't @Compendium[pf2ettw.actionspf2ettw.Refocus]{Refocus}, but its focus pool automatically refills 24 hours after it last used a Focus Point. If the divine warden is at least 10th level, it also gains the advanced domain spells for its chosen domains, and its focus pool increases to 2 Focus Points.</p>"
        },
        "requirements": {
            "value": ""
        },
        "rules": [],
        "source": {
            "value": "Pathfinder Bestiary 3"
        },
        "traits": {
            "custom": "",
            "rarity": "common",
            "value": []
        },
        "trigger": {
            "value": ""
        },
        "weapon": {
            "value": ""
        }
    },
    "img": "systems/pf2ettw/icons/actions/Passive.webp",
    "name": "(Divine Warden) Divine Domain Spells",
    "type": "action"
}
