{
    "_id": "fVyoHEO3fSR737M1",
    "data": {
        "actionCategory": {
            "value": "offensive"
        },
        "actionType": {
            "value": "action"
        },
        "actions": {
            "value": 2
        },
        "description": {
            "value": "<p>With a touch, the ghost attempts to drain a living creature's life force. It makes a ghostly hand Strike but deals no damage on a hit.</p>\n<p>Instead, the target becomes @Compendium[pf2ettw.conditionitems.Drained]{Drained 1} for 1 day, and the ghost regains HP equal to half its own level.</p>"
        },
        "requirements": {
            "value": ""
        },
        "rules": [],
        "source": {
            "value": "Pathfinder Bestiary"
        },
        "traits": {
            "custom": "",
            "rarity": "common",
            "value": []
        },
        "trigger": {
            "value": ""
        },
        "weapon": {
            "value": ""
        }
    },
    "img": "systems/pf2ettw/icons/actions/TwoActions.webp",
    "name": "(Ghost) Draining Touch",
    "type": "action"
}
