{
    "_id": "aiwlPSmNY9b6Psvd",
    "data": {
        "actionCategory": {
            "value": "offensive"
        },
        "actionType": {
            "value": "action"
        },
        "actions": {
            "value": 2
        },
        "description": {
            "value": "<p>The ghost laments its fate, forcing each living creature within @Template[type:emanation|distance:30]{30 feet} to attempt a @Check[type:will|dc:] save. On a failure, a creature becomes @Compendium[pf2ettw.conditionitems.Frightened]{Frightened 2} (or @Compendium[pf2ettw.conditionitems.Frightened]{Frightened 3} on a critical failure). On a success, a creature is temporarily immune to this ghost's frightful moan for 1 minute.</p>"
        },
        "requirements": {
            "value": ""
        },
        "rules": [],
        "source": {
            "value": "Pathfinder Bestiary"
        },
        "traits": {
            "custom": "",
            "rarity": "common",
            "value": [
                "auditory",
                "divine",
                "emotion",
                "enchantment",
                "fear",
                "mental"
            ]
        },
        "trigger": {
            "value": ""
        },
        "weapon": {
            "value": ""
        }
    },
    "img": "systems/pf2ettw/icons/actions/TwoActions.webp",
    "name": "(Ghost) Frightful Moan",
    "type": "action"
}
