{
    "_id": "BgbSHRdkGH7raOgA",
    "data": {
        "actionCategory": {
            "value": "offensive"
        },
        "actionType": {
            "value": "action"
        },
        "actions": {
            "value": 3
        },
        "description": {
            "value": "<p>HP __; AC __, Fort +__, Ref +__, Will +__</p>\n<hr />\n<p>The graveknight summons a supernatural mount as per <em>@Compendium[pf2ettw.spells-srd.Phantom Steed]{Phantom Steed}</em>, heightened to a level equal to half the graveknight's level.</p>\n<p>Unlike <em>phantom steed</em>, the steed's AC and saving throw bonuses are all 4 lower than the graveknight's, and the steed has one-third the graveknight's Hit Points (rounded down).</p>\n<p>If the steed is destroyed, the graveknight must wait 1 hour before using this ability again.</p>"
        },
        "requirements": {
            "value": ""
        },
        "rules": [],
        "source": {
            "value": "Pathfinder Bestiary"
        },
        "traits": {
            "custom": "",
            "rarity": "common",
            "value": [
                "arcane",
                "conjuration",
                "summon"
            ]
        },
        "trigger": {
            "value": ""
        },
        "weapon": {
            "value": ""
        }
    },
    "img": "systems/pf2ettw/icons/actions/ThreeActions.webp",
    "name": "(Graveknight) Phantom Mount",
    "type": "action"
}
