{
    "_id": "5dbzWZbiTyPKgwKS",
    "data": {
        "actionCategory": {
            "value": "offensive"
        },
        "actionType": {
            "value": "passive"
        },
        "actions": {
            "value": null
        },
        "description": {
            "value": "<p>This curse affects anyone who wears a graveknight's armor for at least 1 hour.</p>\n<p><strong>Saving Throw</strong> @Check[type:will|dc:] save</p>\n<hr />\n<p><strong>Onset</strong> 1 hour</p>\n<p><strong>Stage 1</strong> @Compendium[pf2ettw.conditionitems.Doomed]{Doomed 1} and cannot remove the armor (1 day)</p>\n<p><strong>Stage 2</strong> @Compendium[pf2ettw.conditionitems.Doomed]{Doomed 2}, the creature's Speed is reduced by 10, and cannot remove the armor (1 day)</p>\n<p><strong>Stage 3</strong> dies and transforms into the armor's graveknight.</p>\n<hr />\n<p>@Compendium[pf2ettw.bestiary-effects.Effect: Graveknight's Curse]{Effect: Graveknight's Curse}</p>"
        },
        "requirements": {
            "value": ""
        },
        "rules": [],
        "source": {
            "value": "Pathfinder Bestiary"
        },
        "traits": {
            "custom": "",
            "rarity": "common",
            "value": [
                "arcane",
                "curse",
                "necromancy"
            ]
        },
        "trigger": {
            "value": ""
        },
        "weapon": {
            "value": ""
        }
    },
    "img": "systems/pf2ettw/icons/actions/Passive.webp",
    "name": "(Graveknight) Graveknight's Curse",
    "type": "action"
}
