{
    "_id": "OMSsLUcnRj6ycEUa",
    "data": {
        "actionCategory": {
            "value": "offensive"
        },
        "actionType": {
            "value": "action"
        },
        "actions": {
            "value": 2
        },
        "description": {
            "value": "<p>The graveknight redirects magical energies through its armor, allowing it to deliver magic through an attack.</p>\n<p>The graveknight Casts a Spell that takes 1 or 2 actions to cast and requires a spell attack roll. The effects of the spell don't occur immediately but are imbued into an attack instead. The graveknight then makes a melee Strike with a weapon or unarmed attack. The spell is coupled with the attack, using the attack roll result to determine the effects of both the Strike and the spell.</p>\n<p>This counts as two attacks for the graveknight's multiple attack penalty but doesn't apply the penalty until after it's completed Channeling Magic.</p>\n<p>The graveknight can't use Channel Magic again for [[/br 1d4 #rounds]]{1d4 rounds}.</p>"
        },
        "requirements": {
            "value": ""
        },
        "rules": [],
        "source": {
            "value": "Pathfinder #172: Secrets of the Temple-City"
        },
        "traits": {
            "custom": "",
            "rarity": "common",
            "value": []
        },
        "trigger": {
            "value": ""
        }
    },
    "img": "systems/pf2ettw/icons/actions/TwoActions.webp",
    "name": "(Graveknight) Channel Magic",
    "type": "action"
}
