{
    "_id": "UOqq8lkBPcPtKoCN",
    "data": {
        "actionCategory": {
            "value": "offensive"
        },
        "actionType": {
            "value": "action"
        },
        "actions": {
            "value": 2
        },
        "description": {
            "value": "<p>The Melfesh Monster sprays flaming gas in a @Template[type:cone|distance:15] or a @Template[type:line|distance:30]. Creatures in the area take [[/r {4d6}[fire]]]{4d6 fire damage} (@Check[type:reflex|dc:21|basic:true|name:Flame Lash] save). This ability replaces the firelance ranged Strike.</p>"
        },
        "requirements": {
            "value": ""
        },
        "rules": [],
        "source": {
            "value": "Pathfinder Lost Omens: Monsters of Myth"
        },
        "traits": {
            "custom": "",
            "rarity": "common",
            "value": []
        },
        "trigger": {
            "value": ""
        }
    },
    "img": "systems/pf2ettw/icons/actions/TwoActions.webp",
    "name": "(Melfesh Monster) Flame Lash",
    "type": "action"
}
