{
    "_id": "SEmSk1INZDmeoB5R",
    "data": {
        "actionCategory": {
            "value": "offensive"
        },
        "actionType": {
            "value": "action"
        },
        "actions": {
            "value": 1
        },
        "description": {
            "value": "<p>The nymph queen focuses her beauty upon a target within her aura. The creature must attempt a @Check[type:will|dc:0] save. On a failure, it is affected as if by the nymph queen's nymph's beauty aura; if it was already affected by the aura, it suffers a greater effect described in the nymph queen's entry. A nymph queen can Focus Beauty on a given creature only once per turn.</p>"
        },
        "requirements": {
            "value": ""
        },
        "rules": [],
        "source": {
            "value": "Pathfinder Bestiary"
        },
        "traits": {
            "custom": "",
            "rarity": "common",
            "value": [
                "emotion",
                "enchantment",
                "mental",
                "primal",
                "visual"
            ]
        },
        "trigger": {
            "value": ""
        }
    },
    "img": "systems/pf2ettw/icons/actions/OneAction.webp",
    "name": "(Nymph Queen) Focus Beauty",
    "type": "action"
}
