{
    "_id": "jciRdEHgGNGFXLsg",
    "data": {
        "actionCategory": {
            "value": "offensive"
        },
        "actionType": {
            "value": "passive"
        },
        "actions": {
            "value": null
        },
        "description": {
            "value": "<p>Any of the siabrae's spells or effects that would normally be restricted to affecting animals can also affect undead animals. Furthermore, any animals the siabrae takes the form of or summons appear to be diseased, malnourished, or even dead and rotting. (This doesn't affect their statistics.)</p>"
        },
        "requirements": {
            "value": ""
        },
        "rules": [],
        "source": {
            "value": "Pathfinder Book of the Dead"
        },
        "traits": {
            "custom": "",
            "rarity": "common",
            "value": []
        },
        "trigger": {
            "value": ""
        }
    },
    "img": "systems/pf2ettw/icons/actions/Passive.webp",
    "name": "(Siabrae) Blight Mastery",
    "type": "action"
}
