{
    "_id": "97Eo5oA1WeMJA7nR",
    "data": {
        "actionCategory": {
            "value": "offensive"
        },
        "actionType": {
            "value": "action"
        },
        "actions": {
            "value": 2
        },
        "description": {
            "value": "<p><strong>Requirements</strong> The skeleton is undetected and buried in dirt, gravel, or other loose material;</p>\n<hr />\n<p><strong>Effect</strong> The skeleton erupts from the ground, Stands, and makes a melee Strike. The target is @Compendium[pf2ettw.conditionitems.Flat-Footed]{Flat-Footed} against this Strike. If the Strike hits, the target is @Compendium[pf2ettw.conditionitems.Frightened]{Frightened 1} (or @Compendium[pf2ettw.conditionitems.Frightened]{Frightened 2} on a critical hit).</p>"
        },
        "requirements": {
            "value": ""
        },
        "rules": [],
        "source": {
            "value": "Pathfinder Book of the Dead"
        },
        "traits": {
            "custom": "",
            "rarity": "common",
            "value": []
        },
        "trigger": {
            "value": ""
        }
    },
    "img": "systems/pf2ettw/icons/actions/TwoActions.webp",
    "name": "(Skeleton) Grave Eruption",
    "type": "action"
}
