{
    "_id": "AvoSAlqB8mZfjwr9",
    "data": {
        "actionCategory": {
            "value": "offensive"
        },
        "actionType": {
            "value": "passive"
        },
        "actions": {
            "value": null
        },
        "description": {
            "value": "<p>The skeleton has bones from aquatic creatures, allowing it to swim using a simple tail, paddles, or similar appendage. The skeleton has a swim Speed of 20 feet and gains the aquatic trait and the @Compendium[pf2ettw.bestiary-ability-glossary-srd.Aquatic Ambush]{Aquatic Ambush} ability.</p>"
        },
        "requirements": {
            "value": ""
        },
        "rules": [
            {
                "key": "GrantItem",
                "uuid": "Compendium.pf2ettw.bestiary-ability-glossary-srd.Aquatic Ambush"
            },
            {
                "key": "BaseSpeed",
                "selector": "swim-speed",
                "value": 20
            },
            {
                "add": [
                    "aquatic"
                ],
                "key": "ActorTraits"
            }
        ],
        "source": {
            "value": "Pathfinder Book of the Dead"
        },
        "traits": {
            "custom": "",
            "rarity": "common",
            "value": []
        },
        "trigger": {
            "value": ""
        }
    },
    "img": "systems/pf2ettw/icons/actions/Passive.webp",
    "name": "(Skeleton) Aquatic Bones",
    "type": "action"
}
