{
    "_id": "OSnNiMdqgARyEVuv",
    "data": {
        "actionCategory": {
            "value": "interaction"
        },
        "actionType": {
            "value": "passive"
        },
        "actions": {
            "value": null
        },
        "description": {
            "value": "<p>A jiang-shi can't perceive living creatures beyond 5 feet except with their breathsense. A living creature within the listed range who holds its breath is @Compendium[pf2ettw.conditionitems.Invisible]{Invisible} to the jiang-shi for as long as it holds its breath. To hold its breath in this way, a creature must have one hand free to fully plug its nose or cover its mouth.</p>"
        },
        "requirements": {
            "value": ""
        },
        "rules": [],
        "source": {
            "value": "Pathfinder Book of the Dead"
        },
        "traits": {
            "custom": "",
            "rarity": "common",
            "value": []
        },
        "trigger": {
            "value": ""
        }
    },
    "img": "systems/pf2ettw/icons/actions/Passive.webp",
    "name": "(Vampire, Jiang-Shi, Basic) Breathsense 60 feet",
    "type": "action"
}
