{
    "_id": "tKixfds07IRH2nnh",
    "data": {
        "actionCategory": {
            "value": "interaction"
        },
        "actionType": {
            "value": "passive"
        },
        "actions": {
            "value": null
        },
        "description": {
            "value": "<p>The presence of a vrykolakas master inspires savage creatures to crawl forth to do its bidding, including @Compendium[pf2ettw.pathfinder-bestiary.Rat Swarm]{Rat Swarms}, @Compendium[pf2ettw.pathfinder-bestiary.Warg]{Wargs}, @Compendium[pf2ettw.pathfinder-bestiary.Werewolf]{Werewolves}, and similar creatures.</p>\n<p>The vrykolakas master can give telepathic orders to these creatures within 100 feet, but they can't communicate back.</p>"
        },
        "requirements": {
            "value": ""
        },
        "rules": [],
        "source": {
            "value": "Pathfinder Bestiary 2"
        },
        "traits": {
            "custom": "",
            "rarity": "common",
            "value": [
                "divine",
                "enchantment",
                "mental"
            ]
        },
        "trigger": {
            "value": ""
        }
    },
    "img": "systems/pf2ettw/icons/actions/Passive.webp",
    "name": "(Vampire, Vrykolakas Master) Children of the Night",
    "type": "action"
}
