{
    "_id": "AzvCvgx9SUAB2blo",
    "data": {
        "actionCategory": {
            "value": "defensive"
        },
        "actionType": {
            "value": "action"
        },
        "actions": {
            "value": 2
        },
        "description": {
            "value": "<p>With a wave of its hand, the strigoi calls fourth vile ruination from the surrounding shadows, causing coils of darkness and shadowy bats, rats, and wolves to lash out at living targets in a @Template[type:emanation|distance:30]. Living creatures in this area take [[/r {1d6}[negative]]]{1d6 negative damage} +1d6 per 2 levels possessed by the strigoi (@Check[type:fortitude|dc:|basic:true] save against the DC of the strigoi's level). A creature that fails this save is also @Compendium[pf2ettw.conditionitems.Dazzled]{Dazzled} for 1 round (or @Compendium[pf2ettw.conditionitems.Blinded]{Blinded} for 1 round and then dazzled for 1 round)</p>"
        },
        "requirements": {
            "value": ""
        },
        "rules": [],
        "source": {
            "value": "Pathfinder Adventure: Shadows at Sundown"
        },
        "traits": {
            "custom": "",
            "rarity": "common",
            "value": [
                "conjuration",
                "divine",
                "shadow"
            ]
        },
        "trigger": {
            "value": ""
        }
    },
    "img": "systems/pf2ettw/icons/actions/TwoActions.webp",
    "name": "(Vampire, Strigoi) Domain of Dusk",
    "type": "action"
}
