{
    "_id": "kQZ6pzdSn6FaxWF2",
    "data": {
        "actionCategory": {
            "value": "offensive"
        },
        "actionType": {
            "value": "passive"
        },
        "actions": {
            "value": null
        },
        "description": {
            "value": "<p>Some visitants can cast the following innate occult spells. If you give a visitant the following spells, consider removing one of its other special abilities.</p>\n<p><strong>Occult Innate Spells</strong></p>\n<p><strong>DC</strong> varies</p>\n<p><strong>Spell Attack</strong> varies</p>\n<p><strong>1st</strong> <em>@Compendium[pf2ettw.spells-srd.Fear]{Fear}</em>, <em>@Compendium[pf2ettw.spells-srd.Ray of Enfeeblement]{Ray of Enfeeblement}</em></p>\n<p><strong>Constant (1st)</strong> <em>@Compendium[pf2ettw.spells-srd.Detect Nature]{Detect Nature}</em></p>"
        },
        "requirements": {
            "value": ""
        },
        "rules": [],
        "source": {
            "value": "Pathfinder #152: Legacy of the Lost God"
        },
        "traits": {
            "custom": "",
            "rarity": "common",
            "value": []
        },
        "trigger": {
            "value": ""
        }
    },
    "img": "systems/pf2ettw/icons/actions/Passive.webp",
    "name": "(Visitant) Visitant Spells",
    "type": "action"
}
