{
    "_id": "aeCoh4u6c5kt1iCs",
    "data": {
        "abilities": {
            "cha": {
                "mod": -2
            },
            "con": {
                "mod": 3
            },
            "dex": {
                "mod": 2
            },
            "int": {
                "mod": -2
            },
            "str": {
                "mod": 3
            },
            "wis": {
                "mod": 2
            }
        },
        "attributes": {
            "ac": {
                "details": "",
                "value": 21
            },
            "allSaves": {
                "value": ""
            },
            "hp": {
                "details": "",
                "max": 40,
                "temp": 0,
                "value": 40
            },
            "initiative": {
                "ability": "perception"
            },
            "perception": {
                "value": 10
            },
            "speed": {
                "otherSpeeds": [
                    {
                        "type": "fly",
                        "value": "40"
                    }
                ],
                "value": "25"
            }
        },
        "details": {
            "alignment": {
                "value": "CE"
            },
            "blurb": "",
            "creatureType": "Beast",
            "level": {
                "value": 4
            },
            "privateNotes": "",
            "publicNotes": "<p>Gargoyles are monstrous hunters made entirely of stone. They look like decorative statues and use this as camouflage to hide in plain sight in cities during the day and descend upon unlucky pedestrians at night. Their most common form is that of a horned humanoid with batlike wings, but individual gargoyles vary a great deal, with some appearing more or less humanoid and others resembling something else entirely.</p>\n<p>Though most hunt alone, they sometimes form into groups called \"wings.\" All the monstrous statues atop an old building could actually be living gargoyles.</p>",
            "source": {
                "value": "Pathfinder Beginner Box"
            }
        },
        "resources": {},
        "saves": {
            "fortitude": {
                "saveDetail": "",
                "value": 13
            },
            "reflex": {
                "saveDetail": "",
                "value": 10
            },
            "will": {
                "saveDetail": "",
                "value": 10
            }
        },
        "traits": {
            "ci": [],
            "di": {
                "custom": "",
                "value": []
            },
            "dr": [
                {
                    "type": "bludgeoning",
                    "value": 5
                },
                {
                    "type": "piercing",
                    "value": 5
                },
                {
                    "type": "slashing",
                    "value": 5
                }
            ],
            "dv": [],
            "languages": {
                "custom": "",
                "selected": [],
                "value": []
            },
            "rarity": "common",
            "senses": {
                "value": "darkvision"
            },
            "size": {
                "value": "med"
            },
            "traits": {
                "custom": "",
                "value": [
                    "beast",
                    "earth"
                ]
            }
        }
    },
    "img": "systems/pf2ettw/icons/default-icons/npc.svg",
    "items": [
        {
            "_id": "qhS5ZEJcqNFytqWd",
            "data": {
                "attack": {
                    "value": ""
                },
                "attackEffects": {
                    "custom": "",
                    "value": []
                },
                "bonus": {
                    "value": 13
                },
                "damageRolls": {
                    "l62r53xvi5fa93emftw4": {
                        "damage": "2d8+3",
                        "damageType": "piercing"
                    }
                },
                "description": {
                    "value": ""
                },
                "rules": [],
                "slug": null,
                "source": {
                    "value": ""
                },
                "traits": {
                    "custom": "",
                    "rarity": "common",
                    "value": []
                },
                "weaponType": {
                    "value": "melee"
                }
            },
            "img": "systems/pf2ettw/icons/default-icons/melee.svg",
            "name": "Jaws",
            "sort": 100000,
            "type": "melee"
        },
        {
            "_id": "cprgu1LyMWRqzI0w",
            "data": {
                "attack": {
                    "value": ""
                },
                "attackEffects": {
                    "custom": "",
                    "value": []
                },
                "bonus": {
                    "value": 13
                },
                "damageRolls": {
                    "igj8v3sf65ku76csurok": {
                        "damage": "2d6+3",
                        "damageType": "slashing"
                    }
                },
                "description": {
                    "value": ""
                },
                "rules": [],
                "slug": null,
                "source": {
                    "value": ""
                },
                "traits": {
                    "custom": "",
                    "rarity": "common",
                    "value": [
                        "agile"
                    ]
                },
                "weaponType": {
                    "value": "melee"
                }
            },
            "img": "systems/pf2ettw/icons/default-icons/melee.svg",
            "name": "Claw",
            "sort": 200000,
            "type": "melee"
        },
        {
            "_id": "1V9uaQOnCMGgMxl2",
            "data": {
                "actionCategory": {
                    "value": "interaction"
                },
                "actionType": {
                    "value": "passive"
                },
                "actions": {
                    "value": null
                },
                "description": {
                    "value": "<p>@Localize[pf2ettw.NPC.Abilities.Glossary.Darkvision]</p>"
                },
                "requirements": {
                    "value": ""
                },
                "rules": [],
                "slug": "darkvision",
                "source": {
                    "value": "Pathfinder Bestiary"
                },
                "traits": {
                    "custom": "",
                    "rarity": "common",
                    "value": []
                },
                "trigger": {
                    "value": ""
                },
                "weapon": {
                    "value": ""
                }
            },
            "flags": {
                "core": {
                    "sourceId": "Compendium.pf2ettw.bestiary-ability-glossary-srd.qCCLZhnp2HhP3Ex6"
                }
            },
            "img": "systems/pf2ettw/icons/actions/Passive.webp",
            "name": "Darkvision",
            "sort": 300000,
            "type": "action"
        },
        {
            "_id": "DsvyLX53TeuZHMQ3",
            "data": {
                "actionCategory": {
                    "value": "defensive"
                },
                "actionType": {
                    "value": "reaction"
                },
                "actions": {
                    "value": null
                },
                "description": {
                    "value": "<p>If the gargoyle is flying and a creature moves into an adjacent square below them, the gargoyle can use their reaction to make a claw Strike against that creature.</p>"
                },
                "requirements": {
                    "value": ""
                },
                "rules": [],
                "slug": null,
                "source": {
                    "value": ""
                },
                "traits": {
                    "custom": "",
                    "rarity": "common",
                    "value": [
                        "attack"
                    ]
                },
                "trigger": {
                    "value": ""
                },
                "weapon": {
                    "value": ""
                }
            },
            "img": "systems/pf2ettw/icons/actions/Reaction.webp",
            "name": "Clawed Feet",
            "sort": 400000,
            "type": "action"
        },
        {
            "_id": "9bomxaBEHSLvRrkq",
            "data": {
                "actionCategory": {
                    "value": "offensive"
                },
                "actionType": {
                    "value": "action"
                },
                "actions": {
                    "value": 1
                },
                "description": {
                    "value": "<p>Until the next time they use an action, the gargoyle appears to be a statue. A creature must succeed at a @Check[type:perception|dc:32] check to figure out that the statue is really a creature.</p>"
                },
                "requirements": {
                    "value": ""
                },
                "rules": [],
                "slug": null,
                "source": {
                    "value": ""
                },
                "traits": {
                    "custom": "",
                    "rarity": "common",
                    "value": [
                        "concentrate"
                    ]
                },
                "trigger": {
                    "value": ""
                },
                "weapon": {
                    "value": ""
                }
            },
            "img": "systems/pf2ettw/icons/actions/OneAction.webp",
            "name": "Statue",
            "sort": 500000,
            "type": "action"
        },
        {
            "_id": "a214g3errazlAkKb",
            "data": {
                "description": {
                    "value": ""
                },
                "mod": {
                    "value": 10
                },
                "proficient": {
                    "value": 0
                },
                "rules": [],
                "slug": null,
                "source": {
                    "value": ""
                },
                "traits": {
                    "custom": "",
                    "rarity": "common",
                    "value": []
                }
            },
            "img": "systems/pf2ettw/icons/default-icons/lore.svg",
            "name": "Acrobatics",
            "sort": 600000,
            "type": "lore"
        },
        {
            "_id": "Ura0eOQUMHdW4GGC",
            "data": {
                "description": {
                    "value": ""
                },
                "mod": {
                    "value": 9
                },
                "proficient": {
                    "value": 0
                },
                "rules": [],
                "slug": null,
                "source": {
                    "value": ""
                },
                "traits": {
                    "custom": "",
                    "rarity": "common",
                    "value": []
                }
            },
            "img": "systems/pf2ettw/icons/default-icons/lore.svg",
            "name": "Athletics",
            "sort": 700000,
            "type": "lore"
        },
        {
            "_id": "fiMdWAcWbeu1N0Jm",
            "data": {
                "description": {
                    "value": ""
                },
                "mod": {
                    "value": 12
                },
                "proficient": {
                    "value": 0
                },
                "rules": [],
                "slug": null,
                "source": {
                    "value": ""
                },
                "traits": {
                    "custom": "",
                    "rarity": "common",
                    "value": []
                }
            },
            "img": "systems/pf2ettw/icons/default-icons/lore.svg",
            "name": "Stealth",
            "sort": 800000,
            "type": "lore"
        }
    ],
    "name": "Gargoyle (BB)",
    "token": {
        "disposition": -1,
        "height": 1,
        "img": "systems/pf2ettw/icons/default-icons/npc.svg",
        "name": "Gargoyle",
        "width": 1
    },
    "type": "npc"
}
