{
    "_id": "4Axci50gPQArPg7d",
    "data": {
        "abilities": {
            "cha": {
                "mod": 1
            },
            "con": {
                "mod": 1
            },
            "dex": {
                "mod": 4
            },
            "int": {
                "mod": 4
            },
            "str": {
                "mod": 2
            },
            "wis": {
                "mod": 3
            }
        },
        "attributes": {
            "ac": {
                "details": "",
                "value": 19
            },
            "allSaves": {
                "value": ""
            },
            "hp": {
                "details": "",
                "max": 28,
                "temp": 0,
                "value": 28
            },
            "initiative": {
                "ability": "perception"
            },
            "perception": {
                "value": 6
            },
            "speed": {
                "otherSpeeds": [],
                "value": "25"
            }
        },
        "details": {
            "alignment": {
                "value": "LE"
            },
            "blurb": "",
            "creatureType": "",
            "level": {
                "value": 2
            },
            "privateNotes": "",
            "publicNotes": "<p>Kobold trapmasters are the masterminds behind crafting and implementing wily traps in kobold lairs, and are widely respected among their kind.</p>",
            "source": {
                "value": "Pathfinder Beginner Box"
            }
        },
        "resources": {},
        "saves": {
            "fortitude": {
                "saveDetail": "",
                "value": 7
            },
            "reflex": {
                "saveDetail": "",
                "value": 10
            },
            "will": {
                "saveDetail": "",
                "value": 5
            }
        },
        "traits": {
            "ci": [],
            "di": {
                "custom": "",
                "value": []
            },
            "dr": [],
            "dv": [],
            "languages": {
                "custom": "",
                "selected": [],
                "value": []
            },
            "rarity": "common",
            "senses": {
                "value": "darkvision"
            },
            "size": {
                "value": "sm"
            },
            "traits": {
                "custom": "",
                "value": [
                    "humanoid",
                    "kobold"
                ]
            }
        }
    },
    "img": "systems/pf2ettw/icons/default-icons/npc.svg",
    "items": [
        {
            "_id": "tsvAQRhznMxKN8gX",
            "data": {
                "MAP": {
                    "value": ""
                },
                "baseItem": null,
                "bonus": {
                    "value": 0
                },
                "bonusDamage": {
                    "value": 0
                },
                "category": "martial",
                "containerId": null,
                "damage": {
                    "damageType": "piercing",
                    "dice": 1,
                    "die": "d6",
                    "value": ""
                },
                "description": {
                    "value": "<p>These blades come in a variety of shapes and styles, but they are typically 2 feet long.</p>"
                },
                "equipped": {
                    "carryType": "worn",
                    "handsHeld": 0,
                    "invested": null,
                    "slot": ""
                },
                "equippedBulk": {
                    "value": ""
                },
                "group": "sword",
                "hardness": 0,
                "hp": {
                    "brokenThreshold": 0,
                    "max": 0,
                    "value": 0
                },
                "level": {
                    "value": 0
                },
                "negateBulk": {
                    "value": "0"
                },
                "potencyRune": {
                    "value": null
                },
                "preciousMaterial": {
                    "value": ""
                },
                "preciousMaterialGrade": {
                    "value": ""
                },
                "price": {
                    "value": {
                        "sp": 9
                    }
                },
                "property1": {
                    "critDamage": "",
                    "critDamageType": "",
                    "critDice": null,
                    "critDie": "",
                    "criticalConditionType": "",
                    "criticalConditionValue": null,
                    "damageType": "",
                    "dice": null,
                    "die": "",
                    "strikeConditionType": "",
                    "strikeConditionValue": null,
                    "value": ""
                },
                "propertyRune1": {
                    "value": ""
                },
                "propertyRune2": {
                    "value": ""
                },
                "propertyRune3": {
                    "value": ""
                },
                "propertyRune4": {
                    "value": ""
                },
                "quantity": 1,
                "range": null,
                "reload": {
                    "value": ""
                },
                "rules": [],
                "size": "med",
                "slug": null,
                "source": {
                    "value": ""
                },
                "specific": {
                    "value": false
                },
                "splashDamage": {
                    "value": 0
                },
                "stackGroup": null,
                "strikingRune": {
                    "value": ""
                },
                "traits": {
                    "custom": "",
                    "rarity": "common",
                    "value": [
                        "agile",
                        "finesse",
                        "versatile-s"
                    ]
                },
                "usage": {
                    "value": "held-in-one-hand"
                },
                "weight": {
                    "value": "L"
                }
            },
            "img": "systems/pf2ettw/icons/equipment/weapons/shortsword.webp",
            "name": "Shortsword",
            "sort": 100000,
            "type": "weapon"
        },
        {
            "_id": "JKItbcSj8OKSSJ4H",
            "data": {
                "MAP": {
                    "value": ""
                },
                "baseItem": null,
                "bonus": {
                    "value": 0
                },
                "bonusDamage": {
                    "value": 0
                },
                "category": "simple",
                "containerId": null,
                "damage": {
                    "damageType": "piercing",
                    "dice": 1,
                    "die": "d6",
                    "value": ""
                },
                "description": {
                    "value": "<p>A long metal shaft ending with a metal spike, a spear can be used one‑handed as a melee weapon and can be thrown.</p>"
                },
                "equipped": {
                    "carryType": "worn",
                    "handsHeld": 0,
                    "invested": null,
                    "slot": ""
                },
                "equippedBulk": {
                    "value": ""
                },
                "group": "spear",
                "hardness": 0,
                "hp": {
                    "brokenThreshold": 0,
                    "max": 0,
                    "value": 0
                },
                "level": {
                    "value": 0
                },
                "negateBulk": {
                    "value": "0"
                },
                "potencyRune": {
                    "value": null
                },
                "preciousMaterial": {
                    "value": ""
                },
                "preciousMaterialGrade": {
                    "value": ""
                },
                "price": {
                    "value": {
                        "sp": 1
                    }
                },
                "property1": {
                    "critDamage": "",
                    "critDamageType": "",
                    "critDice": null,
                    "critDie": "",
                    "criticalConditionType": "",
                    "criticalConditionValue": null,
                    "damageType": "",
                    "dice": null,
                    "die": "",
                    "strikeConditionType": "",
                    "strikeConditionValue": null,
                    "value": ""
                },
                "propertyRune1": {
                    "value": ""
                },
                "propertyRune2": {
                    "value": ""
                },
                "propertyRune3": {
                    "value": ""
                },
                "propertyRune4": {
                    "value": ""
                },
                "quantity": 3,
                "range": null,
                "reload": {
                    "value": "-"
                },
                "rules": [],
                "size": "med",
                "slug": null,
                "source": {
                    "value": ""
                },
                "specific": {
                    "value": false
                },
                "splashDamage": {
                    "value": 0
                },
                "stackGroup": null,
                "strikingRune": {
                    "value": ""
                },
                "traits": {
                    "custom": "",
                    "rarity": "common",
                    "value": [
                        "thrown-20"
                    ]
                },
                "usage": {
                    "value": "held-in-one-hand"
                },
                "weight": {
                    "value": "1"
                }
            },
            "img": "systems/pf2ettw/icons/equipment/weapons/spear.webp",
            "name": "Spear",
            "sort": 200000,
            "type": "weapon"
        },
        {
            "_id": "OeI9TdZOVyciyh0n",
            "data": {
                "armor": {
                    "value": 1
                },
                "baseItem": null,
                "category": "light",
                "check": {
                    "value": -1
                },
                "containerId": null,
                "description": {
                    "value": "<p>A mix of flexible and molded boiled leather, a suit of this type of armor provides some protection with maximum flexibility.</p>"
                },
                "dex": {
                    "value": 4
                },
                "equipped": {
                    "carryType": "held",
                    "handsHeld": 1,
                    "invested": null,
                    "slot": ""
                },
                "equippedBulk": {
                    "value": "1"
                },
                "group": "leather",
                "hardness": 0,
                "hp": {
                    "brokenThreshold": 0,
                    "max": 0,
                    "value": 0
                },
                "level": {
                    "value": 0
                },
                "negateBulk": {
                    "value": "0"
                },
                "potency": {},
                "potencyRune": {
                    "value": 0
                },
                "preciousMaterial": {
                    "value": ""
                },
                "preciousMaterialGrade": {
                    "value": ""
                },
                "price": {
                    "value": {
                        "gp": 2
                    }
                },
                "property1": {
                    "critDamage": "",
                    "critDamageType": "",
                    "critDice": 0,
                    "critDie": "",
                    "damageType": "",
                    "dice": 0,
                    "die": "",
                    "value": ""
                },
                "property2": {
                    "critDamage": "",
                    "critDamageType": "",
                    "critDice": 0,
                    "critDie": "",
                    "damageType": "",
                    "dice": 0,
                    "die": "",
                    "value": ""
                },
                "property3": {
                    "critDamage": "",
                    "critDamageType": "",
                    "critDice": 0,
                    "critDie": "",
                    "damageType": "",
                    "dice": 0,
                    "die": "",
                    "value": ""
                },
                "propertyRune1": {
                    "value": ""
                },
                "propertyRune2": {
                    "value": ""
                },
                "propertyRune3": {
                    "value": ""
                },
                "propertyRune4": {
                    "value": ""
                },
                "quantity": 1,
                "resiliencyRune": {
                    "value": ""
                },
                "rules": [],
                "size": "med",
                "slug": null,
                "source": {
                    "value": ""
                },
                "speed": {
                    "value": 0
                },
                "stackGroup": null,
                "strength": {
                    "value": 10
                },
                "traits": {
                    "custom": "",
                    "rarity": "common",
                    "value": []
                },
                "usage": {
                    "value": "wornarmor"
                },
                "weight": {
                    "value": "2"
                }
            },
            "img": "systems/pf2ettw/icons/equipment/armor/leather-armor.webp",
            "name": "Leather Armor",
            "sort": 300000,
            "type": "armor"
        },
        {
            "_id": "fx6MEhp40JvDajQh",
            "data": {
                "activation": {
                    "condition": "",
                    "cost": 0,
                    "type": ""
                },
                "autoDestroy": {
                    "_deprecated": true,
                    "value": true
                },
                "autoUse": {
                    "_deprecated": true,
                    "value": true
                },
                "baseItem": null,
                "charges": {
                    "_deprecated": true,
                    "max": 1,
                    "value": 1
                },
                "consumableType": {
                    "value": "snare"
                },
                "consume": {
                    "_deprecated": true,
                    "value": "2d8"
                },
                "containerId": null,
                "description": {
                    "value": "<p>This basic snare consists of hidden spikes that rely on a creature's momentum to lacerate or potentially impale it as it enters the snare's square, dealing 2d8 piercing damage. The creature must attempt a @Check[type:reflex|dc:17|basic:true] saving throw.</p>"
                },
                "duration": {
                    "units": "",
                    "value": null
                },
                "equipped": {
                    "carryType": "worn",
                    "handsHeld": 0,
                    "slot": ""
                },
                "equippedBulk": {
                    "value": ""
                },
                "hardness": 0,
                "hp": {
                    "brokenThreshold": 0,
                    "max": 0,
                    "value": 0
                },
                "level": {
                    "value": 1
                },
                "negateBulk": {
                    "value": "0"
                },
                "preciousMaterial": {
                    "value": ""
                },
                "preciousMaterialGrade": {
                    "value": ""
                },
                "price": {
                    "value": {
                        "gp": 3
                    }
                },
                "quantity": 1,
                "range": {
                    "long": null,
                    "units": "",
                    "value": null
                },
                "rules": [],
                "size": "med",
                "slug": "spike-snare",
                "source": {
                    "value": "Pathfinder Core Rulebook"
                },
                "spell": {
                    "data": null,
                    "heightenedLevel": null
                },
                "stackGroup": "",
                "target": {
                    "type": "",
                    "units": "",
                    "value": null
                },
                "traits": {
                    "custom": "",
                    "rarity": "common",
                    "value": [
                        "consumable",
                        "magical",
                        "snare",
                        "trap"
                    ]
                },
                "usage": {
                    "value": "held-in-one-hand"
                },
                "uses": {
                    "autoDestroy": true,
                    "autoUse": true,
                    "max": 0,
                    "per": null,
                    "value": 0
                },
                "weight": {
                    "value": "-"
                }
            },
            "flags": {
                "core": {
                    "sourceId": "Compendium.pf2ettw.equipment-srd.3V2U720YhW2nyGVx"
                }
            },
            "img": "systems/pf2ettw/icons/equipment/snares/spike-snare.webp",
            "name": "Spike Trap",
            "sort": 400000,
            "type": "consumable"
        },
        {
            "_id": "OmVVuah2jgqtqVVo",
            "data": {
                "attack": {
                    "value": ""
                },
                "attackEffects": {
                    "value": []
                },
                "bonus": {
                    "value": 8
                },
                "damageRolls": {
                    "7br8uidsjheq4riwq31q2": {
                        "damage": "1d6+2",
                        "damageType": "piercing"
                    }
                },
                "description": {
                    "value": ""
                },
                "rules": [],
                "slug": null,
                "source": {
                    "value": ""
                },
                "traits": {
                    "custom": "",
                    "rarity": "common",
                    "value": [
                        "agile",
                        "finesse",
                        "versatile-s"
                    ]
                },
                "weaponType": {
                    "value": "melee"
                }
            },
            "img": "systems/pf2ettw/icons/default-icons/melee.svg",
            "name": "Shortsword",
            "sort": 500000,
            "type": "melee"
        },
        {
            "_id": "SL9owkerqt7KHiAD",
            "data": {
                "attack": {
                    "value": ""
                },
                "attackEffects": {
                    "value": []
                },
                "bonus": {
                    "value": 10
                },
                "damageRolls": {
                    "ugi928g3nw90dk33gi12tl5": {
                        "damage": "1d6+2",
                        "damageType": "piercing"
                    }
                },
                "description": {
                    "value": ""
                },
                "rules": [],
                "slug": null,
                "source": {
                    "value": ""
                },
                "traits": {
                    "custom": "",
                    "rarity": "common",
                    "value": [
                        "thrown-20"
                    ]
                },
                "weaponType": {
                    "value": "ranged"
                }
            },
            "img": "systems/pf2ettw/icons/default-icons/melee.svg",
            "name": "Spear",
            "sort": 600000,
            "type": "melee"
        },
        {
            "_id": "B1zHLf1i3W3pgrBz",
            "data": {
                "actionCategory": {
                    "value": "offensive"
                },
                "actionType": {
                    "value": "action"
                },
                "actions": {
                    "value": 1
                },
                "description": {
                    "value": "<p>If the kobold is adjacent to at least one enemy, the kobold Strides up to 30 feet and gains a +2 circumstance bonus to AC against reactions triggered by this movement. They must end this movement in a space that's not adjacent to any enemy.</p>"
                },
                "requirements": {
                    "value": ""
                },
                "rules": [
                    {
                        "domain": "ac",
                        "key": "RollOption",
                        "option": "hurried-retreat",
                        "toggleable": true
                    },
                    {
                        "key": "FlatModifier",
                        "predicate": {
                            "all": [
                                "hurried-retreat"
                            ]
                        },
                        "selector": "ac",
                        "type": "circumstance",
                        "value": 2
                    }
                ],
                "slug": null,
                "source": {
                    "value": ""
                },
                "traits": {
                    "custom": "",
                    "rarity": "common",
                    "value": []
                },
                "trigger": {
                    "value": ""
                },
                "weapon": {
                    "value": ""
                }
            },
            "img": "systems/pf2ettw/icons/actions/OneAction.webp",
            "name": "Hurried Retreat",
            "sort": 700000,
            "type": "action"
        },
        {
            "_id": "Mcbgf9KdTTBPuio6",
            "data": {
                "actionCategory": {
                    "value": "offensive"
                },
                "actionType": {
                    "value": "action"
                },
                "actions": {
                    "value": 3
                },
                "description": {
                    "value": "<p>The kobold trapmaster deploys one spike trap in an adjacent square.</p>"
                },
                "requirements": {
                    "value": ""
                },
                "rules": [],
                "slug": null,
                "source": {
                    "value": ""
                },
                "traits": {
                    "custom": "",
                    "rarity": "common",
                    "value": []
                },
                "trigger": {
                    "value": ""
                },
                "weapon": {
                    "value": ""
                }
            },
            "img": "systems/pf2ettw/icons/actions/ThreeActions.webp",
            "name": "Quick Trap",
            "sort": 800000,
            "type": "action"
        },
        {
            "_id": "yDzPXpPBRfYG5UfY",
            "data": {
                "actionCategory": {
                    "value": "offensive"
                },
                "actionType": {
                    "value": "passive"
                },
                "actions": {
                    "value": null
                },
                "description": {
                    "value": "<p>The kobold trapmaster deals an extra [[/r {1d6}]]{1d6 damage} to creatures that have the @Compendium[pf2ettw.conditionitems.Flat-Footed]{Flat-Footed} condition.</p>"
                },
                "requirements": {
                    "value": ""
                },
                "rules": [
                    {
                        "diceNumber": 1,
                        "dieSize": "d6",
                        "key": "DamageDice",
                        "predicate": {
                            "all": [
                                "target:condition:flat-footed",
                                {
                                    "or": [
                                        "finesse",
                                        "agile",
                                        {
                                            "and": [
                                                "ranged",
                                                {
                                                    "not": "thrown"
                                                }
                                            ]
                                        }
                                    ]
                                }
                            ]
                        },
                        "selector": "strike-damage"
                    }
                ],
                "slug": "sneak-attack",
                "source": {
                    "value": "Pathfinder Bestiary"
                },
                "traits": {
                    "custom": "",
                    "rarity": "common",
                    "value": []
                },
                "trigger": {
                    "value": ""
                },
                "weapon": {
                    "value": ""
                }
            },
            "flags": {
                "core": {
                    "sourceId": "Compendium.pf2ettw.bestiary-ability-glossary-srd.AWvNPE4U0kEJSL1T"
                }
            },
            "img": "systems/pf2ettw/icons/actions/Passive.webp",
            "name": "Sneak Attack",
            "sort": 900000,
            "type": "action"
        },
        {
            "_id": "sXZ80MEcWSNN1Ct0",
            "data": {
                "actionCategory": {
                    "value": "offensive"
                },
                "actionType": {
                    "value": "passive"
                },
                "actions": {
                    "value": null
                },
                "description": {
                    "value": "<p>Once this trap is deployed in a square, it deals [[/r {2d8}[piercing]]]{2d8 piercing damage} to anyone who steps on that square and they must attempt a @Check[type:reflex|dc:17|basic:true] saving throw.</p>"
                },
                "requirements": {
                    "value": ""
                },
                "rules": [],
                "slug": null,
                "source": {
                    "value": ""
                },
                "traits": {
                    "custom": "",
                    "rarity": "common",
                    "value": []
                },
                "trigger": {
                    "value": ""
                },
                "weapon": {
                    "value": ""
                }
            },
            "img": "systems/pf2ettw/icons/actions/Passive.webp",
            "name": "Spike Trap",
            "sort": 1000000,
            "type": "action"
        },
        {
            "_id": "z7XiX30WE6Mav2n5",
            "data": {
                "description": {
                    "value": ""
                },
                "mod": {
                    "value": 7
                },
                "proficient": {
                    "value": 0
                },
                "rules": [],
                "slug": null,
                "source": {
                    "value": ""
                },
                "traits": {
                    "custom": "",
                    "rarity": "common",
                    "value": []
                }
            },
            "img": "systems/pf2ettw/icons/default-icons/lore.svg",
            "name": "Acrobatics",
            "sort": 1100000,
            "type": "lore"
        },
        {
            "_id": "moHzPBkJU2w94AmQ",
            "data": {
                "description": {
                    "value": ""
                },
                "mod": {
                    "value": 8
                },
                "proficient": {
                    "value": 0
                },
                "rules": [],
                "slug": null,
                "source": {
                    "value": ""
                },
                "traits": {
                    "custom": "",
                    "rarity": "common",
                    "value": []
                }
            },
            "img": "systems/pf2ettw/icons/default-icons/lore.svg",
            "name": "Crafting",
            "sort": 1200000,
            "type": "lore"
        },
        {
            "_id": "TVQpfD0BB42O03tx",
            "data": {
                "description": {
                    "value": ""
                },
                "mod": {
                    "value": 7
                },
                "proficient": {
                    "value": 0
                },
                "rules": [],
                "slug": null,
                "source": {
                    "value": ""
                },
                "traits": {
                    "custom": "",
                    "rarity": "common",
                    "value": []
                }
            },
            "img": "systems/pf2ettw/icons/default-icons/lore.svg",
            "name": "Stealth",
            "sort": 1300000,
            "type": "lore"
        }
    ],
    "name": "Kobold Trapmaster (BB)",
    "token": {
        "disposition": -1,
        "height": 1,
        "img": "systems/pf2ettw/icons/default-icons/npc.svg",
        "name": "Kobold Trapmaster",
        "width": 1
    },
    "type": "npc"
}
