{
    "_id": "5HHqLskEnfjxpkCO",
    "description": "Table of 12th-Level Consumables Items",
    "displayRoll": true,
    "formula": "1d90",
    "img": "icons/svg/d20-grey.svg",
    "name": "12th-Level Consumables Items",
    "permission": {
        "default": 0
    },
    "replacement": true,
    "results": [
        {
            "_id": "mYq4p5qykRLe1Ok4",
            "collection": "pf2ettw.equipment-srd",
            "drawn": false,
            "img": "systems/pf2ettw/icons/equipment/consumables/ammunition/penetrating-ammunition.webp",
            "range": [
                1,
                6
            ],
            "resultId": "tOg1nt08dBTZbkwR",
            "text": "Penetrating Ammunition",
            "type": 2,
            "weight": 6
        },
        {
            "_id": "QN2b9QvvhEhXYHss",
            "collection": "pf2ettw.equipment-srd",
            "drawn": false,
            "img": "systems/pf2ettw/icons/equipment/alchemical-items/alchemical-elixirs/salamander-elixir.webp",
            "range": [
                7,
                12
            ],
            "resultId": "EEJiqzU89Ofk7dr6",
            "text": "Salamander Elixir (Moderate)",
            "type": 2,
            "weight": 6
        },
        {
            "_id": "k455WZW8SCQLXbsv",
            "collection": "pf2ettw.equipment-srd",
            "drawn": false,
            "img": "systems/pf2ettw/icons/equipment/alchemical-items/alchemical-elixirs/sea-touch-elixir.webp",
            "range": [
                13,
                18
            ],
            "resultId": "2hc1EEcb3pfr7Hac",
            "text": "Sea Touch Elixir (Moderate)",
            "type": 2,
            "weight": 6
        },
        {
            "_id": "3EqXFbXhBaS3HemC",
            "collection": "pf2ettw.equipment-srd",
            "drawn": false,
            "img": "systems/pf2ettw/icons/equipment/alchemical-items/alchemical-elixirs/winter-wolf-elixir.webp",
            "range": [
                19,
                24
            ],
            "resultId": "2prxM8Q0F4sdSwPx",
            "text": "Winter Wolf Elixir (Moderate)",
            "type": 2,
            "weight": 6
        },
        {
            "_id": "oLZsd9xeniDUB97N",
            "collection": "pf2ettw.equipment-srd",
            "drawn": false,
            "img": "systems/pf2ettw/icons/equipment/consumables/oils/oil-of-animation.webp",
            "range": [
                25,
                27
            ],
            "resultId": "KVrmsNbro6mJ9wuT",
            "text": "Oil of Animation",
            "type": 2,
            "weight": 3
        },
        {
            "_id": "zz0eL7k3QNTKNXc3",
            "collection": "pf2ettw.equipment-srd",
            "drawn": false,
            "img": "systems/pf2ettw/icons/equipment/consumables/oils/salve-of-antiparalysis.webp",
            "range": [
                28,
                33
            ],
            "resultId": "ybu2BMu2oWj74wl8",
            "text": "Salve of Antiparalysis (Greater)",
            "type": 2,
            "weight": 6
        },
        {
            "_id": "HpyqvpBDM6D2jUC6",
            "collection": "pf2ettw.equipment-srd",
            "drawn": false,
            "img": "systems/pf2ettw/icons/equipment/alchemical-items/alchemical-poisons/slumber-wine.webp",
            "range": [
                34,
                39
            ],
            "resultId": "z7eOUqVwyht6tj11",
            "text": "Slumber Wine",
            "type": 2,
            "weight": 6
        },
        {
            "_id": "bqsJMu7IB225fTYz",
            "drawn": false,
            "img": "icons/svg/d20-black.svg",
            "range": [
                40,
                45
            ],
            "resultId": "",
            "text": "Dragon's Breath Potion (Adult)",
            "type": 0,
            "weight": 6
        },
        {
            "_id": "xkxbqKf3zQN0HjG2",
            "collection": "pf2ettw.equipment-srd",
            "drawn": false,
            "img": "systems/pf2ettw/icons/equipment/consumables/potions/healing-potion.webp",
            "range": [
                46,
                51
            ],
            "resultId": "TSrbwHW8zm0mhkwb",
            "text": "Healing Potion (Greater)",
            "type": 2,
            "weight": 6
        },
        {
            "_id": "kQTbzpAKyDIdb9PY",
            "collection": "pf2ettw.equipment-srd",
            "drawn": false,
            "img": "systems/pf2ettw/icons/equipment/consumables/potions/potion-of-tongues.webp",
            "range": [
                52,
                54
            ],
            "resultId": "drxEWZl8mqMOZ23E",
            "text": "Potion of Tongues",
            "type": 2,
            "weight": 3
        },
        {
            "_id": "11E6i8082Hr9VbAI",
            "collection": "pf2ettw.equipment-srd",
            "drawn": false,
            "img": "systems/pf2ettw/icons/equipment/snares/bleeding-spines-snare.webp",
            "range": [
                55,
                60
            ],
            "resultId": "9Kk6P7idLGRhZJ2q",
            "text": "Bleeding Spines Snare",
            "type": 2,
            "weight": 6
        },
        {
            "_id": "6kQzn5rLnCNXBS9Q",
            "collection": "pf2ettw.equipment-srd",
            "drawn": false,
            "img": "systems/pf2ettw/icons/equipment/snares/scything-blade-snare.webp",
            "range": [
                61,
                66
            ],
            "resultId": "mWXaROc9ytjdGVVP",
            "text": "Scything Blade Snare",
            "type": 2,
            "weight": 6
        },
        {
            "_id": "VGGQXPWdzG59Nm30",
            "collection": "pf2ettw.equipment-srd",
            "drawn": false,
            "img": "systems/pf2ettw/icons/equipment/snares/stunning-snare.webp",
            "range": [
                67,
                72
            ],
            "resultId": "a2XaerM1KkPyLIPM",
            "text": "Stunning Snare",
            "type": 2,
            "weight": 6
        },
        {
            "_id": "nTEs6YU02ad96T98",
            "collection": "pf2ettw.equipment-srd",
            "drawn": false,
            "img": "systems/pf2ettw/icons/equipment/consumables/talismans/eye-of-apprehension.webp",
            "range": [
                73,
                78
            ],
            "resultId": "cxOf1V1kN9tnj1g9",
            "text": "Eye of Apprehension",
            "type": 2,
            "weight": 6
        },
        {
            "_id": "lPrbQ84yWjWIgUxi",
            "collection": "pf2ettw.equipment-srd",
            "drawn": false,
            "img": "systems/pf2ettw/icons/equipment/consumables/talismans/fade-band.webp",
            "range": [
                79,
                84
            ],
            "resultId": "FrbvejTNfS5fep9f",
            "text": "Fade Band",
            "type": 2,
            "weight": 6
        },
        {
            "_id": "2lOvcOhgIjutlg6N",
            "collection": "pf2ettw.equipment-srd",
            "drawn": false,
            "img": "systems/pf2ettw/icons/equipment/consumables/talismans/iron-equalizer.webp",
            "range": [
                85,
                90
            ],
            "resultId": "KrtZmC3qfZIGXu76",
            "text": "Iron Equalizer",
            "type": 2,
            "weight": 6
        }
    ]
}
