{
    "_id": "cBpFoBUNSApkvP6L",
    "description": "Table of 14th-Level Permanent Items",
    "displayRoll": true,
    "formula": "1d120",
    "img": "icons/svg/d20-grey.svg",
    "name": "14th-Level Permanent Items",
    "permission": {
        "default": 0
    },
    "replacement": true,
    "results": [
        {
            "_id": "mYq4p5qykRLe1Ok4",
            "drawn": false,
            "img": "icons/svg/d20-black.svg",
            "range": [
                1,
                6
            ],
            "resultId": "",
            "text": "Magic Armor (+2 Greater Resilient)",
            "type": 0,
            "weight": 6
        },
        {
            "_id": "aPbhuQl16Dn83HR8",
            "collection": "pf2ettw.equipment-srd",
            "drawn": false,
            "img": "systems/pf2ettw/icons/equipment/worn-items/companion-items/horseshoes-of-speed.webp",
            "range": [
                7,
                12
            ],
            "resultId": "t0pzdb54KD2JQcEa",
            "text": "Horseshoes of Speed (Greater)",
            "type": 2,
            "weight": 6
        },
        {
            "_id": "3EqXFbXhBaS3HemC",
            "collection": "pf2ettw.equipment-srd",
            "drawn": false,
            "img": "systems/pf2ettw/icons/equipment/held-items/crystal-ball-clear-quartz.webp",
            "range": [
                13,
                15
            ],
            "resultId": "RM3SR1omNZfppZGl",
            "text": "Crystal Ball (Clear Quartz)",
            "type": 2,
            "weight": 3
        },
        {
            "_id": "oLZsd9xeniDUB97N",
            "collection": "pf2ettw.equipment-srd",
            "drawn": false,
            "img": "systems/pf2ettw/icons/equipment/held-items/primeval-mistletoe.webp",
            "range": [
                16,
                21
            ],
            "resultId": "HZDkF6MlNQ6yYobD",
            "text": "Primeval Mistletoe (Greater)",
            "type": 2,
            "weight": 6
        },
        {
            "_id": "zz0eL7k3QNTKNXc3",
            "collection": "pf2ettw.equipment-srd",
            "drawn": false,
            "img": "systems/pf2ettw/icons/equipment/held-items/rod-of-negation.webp",
            "range": [
                22,
                27
            ],
            "resultId": "gEenEoxLjL5z28rG",
            "text": "Rod of Negation",
            "type": 2,
            "weight": 6
        },
        {
            "_id": "lLzSpPUauPOj4sfl",
            "collection": "pf2ettw.equipment-srd",
            "drawn": false,
            "img": "systems/pf2ettw/icons/equipment/runes/weapon-property-runes/weapon-property-runes.webp",
            "range": [
                28,
                30
            ],
            "resultId": "oVrVzML63VFvVfKk",
            "text": "Disrupting (Greater)",
            "type": 2,
            "weight": 3
        },
        {
            "_id": "HpyqvpBDM6D2jUC6",
            "collection": "pf2ettw.equipment-srd",
            "drawn": false,
            "img": "systems/pf2ettw/icons/equipment/runes/fundamental-armor-runes/armor-potency.webp",
            "range": [
                31,
                36
            ],
            "resultId": "fCdcyCkGlmp0c34A",
            "text": "Resilient (Greater)",
            "type": 2,
            "weight": 6
        },
        {
            "_id": "bqsJMu7IB225fTYz",
            "collection": "pf2ettw.equipment-srd",
            "drawn": false,
            "img": "systems/pf2ettw/icons/equipment/staves/staff-of-abjuration.webp",
            "range": [
                37,
                42
            ],
            "resultId": "ZSt2PxZVik7UHGG3",
            "text": "Staff of Abjuration (Major)",
            "type": 2,
            "weight": 6
        },
        {
            "_id": "xkxbqKf3zQN0HjG2",
            "collection": "pf2ettw.equipment-srd",
            "drawn": false,
            "img": "systems/pf2ettw/icons/equipment/staves/staff-of-conjuration.webp",
            "range": [
                43,
                48
            ],
            "resultId": "7aLpTxRVmoNQTqvJ",
            "text": "Staff of Conjuration (Major)",
            "type": 2,
            "weight": 6
        },
        {
            "_id": "kQTbzpAKyDIdb9PY",
            "collection": "pf2ettw.equipment-srd",
            "drawn": false,
            "img": "systems/pf2ettw/icons/equipment/staves/staff-of-divination.webp",
            "range": [
                49,
                54
            ],
            "resultId": "lOeShVkqV98KlvTI",
            "text": "Staff of Divination (Major)",
            "type": 2,
            "weight": 6
        },
        {
            "_id": "11E6i8082Hr9VbAI",
            "collection": "pf2ettw.equipment-srd",
            "drawn": false,
            "img": "systems/pf2ettw/icons/equipment/staves/staff-of-enchantment.webp",
            "range": [
                55,
                60
            ],
            "resultId": "MeUgw1hsSEcWP97G",
            "text": "Staff of Enchantment (Major)",
            "type": 2,
            "weight": 6
        },
        {
            "_id": "vQq7Hy7Dx1a8GCHZ",
            "collection": "pf2ettw.equipment-srd",
            "drawn": false,
            "img": "systems/pf2ettw/icons/equipment/staves/staff-of-evocation.webp",
            "range": [
                61,
                66
            ],
            "resultId": "kNvo4FNaiQRnZfO7",
            "text": "Staff of Evocation (Major)",
            "type": 2,
            "weight": 6
        },
        {
            "_id": "dwXrm0DZwZ0Vtpyl",
            "collection": "pf2ettw.equipment-srd",
            "drawn": false,
            "img": "systems/pf2ettw/icons/equipment/staves/staff-of-illusion.webp",
            "range": [
                67,
                72
            ],
            "resultId": "gG4IUEzqD253s7nx",
            "text": "Staff of Illusion (Major)",
            "type": 2,
            "weight": 6
        },
        {
            "_id": "ViMk7CeQzvGeYUrC",
            "collection": "pf2ettw.equipment-srd",
            "drawn": false,
            "img": "systems/pf2ettw/icons/equipment/staves/staff-of-necromancy.webp",
            "range": [
                73,
                78
            ],
            "resultId": "IIV5L4y8zLH17mAK",
            "text": "Staff of Necromancy (Major)",
            "type": 2,
            "weight": 6
        },
        {
            "_id": "rj2RuyHe7q9qcZ2d",
            "collection": "pf2ettw.equipment-srd",
            "drawn": false,
            "img": "systems/pf2ettw/icons/equipment/staves/staff-of-transmutation.webp",
            "range": [
                79,
                84
            ],
            "resultId": "GlyiVrIokFpFFRu2",
            "text": "Staff of Transmutation (Major)",
            "type": 2,
            "weight": 6
        },
        {
            "_id": "o3gZ97kIi4lo11BY",
            "collection": "pf2ettw.equipment-srd",
            "drawn": false,
            "img": "systems/pf2ettw/icons/equipment/wands/specialty-wands/wand-of-widening.webp",
            "range": [
                85,
                90
            ],
            "resultId": "JDQ4jqp6O8SurQGe",
            "text": "Wand of Widening (6th-Level Spell)",
            "type": 2,
            "weight": 6
        },
        {
            "_id": "TbqN7piUhgo0OfAf",
            "collection": "pf2ettw.equipment-srd",
            "drawn": false,
            "img": "systems/pf2ettw/icons/equipment/weapons/specific-magic-weapons/holy-avenger.webp",
            "range": [
                91,
                93
            ],
            "resultId": "OIs6WPuCRh2UJTOe",
            "text": "Holy Avenger",
            "type": 2,
            "weight": 3
        },
        {
            "_id": "l9CD8GKGvhWX8hAA",
            "collection": "pf2ettw.equipment-srd",
            "drawn": false,
            "img": "systems/pf2ettw/icons/equipment/weapons/specific-magic-weapons/storm-flash.webp",
            "range": [
                94,
                99
            ],
            "resultId": "Za5Mnae009cDCwuN",
            "text": "Storm Flash",
            "type": 2,
            "weight": 6
        },
        {
            "_id": "t5t1wLQE2o2FC0iI",
            "collection": "pf2ettw.equipment-srd",
            "drawn": false,
            "img": "systems/pf2ettw/icons/equipment/worn-items/other-worn-items/boots-of-bounding.webp",
            "range": [
                100,
                105
            ],
            "resultId": "31knfVD7lEd8BPrQ",
            "text": "Boots of Bounding (Greater)",
            "type": 2,
            "weight": 6
        },
        {
            "_id": "SaGLwztjSNglsrzf",
            "collection": "pf2ettw.equipment-srd",
            "drawn": false,
            "img": "systems/pf2ettw/icons/equipment/worn-items/other-worn-items/bracers-of-armor.webp",
            "range": [
                106,
                111
            ],
            "resultId": "8mhSUxEvNuXDP8Ki",
            "text": "Bracers of Armor II",
            "type": 2,
            "weight": 6
        },
        {
            "_id": "wDGaxAN4F6RLlPZV",
            "collection": "pf2ettw.equipment-srd",
            "drawn": false,
            "img": "systems/pf2ettw/icons/equipment/worn-items/other-worn-items/ring-of-energy-resistance.webp",
            "range": [
                112,
                117
            ],
            "resultId": "zyAzx6fLsPurRFQO",
            "text": "Ring of Energy Resistance (Major)",
            "type": 2,
            "weight": 6
        },
        {
            "_id": "S0kG1NmHVtkY2ZNf",
            "collection": "pf2ettw.equipment-srd",
            "drawn": false,
            "img": "systems/pf2ettw/icons/equipment/worn-items/other-worn-items/ring-of-wizardry.webp",
            "range": [
                118,
                120
            ],
            "resultId": "8jPsriZqWY1hAgob",
            "text": "Ring of Wizardry (Type IV)",
            "type": 2,
            "weight": 3
        }
    ]
}
