{
    "_id": "nusyoQjLs0ZxifRd",
    "description": "Table of 20th-Level Consumables Items",
    "displayRoll": true,
    "formula": "1d25",
    "img": "icons/svg/d20-grey.svg",
    "name": "20th-Level Consumable Items",
    "permission": {
        "default": 0
    },
    "replacement": true,
    "results": [
        {
            "_id": "GvtGRGlE8zHSu2aj",
            "collection": "pf2ettw.equipment-srd",
            "drawn": false,
            "img": "systems/pf2ettw/icons/equipment/alchemical-items/alchemical-elixirs/elixir-of-rejuvenation.webp",
            "range": [
                1,
                3
            ],
            "resultId": "UHrLqWCnFEUspSQj",
            "text": "Elixir of Rejuvenation",
            "type": 2,
            "weight": 3
        },
        {
            "_id": "hDeiVDQYZMWyWqqY",
            "collection": "pf2ettw.equipment-srd",
            "drawn": false,
            "img": "systems/pf2ettw/icons/equipment/consumables/oils/antimagic-oil.webp",
            "range": [
                4,
                4
            ],
            "resultId": "737LQfIaLXBPEzc3",
            "text": "Antimagic Oil",
            "type": 2,
            "weight": 1
        },
        {
            "_id": "tUZcgbVVPNRslNxR",
            "collection": "pf2ettw.equipment-srd",
            "drawn": false,
            "img": "systems/pf2ettw/icons/equipment/alchemical-items/alchemical-poisons/tears-of-death.webp",
            "range": [
                5,
                10
            ],
            "resultId": "gDGPvobJV1QGYBPy",
            "text": "Tears of Death",
            "type": 2,
            "weight": 6
        },
        {
            "_id": "HEQWxVwkZlaRttlq",
            "collection": "pf2ettw.equipment-srd",
            "drawn": false,
            "img": "systems/pf2ettw/icons/equipment/snares/flying-blade-wheel-snare.webp",
            "range": [
                11,
                16
            ],
            "resultId": "qvfO0jFIvIM8hReG",
            "text": "Flying Blade Wheel Snare",
            "type": 2,
            "weight": 6
        },
        {
            "_id": "FgVurBQfzjblrN2c",
            "collection": "pf2ettw.equipment-srd",
            "drawn": false,
            "img": "systems/pf2ettw/icons/equipment/snares/instant-evisceration-snare.webp",
            "range": [
                17,
                22
            ],
            "resultId": "xqCz2vStMNJujfpp",
            "text": "Instant Evisceration Snare",
            "type": 2,
            "weight": 6
        },
        {
            "_id": "MEtCarvtTcn9UNJn",
            "collection": "pf2ettw.equipment-srd",
            "drawn": false,
            "img": "systems/pf2ettw/icons/equipment/alchemical-items/alchemical-tools/philosophers-stone.webp",
            "range": [
                23,
                25
            ],
            "resultId": "Fv97oB3iEIFAyzTu",
            "text": "Philosopher's Stone",
            "type": 2,
            "weight": 3
        }
    ]
}
