{
    "_id": "g30jZWCJEiK1RlIa",
    "description": "Table of 2nd-Level Consumables",
    "displayRoll": true,
    "formula": "1d123",
    "img": "icons/svg/d20-grey.svg",
    "name": "2nd-Level Consumables",
    "permission": {
        "default": 0
    },
    "replacement": true,
    "results": [
        {
            "_id": "ry32tNrAMQmP8SWu",
            "collection": "pf2ettw.equipment-srd",
            "drawn": false,
            "img": "systems/pf2ettw/icons/equipment/consumables/other-consumables/feather-token.webp",
            "range": [
                1,
                6
            ],
            "resultId": "cwurQLvQaqjK70UI",
            "text": "Feather Token (Holly Bush)",
            "type": 2,
            "weight": 6
        },
        {
            "_id": "tD9DOUrhusTOo6ym",
            "collection": "pf2ettw.equipment-srd",
            "drawn": false,
            "img": "systems/pf2ettw/icons/equipment/alchemical-items/alchemical-elixirs/bravos-brew.webp",
            "range": [
                7,
                12
            ],
            "resultId": "zM9VX3QwM81DzDUA",
            "text": "Bravo's Brew (Lesser)",
            "type": 2,
            "weight": 6
        },
        {
            "_id": "vfRkWUwvvKhVmmVt",
            "collection": "pf2ettw.equipment-srd",
            "drawn": false,
            "img": "systems/pf2ettw/icons/equipment/alchemical-items/alchemical-elixirs/cats-eye-elixir.webp",
            "range": [
                13,
                18
            ],
            "resultId": "bQPRKEpnLakJBAAh",
            "text": "Cat's Eye Elixir",
            "type": 2,
            "weight": 6
        },
        {
            "_id": "u5S7bpxsQtmZw1ah",
            "collection": "pf2ettw.equipment-srd",
            "drawn": false,
            "img": "systems/pf2ettw/icons/equipment/alchemical-items/alchemical-elixirs/comprehension-elixir.webp",
            "range": [
                19,
                24
            ],
            "resultId": "3Klm2gPmzOw6ntVb",
            "text": "Comprehension Elixir (Lesser)",
            "type": 2,
            "weight": 6
        },
        {
            "_id": "BQwlRvlpARru285I",
            "collection": "pf2ettw.equipment-srd",
            "drawn": false,
            "img": "systems/pf2ettw/icons/equipment/alchemical-items/alchemical-elixirs/darkvision-elixir.webp",
            "range": [
                25,
                30
            ],
            "resultId": "88pGCHV0uKMskTVO",
            "text": "Darkvision Elixir (Lesser)",
            "type": 2,
            "weight": 6
        },
        {
            "_id": "3xDD3sHjTohsIvaL",
            "collection": "pf2ettw.equipment-srd",
            "drawn": false,
            "img": "systems/pf2ettw/icons/equipment/alchemical-items/alchemical-elixirs/infiltrators-elixir.webp",
            "range": [
                31,
                36
            ],
            "resultId": "cuomhpenkqGM5lLG",
            "text": "Infiltrator's Elixir",
            "type": 2,
            "weight": 6
        },
        {
            "_id": "SL183TkVMQkmUDv4",
            "collection": "pf2ettw.equipment-srd",
            "drawn": false,
            "img": "systems/pf2ettw/icons/equipment/alchemical-items/alchemical-poisons/belladonna.webp",
            "range": [
                37,
                42
            ],
            "resultId": "FL8QU8TcNauBMMhD",
            "text": "Belladonna",
            "type": 2,
            "weight": 6
        },
        {
            "_id": "T2kXzz5x5FFl8qcB",
            "collection": "pf2ettw.equipment-srd",
            "drawn": false,
            "img": "systems/pf2ettw/icons/equipment/alchemical-items/alchemical-poisons/black-adder-venom.webp",
            "range": [
                43,
                48
            ],
            "resultId": "ScclzFrjyB0YJlrb",
            "text": "Black Adder Venom",
            "type": 2,
            "weight": 6
        },
        {
            "_id": "QNtUu0hwf189Evrf",
            "collection": "pf2ettw.equipment-srd",
            "drawn": false,
            "img": "systems/pf2ettw/icons/equipment/alchemical-items/alchemical-poisons/lethargy-poison.webp",
            "range": [
                49,
                51
            ],
            "resultId": "zo0ophqfKunJFxZN",
            "text": "Lethargy Poison",
            "type": 2,
            "weight": 3
        },
        {
            "_id": "pJU1w1RQgdmtxEnT",
            "collection": "pf2ettw.equipment-srd",
            "drawn": false,
            "img": "systems/pf2ettw/icons/equipment/consumables/talismans/bronze-bull-pendant.webp",
            "range": [
                52,
                57
            ],
            "resultId": "nXStoLxPrrP2b6WB",
            "text": "Bronze Bull Pendant",
            "type": 2,
            "weight": 6
        },
        {
            "_id": "klapdf6bAB73uws4",
            "collection": "pf2ettw.equipment-srd",
            "drawn": false,
            "img": "systems/pf2ettw/icons/equipment/consumables/talismans/crying-angel-pendant.webp",
            "range": [
                58,
                63
            ],
            "resultId": "HHELOoN5GVonUiIa",
            "text": "Crying Angel Pendant",
            "type": 2,
            "weight": 6
        },
        {
            "_id": "nuT1akfE0ijxOkDn",
            "collection": "pf2ettw.equipment-srd",
            "drawn": false,
            "img": "systems/pf2ettw/icons/equipment/consumables/talismans/effervescent-ampoule.webp",
            "range": [
                64,
                69
            ],
            "resultId": "VPvyyQXjn2HBjnTS",
            "text": "Effervescent Ampoule",
            "type": 2,
            "weight": 6
        },
        {
            "_id": "zDvdnusRvAVqTeHa",
            "collection": "pf2ettw.equipment-srd",
            "drawn": false,
            "img": "systems/pf2ettw/icons/equipment/consumables/talismans/hunters-bane.webp",
            "range": [
                70,
                75
            ],
            "resultId": "Yew9oddFsH0KeDLh",
            "text": "Hunter's Bane",
            "type": 2,
            "weight": 6
        },
        {
            "_id": "FuHGz2bpefNLxkjf",
            "collection": "pf2ettw.equipment-srd",
            "drawn": false,
            "img": "systems/pf2ettw/icons/equipment/consumables/talismans/jade-cat.webp",
            "range": [
                76,
                81
            ],
            "resultId": "2MgFoNXTccL8Own9",
            "text": "Jade Cat",
            "type": 2,
            "weight": 6
        },
        {
            "_id": "auXfWiEC0BmCB2mZ",
            "collection": "pf2ettw.equipment-srd",
            "drawn": false,
            "img": "systems/pf2ettw/icons/equipment/consumables/talismans/mesmerizing-opal.webp",
            "range": [
                82,
                87
            ],
            "resultId": "aKbrBW1SnFDxya5J",
            "text": "Mesmerizing Opal",
            "type": 2,
            "weight": 6
        },
        {
            "_id": "Xm7lfo3yQp94m7so",
            "collection": "pf2ettw.equipment-srd",
            "drawn": false,
            "img": "systems/pf2ettw/icons/equipment/consumables/talismans/monkey-pin.webp",
            "range": [
                88,
                93
            ],
            "resultId": "jdDDqv9LbEYX2wAE",
            "text": "Monkey Pin",
            "type": 2,
            "weight": 6
        },
        {
            "_id": "RvapRvAQnCogA41x",
            "collection": "pf2ettw.equipment-srd",
            "drawn": false,
            "img": "systems/pf2ettw/icons/equipment/consumables/talismans/onyx-panther.webp",
            "range": [
                94,
                99
            ],
            "resultId": "0aSdDSjJ5sMzBz1U",
            "text": "Onyx Panther",
            "type": 2,
            "weight": 6
        },
        {
            "_id": "GSPrbuknylF9lRBK",
            "collection": "pf2ettw.equipment-srd",
            "drawn": false,
            "img": "systems/pf2ettw/icons/equipment/consumables/oils/oil-of-potency.webp",
            "range": [
                100,
                105
            ],
            "resultId": "j2CHumvbjmlLQX2i",
            "text": "Oil of Potency",
            "type": 2,
            "weight": 6
        },
        {
            "_id": "Tl8Jye1UgRHFSr6T",
            "collection": "pf2ettw.equipment-srd",
            "drawn": false,
            "img": "systems/pf2ettw/icons/equipment/consumables/oils/oil-of-weightlessness.webp",
            "range": [
                106,
                111
            ],
            "resultId": "6DmHDtIsGzH1s5JO",
            "text": "Oil of Weightlessness",
            "type": 2,
            "weight": 6
        },
        {
            "_id": "EcjzWnUXW49rqBry",
            "collection": "pf2ettw.equipment-srd",
            "drawn": false,
            "img": "systems/pf2ettw/icons/equipment/consumables/talismans/savior-spike.webp",
            "range": [
                112,
                117
            ],
            "resultId": "qeTWg0TWw9CwMKCO",
            "text": "Savior Spike",
            "type": 2,
            "weight": 6
        },
        {
            "_id": "zCq4yiUgqcecAgCY",
            "collection": "pf2ettw.equipment-srd",
            "drawn": false,
            "img": "systems/pf2ettw/icons/equipment/alchemical-items/alchemical-tools/silversheen.webp",
            "range": [
                118,
                123
            ],
            "resultId": "8fbsKEEbZ0CfBMIr",
            "text": "Silversheen",
            "type": 2,
            "weight": 6
        }
    ]
}
