{
    "_id": "Ow2zoRUSX0s7JjMo",
    "description": "Table of 3rd-Level Permanent Items",
    "displayRoll": true,
    "formula": "1d123",
    "img": "icons/svg/d20-grey.svg",
    "name": "3rd-Level Permanent Items",
    "permission": {
        "default": 0
    },
    "replacement": true,
    "results": [
        {
            "_id": "AEEb6bnMZ9MhDUZl",
            "collection": "pf2ettw.equipment-srd",
            "drawn": false,
            "img": "systems/pf2ettw/icons/equipment/held-items/maestros-instrument.webp",
            "range": [
                1,
                6
            ],
            "resultId": "bAfyWCvgsYDyw3ff",
            "text": "Maestro's Instrument (Lesser)",
            "type": 2,
            "weight": 6
        },
        {
            "_id": "fB6VT5roisYIc9z8",
            "collection": "pf2ettw.equipment-srd",
            "drawn": false,
            "img": "systems/pf2ettw/icons/equipment/held-items/thurible-of-revelation.webp",
            "range": [
                7,
                12
            ],
            "resultId": "xaWuuQoBJiMLzggR",
            "text": "Thurible of Revelation (Lesser)",
            "type": 2,
            "weight": 6
        },
        {
            "_id": "IgwEyPs0rjY4Zk77",
            "collection": "pf2ettw.equipment-srd",
            "drawn": false,
            "img": "systems/pf2ettw/icons/equipment/runes/weapon-property-runes/weapon-property-runes.webp",
            "range": [
                13,
                18
            ],
            "resultId": "qlunQzfnzPQpMG6U",
            "text": "Returning",
            "type": 2,
            "weight": 6
        },
        {
            "_id": "2wUqPwwk28SJXbOv",
            "collection": "pf2ettw.equipment-srd",
            "drawn": false,
            "img": "systems/pf2ettw/icons/equipment/runes/armor-property-runes/armor-property-runes.webp",
            "range": [
                19,
                24
            ],
            "resultId": "kEy7Uc1VisizGgtf",
            "text": "Shadow",
            "type": 2,
            "weight": 6
        },
        {
            "_id": "bTwikuvoIuXKabFL",
            "collection": "pf2ettw.equipment-srd",
            "drawn": false,
            "img": "systems/pf2ettw/icons/equipment/runes/armor-property-runes/armor-property-runes.webp",
            "range": [
                25,
                30
            ],
            "resultId": "uQOaRpfkUFVYD0Gx",
            "text": "Slick",
            "type": 2,
            "weight": 6
        },
        {
            "_id": "KE5WuqxZOMKkfeVK",
            "collection": "pf2ettw.equipment-srd",
            "drawn": false,
            "img": "systems/pf2ettw/icons/equipment/staves/staff-of-fire.webp",
            "range": [
                31,
                36
            ],
            "resultId": "opfpl1JmKgrfds9P",
            "text": "Staff of Fire",
            "type": 2,
            "weight": 6
        },
        {
            "_id": "CUmCEauinNplh5ZA",
            "collection": "pf2ettw.equipment-srd",
            "drawn": false,
            "img": "systems/pf2ettw/icons/equipment/wands/magic-wands/magic-wand.webp",
            "range": [
                37,
                42
            ],
            "resultId": "UJWiN0K3jqVjxvKk",
            "text": "Magic Wand (1st-Level Spell)",
            "type": 2,
            "weight": 6
        },
        {
            "_id": "niyCneExcTokEG5D",
            "collection": "pf2ettw.equipment-srd",
            "drawn": false,
            "img": "systems/pf2ettw/icons/equipment/weapons/specific-magic-weapons/fighters-fork.webp",
            "range": [
                43,
                48
            ],
            "resultId": "Kx6FQS5GyVB6jlrW",
            "text": "Fighter's Fork",
            "type": 2,
            "weight": 6
        },
        {
            "_id": "U5iyrCFfxvcv8nBd",
            "collection": "pf2ettw.equipment-srd",
            "drawn": false,
            "img": "systems/pf2ettw/icons/equipment/weapons/specific-magic-weapons/retribution-axe.webp",
            "range": [
                49,
                54
            ],
            "resultId": "q6ZvspNDkzJSP6dg",
            "text": "Retribution Axe",
            "type": 2,
            "weight": 6
        },
        {
            "_id": "k06Hg1qDu1oNSiLQ",
            "collection": "pf2ettw.equipment-srd",
            "drawn": false,
            "img": "systems/pf2ettw/icons/equipment/worn-items/other-worn-items/bracelet-of-dashing.webp",
            "range": [
                55,
                60
            ],
            "resultId": "BKdzb8hu3kZtKH3Z",
            "text": "Bracelet of Dashing",
            "type": 2,
            "weight": 6
        },
        {
            "_id": "KAXlei1zEICCrgaJ",
            "collection": "pf2ettw.equipment-srd",
            "drawn": false,
            "img": "systems/pf2ettw/icons/equipment/worn-items/other-worn-items/bracers-of-missile-deflection.webp",
            "range": [
                61,
                66
            ],
            "resultId": "eurAnvH8bK0ZctOR",
            "text": "Bracers of Missile Deflection",
            "type": 2,
            "weight": 6
        },
        {
            "_id": "I9J6fT8BCKpc9vtC",
            "collection": "pf2ettw.equipment-srd",
            "drawn": false,
            "img": "systems/pf2ettw/icons/equipment/worn-items/other-worn-items/channel-protection-amulet.webp",
            "range": [
                67,
                69
            ],
            "resultId": "3vxoffA4slKHXtj2",
            "text": "Channel Protection Amulet",
            "type": 2,
            "weight": 3
        },
        {
            "_id": "P7oC4GEJuR8pVrId",
            "collection": "pf2ettw.equipment-srd",
            "drawn": false,
            "img": "systems/pf2ettw/icons/equipment/worn-items/other-worn-items/coyote-cloak.webp",
            "range": [
                70,
                75
            ],
            "resultId": "mvMeloQxSiEGIlhL",
            "text": "Coyote Cloak",
            "type": 2,
            "weight": 6
        },
        {
            "_id": "cTo0NKKtG0kjBJSd",
            "collection": "pf2ettw.equipment-srd",
            "drawn": false,
            "img": "systems/pf2ettw/icons/equipment/worn-items/other-worn-items/crafters-eyepiece.webp",
            "range": [
                76,
                81
            ],
            "resultId": "RgNBGpBc9G2yw1C2",
            "text": "Crafter's Eyepiece",
            "type": 2,
            "weight": 6
        },
        {
            "_id": "cVTTKApoz8wZ7pXn",
            "collection": "pf2ettw.equipment-srd",
            "drawn": false,
            "img": "systems/pf2ettw/icons/equipment/worn-items/other-worn-items/dancing-scarf.webp",
            "range": [
                82,
                87
            ],
            "resultId": "Epc1e1Q9M9bcwOR0",
            "text": "Dancing Scarf",
            "type": 2,
            "weight": 6
        },
        {
            "_id": "JLwT8DISSWHpWrKr",
            "collection": "pf2ettw.equipment-srd",
            "drawn": false,
            "img": "systems/pf2ettw/icons/equipment/worn-items/other-worn-items/doubling-rings.webp",
            "range": [
                88,
                93
            ],
            "resultId": "DwMXEqy7Ws8NYQQh",
            "text": "Doubling Rings",
            "type": 2,
            "weight": 6
        },
        {
            "_id": "NtaagMSzLpu2aHjU",
            "collection": "pf2ettw.equipment-srd",
            "drawn": false,
            "img": "systems/pf2ettw/icons/equipment/worn-items/other-worn-items/hat-of-the-magi.webp",
            "range": [
                94,
                99
            ],
            "resultId": "SswqJqeAWGtX3tTF",
            "text": "Hat of the Magi",
            "type": 2,
            "weight": 6
        },
        {
            "_id": "pUUr9C9OZiQdvsgJ",
            "collection": "pf2ettw.equipment-srd",
            "drawn": false,
            "img": "systems/pf2ettw/icons/equipment/worn-items/other-worn-items/pendant-of-the-occult.webp",
            "range": [
                100,
                105
            ],
            "resultId": "zPhqmCvWyHO8i9ws",
            "text": "Pendant of the Occult",
            "type": 2,
            "weight": 6
        },
        {
            "_id": "sEKGyq3CgtbpL8YH",
            "collection": "pf2ettw.equipment-srd",
            "drawn": false,
            "img": "systems/pf2ettw/icons/equipment/worn-items/other-worn-items/persona-mask.webp",
            "range": [
                106,
                111
            ],
            "resultId": "MKupH1T018JubYJW",
            "text": "Persona Mask",
            "type": 2,
            "weight": 6
        },
        {
            "_id": "YM85vN0BCmomxJvu",
            "collection": "pf2ettw.equipment-srd",
            "drawn": false,
            "img": "systems/pf2ettw/icons/equipment/worn-items/other-worn-items/trackers-goggles.webp",
            "range": [
                112,
                117
            ],
            "resultId": "ZEqAx8jEc6zhX3V1",
            "text": "Tracker's Goggles",
            "type": 2,
            "weight": 6
        },
        {
            "_id": "vgCqUe6qZZYaIgGR",
            "collection": "pf2ettw.equipment-srd",
            "drawn": false,
            "img": "systems/pf2ettw/icons/equipment/worn-items/other-worn-items/ventriloquists-ring.webp",
            "range": [
                118,
                123
            ],
            "resultId": "1r6StS0irdvi5JHY",
            "text": "Ventriloquist's Ring",
            "type": 2,
            "weight": 6
        }
    ]
}
