{
    "_id": "r8F8mI2BZU6nOMQB",
    "description": "Table of 7th-Level Permanent Items",
    "displayRoll": true,
    "formula": "1d135",
    "img": "icons/svg/d20-grey.svg",
    "name": "7th-Level Permanent Items",
    "permission": {
        "default": 0
    },
    "replacement": true,
    "results": [
        {
            "_id": "mYq4p5qykRLe1Ok4",
            "collection": "pf2ettw.equipment-srd",
            "drawn": false,
            "img": "systems/pf2ettw/icons/equipment/armor/specific-magic-armor/moonlit-chain.webp",
            "range": [
                1,
                6
            ],
            "resultId": "vHZSx5f093Wrivzn",
            "text": "Moonlit Chain",
            "type": 2,
            "weight": 6
        },
        {
            "_id": "QN2b9QvvhEhXYHss",
            "collection": "pf2ettw.equipment-srd",
            "drawn": false,
            "img": "systems/pf2ettw/icons/equipment/worn-items/companion-items/horseshoes-of-speed.webp",
            "range": [
                7,
                12
            ],
            "resultId": "peoheZMxdPHUNo93",
            "text": "Horseshoes of Speed",
            "type": 2,
            "weight": 6
        },
        {
            "_id": "aPbhuQl16Dn83HR8",
            "collection": "pf2ettw.equipment-srd",
            "drawn": false,
            "img": "systems/pf2ettw/icons/equipment/held-items/bag-of-holding.webp",
            "range": [
                13,
                18
            ],
            "resultId": "JBMBaN9dZLytfFLQ",
            "text": "Bag of Holding (Type II)",
            "type": 2,
            "weight": 6
        },
        {
            "_id": "3EqXFbXhBaS3HemC",
            "collection": "pf2ettw.equipment-srd",
            "drawn": false,
            "img": "systems/pf2ettw/icons/equipment/held-items/bottled-air.webp",
            "range": [
                19,
                24
            ],
            "resultId": "7TQw7V1zZKl0a0Xz",
            "text": "Bottled Air",
            "type": 2,
            "weight": 6
        },
        {
            "_id": "oLZsd9xeniDUB97N",
            "collection": "pf2ettw.equipment-srd",
            "drawn": false,
            "img": "systems/pf2ettw/icons/equipment/held-items/decanter-of-endless-water.webp",
            "range": [
                25,
                30
            ],
            "resultId": "aBVrNIPoPGOYxm80",
            "text": "Decanter of Endless Water",
            "type": 2,
            "weight": 6
        },
        {
            "_id": "lLzSpPUauPOj4sfl",
            "collection": "pf2ettw.equipment-srd",
            "drawn": false,
            "img": "systems/pf2ettw/icons/equipment/held-items/wondrous-figurine-jade-serpent.webp",
            "range": [
                31,
                36
            ],
            "resultId": "RjJw7iHantxqeJu1",
            "text": "Wondrous Figurine (Jade Serpent)",
            "type": 2,
            "weight": 6
        },
        {
            "_id": "bqsJMu7IB225fTYz",
            "collection": "pf2ettw.equipment-srd",
            "drawn": false,
            "img": "systems/pf2ettw/icons/equipment/runes/weapon-property-runes/weapon-property-runes.webp",
            "range": [
                37,
                42
            ],
            "resultId": "fo6Yhq5mbQXsnZs0",
            "text": "Wounding",
            "type": 2,
            "weight": 6
        },
        {
            "_id": "xkxbqKf3zQN0HjG2",
            "collection": "pf2ettw.equipment-srd",
            "drawn": false,
            "img": "systems/pf2ettw/icons/equipment/shields/precious-material-shields/cold-Iron-buckler.webp",
            "range": [
                43,
                48
            ],
            "resultId": "PsyfqGIzDbr1mX6d",
            "text": "Cold Iron Buckler (Standard-Grade)",
            "type": 2,
            "weight": 6
        },
        {
            "_id": "kQTbzpAKyDIdb9PY",
            "collection": "pf2ettw.equipment-srd",
            "drawn": false,
            "img": "systems/pf2ettw/icons/equipment/shields/precious-material-shields/cold-Iron-shield.webp",
            "range": [
                49,
                54
            ],
            "resultId": "p1uYtIUYXXoNdVKg",
            "text": "Cold Iron Shield (Standard-Grade)",
            "type": 2,
            "weight": 6
        },
        {
            "_id": "vQq7Hy7Dx1a8GCHZ",
            "collection": "pf2ettw.equipment-srd",
            "drawn": false,
            "img": "systems/pf2ettw/icons/equipment/shields/precious-material-shields/silver-buckler.webp",
            "range": [
                55,
                60
            ],
            "resultId": "8DNpWWeL7X9MDG0i",
            "text": "Silver Buckler (Standard-Grade)",
            "type": 2,
            "weight": 6
        },
        {
            "_id": "dwXrm0DZwZ0Vtpyl",
            "collection": "pf2ettw.equipment-srd",
            "drawn": false,
            "img": "systems/pf2ettw/icons/equipment/shields/precious-material-shields/silver-shield.webp",
            "range": [
                61,
                66
            ],
            "resultId": "KVj9RP2qvpsHHGqE",
            "text": "Silver Shield (Standard-Grade)",
            "type": 2,
            "weight": 6
        },
        {
            "_id": "ViMk7CeQzvGeYUrC",
            "collection": "pf2ettw.equipment-srd",
            "drawn": false,
            "img": "systems/pf2ettw/icons/equipment/shields/specific-shields/spined-shield.webp",
            "range": [
                67,
                72
            ],
            "resultId": "WDh4fb9N86mNLfDV",
            "text": "Spined Shield",
            "type": 2,
            "weight": 6
        },
        {
            "_id": "rj2RuyHe7q9qcZ2d",
            "collection": "pf2ettw.equipment-srd",
            "drawn": false,
            "img": "systems/pf2ettw/icons/equipment/shields/specific-shields/sturdy-shield.webp",
            "range": [
                73,
                78
            ],
            "resultId": "nDZX25OwoN0Imrq6",
            "text": "Sturdy Shield (Lesser)",
            "type": 2,
            "weight": 6
        },
        {
            "_id": "o3gZ97kIi4lo11BY",
            "collection": "pf2ettw.equipment-srd",
            "drawn": false,
            "img": "systems/pf2ettw/icons/equipment/wands/magic-wands/magic-wand.webp",
            "range": [
                79,
                84
            ],
            "resultId": "wrDmWkGxmwzYtfiA",
            "text": "Magic Wand (3rd-Level Spell)",
            "type": 2,
            "weight": 6
        },
        {
            "_id": "OtH5vWwuqo4ICMuF",
            "collection": "pf2ettw.equipment-srd",
            "drawn": false,
            "img": "systems/pf2ettw/icons/equipment/wands/specialty-wands/wand-of-continuation.webp",
            "range": [
                85,
                90
            ],
            "resultId": "5V9bgqgQY1CHLd40",
            "text": "Wand of Continuation (2nd-Level Spell)",
            "type": 2,
            "weight": 6
        },
        {
            "_id": "TbqN7piUhgo0OfAf",
            "collection": "pf2ettw.equipment-srd",
            "drawn": false,
            "img": "systems/pf2ettw/icons/equipment/worn-items/other-worn-items/aeon-stone-clear-spindle.webp",
            "range": [
                91,
                93
            ],
            "resultId": "M2CPAgSAoEL4oawq",
            "text": "Aeon Stone (Clear Spindle)",
            "type": 2,
            "weight": 3
        },
        {
            "_id": "l9CD8GKGvhWX8hAA",
            "collection": "pf2ettw.equipment-srd",
            "drawn": false,
            "img": "systems/pf2ettw/icons/equipment/worn-items/other-worn-items/aeon-stone-tourmaline-sphere.webp",
            "range": [
                94,
                96
            ],
            "resultId": "kSaUlWgYMywIRV3C",
            "text": "Aeon Stone (Tourmaline Sphere)",
            "type": 2,
            "weight": 3
        },
        {
            "_id": "t5t1wLQE2o2FC0iI",
            "collection": "pf2ettw.equipment-srd",
            "drawn": false,
            "img": "systems/pf2ettw/icons/equipment/worn-items/other-worn-items/boots-of-bounding.webp",
            "range": [
                97,
                102
            ],
            "resultId": "ecqz1iUGtyQEkZwy",
            "text": "Boots of Bounding",
            "type": 2,
            "weight": 6
        },
        {
            "_id": "SaGLwztjSNglsrzf",
            "collection": "pf2ettw.equipment-srd",
            "drawn": false,
            "img": "systems/pf2ettw/icons/equipment/worn-items/other-worn-items/cloak-of-elvenkind.webp",
            "range": [
                103,
                108
            ],
            "resultId": "MNBnZn0b80Q7yHJM",
            "text": "Cloak of Elvenkind",
            "type": 2,
            "weight": 6
        },
        {
            "_id": "S0kG1NmHVtkY2ZNf",
            "collection": "pf2ettw.equipment-srd",
            "drawn": false,
            "img": "systems/pf2ettw/icons/equipment/cursed-items/gloves-of-carelessness.webp",
            "range": [
                109,
                111
            ],
            "resultId": "ngz7dYysC1NkBBRK",
            "text": "Gloves of Storing",
            "type": 2,
            "weight": 3
        },
        {
            "_id": "ND9f91U4mIQQpsxt",
            "collection": "pf2ettw.equipment-srd",
            "drawn": false,
            "img": "systems/pf2ettw/icons/equipment/worn-items/other-worn-items/hat-of-disguise.webp",
            "range": [
                112,
                117
            ],
            "resultId": "WPSp5MLb0VOfmUqH",
            "text": "Hat of Disguise (Greater)",
            "type": 2,
            "weight": 6
        },
        {
            "_id": "EkwMh4K3qpHW7heM",
            "collection": "pf2ettw.equipment-srd",
            "drawn": false,
            "img": "systems/pf2ettw/icons/equipment/cursed-items/necklace-of-strangulation.webp",
            "range": [
                118,
                123
            ],
            "resultId": "Zun8aKbODnBFeut6",
            "text": "Necklace of Fireballs II",
            "type": 2,
            "weight": 6
        },
        {
            "_id": "51ULgg4Z2gGAZbMm",
            "collection": "pf2ettw.equipment-srd",
            "drawn": false,
            "img": "systems/pf2ettw/icons/equipment/worn-items/other-worn-items/ring-of-sustenance.webp",
            "range": [
                124,
                126
            ],
            "resultId": "14rbefsoClgClRQ8",
            "text": "Ring of Sustenance",
            "type": 2,
            "weight": 3
        },
        {
            "_id": "WGS4NVKgvBlbRbTe",
            "collection": "pf2ettw.equipment-srd",
            "drawn": false,
            "img": "systems/pf2ettw/icons/equipment/worn-items/other-worn-items/ring-of-wizardry.webp",
            "range": [
                127,
                129
            ],
            "resultId": "faKyy6ETkDgrUnvf",
            "text": "Ring of Wizardry (Type I)",
            "type": 2,
            "weight": 3
        },
        {
            "_id": "7Z6tn2kUuYj3hLx2",
            "collection": "pf2ettw.equipment-srd",
            "drawn": false,
            "img": "systems/pf2ettw/icons/equipment/worn-items/other-worn-items/slippers-of-spider-climbing.webp",
            "range": [
                130,
                135
            ],
            "resultId": "skBa6D1uxb0b2USn",
            "text": "Slippers of Spider Climbing",
            "type": 2,
            "weight": 6
        }
    ]
}
