{
    "_id": "WzMGWMIrrPvSp75D",
    "description": "Table for Critical Fumble Cards",
    "displayRoll": false,
    "formula": "1d54",
    "name": "Critical Fumble Deck",
    "permission": {
        "default": 0
    },
    "replacement": true,
    "results": [
        {
            "_id": "pg6XLC1RN5Bu2I7E",
            "collection": "pf2ettw.criticaldeck",
            "drawn": false,
            "img": "icons/svg/d20-black.svg",
            "range": [
                1,
                1
            ],
            "resultId": "0tG5q8JkCaG1EY5s",
            "text": "Critical Fumble Deck #1",
            "type": 2,
            "weight": 1
        },
        {
            "_id": "2Zzvh9b3YVbNQwpV",
            "collection": "pf2ettw.criticaldeck",
            "drawn": false,
            "img": "icons/svg/d20-black.svg",
            "range": [
                2,
                2
            ],
            "resultId": "Wn47ZhXINo7jz8JZ",
            "text": "Critical Fumble Deck #2",
            "type": 2,
            "weight": 1
        },
        {
            "_id": "wpvv6z1XnWnV07XN",
            "collection": "pf2ettw.criticaldeck",
            "drawn": false,
            "img": "icons/svg/d20-black.svg",
            "range": [
                3,
                3
            ],
            "resultId": "qD4ybNUceFacSJGu",
            "text": "Critical Fumble Deck #3",
            "type": 2,
            "weight": 1
        },
        {
            "_id": "3BrYzoYTVmK42qsb",
            "collection": "pf2ettw.criticaldeck",
            "drawn": false,
            "img": "icons/svg/d20-black.svg",
            "range": [
                4,
                4
            ],
            "resultId": "DpY6k60UrpvKgjx2",
            "text": "Critical Fumble Deck #4",
            "type": 2,
            "weight": 1
        },
        {
            "_id": "ukK9zhdr65FQsW0P",
            "collection": "pf2ettw.criticaldeck",
            "drawn": false,
            "img": "icons/svg/d20-black.svg",
            "range": [
                5,
                5
            ],
            "resultId": "EP333dUdoJ8xdkzq",
            "text": "Critical Fumble Deck #5",
            "type": 2,
            "weight": 1
        },
        {
            "_id": "FspEy3qYEBxciEP7",
            "collection": "pf2ettw.criticaldeck",
            "drawn": false,
            "img": "icons/svg/d20-black.svg",
            "range": [
                6,
                6
            ],
            "resultId": "4MkOtc3bBYsBGF97",
            "text": "Critical Fumble Deck #6",
            "type": 2,
            "weight": 1
        },
        {
            "_id": "UueuMUSNaofIHfFP",
            "collection": "pf2ettw.criticaldeck",
            "drawn": false,
            "img": "icons/svg/d20-black.svg",
            "range": [
                7,
                7
            ],
            "resultId": "99BxUbTtFlyPWkq5",
            "text": "Critical Fumble Deck #7",
            "type": 2,
            "weight": 1
        },
        {
            "_id": "wjYCAKHUwuhzvPqO",
            "collection": "pf2ettw.criticaldeck",
            "drawn": false,
            "img": "icons/svg/d20-black.svg",
            "range": [
                8,
                8
            ],
            "resultId": "LY6T2YgrSoI79BDR",
            "text": "Critical Fumble Deck #8",
            "type": 2,
            "weight": 1
        },
        {
            "_id": "xnbOAQE6TJlzfoQA",
            "collection": "pf2ettw.criticaldeck",
            "drawn": false,
            "img": "icons/svg/d20-black.svg",
            "range": [
                9,
                9
            ],
            "resultId": "0BESWYMP9vEbG3cr",
            "text": "Critical Fumble Deck #9",
            "type": 2,
            "weight": 1
        },
        {
            "_id": "UnaFeqCa8Kaopj8Q",
            "collection": "pf2ettw.criticaldeck",
            "drawn": false,
            "img": "icons/svg/d20-black.svg",
            "range": [
                10,
                10
            ],
            "resultId": "wga13mR4vo73tbTY",
            "text": "Critical Fumble Deck #10",
            "type": 2,
            "weight": 1
        },
        {
            "_id": "HGmp1b7iJL93Vlbv",
            "collection": "pf2ettw.criticaldeck",
            "drawn": false,
            "img": "icons/svg/d20-black.svg",
            "range": [
                11,
                11
            ],
            "resultId": "kjUiMaSmcOQXxoeo",
            "text": "Critical Fumble Deck #11",
            "type": 2,
            "weight": 1
        },
        {
            "_id": "xbiqItzteasrWpWz",
            "collection": "pf2ettw.criticaldeck",
            "drawn": false,
            "img": "icons/svg/d20-black.svg",
            "range": [
                12,
                12
            ],
            "resultId": "txOOwTfhpIJj4LU1",
            "text": "Critical Fumble Deck #12",
            "type": 2,
            "weight": 1
        },
        {
            "_id": "3oD0tglGrbt0BFT9",
            "collection": "pf2ettw.criticaldeck",
            "drawn": false,
            "img": "icons/svg/d20-black.svg",
            "range": [
                13,
                13
            ],
            "resultId": "vFXt9SSkNst7qD6v",
            "text": "Critical Fumble Deck #13",
            "type": 2,
            "weight": 1
        },
        {
            "_id": "w9nI5aQpwrQHcs7A",
            "collection": "pf2ettw.criticaldeck",
            "drawn": false,
            "img": "icons/svg/d20-black.svg",
            "range": [
                14,
                14
            ],
            "resultId": "VfijeX07Jy9QPYPb",
            "text": "Critical Fumble Deck #14",
            "type": 2,
            "weight": 1
        },
        {
            "_id": "9EyTrls3GTwi924m",
            "collection": "pf2ettw.criticaldeck",
            "drawn": false,
            "img": "icons/svg/d20-black.svg",
            "range": [
                15,
                15
            ],
            "resultId": "xsBlA35rvfHSzJe4",
            "text": "Critical Fumble Deck #15",
            "type": 2,
            "weight": 1
        },
        {
            "_id": "n1oHdiR8cNyaWTEC",
            "collection": "pf2ettw.criticaldeck",
            "drawn": false,
            "img": "icons/svg/d20-black.svg",
            "range": [
                16,
                16
            ],
            "resultId": "GUtWJynPuVmatqNF",
            "text": "Critical Fumble Deck #16",
            "type": 2,
            "weight": 1
        },
        {
            "_id": "EksGwoztx0CB6WCh",
            "collection": "pf2ettw.criticaldeck",
            "drawn": false,
            "img": "icons/svg/d20-black.svg",
            "range": [
                17,
                17
            ],
            "resultId": "tHmyeunsbv4TZAbw",
            "text": "Critical Fumble Deck #17",
            "type": 2,
            "weight": 1
        },
        {
            "_id": "4ouZNvOQXeZDtK57",
            "collection": "pf2ettw.criticaldeck",
            "drawn": false,
            "img": "icons/svg/d20-black.svg",
            "range": [
                18,
                18
            ],
            "resultId": "Toz2ZIpy7N4pDmyi",
            "text": "Critical Fumble Deck #18",
            "type": 2,
            "weight": 1
        },
        {
            "_id": "KFZyl6MVIwZNjejM",
            "collection": "pf2ettw.criticaldeck",
            "drawn": false,
            "img": "icons/svg/d20-black.svg",
            "range": [
                19,
                19
            ],
            "resultId": "IrUeMJoKEYUSJKs1",
            "text": "Critical Fumble Deck #19",
            "type": 2,
            "weight": 1
        },
        {
            "_id": "T3UAYtYO2TozRKxY",
            "collection": "pf2ettw.criticaldeck",
            "drawn": false,
            "img": "icons/svg/d20-black.svg",
            "range": [
                20,
                20
            ],
            "resultId": "gWa7wGUfUvYoIK8z",
            "text": "Critical Fumble Deck #20",
            "type": 2,
            "weight": 1
        },
        {
            "_id": "u6iFUNzAKsZ1ijta",
            "collection": "pf2ettw.criticaldeck",
            "drawn": false,
            "img": "icons/svg/d20-black.svg",
            "range": [
                21,
                21
            ],
            "resultId": "I5omhoK6rqfCZiUZ",
            "text": "Critical Fumble Deck #21",
            "type": 2,
            "weight": 1
        },
        {
            "_id": "Rg713wztqGxpJnR5",
            "collection": "pf2ettw.criticaldeck",
            "drawn": false,
            "img": "icons/svg/d20-black.svg",
            "range": [
                22,
                22
            ],
            "resultId": "Ps9VYxI2zJPG6PEV",
            "text": "Critical Fumble Deck #22",
            "type": 2,
            "weight": 1
        },
        {
            "_id": "i5MymnkjotVaGqSV",
            "collection": "pf2ettw.criticaldeck",
            "drawn": false,
            "img": "icons/svg/d20-black.svg",
            "range": [
                23,
                23
            ],
            "resultId": "gLXD4uNnLLtLoeck",
            "text": "Critical Fumble Deck #23",
            "type": 2,
            "weight": 1
        },
        {
            "_id": "A7PylfXSpN1Jyd0k",
            "collection": "pf2ettw.criticaldeck",
            "drawn": false,
            "img": "icons/svg/d20-black.svg",
            "range": [
                24,
                24
            ],
            "resultId": "AXZZ59kX1JNpIjKo",
            "text": "Critical Fumble Deck #24",
            "type": 2,
            "weight": 1
        },
        {
            "_id": "qLfNag1NEAZeTJJz",
            "collection": "pf2ettw.criticaldeck",
            "drawn": false,
            "img": "icons/svg/d20-black.svg",
            "range": [
                25,
                25
            ],
            "resultId": "UheptedVuKxVHSQY",
            "text": "Critical Fumble Deck #25",
            "type": 2,
            "weight": 1
        },
        {
            "_id": "4E43dNxtCnogmT5Y",
            "collection": "pf2ettw.criticaldeck",
            "drawn": false,
            "img": "icons/svg/d20-black.svg",
            "range": [
                26,
                26
            ],
            "resultId": "3vz4m5O9oyhVGe7t",
            "text": "Critical Fumble Deck #26",
            "type": 2,
            "weight": 1
        },
        {
            "_id": "pusiPKJ1bl0lG4aD",
            "collection": "pf2ettw.criticaldeck",
            "drawn": false,
            "img": "icons/svg/d20-black.svg",
            "range": [
                27,
                27
            ],
            "resultId": "K2U6PVeYrvNagqti",
            "text": "Critical Fumble Deck #27",
            "type": 2,
            "weight": 1
        },
        {
            "_id": "7qfUvS1wux7V0oK6",
            "collection": "pf2ettw.criticaldeck",
            "drawn": false,
            "img": "icons/svg/d20-black.svg",
            "range": [
                28,
                28
            ],
            "resultId": "IvDJkDpe3JxMHaj1",
            "text": "Critical Fumble Deck #28",
            "type": 2,
            "weight": 1
        },
        {
            "_id": "odIPT0DT43VOpRq1",
            "collection": "pf2ettw.criticaldeck",
            "drawn": false,
            "img": "icons/svg/d20-black.svg",
            "range": [
                29,
                29
            ],
            "resultId": "wcqXFhggTcAutBk6",
            "text": "Critical Fumble Deck #29",
            "type": 2,
            "weight": 1
        },
        {
            "_id": "43NggsYTFDA4nMm8",
            "collection": "pf2ettw.criticaldeck",
            "drawn": false,
            "img": "icons/svg/d20-black.svg",
            "range": [
                30,
                30
            ],
            "resultId": "RZAYqAHzFxnbD01e",
            "text": "Critical Fumble Deck #30",
            "type": 2,
            "weight": 1
        },
        {
            "_id": "CDAOUqD6CI8Hs254",
            "collection": "pf2ettw.criticaldeck",
            "drawn": false,
            "img": "icons/svg/d20-black.svg",
            "range": [
                31,
                31
            ],
            "resultId": "yBE9e9l5KW7SdHZH",
            "text": "Critical Fumble Deck #31",
            "type": 2,
            "weight": 1
        },
        {
            "_id": "7P9JbQmPw1khmiEx",
            "collection": "pf2ettw.criticaldeck",
            "drawn": false,
            "img": "icons/svg/d20-black.svg",
            "range": [
                32,
                32
            ],
            "resultId": "DeZIaLR9okv231ek",
            "text": "Critical Fumble Deck #32",
            "type": 2,
            "weight": 1
        },
        {
            "_id": "HUGm9Pzz4WWLMhdb",
            "collection": "pf2ettw.criticaldeck",
            "drawn": false,
            "img": "icons/svg/d20-black.svg",
            "range": [
                33,
                33
            ],
            "resultId": "jLnyeFUJ76ZZieVJ",
            "text": "Critical Fumble Deck #33",
            "type": 2,
            "weight": 1
        },
        {
            "_id": "xFEZwampt9TeYL4T",
            "collection": "pf2ettw.criticaldeck",
            "drawn": false,
            "img": "icons/svg/d20-black.svg",
            "range": [
                34,
                34
            ],
            "resultId": "QbnfMqilzwyzk0bf",
            "text": "Critical Fumble Deck #34",
            "type": 2,
            "weight": 1
        },
        {
            "_id": "e7EcGGBNMnh1zwCU",
            "collection": "pf2ettw.criticaldeck",
            "drawn": false,
            "img": "icons/svg/d20-black.svg",
            "range": [
                35,
                35
            ],
            "resultId": "WGBL7l5DatQnszg7",
            "text": "Critical Fumble Deck #35",
            "type": 2,
            "weight": 1
        },
        {
            "_id": "goOPRHJbY6K1qaju",
            "collection": "pf2ettw.criticaldeck",
            "drawn": false,
            "img": "icons/svg/d20-black.svg",
            "range": [
                36,
                36
            ],
            "resultId": "NNfsKAHcKvTuyha4",
            "text": "Critical Fumble Deck #36",
            "type": 2,
            "weight": 1
        },
        {
            "_id": "hqcVve3jHuvGo2rV",
            "collection": "pf2ettw.criticaldeck",
            "drawn": false,
            "img": "icons/svg/d20-black.svg",
            "range": [
                37,
                37
            ],
            "resultId": "QCHhZd0F0DmvVxYP",
            "text": "Critical Fumble Deck #37",
            "type": 2,
            "weight": 1
        },
        {
            "_id": "7xnx1IZhfN2SAfgr",
            "collection": "pf2ettw.criticaldeck",
            "drawn": false,
            "img": "icons/svg/d20-black.svg",
            "range": [
                38,
                38
            ],
            "resultId": "kjoBsS79JcjUUPnr",
            "text": "Critical Fumble Deck #38",
            "type": 2,
            "weight": 1
        },
        {
            "_id": "c2Ywuu0XIt5aim2E",
            "collection": "pf2ettw.criticaldeck",
            "drawn": false,
            "img": "icons/svg/d20-black.svg",
            "range": [
                39,
                39
            ],
            "resultId": "642qVWBhXlYwOhED",
            "text": "Critical Fumble Deck #39",
            "type": 2,
            "weight": 1
        },
        {
            "_id": "VQcFEummbXdHKqA6",
            "collection": "pf2ettw.criticaldeck",
            "drawn": false,
            "img": "icons/svg/d20-black.svg",
            "range": [
                40,
                40
            ],
            "resultId": "qD8KoshDJsayGbCB",
            "text": "Critical Fumble Deck #40",
            "type": 2,
            "weight": 1
        },
        {
            "_id": "zLjEcTrzCn8BS2fR",
            "collection": "pf2ettw.criticaldeck",
            "drawn": false,
            "img": "icons/svg/d20-black.svg",
            "range": [
                41,
                41
            ],
            "resultId": "mcniWnifXwXkZocv",
            "text": "Critical Fumble Deck #41",
            "type": 2,
            "weight": 1
        },
        {
            "_id": "P5jDOEyZuEWgfDOr",
            "collection": "pf2ettw.criticaldeck",
            "drawn": false,
            "img": "icons/svg/d20-black.svg",
            "range": [
                42,
                42
            ],
            "resultId": "YRY6c3WdBEuKiOCv",
            "text": "Critical Fumble Deck #42",
            "type": 2,
            "weight": 1
        },
        {
            "_id": "YYIAWGRAqoTS9kYL",
            "collection": "pf2ettw.criticaldeck",
            "drawn": false,
            "img": "icons/svg/d20-black.svg",
            "range": [
                43,
                43
            ],
            "resultId": "TYTNFtVvFqFBM8oy",
            "text": "Critical Fumble Deck #43",
            "type": 2,
            "weight": 1
        },
        {
            "_id": "iwc5BtWDsNkLwDAC",
            "collection": "pf2ettw.criticaldeck",
            "drawn": false,
            "img": "icons/svg/d20-black.svg",
            "range": [
                44,
                44
            ],
            "resultId": "2PtjynRwj4bBm4rZ",
            "text": "Critical Fumble Deck #44",
            "type": 2,
            "weight": 1
        },
        {
            "_id": "Gav62XCez8hxYo60",
            "collection": "pf2ettw.criticaldeck",
            "drawn": false,
            "img": "icons/svg/d20-black.svg",
            "range": [
                45,
                45
            ],
            "resultId": "e08YEjoNa60xrAYS",
            "text": "Critical Fumble Deck #45",
            "type": 2,
            "weight": 1
        },
        {
            "_id": "NQmThtVqG6gv50EW",
            "collection": "pf2ettw.criticaldeck",
            "drawn": false,
            "img": "icons/svg/d20-black.svg",
            "range": [
                46,
                46
            ],
            "resultId": "8D8NPBNMxQftBmyd",
            "text": "Critical Fumble Deck #46",
            "type": 2,
            "weight": 1
        },
        {
            "_id": "BV4bqmX8faPOCWse",
            "collection": "pf2ettw.criticaldeck",
            "drawn": false,
            "img": "icons/svg/d20-black.svg",
            "range": [
                47,
                47
            ],
            "resultId": "HERWPcFlzK2FTPLJ",
            "text": "Critical Fumble Deck #47",
            "type": 2,
            "weight": 1
        },
        {
            "_id": "53SH3FqveoNW81PS",
            "collection": "pf2ettw.criticaldeck",
            "drawn": false,
            "img": "icons/svg/d20-black.svg",
            "range": [
                48,
                48
            ],
            "resultId": "Zx67JiRVzstgEa32",
            "text": "Critical Fumble Deck #48",
            "type": 2,
            "weight": 1
        },
        {
            "_id": "24eeYA5Sgg51pHZT",
            "collection": "pf2ettw.criticaldeck",
            "drawn": false,
            "img": "icons/svg/d20-black.svg",
            "range": [
                49,
                49
            ],
            "resultId": "TbXmAqEzgW1nZV2r",
            "text": "Critical Fumble Deck #49",
            "type": 2,
            "weight": 1
        },
        {
            "_id": "g1Liib5bDGLeElxA",
            "collection": "pf2ettw.criticaldeck",
            "drawn": false,
            "img": "icons/svg/d20-black.svg",
            "range": [
                50,
                50
            ],
            "resultId": "QuhotSkof0ao2kJo",
            "text": "Critical Fumble Deck #50",
            "type": 2,
            "weight": 1
        },
        {
            "_id": "rJhw1yygLtfCalpj",
            "collection": "pf2ettw.criticaldeck",
            "drawn": false,
            "img": "icons/svg/d20-black.svg",
            "range": [
                51,
                51
            ],
            "resultId": "mwz1Ukw9laGyRocF",
            "text": "Critical Fumble Deck #51",
            "type": 2,
            "weight": 1
        },
        {
            "_id": "GxNyDy3hL9hC8oFv",
            "collection": "pf2ettw.criticaldeck",
            "drawn": false,
            "img": "icons/svg/d20-black.svg",
            "range": [
                52,
                52
            ],
            "resultId": "dvL063pJYJpCMsA6",
            "text": "Critical Fumble Deck #52",
            "type": 2,
            "weight": 1
        },
        {
            "_id": "PJE1g0LIGCjzNNC4",
            "collection": "pf2ettw.criticaldeck",
            "drawn": false,
            "img": "icons/svg/d20-black.svg",
            "range": [
                53,
                53
            ],
            "resultId": "6X9N5ieXqWitEVKw",
            "text": "Critical Fumble Deck #53",
            "type": 2,
            "weight": 1
        },
        {
            "_id": "03Om2HoD0t4JBFnV",
            "collection": "pf2ettw.criticaldeck",
            "drawn": false,
            "img": "icons/svg/d20-black.svg",
            "range": [
                54,
                54
            ],
            "resultId": "4eIQKcyYKRGwKXSc",
            "text": "Critical Fumble Deck #54",
            "type": 2,
            "weight": 1
        }
    ]
}
