{
    "_id": "7jjyhFdWZrs7inGT",
    "description": "Table of Homeland\nFor a dwarf, subtract 3; For an elf, add 2; For a Goblin, subtract 4. For non CRB ancestries the GM determines the modifier.",
    "displayRoll": true,
    "formula": "1d20",
    "img": "icons/svg/d20-grey.svg",
    "name": "Homeland",
    "permission": {
        "default": 0
    },
    "replacement": true,
    "results": [
        {
            "_id": "aJHMyl3Aa7hi7EeC",
            "collection": "pf2ettw.gmg-srd",
            "drawn": false,
            "img": "icons/svg/d20-black.svg",
            "range": [
                -3,
                1
            ],
            "resultId": "AL562TPAhLCFX62S",
            "text": "Underground",
            "type": 2,
            "weight": 1
        },
        {
            "_id": "9fwjCQVfkdUyjEIa",
            "collection": "pf2ettw.gmg-srd",
            "drawn": false,
            "img": "icons/svg/d20-black.svg",
            "range": [
                2,
                3
            ],
            "resultId": "eCB10E0MSvD9s008",
            "text": "Frontier",
            "type": 2,
            "weight": 1
        },
        {
            "_id": "F8C3S2TiCVXie4OD",
            "collection": "pf2ettw.gmg-srd",
            "drawn": false,
            "img": "icons/svg/d20-black.svg",
            "range": [
                4,
                5
            ],
            "resultId": "OdD3NuxI5hNAEOVx",
            "text": "Trade Town",
            "type": 2,
            "weight": 1
        },
        {
            "_id": "5xtjHIkwZ6uWn8nJ",
            "collection": "pf2ettw.gmg-srd",
            "drawn": false,
            "img": "icons/svg/d20-black.svg",
            "range": [
                6,
                7
            ],
            "resultId": "Gm4AtuFNRgOnzsmF",
            "text": "Simple Village",
            "type": 2,
            "weight": 1
        },
        {
            "_id": "4h54wJbDoOAVRlag",
            "collection": "pf2ettw.gmg-srd",
            "drawn": false,
            "img": "icons/svg/d20-black.svg",
            "range": [
                8,
                9
            ],
            "resultId": "HkMzwjBTGgQgsOCW",
            "text": "Cosmopolitan City",
            "type": 2,
            "weight": 1
        },
        {
            "_id": "NMV8h2tjUBme1xJS",
            "collection": "pf2ettw.gmg-srd",
            "drawn": false,
            "img": "icons/svg/d20-black.svg",
            "range": [
                10,
                11
            ],
            "resultId": "3Uwfn0ui7tS277iE",
            "text": "Metropolis",
            "type": 2,
            "weight": 1
        },
        {
            "_id": "u2s9p60rejc3uTXw",
            "collection": "pf2ettw.gmg-srd",
            "drawn": false,
            "img": "icons/svg/d20-black.svg",
            "range": [
                12,
                12
            ],
            "resultId": "SyEl079jcULQp7Ra",
            "text": "Front Lines",
            "type": 2,
            "weight": 1
        },
        {
            "_id": "YajmNZHU7iZclqR5",
            "collection": "pf2ettw.gmg-srd",
            "drawn": false,
            "img": "icons/svg/d20-black.svg",
            "range": [
                13,
                14
            ],
            "resultId": "5KDGPcdZpdZumUYy",
            "text": "Itinerant",
            "type": 2,
            "weight": 1
        },
        {
            "_id": "hyaGMVBn4ePlpahO",
            "collection": "pf2ettw.gmg-srd",
            "drawn": false,
            "range": [
                15,
                15
            ],
            "resultId": "VnrGXdVthTceOlXV",
            "text": "Another Ancestry's Settlement",
            "type": 2,
            "weight": 1
        },
        {
            "_id": "XpyW7aDcnw82skk0",
            "collection": "pf2ettw.gmg-srd",
            "drawn": false,
            "img": "icons/svg/d20-black.svg",
            "range": [
                16,
                16
            ],
            "resultId": "vD1y8mIHxxw7c8J1",
            "text": "Coastal Community",
            "type": 2,
            "weight": 1
        },
        {
            "_id": "WgUyRQeIt6nMvDCW",
            "collection": "pf2ettw.gmg-srd",
            "drawn": false,
            "img": "icons/svg/d20-black.svg",
            "range": [
                17,
                18
            ],
            "resultId": "Gr4v8ROPCxi4hvAO",
            "text": "Religious Community",
            "type": 2,
            "weight": 1
        },
        {
            "_id": "O1w4RBK24cypLybq",
            "collection": "pf2ettw.gmg-srd",
            "drawn": false,
            "img": "icons/svg/d20-black.svg",
            "range": [
                19,
                22
            ],
            "resultId": "fojjq3VXShnNSOsZ",
            "text": "Academic Community",
            "type": 2,
            "weight": 1
        }
    ]
}
