{
    "_id": "gXC1bY93NvY57pfs",
    "description": "Table of Influential Associates",
    "displayRoll": true,
    "formula": "1d20",
    "img": "icons/svg/d20-grey.svg",
    "name": "Influential Associate",
    "permission": {
        "default": 0
    },
    "replacement": true,
    "results": [
        {
            "_id": "ezHwvaHFM69LaTva",
            "collection": "pf2ettw.gmg-srd",
            "drawn": false,
            "img": "icons/svg/d20-black.svg",
            "range": [
                1,
                1
            ],
            "resultId": "ziWhyyygUG3Lemdu",
            "text": "The Academic",
            "type": 2,
            "weight": 1
        },
        {
            "_id": "WNs6ufxYG02g7ynf",
            "collection": "pf2ettw.gmg-srd",
            "drawn": false,
            "img": "icons/svg/d20-black.svg",
            "range": [
                2,
                2
            ],
            "resultId": "re8nmHRiQdU63AYk",
            "text": "The Boss",
            "type": 2,
            "weight": 1
        },
        {
            "_id": "K5MfFOgwV46FaY24",
            "collection": "pf2ettw.gmg-srd",
            "drawn": false,
            "img": "icons/svg/d20-black.svg",
            "range": [
                3,
                3
            ],
            "resultId": "CW53y8R730XoNQSG",
            "text": "The Champion",
            "type": 2,
            "weight": 1
        },
        {
            "_id": "NQMGsMVBQ0B7l12U",
            "collection": "pf2ettw.gmg-srd",
            "drawn": false,
            "img": "icons/svg/d20-black.svg",
            "range": [
                4,
                4
            ],
            "resultId": "mHocbJQKBzbHM790",
            "text": "The Confidante",
            "type": 2,
            "weight": 1
        },
        {
            "_id": "WEa5o9n75sgLg26q",
            "collection": "pf2ettw.gmg-srd",
            "drawn": false,
            "img": "icons/svg/d20-black.svg",
            "range": [
                5,
                5
            ],
            "resultId": "F7Tf6APgUKjnCZgv",
            "text": "The Crafter",
            "type": 2,
            "weight": 1
        },
        {
            "_id": "zTis7p5eM2UulctB",
            "collection": "pf2ettw.gmg-srd",
            "drawn": false,
            "img": "icons/svg/d20-black.svg",
            "range": [
                6,
                6
            ],
            "resultId": "MCIp76IWZ2pk7dyz",
            "text": "The Criminal",
            "type": 2,
            "weight": 1
        },
        {
            "_id": "FUEdL5Fyl2trcD60",
            "collection": "pf2ettw.gmg-srd",
            "drawn": false,
            "img": "icons/svg/d20-black.svg",
            "range": [
                7,
                7
            ],
            "resultId": "8NKe8N5NsULPShPX",
            "text": "The Dead One",
            "type": 2,
            "weight": 1
        },
        {
            "_id": "IHQgfhwjhurl3NJJ",
            "collection": "pf2ettw.gmg-srd",
            "drawn": false,
            "img": "icons/svg/d20-black.svg",
            "range": [
                8,
                8
            ],
            "resultId": "QhNWhs0isjxE67lu",
            "text": "The Fiend",
            "type": 2,
            "weight": 1
        },
        {
            "_id": "r8TFxPQwOnftdlsH",
            "collection": "pf2ettw.gmg-srd",
            "drawn": false,
            "img": "icons/svg/d20-black.svg",
            "range": [
                9,
                9
            ],
            "resultId": "3g3uXFsHbfcad8eA",
            "text": "The Fool",
            "type": 2,
            "weight": 1
        },
        {
            "_id": "kOe8y5LgEyD6qXve",
            "collection": "pf2ettw.gmg-srd",
            "drawn": false,
            "img": "icons/svg/d20-black.svg",
            "range": [
                10,
                10
            ],
            "resultId": "pd6ZzGL5TA58Fa3p",
            "text": "The Hunter",
            "type": 2,
            "weight": 1
        },
        {
            "_id": "lJgfaJT2RF8rYEa7",
            "collection": "pf2ettw.gmg-srd",
            "drawn": false,
            "img": "icons/svg/d20-black.svg",
            "range": [
                11,
                11
            ],
            "resultId": "ejRPZwAlci3jTli9",
            "text": "The Liege Lord",
            "type": 2,
            "weight": 1
        },
        {
            "_id": "9k3weUCPofhgiOaT",
            "collection": "pf2ettw.gmg-srd",
            "drawn": false,
            "img": "icons/svg/d20-black.svg",
            "range": [
                12,
                12
            ],
            "resultId": "mg7oMp0cNa0GJMCS",
            "text": "The Lover",
            "type": 2,
            "weight": 1
        },
        {
            "_id": "KQSrz91ttAKIwJNH",
            "collection": "pf2ettw.gmg-srd",
            "drawn": false,
            "img": "icons/svg/d20-black.svg",
            "range": [
                13,
                13
            ],
            "resultId": "Rh5XWscABJ43TLme",
            "text": "The Mentor",
            "type": 2,
            "weight": 1
        },
        {
            "_id": "TR10N1XvGIG6Vaip",
            "collection": "pf2ettw.gmg-srd",
            "drawn": false,
            "img": "icons/svg/d20-black.svg",
            "range": [
                14,
                14
            ],
            "resultId": "Cfd7ndT61VjR52OZ",
            "text": "The Mercenary",
            "type": 2,
            "weight": 1
        },
        {
            "_id": "DzBwwYfJdciY8pqY",
            "collection": "pf2ettw.gmg-srd",
            "drawn": false,
            "img": "icons/svg/d20-black.svg",
            "range": [
                15,
                15
            ],
            "resultId": "Erqgqv8WEtnzBtTu",
            "text": "The Mystic",
            "type": 2,
            "weight": 1
        },
        {
            "_id": "GwOjSPAxcYCrssMA",
            "collection": "pf2ettw.gmg-srd",
            "drawn": false,
            "img": "icons/svg/d20-black.svg",
            "range": [
                16,
                16
            ],
            "resultId": "uK1fqqsUNk7FZsOk",
            "text": "The Pariah",
            "type": 2,
            "weight": 1
        },
        {
            "_id": "dEL8slLNQMbd3F1E",
            "collection": "pf2ettw.gmg-srd",
            "drawn": false,
            "img": "icons/svg/d20-black.svg",
            "range": [
                17,
                17
            ],
            "resultId": "YR0uxB5CPPueFjBs",
            "text": "The Relative",
            "type": 2,
            "weight": 1
        },
        {
            "_id": "IzgVaumKaNBThqhI",
            "collection": "pf2ettw.gmg-srd",
            "drawn": false,
            "img": "icons/svg/d20-black.svg",
            "range": [
                18,
                18
            ],
            "resultId": "CwyYDIAAuRll2i5R",
            "text": "The Seer",
            "type": 2,
            "weight": 1
        },
        {
            "_id": "b3Hr42dtMFHGtnCL",
            "collection": "pf2ettw.gmg-srd",
            "drawn": false,
            "img": "icons/svg/d20-black.svg",
            "range": [
                19,
                19
            ],
            "resultId": "KtkDaTrkBwwupKcE",
            "text": "The Wanderer",
            "type": 2,
            "weight": 1
        },
        {
            "_id": "c5LQcVXMMtT9Uw3E",
            "collection": "pf2ettw.gmg-srd",
            "drawn": false,
            "img": "icons/svg/d20-black.svg",
            "range": [
                20,
                20
            ],
            "resultId": "Xi5nvMNJrzsy09ws",
            "text": "The Well-Connected",
            "type": 2,
            "weight": 1
        }
    ]
}
