{
    "_id": "HVCgUheqOmiveX6s",
    "description": "Table of Inspiring Relationship",
    "displayRoll": true,
    "formula": "1d12",
    "img": "icons/svg/d20-grey.svg",
    "name": "Inspiring Relationship",
    "permission": {
        "default": 0
    },
    "replacement": true,
    "results": [
        {
            "_id": "NLKU2rHfW4bUYo5a",
            "collection": "pf2ettw.gmg-srd",
            "drawn": false,
            "img": "icons/svg/d20-black.svg",
            "range": [
                1,
                1
            ],
            "resultId": "LekxXsOgEwMODqCS",
            "text": "Animal Helpers",
            "type": 2,
            "weight": 1
        },
        {
            "_id": "wP2iaG0mGqQc07tH",
            "collection": "pf2ettw.gmg-srd",
            "drawn": false,
            "img": "icons/svg/d20-black.svg",
            "range": [
                2,
                2
            ],
            "resultId": "nzOpdMVLPhoNTxzR",
            "text": "Comrade-in-Arms",
            "type": 2,
            "weight": 1
        },
        {
            "_id": "s5Yn0vq1TJHlroeW",
            "collection": "pf2ettw.gmg-srd",
            "drawn": false,
            "img": "icons/svg/d20-black.svg",
            "range": [
                3,
                3
            ],
            "resultId": "G9058881e1ci9X1C",
            "text": "Desperate Intimidation",
            "type": 2,
            "weight": 1
        },
        {
            "_id": "NaIIoxiQ16IWR7x8",
            "collection": "pf2ettw.gmg-srd",
            "drawn": false,
            "img": "icons/svg/d20-black.svg",
            "range": [
                4,
                4
            ],
            "resultId": "niZPxqupDMfIXxJs",
            "text": "Homelessness",
            "type": 2,
            "weight": 1
        },
        {
            "_id": "OHk6sHWOhOhD4WbG",
            "collection": "pf2ettw.gmg-srd",
            "drawn": false,
            "img": "icons/svg/d20-black.svg",
            "range": [
                5,
                5
            ],
            "resultId": "JHQI2skcksaLMPqA",
            "text": "Kindly Witch",
            "type": 2,
            "weight": 1
        },
        {
            "_id": "vVa5cVyQamI5msXM",
            "collection": "pf2ettw.gmg-srd",
            "drawn": false,
            "img": "icons/svg/d20-black.svg",
            "range": [
                6,
                6
            ],
            "resultId": "OHKKQ7zTf61vz35h",
            "text": "Liberators",
            "type": 2,
            "weight": 1
        },
        {
            "_id": "z8gJV9YNeDvygDPr",
            "collection": "pf2ettw.gmg-srd",
            "drawn": false,
            "img": "icons/svg/d20-black.svg",
            "range": [
                7,
                7
            ],
            "resultId": "UGxZ6vhfq7vQFXTt",
            "text": "Magician",
            "type": 2,
            "weight": 1
        },
        {
            "_id": "mHd34VqasWcjeRkY",
            "collection": "pf2ettw.gmg-srd",
            "drawn": false,
            "img": "icons/svg/d20-black.svg",
            "range": [
                8,
                8
            ],
            "resultId": "upnKpiEflAhhFLNQ",
            "text": "Missing Child",
            "type": 2,
            "weight": 1
        },
        {
            "_id": "t8MKbU1JUrGilNlB",
            "collection": "pf2ettw.gmg-srd",
            "drawn": false,
            "img": "icons/svg/d20-black.svg",
            "range": [
                9,
                9
            ],
            "resultId": "rDbdifseYxfEWgKg",
            "text": "Patron of the Arts",
            "type": 2,
            "weight": 1
        },
        {
            "_id": "lRb2l9l0793AFLbz",
            "collection": "pf2ettw.gmg-srd",
            "drawn": false,
            "img": "icons/svg/d20-black.svg",
            "range": [
                10,
                10
            ],
            "resultId": "PVdcBHjBVySBchG1",
            "text": "Religious Students",
            "type": 2,
            "weight": 1
        },
        {
            "_id": "E7cdAVPOEiWdVEAp",
            "collection": "pf2ettw.gmg-srd",
            "drawn": false,
            "img": "icons/svg/d20-black.svg",
            "range": [
                11,
                11
            ],
            "resultId": "BbgtR5LmB9ZdPpx1",
            "text": "Timely Cure",
            "type": 2,
            "weight": 1
        },
        {
            "_id": "ASrOCsenG8C9KEio",
            "collection": "pf2ettw.gmg-srd",
            "drawn": false,
            "img": "icons/svg/d20-black.svg",
            "range": [
                12,
                12
            ],
            "resultId": "bRQz8uVlYtQ1cwwI",
            "text": "Wasteland Survivors",
            "type": 2,
            "weight": 1
        }
    ]
}
