{
    "_id": "zyXbnTnUGs7tWR5j",
    "description": "Table of Lesser Art Objects",
    "displayRoll": true,
    "formula": "1d100",
    "img": "icons/svg/d20-grey.svg",
    "name": "Lesser Art Object",
    "permission": {
        "default": 0
    },
    "replacement": true,
    "results": [
        {
            "_id": "2UM8HuHjs6O9w1MP",
            "collection": "pf2ettw.equipment-srd",
            "drawn": false,
            "img": "systems/pf2ettw/icons/equipment/treasure/art-objects/lesser-art-object/silk-ceremonial-armor.webp",
            "range": [
                1,
                5
            ],
            "resultId": "fUENXLX3tzi33CcB",
            "text": "Silk ceremonial armor",
            "type": 2,
            "weight": 5
        },
        {
            "_id": "zAJ8MNJRO5e7p5zw",
            "collection": "pf2ettw.equipment-srd",
            "drawn": false,
            "img": "systems/pf2ettw/icons/equipment/treasure/art-objects/lesser-art-object/inscribed-crocodile-skull.webp",
            "range": [
                6,
                10
            ],
            "resultId": "K7KzNh3YsXBrDlyj",
            "text": "Inscribed crocodile skull",
            "type": 2,
            "weight": 5
        },
        {
            "_id": "jl6km7PLAzLO4KFV",
            "collection": "pf2ettw.equipment-srd",
            "drawn": false,
            "img": "systems/pf2ettw/icons/equipment/treasure/art-objects/lesser-art-object/illuminated-manuscript.webp",
            "range": [
                11,
                15
            ],
            "resultId": "l8dFZIYYngDOIYHb",
            "text": "Illuminated manuscript",
            "type": 2,
            "weight": 5
        },
        {
            "_id": "2eRL2rMGgAlHiqyU",
            "collection": "pf2ettw.equipment-srd",
            "drawn": false,
            "img": "systems/pf2ettw/icons/equipment/treasure/art-objects/lesser-art-object/simple-silver-circlet.webp",
            "range": [
                16,
                20
            ],
            "resultId": "CNLt74pUxM0GGjyl",
            "text": "Simple silver circlet",
            "type": 2,
            "weight": 5
        },
        {
            "_id": "3R5MuJwEfyufXDMA",
            "collection": "pf2ettw.equipment-srd",
            "drawn": false,
            "img": "systems/pf2ettw/icons/equipment/treasure/art-objects/lesser-art-object/copper-statuette-of-a-salamander.webp",
            "range": [
                21,
                25
            ],
            "resultId": "xXo7KXnhp1TfvxRc",
            "text": "Copper statuette of a salamander",
            "type": 2,
            "weight": 5
        },
        {
            "_id": "HRSpsKejFC8yEhKV",
            "collection": "pf2ettw.equipment-srd",
            "drawn": false,
            "img": "systems/pf2ettw/icons/equipment/treasure/art-objects/lesser-art-object/alabaster-and-obsidian-game-set.webp",
            "range": [
                26,
                30
            ],
            "resultId": "hnzNKdD5hjQc1NUx",
            "text": "Alabaster and obsidian game set",
            "type": 2,
            "weight": 5
        },
        {
            "_id": "HuYox0wxORGWfg6G",
            "collection": "pf2ettw.equipment-srd",
            "drawn": false,
            "img": "systems/pf2ettw/icons/equipment/treasure/art-objects/lesser-art-object/silk-fan-decorated-with-turquoise.webp",
            "range": [
                31,
                35
            ],
            "resultId": "vJLb8wwipdwFQDH3",
            "text": "Silk fan decorated with turquoise",
            "type": 2,
            "weight": 5
        },
        {
            "_id": "UnD4Nou1Bu1meMLt",
            "collection": "pf2ettw.equipment-srd",
            "drawn": false,
            "img": "systems/pf2ettw/icons/equipment/treasure/art-objects/lesser-art-object/ceremonial-dagger-with-onyx-hilt.webp",
            "range": [
                36,
                40
            ],
            "resultId": "VHJM3jYtpzMqZ1wc",
            "text": "Ceremonial dagger with onyx hilt",
            "type": 2,
            "weight": 5
        },
        {
            "_id": "aUO9X2riC0ehdCZi",
            "collection": "pf2ettw.equipment-srd",
            "drawn": false,
            "img": "systems/pf2ettw/icons/equipment/treasure/art-objects/lesser-art-object/amphora-with-lavish-scenes.webp",
            "range": [
                41,
                45
            ],
            "resultId": "JYxnuXg9MV6y1gpQ",
            "text": "Amphora with lavish scenes",
            "type": 2,
            "weight": 5
        },
        {
            "_id": "o1jeebwZ41dTdrUh",
            "collection": "pf2ettw.equipment-srd",
            "drawn": false,
            "img": "systems/pf2ettw/icons/equipment/treasure/art-objects/lesser-art-object/colorful-pastoral-tapestry.webp",
            "range": [
                46,
                50
            ],
            "resultId": "noLtrW7wFfRFxSUt",
            "text": "Colorful pastoral tapestry",
            "type": 2,
            "weight": 5
        },
        {
            "_id": "6M4irhoo1pgy79oB",
            "collection": "pf2ettw.equipment-srd",
            "drawn": false,
            "img": "systems/pf2ettw/icons/equipment/treasure/art-objects/lesser-art-object/chrysoberyl-symbol-of-an-evil-eye.webp",
            "range": [
                51,
                55
            ],
            "resultId": "qgKOCdtdybxwmiEv",
            "text": "Chrysoberyl symbol of an evil eye",
            "type": 2,
            "weight": 5
        },
        {
            "_id": "tlWaVOXYvcu6qVg2",
            "collection": "pf2ettw.equipment-srd",
            "drawn": false,
            "img": "systems/pf2ettw/icons/equipment/treasure/art-objects/lesser-art-object/alabaster-idol.webp",
            "range": [
                56,
                60
            ],
            "resultId": "r7QGx0YFZCR0W5iu",
            "text": "Alabaster idol",
            "type": 2,
            "weight": 5
        },
        {
            "_id": "9JPWktUoBOAZHE1F",
            "collection": "pf2ettw.equipment-srd",
            "drawn": false,
            "img": "systems/pf2ettw/icons/equipment/treasure/art-objects/lesser-art-object/silk-mask-decorated-with-citrines.webp",
            "range": [
                61,
                65
            ],
            "resultId": "8RH0e9UqXIxAPJJG",
            "text": "Silk mask decorated with citrines",
            "type": 2,
            "weight": 5
        },
        {
            "_id": "G1IghWzWdOz9TJts",
            "collection": "pf2ettw.equipment-srd",
            "drawn": false,
            "img": "systems/pf2ettw/icons/equipment/treasure/art-objects/lesser-art-object/set-of-decorated-porcelain-plates.webp",
            "range": [
                66,
                70
            ],
            "resultId": "rVfFUBb0r423IPg8",
            "text": "Set of decorated porcelain plates",
            "type": 2,
            "weight": 5
        },
        {
            "_id": "pX1s7SoWmxHhwveS",
            "collection": "pf2ettw.equipment-srd",
            "drawn": false,
            "img": "systems/pf2ettw/icons/equipment/treasure/art-objects/lesser-art-object/etched-copper-ewer.webp",
            "range": [
                71,
                75
            ],
            "resultId": "cSBupUqjsHJwivbp",
            "text": "Etched copper ewer",
            "type": 2,
            "weight": 5
        },
        {
            "_id": "Nw8PpITGqAUnqIFi",
            "collection": "pf2ettw.equipment-srd",
            "drawn": false,
            "img": "systems/pf2ettw/icons/equipment/treasure/art-objects/lesser-art-object/brass-scepter-with-amethyst-head.webp",
            "range": [
                76,
                80
            ],
            "resultId": "l6Eifu4DScg0OBxb",
            "text": "Brass scepter with amethyst head",
            "type": 2,
            "weight": 5
        },
        {
            "_id": "l4zaWUORr4PNmMXR",
            "collection": "pf2ettw.equipment-srd",
            "drawn": false,
            "img": "systems/pf2ettw/icons/equipment/treasure/art-objects/lesser-art-object/bronze-chalice-with-bloodstones.webp",
            "range": [
                81,
                85
            ],
            "resultId": "ja5rYjVRwwUXWtOd",
            "text": "Bronze chalice with bloodstones",
            "type": 2,
            "weight": 5
        },
        {
            "_id": "oP3oUWzYrDLqehan",
            "collection": "pf2ettw.equipment-srd",
            "drawn": false,
            "img": "systems/pf2ettw/icons/equipment/treasure/art-objects/lesser-art-object/iron-and-rock-crystal-brazier.webp",
            "range": [
                86,
                90
            ],
            "resultId": "YZsZ6stG0i9GBCZw",
            "text": "Iron and rock crystal brazier",
            "type": 2,
            "weight": 5
        },
        {
            "_id": "0SoUoSH5VSYNfpmf",
            "collection": "pf2ettw.equipment-srd",
            "drawn": false,
            "img": "systems/pf2ettw/icons/equipment/treasure/art-objects/lesser-art-object/quality-sculpture-by-an-unknown.webp",
            "range": [
                91,
                95
            ],
            "resultId": "aGJJwRpFRMgneROG",
            "text": "Quality sculpture by an unknown",
            "type": 2,
            "weight": 5
        },
        {
            "_id": "26Ab64p3yOgnvcjP",
            "collection": "pf2ettw.equipment-srd",
            "drawn": false,
            "img": "systems/pf2ettw/icons/equipment/treasure/art-objects/lesser-art-object/quality-painting-by-an-unknown.webp",
            "range": [
                96,
                100
            ],
            "resultId": "iz7Mv2xGwqyicNiA",
            "text": "Quality painting by an unknown",
            "type": 2,
            "weight": 5
        }
    ]
}
