{
    "_id": "ucTtWBPXViITI8wr",
    "description": "Table of Lesser Semiprecious Stones",
    "displayRoll": true,
    "formula": "1d100",
    "img": "icons/svg/d20-grey.svg",
    "name": "Lesser Semiprecious Stones",
    "permission": {
        "default": 0
    },
    "replacement": true,
    "results": [
        {
            "_id": "2UM8HuHjs6O9w1MP",
            "collection": "pf2ettw.equipment-srd",
            "drawn": false,
            "img": "systems/pf2ettw/icons/equipment/treasure/gems/lesser-semiprecious-stones/agate.webp",
            "range": [
                1,
                7
            ],
            "resultId": "7SPJO9xr89N8E23s",
            "text": "Agate",
            "type": 2,
            "weight": 7
        },
        {
            "_id": "xCgeXJYLB8Jpl8w2",
            "collection": "pf2ettw.equipment-srd",
            "drawn": false,
            "img": "systems/pf2ettw/icons/equipment/treasure/gems/lesser-semiprecious-stones/alabaster.webp",
            "range": [
                8,
                14
            ],
            "resultId": "nIlx1IQhYJfQtpVF",
            "text": "Alabaster",
            "type": 2,
            "weight": 7
        },
        {
            "_id": "JuI3LebJwhwEnY9c",
            "collection": "pf2ettw.equipment-srd",
            "drawn": false,
            "img": "systems/pf2ettw/icons/equipment/treasure/gems/lesser-semiprecious-stones/azurite.webp",
            "range": [
                15,
                21
            ],
            "resultId": "RNnVb83lRRUXg8hG",
            "text": "Azurite",
            "type": 2,
            "weight": 7
        },
        {
            "_id": "bj8aVzblQljrE4yv",
            "collection": "pf2ettw.equipment-srd",
            "drawn": false,
            "img": "systems/pf2ettw/icons/equipment/treasure/gems/lesser-semiprecious-stones/hematite.webp",
            "range": [
                22,
                28
            ],
            "resultId": "02sF1QlxEx6H6zEP",
            "text": "Hematite",
            "type": 2,
            "weight": 7
        },
        {
            "_id": "YeFnW7h7v2NbVMtI",
            "collection": "pf2ettw.equipment-srd",
            "drawn": false,
            "img": "systems/pf2ettw/icons/equipment/treasure/gems/lesser-semiprecious-stones/lapis-lazuli.webp",
            "range": [
                29,
                35
            ],
            "resultId": "DE4880DRtsRqax1N",
            "text": "Lapis lazuli",
            "type": 2,
            "weight": 7
        },
        {
            "_id": "xwhTjcmLpZttnWCJ",
            "collection": "pf2ettw.equipment-srd",
            "drawn": false,
            "img": "systems/pf2ettw/icons/equipment/treasure/gems/lesser-semiprecious-stones/malachite.webp",
            "range": [
                36,
                42
            ],
            "resultId": "Ds8GJEQyRYamRIiB",
            "text": "Malachite",
            "type": 2,
            "weight": 7
        },
        {
            "_id": "g603m1cZyAOzZhX6",
            "collection": "pf2ettw.equipment-srd",
            "drawn": false,
            "img": "systems/pf2ettw/icons/equipment/treasure/gems/lesser-semiprecious-stones/obsidian.webp",
            "range": [
                43,
                49
            ],
            "resultId": "oH7dJGkgAB0Y2Mad",
            "text": "Obsidian",
            "type": 2,
            "weight": 7
        },
        {
            "_id": "loZv6L8ccj87huhv",
            "collection": "pf2ettw.equipment-srd",
            "drawn": false,
            "img": "systems/pf2ettw/icons/equipment/treasure/gems/lesser-semiprecious-stones/irregular-freshwater-pearl.webp",
            "range": [
                50,
                56
            ],
            "resultId": "RLFxTy0TjMkN6rM2",
            "text": "Pearl, irregular freshwater",
            "type": 2,
            "weight": 7
        },
        {
            "_id": "sF802KOL6Kw85fYM",
            "collection": "pf2ettw.equipment-srd",
            "drawn": false,
            "img": "systems/pf2ettw/icons/equipment/treasure/gems/lesser-semiprecious-stones/pyrite.webp",
            "range": [
                57,
                63
            ],
            "resultId": "YFokzLQ0HK74Vf6n",
            "text": "Pyrite",
            "type": 2,
            "weight": 7
        },
        {
            "_id": "RVZr1hrjfaDipgMB",
            "collection": "pf2ettw.equipment-srd",
            "drawn": false,
            "img": "systems/pf2ettw/icons/equipment/treasure/gems/lesser-semiprecious-stones/rhodochrosite.webp",
            "range": [
                64,
                70
            ],
            "resultId": "Ujaoyu3WE6V7Y8Vg",
            "text": "Rhodochrosite",
            "type": 2,
            "weight": 7
        },
        {
            "_id": "m2VvAZPnPd6SkBh1",
            "collection": "pf2ettw.equipment-srd",
            "drawn": false,
            "img": "systems/pf2ettw/icons/equipment/treasure/gems/lesser-semiprecious-stones/rock-crystal-quartz.webp",
            "range": [
                71,
                77
            ],
            "resultId": "qnK4cIHZ2irCV4BL",
            "text": "Quartz, rock crystal",
            "type": 2,
            "weight": 7
        },
        {
            "_id": "j4S37raHMnHdF8xV",
            "collection": "pf2ettw.equipment-srd",
            "drawn": false,
            "img": "systems/pf2ettw/icons/equipment/treasure/gems/lesser-semiprecious-stones/shell.webp",
            "range": [
                78,
                84
            ],
            "resultId": "6vb56WClb06JrpuJ",
            "text": "Shell",
            "type": 2,
            "weight": 7
        },
        {
            "_id": "YMQvy6yibUZmsXS1",
            "collection": "pf2ettw.equipment-srd",
            "drawn": false,
            "img": "systems/pf2ettw/icons/equipment/treasure/gems/lesser-semiprecious-stones/tigers-eye.webp",
            "range": [
                85,
                92
            ],
            "resultId": "DFNmzduKX6NSuPrT",
            "text": "Tiger's‑eye",
            "type": 2,
            "weight": 8
        },
        {
            "_id": "WjyERUdgyDbCOLxB",
            "collection": "pf2ettw.equipment-srd",
            "drawn": false,
            "img": "systems/pf2ettw/icons/equipment/treasure/gems/lesser-semiprecious-stones/turquoise.webp",
            "range": [
                93,
                100
            ],
            "resultId": "8aPckmJTsyUfBndP",
            "text": "Turquoise",
            "type": 2,
            "weight": 8
        }
    ]
}
