{
    "_id": "wCXPh3nft3qWuxro",
    "description": "Table of Moderate Precious Stones",
    "displayRoll": true,
    "formula": "1d100",
    "img": "icons/svg/d20-grey.svg",
    "name": "Moderate Precious Stones",
    "permission": {
        "default": 0
    },
    "replacement": true,
    "results": [
        {
            "_id": "2UM8HuHjs6O9w1MP",
            "collection": "pf2ettw.equipment-srd",
            "drawn": false,
            "img": "systems/pf2ettw/icons/equipment/treasure/gems/moderate-precious-stones/small-diamond.webp",
            "range": [
                1,
                25
            ],
            "resultId": "z3PT7OgX34TQKAwH",
            "text": "Diamond, small",
            "type": 2,
            "weight": 25
        },
        {
            "_id": "xCgeXJYLB8Jpl8w2",
            "collection": "pf2ettw.equipment-srd",
            "drawn": false,
            "img": "systems/pf2ettw/icons/equipment/treasure/gems/moderate-precious-stones/emerald.webp",
            "range": [
                26,
                50
            ],
            "resultId": "hMIG86aqKcVYJGsg",
            "text": "Emerald",
            "type": 2,
            "weight": 25
        },
        {
            "_id": "bj8aVzblQljrE4yv",
            "collection": "pf2ettw.equipment-srd",
            "drawn": false,
            "img": "systems/pf2ettw/icons/equipment/treasure/gems/moderate-precious-stones/ruby.webp",
            "range": [
                51,
                75
            ],
            "resultId": "WuW89GD0TG7RYTLF",
            "text": "Ruby, small",
            "type": 2,
            "weight": 25
        },
        {
            "_id": "Hk9MSmsvgrLvJjqr",
            "collection": "pf2ettw.equipment-srd",
            "drawn": false,
            "img": "systems/pf2ettw/icons/equipment/treasure/gems/moderate-precious-stones/sapphire.webp",
            "range": [
                76,
                100
            ],
            "resultId": "yTYPPB7WrhanBPbu",
            "text": "Sapphire",
            "type": 2,
            "weight": 25
        }
    ]
}
