{
    "_id": "2ZMeCSbtg4C5bpM2",
    "displayRoll": true,
    "formula": "1d100",
    "img": "icons/svg/d20-grey.svg",
    "name": "Plains Dangers",
    "permission": {
        "default": 0
    },
    "replacement": true,
    "results": [
        {
            "_id": "tN5JKsWzilRrlHs2",
            "drawn": false,
            "img": "icons/svg/d20-black.svg",
            "range": [
                1,
                8
            ],
            "rangeH": 8,
            "rangeL": 1,
            "text": "[[/r 1d8]] @Compendium[pf2ettw.pathfinder-bestiary-2.Crawling Hand]{Crawling Hands} (Moderate 1)",
            "type": 0,
            "weight": 8
        },
        {
            "_id": "awBCY7mfI0WZDlLo",
            "drawn": false,
            "img": "icons/svg/d20-black.svg",
            "range": [
                9,
                11
            ],
            "rangeH": 11,
            "rangeL": 9,
            "text": "[[/r 1d3+1]] @Compendium[pf2ettw.pathfinder-bestiary-3.Festrog]{Festrogs} (Moderate 2)",
            "type": 0,
            "weight": 3
        },
        {
            "_id": "4HOFiPRCa2KlYCuM",
            "drawn": false,
            "img": "icons/svg/d20-black.svg",
            "range": [
                12,
                15
            ],
            "rangeH": 15,
            "rangeL": 12,
            "text": "1 @Compendium[pf2ettw.pathfinder-bestiary-3.Shambler Troop]{Shambler Troop} (Moderate 2)",
            "type": 0,
            "weight": 4
        },
        {
            "_id": "nci27bhg5zpjW6jl",
            "drawn": false,
            "img": "icons/svg/d20-black.svg",
            "range": [
                16,
                19
            ],
            "rangeH": 19,
            "rangeL": 16,
            "text": "[[/r 1d3]] @Compendium[pf2ettw.pathfinder-bestiary-2.Assassin Vine]{Assassin Vines} (Moderate 3)",
            "type": 0,
            "weight": 4
        },
        {
            "_id": "tP1hkxRkU4rMaQNz",
            "drawn": false,
            "img": "icons/svg/d20-black.svg",
            "range": [
                20,
                23
            ],
            "rangeH": 23,
            "rangeL": 20,
            "text": "[[/r 2d6]] @Compendium[pf2ettw.pathfinder-bestiary.Skeleton Guard]{Skeleton Guards} (Moderate 3)",
            "type": 0,
            "weight": 4
        },
        {
            "_id": "q2WLLuJI3iHxHvoy",
            "drawn": false,
            "img": "icons/svg/d20-black.svg",
            "range": [
                24,
                27
            ],
            "rangeH": 27,
            "rangeL": 24,
            "text": "1 @Compendium[pf2ettw.pathfinder-bestiary-2.Baobhan Sith]{Baobhan Sith} (Moderate 4)",
            "type": 0,
            "weight": 4
        },
        {
            "_id": "iaZECXvXswU1GfpO",
            "drawn": false,
            "img": "icons/svg/d20-black.svg",
            "range": [
                28,
                32
            ],
            "rangeH": 32,
            "rangeL": 28,
            "text": "1 @Compendium[pf2ettw.pathfinder-bestiary-2.Scythe Tree]{Scythe Tree} (Moderate 4)",
            "type": 0,
            "weight": 5
        },
        {
            "_id": "OVMYLJ2dPVQjmuVD",
            "drawn": false,
            "img": "icons/svg/d20-black.svg",
            "range": [
                33,
                37
            ],
            "rangeH": 37,
            "rangeL": 33,
            "text": "[[/r 1d3]] @Compendium[pf2ettw.npc-gallery.Necromancer]{Necromancers} (Moderate 5)",
            "type": 0,
            "weight": 5
        },
        {
            "_id": "Yrr37oyX8GbcJX6s",
            "drawn": false,
            "img": "icons/svg/d20-black.svg",
            "range": [
                38,
                42
            ],
            "rangeH": 42,
            "rangeL": 38,
            "text": "[[/r 2d4]] @Compendium[pf2ettw.pathfinder-bestiary.Zombie Brute]{Zombie Brutes} (Moderate 5)",
            "type": 0,
            "weight": 5
        },
        {
            "_id": "mUOKAPKr9HFc3hDs",
            "drawn": false,
            "img": "icons/svg/d20-black.svg",
            "range": [
                43,
                47
            ],
            "rangeH": 47,
            "rangeL": 43,
            "text": "1 @Compendium[pf2ettw.pathfinder-bestiary.Greater Shadow]{Greater Shadow} and 1 @Compendium[pf2ettw.pathfinder-bestiary.Shadow]{Shadow} (Moderate 6)",
            "type": 0,
            "weight": 5
        },
        {
            "_id": "MW9ixwCW93jkhZ9I",
            "drawn": false,
            "img": "icons/svg/d20-black.svg",
            "range": [
                48,
                55
            ],
            "rangeH": 55,
            "rangeL": 48,
            "text": "[[/r 1d3]] @Compendium[pf2ettw.pathfinder-bestiary.Shambler]{Shamblers} {Moderate 6}",
            "type": 0,
            "weight": 8
        },
        {
            "_id": "QtTACUG23nHVOrZc",
            "drawn": false,
            "img": "icons/svg/d20-black.svg",
            "range": [
                56,
                63
            ],
            "rangeH": 63,
            "rangeL": 56,
            "text": "1 @Compendium[pf2ettw.pathfinder-bestiary-2.Dread Wraith]{Dread Wraith} {Moderate 7}",
            "type": 0,
            "weight": 8
        },
        {
            "_id": "5nsnLgH7gW4nRPja",
            "drawn": false,
            "img": "icons/svg/d20-black.svg",
            "range": [
                64,
                71
            ],
            "rangeH": 71,
            "rangeL": 64,
            "text": "[[/r 1d3+1]] @Compendium[pf2ettw.pathfinder-bestiary-3.Gurgist Mauler]{Gurgist Maulers} (Moderate 7)",
            "type": 0,
            "weight": 8
        },
        {
            "_id": "mcYt3adKxdlcznRy",
            "drawn": false,
            "img": "icons/svg/d20-black.svg",
            "range": [
                72,
                76
            ],
            "rangeH": 76,
            "rangeL": 72,
            "text": "1 @Compendium[pf2ettw.pathfinder-bestiary-3.Clacking Skull Swarm]{Clacking Skull Swarm} (Moderate 8)",
            "type": 0,
            "weight": 5
        },
        {
            "_id": "fiP57z7JVNtuB8Hu",
            "drawn": false,
            "img": "icons/svg/d20-black.svg",
            "range": [
                77,
                81
            ],
            "rangeH": 81,
            "rangeL": 77,
            "text": "[[/r 1d3]] @Compendium[pf2ettw.pathfinder-bestiary.Bulette]{Bulettes} (Moderate 8)",
            "type": 0,
            "weight": 5
        },
        {
            "_id": "uo6a7YYU2bW5LUqz",
            "drawn": false,
            "img": "icons/svg/d20-black.svg",
            "range": [
                82,
                86
            ],
            "rangeH": 86,
            "rangeL": 82,
            "text": "1 @Compendium[pf2ettw.pathfinder-bestiary-2.Devourer]{Devourer} (Moderate 9)",
            "type": 0,
            "weight": 5
        },
        {
            "_id": "K2bScFmVPv2oR8ki",
            "drawn": false,
            "img": "icons/svg/d20-black.svg",
            "range": [
                87,
                91
            ],
            "rangeH": 91,
            "rangeL": 87,
            "text": "3 @Compendium[pf2ettw.pathfinder-bestiary-3.Lifeleecher Brawler]{Lifeleecher Brawlers} (Moderate 9)",
            "type": 0,
            "weight": 5
        },
        {
            "_id": "Fp6LLcZedr6v9grj",
            "drawn": false,
            "img": "icons/svg/d20-black.svg",
            "range": [
                92,
                94
            ],
            "rangeH": 94,
            "rangeL": 92,
            "text": "[[/r 1d3]] @Compendium[pf2ettw.pathfinder-bestiary.Graveknight]{Graveknights} (Moderate 10)",
            "type": 0,
            "weight": 3
        },
        {
            "_id": "l54K1LGfNGwhbpJw",
            "drawn": false,
            "img": "icons/svg/d20-black.svg",
            "range": [
                95,
                97
            ],
            "rangeH": 97,
            "rangeL": 95,
            "text": "1 @Compendium[pf2ettw.pathfinder-bestiary-2.Viper Vine]{Viper Vine} (Moderate 11)",
            "type": 0,
            "weight": 3
        },
        {
            "_id": "mejp0hGcgBMAz7Jh",
            "drawn": false,
            "img": "icons/svg/d20-black.svg",
            "range": [
                98,
                100
            ],
            "rangeH": 100,
            "rangeL": 98,
            "text": "[[/r 1d4]] @Compendium[pf2ettw.pathfinder-bestiary-3.Skeleton Infantry]{Skeleton Infantry} (Moderate 12)",
            "type": 0,
            "weight": 3
        }
    ]
}
