{
    "_id": "BbTS7MMkz0Ob7qAF",
    "data": {
        "abilities": {
            "cha": {
                "mod": -5
            },
            "con": {
                "mod": 3
            },
            "dex": {
                "mod": 2
            },
            "int": {
                "mod": -5
            },
            "str": {
                "mod": 4
            },
            "wis": {
                "mod": 3
            }
        },
        "attributes": {
            "ac": {
                "details": "",
                "value": 16
            },
            "allSaves": {
                "value": ""
            },
            "hp": {
                "details": "",
                "max": 16,
                "temp": 0,
                "value": 16
            },
            "initiative": {
                "ability": "perception"
            },
            "perception": {
                "value": 8
            },
            "speed": {
                "otherSpeeds": [],
                "value": "25"
            }
        },
        "details": {
            "alignment": {
                "value": "N"
            },
            "blurb": "",
            "creatureType": "Mindless",
            "level": {
                "value": 1
            },
            "privateNotes": "",
            "publicNotes": "<p>Clockwork creatures are as common in Alkenstar as carts and horses are in most Inner Sea region cities. In the City of Smog, clockworks perform many of the simple, repetitive tasks that sentient workers find boring, as well as dangerous jobs such as private security or riot control.</p>\n<p>One of the jobs most commonly outsourced to clockworks is guard duty. Clockwork soldiers are often too costly to employ en masse, so municipalities looking to cut corners devised the much-cheaper clockwork handler, a budget-friendly construct sufficient for rat catching, door watching, and basic patrol work.</p>\n<p>Handlers are typically programmed to react efficiently to certain situations such as intruders or assailants. To that end, all handlers are equipped with an everburning torch fastened to their hooded lantern-like heads. Furthermore, most clockwork handlers used in public places have their fists covered in a padded material to ensure they don't accidentally beat suspects to death, though these modifications are removable (removing the nonlethal trait from their fist Strike). The nonlethal approach is considered the safest, as clockwork creatures don't always have the keenest judgement on who is a criminal and who is a customer. A healthy supply of rope allows the clockwork handler to quickly tie-up unruly vagabonds, that they might be brought to justice.</p>",
            "source": {
                "value": "Punks in a Powder Keg"
            }
        },
        "resources": {},
        "saves": {
            "fortitude": {
                "saveDetail": "",
                "value": "10"
            },
            "reflex": {
                "saveDetail": "",
                "value": "7"
            },
            "will": {
                "saveDetail": "",
                "value": "6"
            }
        },
        "traits": {
            "ci": [],
            "di": {
                "custom": "",
                "value": [
                    "death-effects",
                    "disease",
                    "doomed",
                    "drained",
                    "fatigued",
                    "healing",
                    "mental",
                    "necromancy",
                    "nonlethal-attacks",
                    "paralyzed",
                    "poison",
                    "sickened",
                    "unconscious"
                ]
            },
            "dr": [
                {
                    "exceptions": "except adamantine or orichalcum",
                    "type": "physical",
                    "value": 2
                }
            ],
            "dv": [
                {
                    "type": "electricity",
                    "value": 2
                },
                {
                    "type": "orichalcum",
                    "value": 2
                }
            ],
            "languages": {
                "custom": "",
                "selected": [],
                "value": []
            },
            "rarity": "uncommon",
            "senses": {
                "value": "darkvision"
            },
            "size": {
                "value": "med"
            },
            "traits": {
                "custom": "",
                "value": [
                    "clockwork",
                    "construct",
                    "mindless"
                ]
            }
        }
    },
    "img": "systems/pf2ettw/icons/default-icons/npc.svg",
    "items": [
        {
            "_id": "JNt7GmLCCVz5BiEI",
            "data": {
                "MAP": {
                    "value": ""
                },
                "baseItem": "javelin",
                "bonus": {
                    "value": 0
                },
                "bonusDamage": {
                    "value": 0
                },
                "category": "simple",
                "containerId": null,
                "damage": {
                    "damageType": "piercing",
                    "dice": 1,
                    "die": "d6",
                    "value": ""
                },
                "description": {
                    "value": "<p>This thin spear is well balanced for throwing but is not designed for melee use.</p>"
                },
                "equipped": {
                    "carryType": "worn",
                    "handsHeld": 0,
                    "invested": null
                },
                "equippedBulk": {
                    "value": ""
                },
                "group": "dart",
                "hardness": 0,
                "hp": {
                    "brokenThreshold": 0,
                    "max": 0,
                    "value": 0
                },
                "level": {
                    "value": 0
                },
                "negateBulk": {
                    "value": "0"
                },
                "potencyRune": {
                    "value": null
                },
                "preciousMaterial": {
                    "value": ""
                },
                "preciousMaterialGrade": {
                    "value": ""
                },
                "price": {
                    "value": {
                        "sp": 1
                    }
                },
                "property1": {
                    "critDamage": "",
                    "critDamageType": "",
                    "critDice": null,
                    "critDie": "",
                    "criticalConditionType": "",
                    "criticalConditionValue": null,
                    "damageType": "",
                    "dice": null,
                    "die": "",
                    "strikeConditionType": "",
                    "strikeConditionValue": null,
                    "value": ""
                },
                "propertyRune1": {
                    "value": ""
                },
                "propertyRune2": {
                    "value": ""
                },
                "propertyRune3": {
                    "value": ""
                },
                "propertyRune4": {
                    "value": ""
                },
                "quantity": 4,
                "range": 30,
                "reload": {
                    "value": "-"
                },
                "rules": [],
                "size": "med",
                "slug": "javelin",
                "source": {
                    "value": "Pathfinder Core Rulebook"
                },
                "specific": {
                    "value": false
                },
                "splashDamage": {
                    "value": 0
                },
                "stackGroup": null,
                "strikingRune": {
                    "value": ""
                },
                "traits": {
                    "custom": "",
                    "rarity": "common",
                    "value": [
                        "thrown"
                    ]
                },
                "usage": {
                    "value": "held-in-one-hand"
                },
                "weight": {
                    "value": "L"
                }
            },
            "flags": {
                "core": {
                    "sourceId": "Compendium.pf2ettw.equipment-srd.JNt7GmLCCVz5BiEI"
                }
            },
            "img": "systems/pf2ettw/icons/equipment/weapons/javelin.webp",
            "name": "Javelin",
            "sort": 100000,
            "type": "weapon"
        },
        {
            "_id": "mRz8Jmk4Q06SsZpC",
            "data": {
                "baseItem": null,
                "containerId": null,
                "description": {
                    "value": "<p>An <em>everburning torch</em> is one of the most common applications of permanent magic. This torch sheds light constantly, requiring no oxygen and generating no heat. The flame can be covered or hidden, but can't be smothered or quenched.</p>"
                },
                "equipped": {
                    "carryType": "worn",
                    "handsHeld": 0,
                    "invested": null
                },
                "equippedBulk": {
                    "value": ""
                },
                "hardness": 0,
                "hp": {
                    "brokenThreshold": 0,
                    "max": 0,
                    "value": 0
                },
                "level": {
                    "value": 1
                },
                "negateBulk": {
                    "value": "0"
                },
                "preciousMaterial": {
                    "value": ""
                },
                "preciousMaterialGrade": {
                    "value": ""
                },
                "price": {
                    "value": {
                        "gp": 15
                    }
                },
                "quantity": 1,
                "rules": [
                    {
                        "key": "TokenLight",
                        "value": {
                            "animation": {
                                "intensity": 2,
                                "speed": 1,
                                "type": "torch"
                            },
                            "bright": 20,
                            "color": "#ffe137",
                            "dim": 40
                        }
                    }
                ],
                "size": "med",
                "slug": "everburning-torch",
                "source": {
                    "value": "Pathfinder Core Rulebook"
                },
                "stackGroup": null,
                "traits": {
                    "custom": "",
                    "rarity": "common",
                    "value": [
                        "evocation",
                        "light",
                        "magical"
                    ]
                },
                "usage": {
                    "value": "held-in-one-hand"
                },
                "weight": {
                    "value": "L"
                }
            },
            "flags": {
                "core": {
                    "sourceId": "Compendium.pf2ettw.equipment-srd.mRz8Jmk4Q06SsZpC"
                }
            },
            "img": "systems/pf2ettw/icons/equipment/held-items/everburning-torch.webp",
            "name": "Everburning Torch",
            "sort": 200000,
            "type": "equipment"
        },
        {
            "_id": "fyYnQf1NAx9fWFaS",
            "data": {
                "baseItem": null,
                "containerId": null,
                "description": {
                    "value": "<p>50 feet of rope.</p>"
                },
                "equipped": {
                    "carryType": "worn",
                    "invested": null
                },
                "equippedBulk": {
                    "value": ""
                },
                "hardness": 0,
                "hp": {
                    "brokenThreshold": 0,
                    "max": 0,
                    "value": 0
                },
                "level": {
                    "value": 0
                },
                "negateBulk": {
                    "value": ""
                },
                "preciousMaterial": {
                    "value": ""
                },
                "preciousMaterialGrade": {
                    "value": ""
                },
                "price": {
                    "value": {
                        "sp": 5
                    }
                },
                "quantity": 1,
                "rules": [],
                "size": "med",
                "slug": "rope",
                "source": {
                    "value": "Pathfinder Core Rulebook"
                },
                "stackGroup": null,
                "traits": {
                    "custom": "",
                    "rarity": "common",
                    "value": []
                },
                "usage": {
                    "value": "held-in-one-hand"
                },
                "weight": {
                    "value": "L"
                }
            },
            "flags": {
                "core": {
                    "sourceId": "Compendium.pf2ettw.equipment-srd.fyYnQf1NAx9fWFaS"
                }
            },
            "img": "systems/pf2ettw/icons/equipment/adventuring-gear/rope.webp",
            "name": "Rope",
            "sort": 300000,
            "type": "equipment"
        },
        {
            "_id": "Ro2BAaIgtVBw3S8Z",
            "data": {
                "attack": {
                    "value": ""
                },
                "attackEffects": {
                    "custom": "",
                    "value": [
                        "grab"
                    ]
                },
                "bonus": {
                    "value": 7
                },
                "damageRolls": {
                    "lmwa9eznsh3hz4umh9gj": {
                        "damage": "1d4+4",
                        "damageType": "bludgeoning"
                    }
                },
                "description": {
                    "value": ""
                },
                "rules": [],
                "slug": null,
                "source": {
                    "value": ""
                },
                "traits": {
                    "custom": "",
                    "rarity": "common",
                    "value": [
                        "agile",
                        "nonlethal",
                        "unarmed"
                    ]
                },
                "weaponType": {
                    "value": "melee"
                }
            },
            "img": "systems/pf2ettw/icons/default-icons/melee.svg",
            "name": "Fist",
            "sort": 400000,
            "type": "melee"
        },
        {
            "_id": "CVdaUlBz3vBwy6o6",
            "data": {
                "attack": {
                    "value": ""
                },
                "attackEffects": {
                    "value": []
                },
                "bonus": {
                    "value": 5
                },
                "damageRolls": {
                    "18wmcn2611im63g0qmz6": {
                        "damage": "1d6+4",
                        "damageType": "piercing"
                    }
                },
                "description": {
                    "value": ""
                },
                "rules": [],
                "slug": null,
                "source": {
                    "value": ""
                },
                "traits": {
                    "custom": "",
                    "rarity": "common",
                    "value": [
                        "thrown-30"
                    ]
                },
                "weaponType": {
                    "value": "ranged"
                }
            },
            "img": "systems/pf2ettw/icons/default-icons/melee.svg",
            "name": "Javelin",
            "sort": 500000,
            "type": "melee"
        },
        {
            "_id": "qCCLZhnp2HhP3Ex6",
            "data": {
                "actionCategory": {
                    "value": "interaction"
                },
                "actionType": {
                    "value": "passive"
                },
                "actions": {
                    "value": null
                },
                "description": {
                    "value": "<p>@Localize[pf2ettw.NPC.Abilities.Glossary.Darkvision]</p>"
                },
                "requirements": {
                    "value": ""
                },
                "rules": [],
                "slug": "darkvision",
                "source": {
                    "value": "Pathfinder Bestiary"
                },
                "traits": {
                    "custom": "",
                    "rarity": "common",
                    "value": []
                },
                "trigger": {
                    "value": ""
                },
                "weapon": {
                    "value": ""
                }
            },
            "flags": {
                "core": {
                    "sourceId": "Compendium.pf2ettw.bestiary-ability-glossary-srd.qCCLZhnp2HhP3Ex6"
                }
            },
            "img": "systems/pf2ettw/icons/actions/Passive.webp",
            "name": "Darkvision",
            "sort": 600000,
            "type": "action"
        },
        {
            "_id": "x6layxpkhebv0imx",
            "data": {
                "actionCategory": {
                    "value": "interaction"
                },
                "actionType": {
                    "value": "passive"
                },
                "actions": {
                    "value": null
                },
                "description": {
                    "value": "<p>The clockwork handler can use the <em>@Compendium[pf2ettw.equipment-srd.Everburning Torch]{Everburning Torch}</em> built into its helmet to illuminate areas it's examining. Whenever it Seeks in a @Template[type:cone|distance:30] and rolls a successful Perception check, the clockwork handler gets a critical success instead.</p>"
                },
                "requirements": {
                    "value": ""
                },
                "rules": [],
                "slug": null,
                "source": {
                    "value": ""
                },
                "traits": {
                    "custom": "",
                    "rarity": "common",
                    "value": []
                },
                "trigger": {
                    "value": ""
                }
            },
            "img": "systems/pf2ettw/icons/actions/Passive.webp",
            "name": "Spotlight",
            "sort": 700000,
            "type": "action"
        },
        {
            "_id": "soreR8WirlQYXvF1",
            "data": {
                "actionCategory": {
                    "value": "interaction"
                },
                "actionType": {
                    "value": "passive"
                },
                "actions": {
                    "value": null
                },
                "description": {
                    "value": "<p>24 hours, @Check[type:thievery|dc:15|traits:action:disable-a-device] check, standby</p>\n<hr />\n<p>For a clockwork to act, it must be wound with a unique key by another creature. This takes 1 minute. Once wound, it remains operational for the listed amount of time, usually 24 hours, after which time it becomes unaware of its surroundings and can't act until it's wound again. Some clockworks' abilities require them to spend some of their remaining operational time. They can't spend more than they have and shut down immediately once they have 0 time remaining. If it's unclear when a clockwork was last wound, most clockwork keepers wind all their clockworks at a set time, typically 8 a.m.</p>\n<p>A clockwork that lists standby in its wind-up entry can enter standby mode as a 3-action activity. Its operational time doesn't decrease in standby, but it can sense its surroundings (with a -2 penalty to Perception). It can't act, with one exception: when it perceives a creature, it can exit standby as a reaction (rolling initiative if appropriate).</p>\n<p>A creature can attempt to Disable a Device to wind a clockwork down (with a DC listed in the wind-up entry). For each success, the clockwork loses 1 hour of operational time. This can be done even if the clockwork is in standby mode.</p>"
                },
                "requirements": {
                    "value": ""
                },
                "rules": [],
                "slug": "clockwork-creature-wind-up",
                "source": {
                    "value": "Pathfinder Bestiary 3"
                },
                "traits": {
                    "custom": "",
                    "rarity": "common",
                    "value": []
                },
                "trigger": {
                    "value": ""
                },
                "weapon": {
                    "value": ""
                }
            },
            "flags": {
                "core": {
                    "sourceId": "Compendium.pf2ettw.bestiary-family-ability-glossary.xS8ybzuqPSi3Jb8k"
                }
            },
            "img": "systems/pf2ettw/icons/actions/Passive.webp",
            "name": "Wind-Up",
            "sort": 800000,
            "type": "action"
        },
        {
            "_id": "Krzutt3MZlynFrxI",
            "data": {
                "actionCategory": {
                    "value": "defensive"
                },
                "actionType": {
                    "value": "reaction"
                },
                "actions": {
                    "value": null
                },
                "description": {
                    "value": "<p>@Localize[pf2ettw.NPC.Abilities.Glossary.AttackOfOpportunity]</p>"
                },
                "requirements": {
                    "value": ""
                },
                "rules": [],
                "slug": "attack-of-opportunity",
                "source": {
                    "value": "Pathfinder Bestiary"
                },
                "traits": {
                    "custom": "",
                    "rarity": "common",
                    "value": []
                },
                "trigger": {
                    "value": ""
                },
                "weapon": {
                    "value": ""
                }
            },
            "flags": {
                "core": {
                    "sourceId": "Compendium.pf2ettw.bestiary-ability-glossary-srd.hFtNbo1LKYCoDy2O"
                }
            },
            "img": "systems/pf2ettw/icons/actions/Reaction.webp",
            "name": "Attack of Opportunity",
            "sort": 900000,
            "type": "action"
        },
        {
            "_id": "0cdlrbis7q4l26p0",
            "data": {
                "actionCategory": {
                    "value": "offensive"
                },
                "actionType": {
                    "value": "action"
                },
                "actions": {
                    "value": 2
                },
                "description": {
                    "value": "<p><strong>Requirements</strong> The clockwork handler has a creature @Compendium[pf2ettw.conditionitems.Restrained]{Restrained};</p>\n<hr />\n<p><strong>Effect</strong> The clockwork handler cuts a length of rope from the supply in its chassis to tie up the restrained creature. The creature is restrained until it Escapes or Forces Open the rope with a successful DC 15 check (typically an attack roll or Thievery check to @Compendium[pf2ettw.actionspf2ettw.Escape]{Escape}, or an Athletics check to @Compendium[pf2ettw.actionspf2ettw.Force Open]{Force Open} the ropes; restrained creatures don't take a -2 penalty on this check for not using a crowbar). The rope has Hardness 2 and 8 Hit Points (BT 4).</p>"
                },
                "requirements": {
                    "value": ""
                },
                "rules": [],
                "slug": null,
                "source": {
                    "value": ""
                },
                "traits": {
                    "custom": "",
                    "rarity": "common",
                    "value": []
                },
                "trigger": {
                    "value": ""
                }
            },
            "img": "systems/pf2ettw/icons/actions/TwoActions.webp",
            "name": "Hog-tie",
            "sort": 1000000,
            "type": "action"
        },
        {
            "_id": "9bi02lncovdbgg1p",
            "data": {
                "actionCategory": {
                    "value": "offensive"
                },
                "actionType": {
                    "value": "action"
                },
                "actions": {
                    "value": 2
                },
                "description": {
                    "value": "<p>The clockwork handler emits a loud noise (such as a bell or high- pitched mechanical scream) that can be easily heard by anyone within 500 feet. Creatures within 100 feet take a -2 circumstance penalty to Perception checks that are hearing-based. Creatures within 30 feet who fail a @Check[type:fortitude|dc:14] save can't hear anything but the siren, critically fail Perception checks that require hearing, and are immune to auditory effects. This effect lasts until the creature leaves the area and for 1 round afterward.</p>"
                },
                "requirements": {
                    "value": ""
                },
                "rules": [],
                "slug": null,
                "source": {
                    "value": ""
                },
                "traits": {
                    "custom": "",
                    "rarity": "common",
                    "value": []
                },
                "trigger": {
                    "value": ""
                }
            },
            "img": "systems/pf2ettw/icons/actions/TwoActions.webp",
            "name": "Siren",
            "sort": 1100000,
            "type": "action"
        },
        {
            "_id": "ElknCaz6KEAg9RKE",
            "data": {
                "actionCategory": {
                    "value": "offensive"
                },
                "actionType": {
                    "value": "action"
                },
                "actions": {
                    "value": 1
                },
                "description": {
                    "value": "<p>@Localize[pf2ettw.NPC.Abilities.Glossary.Grab]</p>"
                },
                "requirements": {
                    "value": ""
                },
                "rules": [],
                "slug": "grab",
                "source": {
                    "value": "Pathfinder Bestiary"
                },
                "traits": {
                    "custom": "",
                    "rarity": "common",
                    "value": []
                },
                "trigger": {
                    "value": ""
                },
                "weapon": {
                    "value": ""
                }
            },
            "flags": {
                "core": {
                    "sourceId": "Compendium.pf2ettw.bestiary-ability-glossary-srd.Tkd8sH4pwFIPzqTr"
                }
            },
            "img": "systems/pf2ettw/icons/actions/OneAction.webp",
            "name": "Grab",
            "sort": 1200000,
            "type": "action"
        },
        {
            "_id": "4gjfpv2h3f5yna53",
            "data": {
                "description": {
                    "value": ""
                },
                "mod": {
                    "value": 7
                },
                "proficient": {
                    "value": 0
                },
                "rules": [
                    {
                        "key": "FlatModifier",
                        "label": "pf2ettw.SkillVariant.DisarmGrappleOrAvoidDisarmed",
                        "predicate": {
                            "any": [
                                "action:grapple",
                                "action:disarm"
                            ]
                        },
                        "selector": "athletics",
                        "value": 2
                    },
                    {
                        "key": "FlatModifier",
                        "label": "pf2ettw.SkillVariant.DisarmGrappleOrAvoidDisarmed",
                        "predicate": {
                            "any": [
                                "action:disarm"
                            ]
                        },
                        "selector": "reflex",
                        "value": 2
                    }
                ],
                "slug": null,
                "source": {
                    "value": ""
                },
                "traits": {
                    "custom": "",
                    "rarity": "common",
                    "value": []
                },
                "variants": {
                    "0": {
                        "label": "+9 to Disarm, Grapple, or avoid being Disarmed",
                        "options": "action:disarm,action:grapple"
                    }
                }
            },
            "img": "systems/pf2ettw/icons/default-icons/lore.svg",
            "name": "Athletics",
            "sort": 1300000,
            "type": "lore"
        }
    ],
    "name": "Clockwork Handler",
    "token": {
        "disposition": -1,
        "height": 1,
        "img": "systems/pf2ettw/icons/default-icons/npc.svg",
        "name": "Clockwork Handler",
        "width": 1
    },
    "type": "npc"
}
