{
    "_id": "e9pKPMzzgT2qINEq",
    "data": {
        "attributes": {
            "ac": {
                "value": 22
            },
            "hardness": 8,
            "hasHealth": true,
            "hp": {
                "details": "",
                "max": 50,
                "temp": 0,
                "value": 50
            },
            "stealth": {
                "details": "<p>(trained) to notice the glyph on the doorjamb</p>",
                "value": 12
            }
        },
        "creatureType": "",
        "details": {
            "description": "<p>A loud pop sounds when this door is opened, followed immediately by a blast of colorful lights that washes over whoever opened the door.</p>",
            "disable": "<p>@Check[type:thievery|dc:25|traits:action:disable-a-device] (trained) to disable the glyph, or <em>@Compendium[pf2ettw.spells-srd.Dispel Magic]{Dispel Magic}</em> (1st level; counteract DC 22) to counteract the glyph</p>",
            "isComplex": false,
            "level": {
                "value": 4
            },
            "reset": "",
            "routine": ""
        },
        "saves": {
            "fortitude": {
                "saveDetail": "",
                "value": 12
            },
            "reflex": {
                "saveDetail": "",
                "value": 10
            },
            "will": {
                "saveDetail": "",
                "value": 0
            }
        },
        "source": {
            "value": "Pathfinder #179: Cradle of Quartz"
        },
        "statusEffects": [],
        "traits": {
            "di": {
                "custom": "",
                "selected": {},
                "value": [
                    "critical-hits",
                    "object-immunities",
                    "precision"
                ]
            },
            "dr": [],
            "dv": [],
            "rarity": "common",
            "size": {
                "value": "med"
            },
            "traits": {
                "custom": "",
                "value": [
                    "auditory",
                    "illusion",
                    "magical",
                    "trap"
                ]
            }
        }
    },
    "img": "systems/pf2ettw/icons/default-icons/hazard.svg",
    "items": [
        {
            "_id": "13Lj5qNdYDXjzEOT",
            "data": {
                "actionCategory": {
                    "value": "offensive"
                },
                "actionType": {
                    "value": "reaction"
                },
                "actions": {
                    "value": null
                },
                "description": {
                    "value": "<p><strong>Trigger</strong> The door is opened</p>\n<hr />\n<p><strong>Effect</strong> The trap casts <em>@Compendium[pf2ettw.spells-srd.Color Spray]{Color Spray}</em> on the triggering creature (@Check[type:will|dc:21|traits:illusion,magical,incapacitation,visual,auditory,trap,visual]).</p>"
                },
                "requirements": {
                    "value": ""
                },
                "rules": [],
                "slug": null,
                "source": {
                    "value": ""
                },
                "traits": {
                    "custom": "",
                    "rarity": "common",
                    "value": []
                },
                "trigger": {
                    "value": ""
                }
            },
            "img": "systems/pf2ettw/icons/actions/Reaction.webp",
            "name": "Color Spray",
            "sort": 0,
            "type": "action"
        }
    ],
    "name": "Color Spray Trap",
    "token": {
        "disposition": 0,
        "height": 1,
        "img": "systems/pf2ettw/icons/default-icons/hazard.svg",
        "name": "Color Spray Trap",
        "width": 1
    },
    "type": "hazard"
}
