{
    "_id": "omcS9Zvq7ZDd35A2",
    "data": {
        "abilities": {
            "cha": {
                "mod": -5
            },
            "con": {
                "mod": 3
            },
            "dex": {
                "mod": 6
            },
            "int": {
                "mod": -5
            },
            "str": {
                "mod": 5
            },
            "wis": {
                "mod": 2
            }
        },
        "attributes": {
            "ac": {
                "details": "",
                "value": 28
            },
            "allSaves": {
                "value": ""
            },
            "hp": {
                "details": "",
                "max": 154,
                "temp": 0,
                "value": 154
            },
            "initiative": {
                "ability": "perception"
            },
            "perception": {
                "value": 18
            },
            "speed": {
                "otherSpeeds": [],
                "value": "25"
            }
        },
        "details": {
            "alignment": {
                "value": "N"
            },
            "blurb": "Variant clockwork buccaneer",
            "creatureType": "",
            "level": {
                "value": 9
            },
            "privateNotes": "",
            "publicNotes": "<p>Clockwork buccaneers are powerful constructs designed for naval combat. Whereas most clockwork creations sink to the ocean floor while at sea, clockwork buccaneers can use their water jets to easily propel themselves through the water or leap aboard enemy ships. In addition to an internal water tank and hydraulic pumps, most clockwork buccaneers are equipped with a cutlass and arm gun loaded with scatter shot.</p>\n<hr />\n<p>As one delves deeper into the industrial heart of Alkenstar, the clockwork adversaries one faces become ever more complex and deadly.</p>",
            "source": {
                "value": "Pathfinder #180: The Smoking Gun"
            }
        },
        "resources": {},
        "saves": {
            "fortitude": {
                "saveDetail": "",
                "value": 17
            },
            "reflex": {
                "saveDetail": "",
                "value": 21
            },
            "will": {
                "saveDetail": "",
                "value": 15
            }
        },
        "traits": {
            "di": {
                "custom": "",
                "value": [
                    "death-effects",
                    "disease",
                    "doomed",
                    "drained",
                    "fatigued",
                    "healing",
                    "mental",
                    "necromancy",
                    "nonlethal-attacks",
                    "paralyzed",
                    "poison",
                    "sickened",
                    "unconscious"
                ]
            },
            "dr": [
                {
                    "exceptions": "except adamantine or bludgeoning",
                    "type": "physical",
                    "value": 5
                }
            ],
            "dv": [
                {
                    "type": "sonic",
                    "value": 10
                }
            ],
            "languages": {
                "custom": "",
                "selected": [],
                "value": []
            },
            "rarity": "uncommon",
            "senses": {
                "value": "darkvision"
            },
            "size": {
                "value": "med"
            },
            "traits": {
                "custom": "",
                "value": [
                    "clockwork",
                    "construct",
                    "mindless"
                ]
            }
        }
    },
    "img": "systems/pf2ettw/icons/default-icons/npc.svg",
    "items": [
        {
            "_id": "LSNnCs1NBMiembJE",
            "data": {
                "MAP": {
                    "value": ""
                },
                "baseItem": "scimitar",
                "bonus": {
                    "value": 0
                },
                "bonusDamage": {
                    "value": 0
                },
                "category": "martial",
                "containerId": null,
                "damage": {
                    "damageType": "slashing",
                    "dice": 1,
                    "die": "d6",
                    "value": ""
                },
                "description": {
                    "value": "<p>This one-handed curved blade is sharp on one side.</p>"
                },
                "equipped": {
                    "carryType": "worn",
                    "handsHeld": 0,
                    "invested": null
                },
                "equippedBulk": {
                    "value": ""
                },
                "group": "sword",
                "hardness": 0,
                "hp": {
                    "brokenThreshold": 0,
                    "max": 0,
                    "value": 0
                },
                "level": {
                    "value": 0
                },
                "negateBulk": {
                    "value": "0"
                },
                "potencyRune": {
                    "value": 1
                },
                "preciousMaterial": {
                    "value": null
                },
                "preciousMaterialGrade": {
                    "value": null
                },
                "price": {
                    "value": {
                        "gp": 1
                    }
                },
                "property1": {
                    "critDamage": "",
                    "critDamageType": "",
                    "critDice": null,
                    "critDie": "",
                    "criticalConditionType": "",
                    "criticalConditionValue": null,
                    "damageType": "",
                    "dice": null,
                    "die": "",
                    "strikeConditionType": "",
                    "strikeConditionValue": null,
                    "value": ""
                },
                "propertyRune1": {
                    "value": null
                },
                "propertyRune2": {
                    "value": null
                },
                "propertyRune3": {
                    "value": null
                },
                "propertyRune4": {
                    "value": null
                },
                "quantity": 1,
                "range": null,
                "reload": {
                    "value": ""
                },
                "rules": [],
                "size": "med",
                "slug": "scimitar",
                "source": {
                    "value": "Pathfinder Core Rulebook"
                },
                "specific": {
                    "value": false
                },
                "splashDamage": {
                    "value": 0
                },
                "stackGroup": null,
                "strikingRune": {
                    "value": ""
                },
                "traits": {
                    "custom": "",
                    "rarity": "common",
                    "value": [
                        "forceful",
                        "sweep"
                    ]
                },
                "usage": {
                    "value": "held-in-one-hand"
                },
                "weight": {
                    "value": "1"
                }
            },
            "flags": {
                "core": {
                    "sourceId": "Compendium.pf2ettw.equipment-srd.grmaV4GdoGD7sKbn"
                }
            },
            "img": "systems/pf2ettw/icons/equipment/weapons/scimitar.webp",
            "name": "Scimitar",
            "sort": 100000,
            "type": "weapon"
        },
        {
            "_id": "aw4mQp7zF8OI2tW1",
            "data": {
                "attack": {
                    "value": ""
                },
                "attackEffects": {
                    "value": []
                },
                "bonus": {
                    "value": 21
                },
                "damageRolls": {
                    "01zvpdiwp552zrrewemp": {
                        "damage": "2d6+11",
                        "damageType": "slashing"
                    }
                },
                "description": {
                    "value": ""
                },
                "rules": [],
                "slug": null,
                "source": {
                    "value": ""
                },
                "traits": {
                    "custom": "",
                    "rarity": "common",
                    "value": [
                        "forceful",
                        "magical",
                        "sweep"
                    ]
                },
                "weaponType": {
                    "value": "melee"
                }
            },
            "img": "systems/pf2ettw/icons/default-icons/melee.svg",
            "name": "Scimitar",
            "sort": 200000,
            "type": "melee"
        },
        {
            "_id": "MPhjBg2N1Cbm482V",
            "data": {
                "attack": {
                    "value": ""
                },
                "attackEffects": {
                    "value": []
                },
                "bonus": {
                    "value": 21
                },
                "damageRolls": {
                    "mik60wzpvprq3albh5ps": {
                        "damage": "2d8+6",
                        "damageType": "piercing"
                    }
                },
                "description": {
                    "value": ""
                },
                "rules": [],
                "slug": null,
                "source": {
                    "value": ""
                },
                "traits": {
                    "custom": "",
                    "rarity": "common",
                    "value": [
                        "concussive",
                        "magical",
                        "range-40",
                        "reload-1",
                        "scatter-10"
                    ]
                },
                "weaponType": {
                    "value": "ranged"
                }
            },
            "img": "systems/pf2ettw/icons/default-icons/melee.svg",
            "name": "Arm Gun",
            "sort": 300000,
            "type": "melee"
        },
        {
            "_id": "i99GJdhqbWDwBFPq",
            "data": {
                "actionCategory": {
                    "value": "interaction"
                },
                "actionType": {
                    "value": "passive"
                },
                "actions": {
                    "value": null
                },
                "description": {
                    "value": "<p>@Localize[pf2ettw.NPC.Abilities.Glossary.Darkvision]</p>"
                },
                "requirements": {
                    "value": ""
                },
                "rules": [],
                "slug": "darkvision",
                "source": {
                    "value": ""
                },
                "traits": {
                    "custom": "",
                    "rarity": "common",
                    "value": []
                },
                "trigger": {
                    "value": ""
                },
                "weapon": {
                    "value": ""
                }
            },
            "flags": {
                "core": {
                    "sourceId": "Compendium.pf2ettw.bestiary-ability-glossary-srd.qCCLZhnp2HhP3Ex6"
                }
            },
            "img": "systems/pf2ettw/icons/actions/Passive.webp",
            "name": "Darkvision",
            "sort": 400000,
            "type": "action"
        },
        {
            "_id": "o7ODmL53RwwxLPcv",
            "data": {
                "actionCategory": {
                    "value": "interaction"
                },
                "actionType": {
                    "value": "passive"
                },
                "actions": {
                    "value": null
                },
                "description": {
                    "value": "<p>24 hours, @Check[type:thievery|dc:26|traits:action:disable-a-device], standby</p>\n<p>For a clockwork to act, it must be wound with a unique key by another creature. This takes 1 minute. Once wound, it remains operational for the listed amount of time, usually 24 hours, after which time it becomes unaware of its surroundings and can't act until it's wound again. Some clockworks' abilities require them to spend some of their remaining operational time. They can't spend more than they have and shut down immediately once they have 0 time remaining. If it's unclear when a clockwork was last wound, most clockwork keepers wind all their clockworks at a set time, typically 8 a.m.</p>\n<p>A clockwork that lists standby in its wind-up entry can enter standby mode as a 3-action activity. Its operational time doesn't decrease in standby, but it can sense its surroundings (with a -2 penalty to Perception). It can't act, with one exception: when it perceives a creature, it can exit standby as a reaction (rolling initiative if appropriate).</p>\n<p>A creature can attempt to Disable a Device to wind a clockwork down (with a DC listed in the wind-up entry). For each success, the clockwork loses 1 hour of operational time. This can be done even if the clockwork is in standby mode.</p>"
                },
                "requirements": {
                    "value": ""
                },
                "rules": [],
                "slug": "clockwork-creature-wind-up",
                "source": {
                    "value": "Pathfinder Bestiary 3"
                },
                "traits": {
                    "custom": "",
                    "rarity": "common",
                    "value": []
                },
                "trigger": {
                    "value": ""
                },
                "weapon": {
                    "value": ""
                }
            },
            "flags": {
                "core": {
                    "sourceId": "Compendium.pf2ettw.bestiary-family-ability-glossary.xS8ybzuqPSi3Jb8k"
                }
            },
            "img": "systems/pf2ettw/icons/actions/Passive.webp",
            "name": "Wind-Up",
            "sort": 500000,
            "type": "action"
        },
        {
            "_id": "dPIPYbdl4Q16tsfM",
            "data": {
                "actionCategory": {
                    "value": "defensive"
                },
                "actionType": {
                    "value": "reaction"
                },
                "actions": {
                    "value": null
                },
                "description": {
                    "value": "<p><strong>Trigger</strong> The glass buccaneer is targeted by a spell</p>\n<hr />\n<p><strong>Effect</strong> The buccaneer positions its reflective magical surfaces to turn the spell back on the caster. It tries to counteract the spell, making an Athletics check for its counteract check. If it successfully counteracts the spell, the effect is turned back on the caster.</p>"
                },
                "requirements": {
                    "value": ""
                },
                "rules": [],
                "slug": null,
                "source": {
                    "value": ""
                },
                "traits": {
                    "custom": "",
                    "rarity": "common",
                    "value": [
                        "abjuration",
                        "arcane"
                    ]
                },
                "trigger": {
                    "value": ""
                }
            },
            "img": "systems/pf2ettw/icons/actions/Reaction.webp",
            "name": "Spell Reflection",
            "sort": 600000,
            "type": "action"
        },
        {
            "_id": "qrF6dVWoNaXom7Hq",
            "data": {
                "actionCategory": {
                    "value": "defensive"
                },
                "actionType": {
                    "value": "passive"
                },
                "actions": {
                    "value": null
                },
                "description": {
                    "value": "<p>The glass buccaneer is affected by the <em>@Compendium[pf2ettw.spells-srd.Shatter]{Shatter}</em> spell as though it were an unattended object.</p>"
                },
                "requirements": {
                    "value": ""
                },
                "rules": [],
                "slug": null,
                "source": {
                    "value": ""
                },
                "traits": {
                    "custom": "",
                    "rarity": "common",
                    "value": []
                },
                "trigger": {
                    "value": ""
                }
            },
            "img": "systems/pf2ettw/icons/actions/Passive.webp",
            "name": "Vulnerable to Shatter",
            "sort": 700000,
            "type": "action"
        },
        {
            "_id": "2zal7ksjoxd4SbHX",
            "data": {
                "actionCategory": {
                    "value": "offensive"
                },
                "actionType": {
                    "value": "passive"
                },
                "actions": {
                    "value": null
                },
                "description": {
                    "value": "<p>When the buccaneer makes a critical hit with a firearm, the target must succeed at a @Check[type:fortitude|dc:28] save or be @Compendium[pf2ettw.conditionitems.Stunned]{Stunned 1}.</p>"
                },
                "requirements": {
                    "value": ""
                },
                "rules": [
                    {
                        "key": "Note",
                        "outcome": [
                            "criticalSuccess"
                        ],
                        "selector": "arm-gun-damage",
                        "text": "{item|data.description.value}",
                        "title": "{item|name}"
                    }
                ],
                "slug": null,
                "source": {
                    "value": ""
                },
                "traits": {
                    "custom": "",
                    "rarity": "common",
                    "value": []
                },
                "trigger": {
                    "value": ""
                }
            },
            "img": "systems/pf2ettw/icons/actions/Passive.webp",
            "name": "Firearms Critical Specialization",
            "sort": 800000,
            "type": "action"
        },
        {
            "_id": "IDaVy4WQ3t4E3HLc",
            "data": {
                "actionCategory": {
                    "value": "offensive"
                },
                "actionType": {
                    "value": "action"
                },
                "actions": {
                    "value": 1
                },
                "description": {
                    "value": "<p>The clockwork buccaneer @Compendium[pf2ettw.actionspf2ettw.Feint]{Feints}. If the target becomes @Compendium[pf2ettw.conditionitems.Flat-Footed]{Flat-Footed} to the buccaneer's melee attacks, it becomes flat-footed to the buccaneer's ranged attacks as well.</p>"
                },
                "requirements": {
                    "value": ""
                },
                "rules": [],
                "slug": null,
                "source": {
                    "value": ""
                },
                "traits": {
                    "custom": "",
                    "rarity": "common",
                    "value": [
                        "mental"
                    ]
                },
                "trigger": {
                    "value": ""
                }
            },
            "img": "systems/pf2ettw/icons/actions/OneAction.webp",
            "name": "Pirate's Feint",
            "sort": 900000,
            "type": "action"
        },
        {
            "_id": "Lbue1lqf45XkXoDq",
            "data": {
                "actionCategory": {
                    "value": "offensive"
                },
                "actionType": {
                    "value": "action"
                },
                "actions": {
                    "value": 1
                },
                "description": {
                    "value": "<p><strong>Requirements</strong> The clockwork buccaneer is within 15 feet of a water source containing at least 100 gallons of water</p>\n<hr />\n<p><strong>Effect</strong> The clockwork buccaneer extends a clockwork tube and sucks up water to refill its water tank.</p>"
                },
                "requirements": {
                    "value": ""
                },
                "rules": [],
                "slug": null,
                "source": {
                    "value": ""
                },
                "traits": {
                    "custom": "",
                    "rarity": "common",
                    "value": []
                },
                "trigger": {
                    "value": ""
                }
            },
            "img": "systems/pf2ettw/icons/actions/OneAction.webp",
            "name": "Refill Tank",
            "sort": 1000000,
            "type": "action"
        },
        {
            "_id": "Gx8L9HhbNrNf8WxC",
            "data": {
                "actionCategory": {
                    "value": "offensive"
                },
                "actionType": {
                    "value": "passive"
                },
                "actions": {
                    "value": null
                },
                "description": {
                    "value": "<p>The clockwork buccaneer deals an extra 2d6 precision damage to flat-footed creatures.</p>\n<p>@Localize[pf2ettw.NPC.Abilities.Glossary.SneakAttack]</p>"
                },
                "requirements": {
                    "value": ""
                },
                "rules": [
                    {
                        "category": "precision",
                        "diceNumber": 2,
                        "dieSize": "d6",
                        "key": "DamageDice",
                        "predicate": {
                            "all": [
                                "target:condition:flat-footed",
                                {
                                    "or": [
                                        "finesse",
                                        "agile",
                                        {
                                            "and": [
                                                "ranged",
                                                {
                                                    "not": "thrown"
                                                }
                                            ]
                                        }
                                    ]
                                }
                            ]
                        },
                        "selector": "strike-damage"
                    }
                ],
                "slug": "sneak-attack",
                "source": {
                    "value": ""
                },
                "traits": {
                    "custom": "",
                    "rarity": "common",
                    "value": []
                },
                "trigger": {
                    "value": ""
                },
                "weapon": {
                    "value": ""
                }
            },
            "flags": {
                "core": {
                    "sourceId": "Compendium.pf2ettw.bestiary-ability-glossary-srd.AWvNPE4U0kEJSL1T"
                }
            },
            "img": "systems/pf2ettw/icons/actions/Passive.webp",
            "name": "Sneak Attack",
            "sort": 1100000,
            "type": "action"
        },
        {
            "_id": "yabUjJ8dcc4BjniB",
            "data": {
                "actionCategory": {
                    "value": "offensive"
                },
                "actionType": {
                    "value": "action"
                },
                "actions": {
                    "value": 1
                },
                "description": {
                    "value": "<p><strong>Requirements</strong> The clockwork buccaneer has a full water tank</p>\n<hr />\n<p><strong>Effect</strong> The clockwork buccaneer fires a narrow but highly pressurized blast of water in a @Template[type:line|distance:60], dealing [[/r {10d6}[bludgeoning]]]{10d6 bludgeoning damage} to creatures and unattended objects in the area (@Check[type:fortitude|dc:28|basic:true]; unattended objects automatically fail). Creatures and objects that fail the save are also knocked back 5 feet (10 feet on a critical failure). This empties the buccaneer's water tank.</p>"
                },
                "requirements": {
                    "value": ""
                },
                "rules": [],
                "slug": null,
                "source": {
                    "value": ""
                },
                "traits": {
                    "custom": "",
                    "rarity": "common",
                    "value": []
                },
                "trigger": {
                    "value": ""
                }
            },
            "img": "systems/pf2ettw/icons/actions/OneAction.webp",
            "name": "Water Jet",
            "sort": 1200000,
            "type": "action"
        },
        {
            "_id": "RLyfMb5fTBOG3p9w",
            "data": {
                "actionCategory": {
                    "value": "offensive"
                },
                "actionType": {
                    "value": "action"
                },
                "actions": {
                    "value": 1
                },
                "description": {
                    "value": "<p><strong>Requirements</strong> The clockwork buccaneer has a full water tank</p>\n<hr />\n<p><strong>Effect</strong> The clockwork buccaneer jumps 60 feet, propelling itself through the air with a jet of water. This empties the buccaneer's water tank.</p>"
                },
                "requirements": {
                    "value": ""
                },
                "rules": [],
                "slug": null,
                "source": {
                    "value": ""
                },
                "traits": {
                    "custom": "",
                    "rarity": "common",
                    "value": []
                },
                "trigger": {
                    "value": ""
                }
            },
            "img": "systems/pf2ettw/icons/actions/OneAction.webp",
            "name": "Water Jump",
            "sort": 1300000,
            "type": "action"
        },
        {
            "_id": "tu5Yen91s8VudaXe",
            "data": {
                "description": {
                    "value": ""
                },
                "mod": {
                    "value": 18
                },
                "proficient": {
                    "value": 0
                },
                "rules": [],
                "slug": null,
                "source": {
                    "value": ""
                },
                "traits": {
                    "custom": "",
                    "rarity": "common",
                    "value": []
                }
            },
            "img": "systems/pf2ettw/icons/default-icons/lore.svg",
            "name": "Athletics",
            "sort": 1400000,
            "type": "lore"
        },
        {
            "_id": "VKapoNu6QDmIktVQ",
            "data": {
                "description": {
                    "value": ""
                },
                "mod": {
                    "value": 12
                },
                "proficient": {
                    "value": 0
                },
                "rules": [
                    {
                        "key": "FlatModifier",
                        "label": "pf2ettw.SkillVariant.Feint",
                        "predicate": {
                            "all": [
                                "action:feint"
                            ]
                        },
                        "selector": "deception",
                        "value": 8
                    }
                ],
                "slug": null,
                "source": {
                    "value": ""
                },
                "traits": {
                    "custom": "",
                    "rarity": "common",
                    "value": []
                },
                "variants": {
                    "0": {
                        "label": "+20 to Feint",
                        "options": "action:feint"
                    }
                }
            },
            "img": "systems/pf2ettw/icons/default-icons/lore.svg",
            "name": "Deception",
            "sort": 1500000,
            "type": "lore"
        },
        {
            "_id": "XLpPw47Zl9QMHWFu",
            "data": {
                "description": {
                    "value": ""
                },
                "mod": {
                    "value": 20
                },
                "proficient": {
                    "value": 0
                },
                "rules": [],
                "slug": null,
                "source": {
                    "value": ""
                },
                "traits": {
                    "custom": "",
                    "rarity": "common",
                    "value": []
                }
            },
            "img": "systems/pf2ettw/icons/default-icons/lore.svg",
            "name": "Stealth",
            "sort": 1600000,
            "type": "lore"
        }
    ],
    "name": "Glass Buccaneer",
    "token": {
        "disposition": -1,
        "height": 1,
        "img": "systems/pf2ettw/icons/default-icons/npc.svg",
        "name": "Clockwork Buccaneer",
        "width": 1
    },
    "type": "npc"
}
