{
    "_id": "8KUB92Ljms7hS7vq",
    "data": {
        "abilities": {
            "cha": {
                "mod": 4
            },
            "con": {
                "mod": 0
            },
            "dex": {
                "mod": 4
            },
            "int": {
                "mod": 0
            },
            "str": {
                "mod": -3
            },
            "wis": {
                "mod": 3
            }
        },
        "attributes": {
            "ac": {
                "details": "",
                "value": 19
            },
            "allSaves": {
                "value": ""
            },
            "hp": {
                "details": "",
                "max": 40,
                "temp": 0,
                "value": 40
            },
            "initiative": {
                "ability": "perception"
            },
            "perception": {
                "value": 11
            },
            "speed": {
                "otherSpeeds": [
                    {
                        "type": "fly",
                        "value": "40"
                    }
                ],
                "value": "10"
            }
        },
        "details": {
            "alignment": {
                "value": "NG"
            },
            "blurb": "Female nyktera oracle",
            "creatureType": "",
            "level": {
                "value": 3
            },
            "privateNotes": "",
            "publicNotes": "",
            "source": {
                "value": "Pathfinder #179: Cradle of Quartz"
            }
        },
        "resources": {},
        "saves": {
            "fortitude": {
                "saveDetail": "",
                "value": 7
            },
            "reflex": {
                "saveDetail": "",
                "value": 11
            },
            "will": {
                "saveDetail": "",
                "value": 12
            }
        },
        "traits": {
            "di": {
                "custom": "",
                "value": []
            },
            "dr": [],
            "dv": [
                {
                    "type": "coldiron",
                    "value": 3
                }
            ],
            "languages": {
                "custom": "Speak With Bats",
                "selected": [],
                "value": [
                    "common",
                    "sylvan"
                ]
            },
            "rarity": "unique",
            "senses": {
                "value": "+13 to Seek creatures using hearing, low-light vision"
            },
            "size": {
                "value": "tiny"
            },
            "traits": {
                "custom": "",
                "value": [
                    "fey",
                    "sprite"
                ]
            }
        }
    },
    "img": "systems/pf2ettw/icons/default-icons/npc.svg",
    "items": [
        {
            "_id": "gvMwWBO9ToyeDWP5",
            "data": {
                "autoHeightenLevel": {
                    "value": null
                },
                "description": {
                    "value": ""
                },
                "displayLevels": {},
                "prepared": {
                    "flexible": false,
                    "value": "innate"
                },
                "proficiency": {
                    "value": 1
                },
                "rules": [],
                "showSlotlessLevels": {
                    "value": true
                },
                "showUnpreparedSpells": {
                    "value": true
                },
                "slots": {
                    "slot0": {
                        "max": 0,
                        "prepared": [],
                        "value": 0
                    },
                    "slot1": {
                        "max": 0,
                        "prepared": [],
                        "value": 0
                    },
                    "slot10": {
                        "max": 0,
                        "prepared": [],
                        "value": 0
                    },
                    "slot11": {
                        "max": 0,
                        "prepared": [],
                        "value": 0
                    },
                    "slot2": {
                        "max": 0,
                        "prepared": [],
                        "value": 0
                    },
                    "slot3": {
                        "max": 0,
                        "prepared": [],
                        "value": 0
                    },
                    "slot4": {
                        "max": 0,
                        "prepared": [],
                        "value": 0
                    },
                    "slot5": {
                        "max": 0,
                        "prepared": [],
                        "value": 0
                    },
                    "slot6": {
                        "max": 0,
                        "prepared": [],
                        "value": 0
                    },
                    "slot7": {
                        "max": 0,
                        "prepared": [],
                        "value": 0
                    },
                    "slot8": {
                        "max": 0,
                        "prepared": [],
                        "value": 0
                    },
                    "slot9": {
                        "max": 0,
                        "prepared": [],
                        "value": 0
                    }
                },
                "slug": null,
                "source": {
                    "value": ""
                },
                "spelldc": {
                    "dc": 20,
                    "mod": 0,
                    "value": 12
                },
                "tradition": {
                    "value": "primal"
                },
                "traits": {
                    "custom": "",
                    "rarity": "common",
                    "value": []
                }
            },
            "img": "systems/pf2ettw/icons/default-icons/spellcastingEntry.svg",
            "name": "Primal Innate Spells",
            "sort": 100000,
            "type": "spellcastingEntry"
        },
        {
            "_id": "DB3iEURyKeOzWsXu",
            "data": {
                "ability": {
                    "value": ""
                },
                "area": {
                    "areaType": "",
                    "value": null
                },
                "areasize": {
                    "value": ""
                },
                "category": {
                    "value": "spell"
                },
                "components": {
                    "focus": false,
                    "material": false,
                    "somatic": true,
                    "verbal": true
                },
                "cost": {
                    "value": ""
                },
                "damage": {
                    "value": {}
                },
                "description": {
                    "value": "<p>With a touch, you ease a creature's fears. You can attempt to counteract a single fear effect that the target suffers from. This frees only the target, not any other creatures under the fear effect.</p>\n<hr />\n<p><strong>Heightened (6th)</strong> The spell's range increases to 30 feet, and you can target up to 10 creatures.</p>"
                },
                "duration": {
                    "value": ""
                },
                "hasCounteractCheck": {
                    "value": true
                },
                "heightening": {
                    "levels": {
                        "6": {
                            "range": {
                                "value": "30 feet"
                            },
                            "target": {
                                "value": "10 creatures"
                            }
                        }
                    },
                    "type": "fixed"
                },
                "level": {
                    "value": 2
                },
                "location": {
                    "heightenedLevel": 2,
                    "value": "gvMwWBO9ToyeDWP5"
                },
                "materials": {
                    "value": ""
                },
                "prepared": {
                    "value": ""
                },
                "primarycheck": {
                    "value": ""
                },
                "range": {
                    "value": "touch"
                },
                "rules": [],
                "save": {
                    "basic": "",
                    "value": ""
                },
                "school": {
                    "value": "enchantment"
                },
                "secondarycasters": {
                    "value": ""
                },
                "secondarycheck": {
                    "value": ""
                },
                "slug": "remove-fear",
                "source": {
                    "value": "Pathfinder Core Rulebook"
                },
                "spellType": {
                    "value": "utility"
                },
                "sustained": {
                    "value": false
                },
                "target": {
                    "value": "1 creature"
                },
                "time": {
                    "value": "2"
                },
                "traditions": {
                    "value": [
                        "divine",
                        "occult",
                        "primal"
                    ]
                },
                "traits": {
                    "custom": "",
                    "rarity": "common",
                    "value": []
                }
            },
            "flags": {
                "core": {
                    "sourceId": "Compendium.pf2ettw.spells-srd.EfFMLVbmkBWmzoLF"
                }
            },
            "img": "systems/pf2ettw/icons/spells/remove-fear.webp",
            "name": "Remove Fear",
            "sort": 200000,
            "type": "spell"
        },
        {
            "_id": "p3l0eqg4frWarD3W",
            "data": {
                "ability": {
                    "value": ""
                },
                "area": {
                    "areaType": "",
                    "value": null
                },
                "areasize": {
                    "value": ""
                },
                "category": {
                    "value": "spell"
                },
                "components": {
                    "focus": false,
                    "material": false,
                    "somatic": true,
                    "verbal": true
                },
                "cost": {
                    "value": ""
                },
                "damage": {
                    "value": {}
                },
                "description": {
                    "value": "<p>You grant the target brief foresight. The target gains a +1 status bonus to its next initiative roll, after which the spell ends.</p>\n<hr />\n<p><strong>Heightened (+2)</strong> The status bonus increases by 1, to a maximum of +4 at 7th level.</p>"
                },
                "duration": {
                    "value": "10 minutes"
                },
                "hasCounteractCheck": {
                    "value": false
                },
                "level": {
                    "value": 1
                },
                "location": {
                    "heightenedLevel": 1,
                    "value": "gvMwWBO9ToyeDWP5"
                },
                "materials": {
                    "value": ""
                },
                "prepared": {
                    "value": ""
                },
                "primarycheck": {
                    "value": ""
                },
                "range": {
                    "value": "30 feet"
                },
                "rules": [],
                "save": {
                    "basic": "",
                    "value": ""
                },
                "school": {
                    "value": "divination"
                },
                "secondarycasters": {
                    "value": ""
                },
                "secondarycheck": {
                    "value": ""
                },
                "slug": "anticipate-peril",
                "source": {
                    "value": "Pathfinder Lost Omens: Gods & Magic"
                },
                "spellType": {
                    "value": "utility"
                },
                "sustained": {
                    "value": false
                },
                "target": {
                    "value": "1 creature"
                },
                "time": {
                    "value": "2"
                },
                "traditions": {
                    "custom": "",
                    "value": [
                        "arcane",
                        "occult"
                    ]
                },
                "traits": {
                    "custom": "",
                    "rarity": "common",
                    "value": []
                }
            },
            "flags": {
                "core": {
                    "sourceId": "Compendium.pf2ettw.spells-srd.EUMjrJJwSgsqNidi"
                }
            },
            "img": "systems/pf2ettw/icons/spells/anticipate-peril.webp",
            "name": "Anticipate Peril",
            "sort": 300000,
            "type": "spell"
        },
        {
            "_id": "zold6wFIG2JnFjAI",
            "data": {
                "ability": {
                    "value": ""
                },
                "area": {
                    "areaType": "",
                    "value": null
                },
                "areasize": {
                    "value": ""
                },
                "category": {
                    "value": "spell"
                },
                "components": {
                    "focus": false,
                    "material": false,
                    "somatic": true,
                    "verbal": true
                },
                "cost": {
                    "value": ""
                },
                "damage": {
                    "value": {}
                },
                "description": {
                    "value": "<p>You create up to four floating lights, no two of which are more than 10 feet apart. Each sheds light like a torch. When you Sustain the Spell, you can move any number of lights up to 60 feet. Each light must remain within 120 feet of you and within 10 feet of all others, or it winks out.</p>"
                },
                "duration": {
                    "value": "sustained"
                },
                "hasCounteractCheck": {
                    "value": false
                },
                "level": {
                    "value": 1
                },
                "location": {
                    "value": "gvMwWBO9ToyeDWP5"
                },
                "materials": {
                    "value": ""
                },
                "prepared": {
                    "value": ""
                },
                "primarycheck": {
                    "value": ""
                },
                "range": {
                    "value": "120 feet"
                },
                "rules": [],
                "save": {
                    "basic": "",
                    "value": ""
                },
                "school": {
                    "value": "evocation"
                },
                "secondarycasters": {
                    "value": ""
                },
                "secondarycheck": {
                    "value": ""
                },
                "slug": "dancing-lights",
                "source": {
                    "value": "Pathfinder Core Rulebook"
                },
                "spellType": {
                    "value": "utility"
                },
                "sustained": {
                    "value": true
                },
                "target": {
                    "value": ""
                },
                "time": {
                    "value": "2"
                },
                "traditions": {
                    "custom": "",
                    "value": [
                        "arcane",
                        "occult",
                        "primal"
                    ]
                },
                "traits": {
                    "custom": "",
                    "rarity": "common",
                    "value": [
                        "light",
                        "cantrip"
                    ]
                }
            },
            "flags": {
                "core": {
                    "sourceId": "Compendium.pf2ettw.spells-srd.kl2q6JvBZwed4B6v"
                }
            },
            "img": "systems/pf2ettw/icons/spells/dancing-lights.webp",
            "name": "Dancing Lights",
            "sort": 400000,
            "type": "spell"
        },
        {
            "_id": "YccSgYiGZLA7wkV3",
            "data": {
                "ability": {
                    "value": ""
                },
                "area": {
                    "areaType": "",
                    "value": null
                },
                "areasize": {
                    "value": ""
                },
                "category": {
                    "value": "spell"
                },
                "components": {
                    "focus": false,
                    "material": false,
                    "somatic": true,
                    "verbal": true
                },
                "cost": {
                    "value": ""
                },
                "damage": {
                    "value": {}
                },
                "description": {
                    "value": "<p>You create an auditory illusion of simple sounds that has a maximum volume equal to four normal humans shouting. The sounds emanate from a square you designate within range. You can't create intelligible words or other intricate sounds (such as music).</p>\n<hr />\n<p><strong>Heightened (3rd)</strong> The range increases to 60 feet.</p>\n<p><strong>Heightened (5th)</strong> The range increases to 120 feet.</p>"
                },
                "duration": {
                    "value": "sustained"
                },
                "hasCounteractCheck": {
                    "value": false
                },
                "heightening": {
                    "levels": {
                        "3": {
                            "range": {
                                "value": "60 feet"
                            }
                        },
                        "5": {
                            "range": {
                                "value": "120 feet"
                            }
                        }
                    },
                    "type": "fixed"
                },
                "level": {
                    "value": 1
                },
                "location": {
                    "value": "gvMwWBO9ToyeDWP5"
                },
                "materials": {
                    "value": ""
                },
                "prepared": {
                    "value": ""
                },
                "primarycheck": {
                    "value": ""
                },
                "range": {
                    "value": "30 feet"
                },
                "rules": [],
                "save": {
                    "basic": "",
                    "value": ""
                },
                "school": {
                    "value": "illusion"
                },
                "secondarycasters": {
                    "value": ""
                },
                "secondarycheck": {
                    "value": ""
                },
                "slug": "ghost-sound",
                "source": {
                    "value": "Pathfinder Core Rulebook"
                },
                "spellType": {
                    "value": "utility"
                },
                "sustained": {
                    "value": false
                },
                "target": {
                    "value": ""
                },
                "time": {
                    "value": "2"
                },
                "traditions": {
                    "value": [
                        "arcane",
                        "occult"
                    ]
                },
                "traits": {
                    "custom": "",
                    "rarity": "common",
                    "value": [
                        "auditory",
                        "cantrip"
                    ]
                }
            },
            "flags": {
                "core": {
                    "sourceId": "Compendium.pf2ettw.spells-srd.atlgGNI1E1Ox3O3a"
                }
            },
            "img": "systems/pf2ettw/icons/spells/ghost-sound.webp",
            "name": "Ghost Sound",
            "sort": 500000,
            "type": "spell"
        },
        {
            "_id": "a0z5fqa0SEL2VvnX",
            "data": {
                "ability": {
                    "value": ""
                },
                "area": {
                    "areaType": "emanation",
                    "value": "30"
                },
                "areasize": {
                    "value": "varies"
                },
                "category": {
                    "value": "spell"
                },
                "components": {
                    "focus": false,
                    "material": false,
                    "somatic": false,
                    "verbal": false
                },
                "cost": {
                    "value": ""
                },
                "damage": {
                    "value": {
                        "0": {
                            "applyMod": false,
                            "type": {
                                "categories": [],
                                "subtype": "",
                                "value": "positive"
                            },
                            "value": "1d8"
                        }
                    }
                },
                "description": {
                    "value": "<p>You channel positive energy to heal the living or damage the undead. If the target is a willing living creature, you restore 1d8 Hit Points. If the target is undead, you deal that amount of positive damage to it, and it gets a basic Fortitude save. The number of actions you spend when Casting this Spell determines its targets, range, area, and other parameters.</p>\n<p><span class=\"pf2-icon\">1</span> (somatic) The spell has a range of touch.</p>\n<p><span class=\"pf2-icon\">2</span> (verbal, somatic) The spell has a range of 30 feet. If you're healing a living creature, increase the Hit Points restored by 8. [[/r (@item.level)d8[positive]+@item.level*8[healing]]]{2-Action Healing}</p>\n<p><span class=\"pf2-icon\">3</span> (material, somatic, verbal) You disperse positive energy in a 30-foot emanation. This targets all living and undead creatures in the burst.</p>\n<hr />\n<p><strong>Heightened (+1)</strong> The amount of healing or damage increases by 1d8, and the extra healing for the 2-action version increases by 8.</p>"
                },
                "duration": {
                    "value": ""
                },
                "hasCounteractCheck": {
                    "value": false
                },
                "heightening": {
                    "damage": {
                        "0": "1d8"
                    },
                    "interval": 1,
                    "type": "interval"
                },
                "level": {
                    "value": 1
                },
                "location": {
                    "heightenedLevel": 2,
                    "value": "gvMwWBO9ToyeDWP5"
                },
                "materials": {
                    "value": ""
                },
                "prepared": {
                    "value": ""
                },
                "primarycheck": {
                    "value": ""
                },
                "range": {
                    "value": "varies"
                },
                "rules": [],
                "save": {
                    "basic": "basic",
                    "value": "fortitude"
                },
                "school": {
                    "value": "necromancy"
                },
                "secondarycasters": {
                    "value": ""
                },
                "secondarycheck": {
                    "value": ""
                },
                "slug": "heal",
                "source": {
                    "value": "Pathfinder Core Rulebook"
                },
                "spellType": {
                    "value": "heal"
                },
                "sustained": {
                    "value": false
                },
                "target": {
                    "value": "1 willing living creature or 1 undead"
                },
                "time": {
                    "value": "1 to 3"
                },
                "traditions": {
                    "custom": "",
                    "value": [
                        "divine",
                        "primal"
                    ]
                },
                "traits": {
                    "custom": "",
                    "rarity": "common",
                    "value": [
                        "healing",
                        "positive"
                    ]
                }
            },
            "flags": {
                "core": {
                    "sourceId": "Compendium.pf2ettw.spells-srd.rfZpqmj0AIIdkVIs"
                }
            },
            "img": "systems/pf2ettw/icons/spells/heal.webp",
            "name": "Heal",
            "sort": 600000,
            "type": "spell"
        },
        {
            "_id": "auVAsbmjaU0ZBxEX",
            "data": {
                "ability": {
                    "value": ""
                },
                "area": {
                    "areaType": "emanation",
                    "value": "30"
                },
                "areasize": {
                    "value": "varies"
                },
                "category": {
                    "value": "spell"
                },
                "components": {
                    "focus": false,
                    "material": false,
                    "somatic": false,
                    "verbal": false
                },
                "cost": {
                    "value": ""
                },
                "damage": {
                    "value": {
                        "0": {
                            "applyMod": false,
                            "type": {
                                "categories": [],
                                "subtype": "",
                                "value": "positive"
                            },
                            "value": "1d8"
                        }
                    }
                },
                "description": {
                    "value": "<p>You channel positive energy to heal the living or damage the undead. If the target is a willing living creature, you restore 1d8 Hit Points. If the target is undead, you deal that amount of positive damage to it, and it gets a basic Fortitude save. The number of actions you spend when Casting this Spell determines its targets, range, area, and other parameters.</p>\n<p><span class=\"pf2-icon\">1</span> (somatic) The spell has a range of touch.</p>\n<p><span class=\"pf2-icon\">2</span> (verbal, somatic) The spell has a range of 30 feet. If you're healing a living creature, increase the Hit Points restored by 8. [[/r (@item.level)d8[positive]+@item.level*8[healing]]]{2-Action Healing}</p>\n<p><span class=\"pf2-icon\">3</span> (material, somatic, verbal) You disperse positive energy in a 30-foot emanation. This targets all living and undead creatures in the burst.</p>\n<hr />\n<p><strong>Heightened (+1)</strong> The amount of healing or damage increases by 1d8, and the extra healing for the 2-action version increases by 8.</p>"
                },
                "duration": {
                    "value": ""
                },
                "hasCounteractCheck": {
                    "value": false
                },
                "heightening": {
                    "damage": {
                        "0": "1d8"
                    },
                    "interval": 1,
                    "type": "interval"
                },
                "level": {
                    "value": 1
                },
                "location": {
                    "heightenedLevel": 1,
                    "value": "gvMwWBO9ToyeDWP5"
                },
                "materials": {
                    "value": ""
                },
                "prepared": {
                    "value": ""
                },
                "primarycheck": {
                    "value": ""
                },
                "range": {
                    "value": "varies"
                },
                "rules": [],
                "save": {
                    "basic": "basic",
                    "value": "fortitude"
                },
                "school": {
                    "value": "necromancy"
                },
                "secondarycasters": {
                    "value": ""
                },
                "secondarycheck": {
                    "value": ""
                },
                "slug": "heal",
                "source": {
                    "value": "Pathfinder Core Rulebook"
                },
                "spellType": {
                    "value": "heal"
                },
                "sustained": {
                    "value": false
                },
                "target": {
                    "value": "1 willing living creature or 1 undead"
                },
                "time": {
                    "value": "1 to 3"
                },
                "traditions": {
                    "custom": "",
                    "value": [
                        "divine",
                        "primal"
                    ]
                },
                "traits": {
                    "custom": "",
                    "rarity": "common",
                    "value": [
                        "healing",
                        "positive"
                    ]
                }
            },
            "flags": {
                "core": {
                    "sourceId": "Compendium.pf2ettw.spells-srd.rfZpqmj0AIIdkVIs"
                }
            },
            "img": "systems/pf2ettw/icons/spells/heal.webp",
            "name": "Heal",
            "sort": 700000,
            "type": "spell"
        },
        {
            "_id": "k1zxqVSUmXYDdDI9",
            "data": {
                "ability": {
                    "value": ""
                },
                "area": {
                    "areaType": "",
                    "value": null
                },
                "areasize": {
                    "value": ""
                },
                "category": {
                    "value": "spell"
                },
                "components": {
                    "focus": false,
                    "material": false,
                    "somatic": true,
                    "verbal": true
                },
                "cost": {
                    "value": ""
                },
                "damage": {
                    "value": {}
                },
                "description": {
                    "value": "<p>You repair the target item. You restore 5 Hit Points per spell level to the target, potentially removing the @Compendium[pf2ettw.conditionitems.Broken]{Broken} condition if this repairs it past the item's Broken Threshold. You can't replace lost pieces or repair an object that's been completely destroyed.</p>\n<hr />\n<p><strong>Heightened (2nd)</strong> You can target a non-magical object of 1 Bulk or less.</p>\n<p><strong>Heightened (3rd)</strong> You can target a non-magical object of 2 Bulk or less, or a magical object of 1 Bulk or less.</p>"
                },
                "duration": {
                    "value": ""
                },
                "hasCounteractCheck": {
                    "value": false
                },
                "heightening": {
                    "levels": {
                        "2": {
                            "target": {
                                "value": "non-magical object of 1 Bulk or less"
                            }
                        },
                        "3": {
                            "target": {
                                "value": "non-magical object of 2 Bulk or less, or a magical object of 1 Bulk or less"
                            }
                        }
                    },
                    "type": "fixed"
                },
                "level": {
                    "value": 1
                },
                "location": {
                    "heightenedLevel": 1,
                    "value": "gvMwWBO9ToyeDWP5"
                },
                "materials": {
                    "value": ""
                },
                "prepared": {
                    "value": ""
                },
                "primarycheck": {
                    "value": ""
                },
                "range": {
                    "value": "touch"
                },
                "rules": [],
                "save": {
                    "basic": "",
                    "value": ""
                },
                "school": {
                    "value": "transmutation"
                },
                "secondarycasters": {
                    "value": ""
                },
                "secondarycheck": {
                    "value": ""
                },
                "slug": "mending",
                "source": {
                    "value": "Pathfinder Core Rulebook"
                },
                "spellType": {
                    "value": "utility"
                },
                "sustained": {
                    "value": false
                },
                "target": {
                    "value": "non-magical object of light Bulk or less"
                },
                "time": {
                    "value": "10 minutes"
                },
                "traditions": {
                    "value": [
                        "arcane",
                        "divine",
                        "occult",
                        "primal"
                    ]
                },
                "traits": {
                    "custom": "",
                    "rarity": "common",
                    "value": []
                }
            },
            "flags": {
                "core": {
                    "sourceId": "Compendium.pf2ettw.spells-srd.dINQzhqGmIsqGMUY"
                }
            },
            "img": "systems/pf2ettw/icons/spells/mending.webp",
            "name": "Mending",
            "sort": 800000,
            "type": "spell"
        },
        {
            "_id": "RaRSknCllrByVOsg",
            "data": {
                "MAP": {
                    "value": ""
                },
                "baseItem": "staff",
                "bonus": {
                    "value": 0
                },
                "bonusDamage": {
                    "value": 0
                },
                "category": "simple",
                "containerId": null,
                "damage": {
                    "damageType": "bludgeoning",
                    "dice": 1,
                    "die": "d4",
                    "value": ""
                },
                "description": {
                    "value": "<p>This long piece of wood can aid in walking and deliver a mighty blow.</p>"
                },
                "equipped": {
                    "carryType": "worn",
                    "handsHeld": 0,
                    "invested": null
                },
                "equippedBulk": {
                    "value": ""
                },
                "group": "club",
                "hardness": 0,
                "hp": {
                    "brokenThreshold": 0,
                    "max": 0,
                    "value": 0
                },
                "level": {
                    "value": 0
                },
                "negateBulk": {
                    "value": "0"
                },
                "potencyRune": {
                    "value": null
                },
                "preciousMaterial": {
                    "value": ""
                },
                "preciousMaterialGrade": {
                    "value": ""
                },
                "price": {
                    "value": {}
                },
                "property1": {
                    "critDamage": "",
                    "critDamageType": "",
                    "critDice": null,
                    "critDie": "",
                    "criticalConditionType": "",
                    "criticalConditionValue": null,
                    "damageType": "",
                    "dice": null,
                    "die": "",
                    "strikeConditionType": "",
                    "strikeConditionValue": null,
                    "value": ""
                },
                "propertyRune1": {
                    "value": ""
                },
                "propertyRune2": {
                    "value": ""
                },
                "propertyRune3": {
                    "value": ""
                },
                "propertyRune4": {
                    "value": ""
                },
                "quantity": 1,
                "range": null,
                "reload": {
                    "value": ""
                },
                "rules": [],
                "size": "tiny",
                "slug": "staff",
                "source": {
                    "value": "Pathfinder Core Rulebook"
                },
                "specific": {
                    "value": false
                },
                "splashDamage": {
                    "value": 0
                },
                "stackGroup": null,
                "strikingRune": {
                    "value": ""
                },
                "traits": {
                    "custom": "",
                    "rarity": "common",
                    "value": [
                        "two-hand-d8"
                    ]
                },
                "usage": {
                    "value": "held-in-one-hand"
                },
                "weight": {
                    "value": "1"
                }
            },
            "flags": {
                "core": {
                    "sourceId": "Compendium.pf2ettw.equipment-srd.FVjTuBCIefAgloUU"
                }
            },
            "img": "systems/pf2ettw/icons/equipment/weapons/staff.webp",
            "name": "Staff",
            "sort": 900000,
            "type": "weapon"
        },
        {
            "_id": "gkEHVzhkzIiScjS3",
            "data": {
                "baseItem": null,
                "containerId": null,
                "description": {
                    "value": "<p>This elegant copper ring has miniature images of songbirds engraved around its circumference. You gain a +1 item bonus to Deception checks.</p>\n<p><strong>Activate</strong> <span class=\"pf2-icon\">D</span> Interact</p>\n<p><strong>Frequency</strong> once per day</p>\n<hr />\n<p><strong>Effect</strong> Twisting the ring around your finger allows you to magically throw your voice, with the effects of a <em>@Compendium[pf2ettw.spells-srd.Ventriloquism]{Ventriloquism}</em> spell (DC 19).</p>\n<hr />\n<p>Automatically applied effects:</p>\n<ul>\n<li>+1 item bonus to Deception checks</li>\n</ul>"
                },
                "equipped": {
                    "carryType": "worn",
                    "invested": null
                },
                "equippedBulk": {
                    "value": ""
                },
                "hardness": 0,
                "hp": {
                    "brokenThreshold": 0,
                    "max": 0,
                    "value": 0
                },
                "level": {
                    "value": 3
                },
                "negateBulk": {
                    "value": "0"
                },
                "preciousMaterial": {
                    "value": ""
                },
                "preciousMaterialGrade": {
                    "value": ""
                },
                "price": {
                    "value": {
                        "gp": 60
                    }
                },
                "quantity": 1,
                "rules": [
                    {
                        "key": "FlatModifier",
                        "selector": "deception",
                        "type": "item",
                        "value": 1
                    }
                ],
                "size": "tiny",
                "slug": "ventriloquists-ring",
                "source": {
                    "value": "Pathfinder Core Rulebook"
                },
                "stackGroup": null,
                "traits": {
                    "custom": "",
                    "rarity": "common",
                    "value": [
                        "illusion",
                        "invested",
                        "magical"
                    ]
                },
                "usage": {
                    "value": "worn"
                },
                "weight": {
                    "value": "-"
                }
            },
            "flags": {
                "core": {
                    "sourceId": "Compendium.pf2ettw.equipment-srd.1r6StS0irdvi5JHY"
                }
            },
            "img": "systems/pf2ettw/icons/equipment/worn-items/other-worn-items/ventriloquists-ring.webp",
            "name": "Ventriloquist's Ring",
            "sort": 1000000,
            "type": "equipment"
        },
        {
            "_id": "tfOgYqhTGSmqomlE",
            "data": {
                "attack": {
                    "value": ""
                },
                "attackEffects": {
                    "value": []
                },
                "bonus": {
                    "value": 8
                },
                "damageRolls": {
                    "kvbewr598jt0fb94wgap": {
                        "damage": "1d4-1",
                        "damageType": "bludgeoning"
                    }
                },
                "description": {
                    "value": ""
                },
                "rules": [
                    {
                        "domain": "damage-roll",
                        "key": "RollOption",
                        "label": "pf2ettw.SpecificRule.TwoHanded.Staff",
                        "option": "twoHanded",
                        "toggleable": true
                    },
                    {
                        "key": "DamageDice",
                        "label": "pf2ettw.TraitTwoHandD8",
                        "override": {
                            "dieSize": "d8"
                        },
                        "predicate": {
                            "all": [
                                "twoHanded"
                            ]
                        },
                        "selector": "{item|_id}-damage"
                    }
                ],
                "slug": null,
                "source": {
                    "value": ""
                },
                "traits": {
                    "custom": "",
                    "rarity": "common",
                    "value": []
                },
                "weaponType": {
                    "value": "melee"
                }
            },
            "img": "systems/pf2ettw/icons/default-icons/melee.svg",
            "name": "Staff",
            "sort": 1100000,
            "type": "melee"
        },
        {
            "_id": "AYxRi5MnBeHsQ02b",
            "data": {
                "attack": {
                    "value": ""
                },
                "attackEffects": {
                    "value": []
                },
                "bonus": {
                    "value": 11
                },
                "damageRolls": {
                    "0hl2ijww98hhe6yjd7b1": {
                        "damage": "1d4",
                        "damageType": "sonic"
                    }
                },
                "description": {
                    "value": ""
                },
                "rules": [],
                "slug": null,
                "source": {
                    "value": ""
                },
                "traits": {
                    "custom": "",
                    "rarity": "common",
                    "value": [
                        "evocation",
                        "magical",
                        "range-20"
                    ]
                },
                "weaponType": {
                    "value": "ranged"
                }
            },
            "img": "systems/pf2ettw/icons/default-icons/melee.svg",
            "name": "Ultrasonic Pulse",
            "sort": 1200000,
            "type": "melee"
        },
        {
            "_id": "ngmep7Gyn3oIb05P",
            "data": {
                "actionCategory": {
                    "value": "interaction"
                },
                "actionType": {
                    "value": "passive"
                },
                "actions": {
                    "value": null
                },
                "description": {
                    "value": "<p>@Localize[pf2ettw.NPC.Abilities.Glossary.LowLightVision]</p>"
                },
                "requirements": {
                    "value": ""
                },
                "rules": [],
                "slug": "low-light-vision",
                "source": {
                    "value": "Pathfinder Bestiary"
                },
                "traits": {
                    "custom": "",
                    "rarity": "common",
                    "value": []
                },
                "trigger": {
                    "value": ""
                },
                "weapon": {
                    "value": ""
                }
            },
            "flags": {
                "core": {
                    "sourceId": "Compendium.pf2ettw.bestiary-ability-glossary-srd.fFu2sZz4KB01fVRc"
                }
            },
            "img": "systems/pf2ettw/icons/actions/Passive.webp",
            "name": "Low-Light Vision",
            "sort": 1300000,
            "type": "action"
        },
        {
            "_id": "3pWT7FNfh0JJJf7Y",
            "data": {
                "actionCategory": {
                    "value": "interaction"
                },
                "actionType": {
                    "value": "passive"
                },
                "actions": {
                    "value": null
                },
                "description": {
                    "value": ""
                },
                "requirements": {
                    "value": ""
                },
                "rules": [
                    {
                        "key": "FlatModifier",
                        "predicate": {
                            "all": [
                                "action:seek",
                                "hearing"
                            ]
                        },
                        "selector": "perception",
                        "type": "status",
                        "value": 2
                    }
                ],
                "slug": "1-status-to-all-saves-vs-magic",
                "source": {
                    "value": ""
                },
                "traits": {
                    "custom": "",
                    "rarity": "common",
                    "value": []
                },
                "trigger": {
                    "value": ""
                },
                "weapon": {
                    "value": ""
                }
            },
            "flags": {
                "core": {
                    "sourceId": "Compendium.pf2ettw.bestiary-ability-glossary-srd.kquBnQ0kObZztnBc"
                }
            },
            "img": "systems/pf2ettw/icons/actions/Passive.webp",
            "name": "+2 Status to Seek Creatures Using Hearing",
            "sort": 1400000,
            "type": "action"
        },
        {
            "_id": "Cuu0Ht0H7vuVvlT4",
            "data": {
                "actionCategory": {
                    "value": "interaction"
                },
                "actionType": {
                    "value": "passive"
                },
                "actions": {
                    "value": null
                },
                "description": {
                    "value": "<p>Kreeth-Ni can communicate with bats and use Diplomacy to @Compendium[pf2ettw.actionspf2ettw.Make an Impression]{Make an Impression} on bats and Request things from bats.</p>"
                },
                "requirements": {
                    "value": ""
                },
                "rules": [],
                "slug": null,
                "source": {
                    "value": ""
                },
                "traits": {
                    "custom": "",
                    "rarity": "common",
                    "value": []
                },
                "trigger": {
                    "value": ""
                }
            },
            "img": "systems/pf2ettw/icons/actions/Passive.webp",
            "name": "Speak with Bats",
            "sort": 1500000,
            "type": "action"
        },
        {
            "_id": "NjRXA7pXTzgPWVhy",
            "data": {
                "actionCategory": {
                    "value": "interaction"
                },
                "actionType": {
                    "value": "passive"
                },
                "actions": {
                    "value": null
                },
                "description": {
                    "value": "<p>A nyktera whose hospitality is betrayed becomes enraged at the violation of a fundamental aspect of their fey nature. They must succeed at a @Check[type:will|dc:20] save or begin involuntarily attacking the traitor. At the end of each of their turns, if they choose, they can attempt another Will save to end the effect; otherwise, the effect lasts until the traitor is subdued or leaves the nyktera's presence. As long as their righteous fury lasts, the nyktera gains a +2 status bonus to attack and damage rolls for their fist Strikes.</p>"
                },
                "requirements": {
                    "value": ""
                },
                "rules": [],
                "slug": null,
                "source": {
                    "value": ""
                },
                "traits": {
                    "custom": "",
                    "rarity": "common",
                    "value": []
                },
                "trigger": {
                    "value": ""
                }
            },
            "img": "systems/pf2ettw/icons/actions/Passive.webp",
            "name": "Wrath of Spurned Hospitality",
            "sort": 1600000,
            "type": "action"
        },
        {
            "_id": "TNXzXj4gkWsxeLaf",
            "data": {
                "description": {
                    "value": ""
                },
                "mod": {
                    "value": 11
                },
                "proficient": {
                    "value": 0
                },
                "rules": [],
                "slug": null,
                "source": {
                    "value": ""
                },
                "traits": {
                    "custom": "",
                    "rarity": "common",
                    "value": []
                }
            },
            "img": "systems/pf2ettw/icons/default-icons/lore.svg",
            "name": "Acrobatics",
            "sort": 1700000,
            "type": "lore"
        },
        {
            "_id": "mkimfDA1UpRHsI7s",
            "data": {
                "description": {
                    "value": ""
                },
                "mod": {
                    "value": 11
                },
                "proficient": {
                    "value": 0
                },
                "rules": [],
                "slug": null,
                "source": {
                    "value": ""
                },
                "traits": {
                    "custom": "",
                    "rarity": "common",
                    "value": []
                }
            },
            "img": "systems/pf2ettw/icons/default-icons/lore.svg",
            "name": "Deception",
            "sort": 1800000,
            "type": "lore"
        },
        {
            "_id": "6JRM3a4iQpxGPE6Y",
            "data": {
                "description": {
                    "value": ""
                },
                "mod": {
                    "value": 11
                },
                "proficient": {
                    "value": 0
                },
                "rules": [],
                "slug": null,
                "source": {
                    "value": ""
                },
                "traits": {
                    "custom": "",
                    "rarity": "common",
                    "value": []
                }
            },
            "img": "systems/pf2ettw/icons/default-icons/lore.svg",
            "name": "Diplomacy",
            "sort": 1900000,
            "type": "lore"
        },
        {
            "_id": "qGjol68uSHPDWUjM",
            "data": {
                "description": {
                    "value": ""
                },
                "mod": {
                    "value": 10
                },
                "proficient": {
                    "value": 0
                },
                "rules": [],
                "slug": null,
                "source": {
                    "value": ""
                },
                "traits": {
                    "custom": "",
                    "rarity": "common",
                    "value": []
                }
            },
            "img": "systems/pf2ettw/icons/default-icons/lore.svg",
            "name": "Nature",
            "sort": 2000000,
            "type": "lore"
        },
        {
            "_id": "v5ZeGQssqPaJZs8H",
            "data": {
                "description": {
                    "value": ""
                },
                "mod": {
                    "value": 9
                },
                "proficient": {
                    "value": 0
                },
                "rules": [],
                "slug": null,
                "source": {
                    "value": ""
                },
                "traits": {
                    "custom": "",
                    "rarity": "common",
                    "value": []
                }
            },
            "img": "systems/pf2ettw/icons/default-icons/lore.svg",
            "name": "Occultism",
            "sort": 2100000,
            "type": "lore"
        },
        {
            "_id": "Fk4vkoEvziHqsfD8",
            "data": {
                "description": {
                    "value": ""
                },
                "mod": {
                    "value": 9
                },
                "proficient": {
                    "value": 0
                },
                "rules": [],
                "slug": null,
                "source": {
                    "value": ""
                },
                "traits": {
                    "custom": "",
                    "rarity": "common",
                    "value": []
                }
            },
            "img": "systems/pf2ettw/icons/default-icons/lore.svg",
            "name": "Stealth",
            "sort": 2200000,
            "type": "lore"
        }
    ],
    "name": "Kreeth-Ni",
    "token": {
        "disposition": -1,
        "height": 1,
        "img": "systems/pf2ettw/icons/default-icons/npc.svg",
        "name": "Kreeth-Ni",
        "width": 1
    },
    "type": "npc"
}
