{
    "_id": "aT6c5oEPV8U5zfRD",
    "data": {
        "abilities": {
            "cha": {
                "mod": -5
            },
            "con": {
                "mod": 7
            },
            "dex": {
                "mod": -5
            },
            "int": {
                "mod": -5
            },
            "str": {
                "mod": 7
            },
            "wis": {
                "mod": 0
            }
        },
        "attributes": {
            "ac": {
                "details": "",
                "value": 19
            },
            "allSaves": {
                "value": ""
            },
            "hp": {
                "details": "",
                "max": 350,
                "temp": 0,
                "value": 350
            },
            "initiative": {
                "ability": "perception"
            },
            "perception": {
                "value": 14
            },
            "speed": {
                "otherSpeeds": [
                    {
                        "type": "climb",
                        "value": "20"
                    }
                ],
                "value": "20"
            }
        },
        "details": {
            "alignment": {
                "value": "N"
            },
            "blurb": "",
            "creatureType": "",
            "level": {
                "value": 10
            },
            "privateNotes": "",
            "publicNotes": "<p>With the discovery of the incredible gelatinous explosive called pyronite, it was perhaps inevitable alchemical monstrosities made of the stuff would soon follow. So-called pyronite oozes sometimes spontaneously manifest from stockpiles of pyronite or other powerful explosives, typically amid mana storms or when affected by powerful magic.</p>\n<p>Pyronite oozes have an extremely unstable life cycle and are defined by their ability to continuously explode and reform themselves. A pyronite ooze's violent explosions hinder observations, making it difficult to learn anything from the volatile jelly. To complicate matters further, pyronite oozes seem drawn to other unstable alchemical concoctions. Test subjects brought to the Spellscar Desert have been observed bathing themselves in pools of magic-polluted effluvia. Although they typically reform into a single entity after exploding, pyronite oozes bathed in chemicals sometimes remain apart after splitting, creating two independent oozes. Some speculate that an as yet unknown reagent must be essential for the oozes to reproduce on their own.</p>",
            "source": {
                "value": "Pathfinder #180: The Smoking Gun"
            }
        },
        "resources": {},
        "saves": {
            "fortitude": {
                "saveDetail": "",
                "value": 24
            },
            "reflex": {
                "saveDetail": "",
                "value": 14
            },
            "will": {
                "saveDetail": "",
                "value": 19
            }
        },
        "traits": {
            "di": {
                "custom": "",
                "value": [
                    "bludgeoning",
                    "critical-hits",
                    "fire",
                    "mental",
                    "precision",
                    "unconscious",
                    "visual"
                ]
            },
            "dr": [],
            "dv": [
                {
                    "type": "cold",
                    "value": 15
                }
            ],
            "languages": {
                "custom": "",
                "selected": [],
                "value": []
            },
            "rarity": "rare",
            "senses": {
                "value": "no vision, tremorsense (imprecise) 60 feet"
            },
            "size": {
                "value": "lg"
            },
            "traits": {
                "custom": "",
                "value": [
                    "mindless",
                    "ooze"
                ]
            }
        }
    },
    "img": "systems/pf2ettw/icons/default-icons/npc.svg",
    "items": [
        {
            "_id": "rVORLTLOuUy9qLKH",
            "data": {
                "attack": {
                    "value": ""
                },
                "attackEffects": {
                    "value": []
                },
                "bonus": {
                    "value": 23
                },
                "damageRolls": {
                    "rvur6bjkdiscbqpzx0n7": {
                        "damage": "3d10+10",
                        "damageType": "bludgeoning"
                    }
                },
                "description": {
                    "value": ""
                },
                "rules": [],
                "slug": null,
                "source": {
                    "value": ""
                },
                "traits": {
                    "custom": "",
                    "rarity": "common",
                    "value": [
                        "reach-10"
                    ]
                },
                "weaponType": {
                    "value": "melee"
                }
            },
            "img": "systems/pf2ettw/icons/default-icons/melee.svg",
            "name": "Pseudopod",
            "sort": 100000,
            "type": "melee"
        },
        {
            "_id": "RuYnyhu2jkzLBSep",
            "data": {
                "attack": {
                    "value": ""
                },
                "attackEffects": {
                    "value": []
                },
                "bonus": {
                    "value": 21
                },
                "damageRolls": {
                    "9axcc46l98pvv2nzrtzf": {
                        "damage": "3d8+3",
                        "damageType": "fire"
                    }
                },
                "description": {
                    "value": "<p>This can’t cause other pyronite oozes to split.</p>"
                },
                "rules": [],
                "slug": null,
                "source": {
                    "value": ""
                },
                "traits": {
                    "custom": "",
                    "rarity": "common",
                    "value": [
                        "fire",
                        "range-increment-40"
                    ]
                },
                "weaponType": {
                    "value": "ranged"
                }
            },
            "img": "systems/pf2ettw/icons/default-icons/melee.svg",
            "name": "Blast",
            "sort": 200000,
            "type": "melee"
        },
        {
            "_id": "Q5ldWOi0ZXw3nP9Y",
            "data": {
                "actionCategory": {
                    "value": "interaction"
                },
                "actionType": {
                    "value": "passive"
                },
                "actions": {
                    "value": null
                },
                "description": {
                    "value": "<p>@Localize[pf2ettw.NPC.Abilities.Glossary.Tremorsense]</p>"
                },
                "requirements": {
                    "value": ""
                },
                "rules": [],
                "slug": "tremorsense",
                "source": {
                    "value": ""
                },
                "traits": {
                    "custom": "",
                    "rarity": "common",
                    "value": []
                },
                "trigger": {
                    "value": ""
                },
                "weapon": {
                    "value": ""
                }
            },
            "flags": {
                "core": {
                    "sourceId": "Compendium.pf2ettw.bestiary-ability-glossary-srd.j2wsK6IsW5yMW1jW"
                }
            },
            "img": "systems/pf2ettw/icons/actions/Passive.webp",
            "name": "Tremorsense (Imprecise) 60 feet",
            "sort": 300000,
            "type": "action"
        },
        {
            "_id": "D8UFExR2Qtze5Hdu",
            "data": {
                "actionCategory": {
                    "value": "defensive"
                },
                "actionType": {
                    "value": "passive"
                },
                "actions": {
                    "value": null
                },
                "description": {
                    "value": "<p>@Template[type:emanation|distance:5] @Compendium[pf2ettw.bestiary-ability-glossary-srd.Aura]{Aura}</p>\n<p>[[/r {4d6}[fire]]]{4d6 fire}, @Check[type:reflex|dc:29|basic:true]. This aura can't cause other pyronite oozes to split.</p>"
                },
                "requirements": {
                    "value": ""
                },
                "rules": [],
                "slug": null,
                "source": {
                    "value": ""
                },
                "traits": {
                    "custom": "",
                    "rarity": "common",
                    "value": [
                        "aura",
                        "fire"
                    ]
                },
                "trigger": {
                    "value": ""
                }
            },
            "img": "systems/pf2ettw/icons/actions/Passive.webp",
            "name": "Constant Explosions",
            "sort": 400000,
            "type": "action"
        },
        {
            "_id": "qasD5hia4kkRiJL6",
            "data": {
                "actionCategory": {
                    "value": "defensive"
                },
                "actionType": {
                    "value": "passive"
                },
                "actions": {
                    "value": null
                },
                "description": {
                    "value": "<p>If two or more Medium pyronite oozes end their turn in adjacent spaces, they merge into a Large pyronite ooze, combining their current Hit Points.</p>"
                },
                "requirements": {
                    "value": ""
                },
                "rules": [],
                "slug": null,
                "source": {
                    "value": ""
                },
                "traits": {
                    "custom": "",
                    "rarity": "common",
                    "value": []
                },
                "trigger": {
                    "value": ""
                }
            },
            "img": "systems/pf2ettw/icons/actions/Passive.webp",
            "name": "Rejoin",
            "sort": 500000,
            "type": "action"
        },
        {
            "_id": "ZXO0lVQfuLqdjwnm",
            "data": {
                "actionCategory": {
                    "value": "defensive"
                },
                "actionType": {
                    "value": "passive"
                },
                "actions": {
                    "value": null
                },
                "description": {
                    "value": "<p>When a Large pyronite ooze is hit by an attack that would deal bludgeoning or fire damage and it has 10 or more HP, it explodes, dealing [[/r {6d6}[fire]]]{6d6 fire damage} to creatures in a 10-foot radius (@Check[type:reflex|dc:29|basic:true]). This explosion can't cause other pyronite oozes to split. After exploding, the ooze splits into two Medium pyronite oozes, each with half the original's HP, which each fly through the air and land 15 feet from the original ooze in a random direction. If no space is unoccupied where the ooze would land, it automatically pushes creatures and objects out of the way to fill a space (the GM decides if an object or creature is too big or sturdy to push).</p>"
                },
                "requirements": {
                    "value": ""
                },
                "rules": [],
                "slug": null,
                "source": {
                    "value": ""
                },
                "traits": {
                    "custom": "",
                    "rarity": "common",
                    "value": []
                },
                "trigger": {
                    "value": ""
                }
            },
            "img": "systems/pf2ettw/icons/actions/Passive.webp",
            "name": "Split",
            "sort": 600000,
            "type": "action"
        },
        {
            "_id": "AhhmRU9PP6HPWObc",
            "data": {
                "actionCategory": {
                    "value": "offensive"
                },
                "actionType": {
                    "value": "action"
                },
                "actions": {
                    "value": 2
                },
                "description": {
                    "value": "<p><strong>Requirements</strong> The pyronite ooze is Large</p>\n<hr />\n<p><strong>Effect</strong> The pyronite ooze explodes in a violent conflagration, dealing [[/r {3d6}[fire]+{3d6}[bludgeoning]]]{3d6 fire and 3d6 bludgeoning damage} to all creatures in a @Template[type:emanation|distance:30]{30-foot radius} (@Check[type:reflex|dc:29|basic:true]). This explosion can't cause other pyronite oozes to split. After exploding, the ooze splits into two Medium pyronite oozes (see above), but this splitting doesn't deal additional damage.</p>"
                },
                "requirements": {
                    "value": ""
                },
                "rules": [],
                "slug": null,
                "source": {
                    "value": ""
                },
                "traits": {
                    "custom": "",
                    "rarity": "common",
                    "value": []
                },
                "trigger": {
                    "value": ""
                }
            },
            "img": "systems/pf2ettw/icons/actions/TwoActions.webp",
            "name": "Exploding Split",
            "sort": 700000,
            "type": "action"
        },
        {
            "_id": "mftEoZkylYeNcnif",
            "data": {
                "description": {
                    "value": ""
                },
                "mod": {
                    "value": 22
                },
                "proficient": {
                    "value": 0
                },
                "rules": [],
                "slug": null,
                "source": {
                    "value": ""
                },
                "traits": {
                    "custom": "",
                    "rarity": "common",
                    "value": []
                }
            },
            "img": "systems/pf2ettw/icons/default-icons/lore.svg",
            "name": "Athletics",
            "sort": 800000,
            "type": "lore"
        }
    ],
    "name": "Pyronite Ooze",
    "token": {
        "disposition": -1,
        "height": 2,
        "img": "systems/pf2ettw/icons/default-icons/npc.svg",
        "name": "Pyronite Ooze",
        "width": 2
    },
    "type": "npc"
}
