{
    "_id": "6l7e7CHQLESlI57U",
    "data": {
        "actionCategory": {
            "value": "offensive"
        },
        "actionType": {
            "value": "free"
        },
        "actions": {
            "value": null
        },
        "description": {
            "value": "<p>@Localize[pf2ettw.NPC.Abilities.Glossary.ImprovedPush]</p>"
        },
        "requirements": {
            "value": ""
        },
        "rules": [],
        "source": {
            "value": "Pathfinder Bestiary"
        },
        "traits": {
            "custom": "",
            "rarity": "common",
            "value": []
        },
        "trigger": {
            "value": ""
        },
        "weapon": {
            "value": ""
        }
    },
    "img": "systems/pf2ettw/icons/actions/FreeAction.webp",
    "name": "Improved Push",
    "type": "action"
}
