{
    "_id": "wCnsRCHvtZkZTmO0",
    "data": {
        "actionCategory": {
            "value": "defensive"
        },
        "actionType": {
            "value": "reaction"
        },
        "actions": {
            "value": null
        },
        "description": {
            "value": "<p><strong>Trigger</strong> A creature targets you with an attack and you can see the attacker.</p>\n<p><strong>Requirements</strong> You are not encumbered</p>\n<hr />\n<p>You deftly dodge out of the way, gaining a +2 circumstance bonus to AC against the triggering attack.</p>"
        },
        "requirements": {
            "value": ""
        },
        "rules": [
            {
                "domain": "ac",
                "key": "RollOption",
                "option": "nimble-dodge",
                "toggleable": true
            },
            {
                "key": "FlatModifier",
                "predicate": {
                    "all": [
                        "nimble-dodge"
                    ]
                },
                "selector": "ac",
                "type": "circumstance",
                "value": 2
            }
        ],
        "source": {
            "value": "Pathfinder Core Rulebook"
        },
        "traits": {
            "custom": "",
            "rarity": "common",
            "value": []
        },
        "trigger": {
            "value": ""
        }
    },
    "img": "systems/pf2ettw/icons/actions/Reaction.webp",
    "name": "Nimble Dodge",
    "type": "action"
}
