{
    "_id": "ZRGRAqkDEZbRn8x3",
    "data": {
        "abilities": {
            "cha": {
                "mod": 5
            },
            "con": {
                "mod": 7
            },
            "dex": {
                "mod": 7
            },
            "int": {
                "mod": 3
            },
            "str": {
                "mod": 4
            },
            "wis": {
                "mod": 7
            }
        },
        "attributes": {
            "ac": {
                "details": "",
                "value": 38
            },
            "allSaves": {
                "value": "+1 status to all saves vs. magic"
            },
            "hp": {
                "details": "",
                "max": 225,
                "temp": 0,
                "value": 225
            },
            "initiative": {
                "ability": "perception"
            },
            "perception": {
                "value": 26
            },
            "speed": {
                "otherSpeeds": [],
                "value": "50"
            }
        },
        "details": {
            "alignment": {
                "value": "NE"
            },
            "blurb": "",
            "creatureType": "fiend",
            "level": {
                "value": 15
            },
            "privateNotes": "",
            "publicNotes": "<p>Of all the ways to die, crucidaemons represent perhaps one of the least desirable: death by torture. The fiend's shapely body, which appears to be sculpted from iron or mithril, belies a sinister wrath and love of inflicting pain. Crucidaemons particularly enjoy inflicting pain with their curved, serrated daggers, which are attached to their bodies via a chain that pierces each wrist.</p>\n<p>A crucidaemon's existence is dedicated to subjecting its prey to an eternity of pain and terror. Unlike other daemons, many of which are eager to feed on mortal souls as soon as they can, the crucidaemon takes much greater pleasure in prolonging the agony of its victims. Oftentimes, a crucidaemon will inflict such torment and pain upon its prey that when the end finally comes, the victim tearfully thanks the daemon for the mercy of oblivion. An encounter with a crucidaemon that does not end with its death is far from over-crucidaemons have unequaled patience for those who dare oppose them.</p>",
            "source": {
                "value": "Pathfinder #149: Against the Scarlet Triad"
            }
        },
        "resources": {
            "focus": {
                "max": 1,
                "value": 1
            }
        },
        "saves": {
            "fortitude": {
                "saveDetail": "",
                "value": 26
            },
            "reflex": {
                "saveDetail": "",
                "value": 30
            },
            "will": {
                "saveDetail": "",
                "value": 26
            }
        },
        "traits": {
            "ci": [],
            "di": {
                "custom": "",
                "value": [
                    "death-effects"
                ]
            },
            "dr": [
                {
                    "exceptions": "except adamantine",
                    "type": "physical",
                    "value": 10
                }
            ],
            "dv": [
                {
                    "label": "Good",
                    "type": "good",
                    "value": "10"
                }
            ],
            "languages": {
                "custom": "Telepathy 100 feet",
                "selected": [],
                "value": [
                    "abyssal",
                    "draconic",
                    "infernal"
                ]
            },
            "rarity": "common",
            "senses": {
                "value": "darkvision, detect alignment (good only), lifesense 30 feet"
            },
            "size": {
                "value": "med"
            },
            "traits": {
                "custom": "",
                "value": [
                    "daemon",
                    "fiend"
                ]
            }
        }
    },
    "img": "systems/pf2ettw/icons/default-icons/npc.svg",
    "items": [
        {
            "_id": "Fj81D52uCvQB3Zp7",
            "data": {
                "autoHeightenLevel": {
                    "value": null
                },
                "description": {
                    "value": ""
                },
                "displayLevels": {},
                "prepared": {
                    "flexible": false,
                    "value": "innate"
                },
                "proficiency": {
                    "value": 0
                },
                "rules": [],
                "showSlotlessLevels": {
                    "value": true
                },
                "showUnpreparedSpells": {
                    "value": false
                },
                "slots": {
                    "slot0": {
                        "max": 0,
                        "prepared": [],
                        "value": 0
                    },
                    "slot1": {
                        "max": 0,
                        "prepared": [],
                        "value": 0
                    },
                    "slot10": {
                        "max": 0,
                        "prepared": [],
                        "value": 0
                    },
                    "slot11": {
                        "max": 0,
                        "prepared": [],
                        "value": 0
                    },
                    "slot2": {
                        "max": 0,
                        "prepared": [],
                        "value": 0
                    },
                    "slot3": {
                        "max": 0,
                        "prepared": [],
                        "value": 0
                    },
                    "slot4": {
                        "max": 0,
                        "prepared": [],
                        "value": 0
                    },
                    "slot5": {
                        "max": 0,
                        "prepared": [],
                        "value": 0
                    },
                    "slot6": {
                        "max": 0,
                        "prepared": [],
                        "value": 0
                    },
                    "slot7": {
                        "max": 0,
                        "prepared": [],
                        "value": 0
                    },
                    "slot8": {
                        "max": 0,
                        "prepared": [],
                        "value": 0
                    },
                    "slot9": {
                        "max": 0,
                        "prepared": [],
                        "value": 0
                    }
                },
                "slug": null,
                "source": {
                    "value": ""
                },
                "spelldc": {
                    "dc": 32,
                    "mod": 0,
                    "value": 28
                },
                "tradition": {
                    "value": "divine"
                },
                "traits": {
                    "custom": "",
                    "rarity": "common",
                    "value": []
                }
            },
            "img": "systems/pf2ettw/icons/default-icons/spellcastingEntry.svg",
            "name": "Divine Innate Spells",
            "sort": 100000,
            "type": "spellcastingEntry"
        },
        {
            "_id": "ZDJ1U0JvyJNUofit",
            "data": {
                "ability": {
                    "value": ""
                },
                "area": {
                    "areaType": "",
                    "value": ""
                },
                "areasize": {
                    "value": ""
                },
                "category": {
                    "value": "spell"
                },
                "components": {
                    "focus": false,
                    "material": false,
                    "somatic": true,
                    "verbal": true
                },
                "cost": {
                    "value": ""
                },
                "damage": {
                    "value": {}
                },
                "description": {
                    "value": "<p>The target can walk on air as if it were solid ground. It can ascend and descend in this way at a maximum of a 45-degree angle.</p>"
                },
                "duration": {
                    "value": "5 minutes"
                },
                "hasCounteractCheck": {
                    "value": false
                },
                "level": {
                    "value": 4
                },
                "location": {
                    "heightenedLevel": 4,
                    "value": "Fj81D52uCvQB3Zp7"
                },
                "materials": {
                    "value": ""
                },
                "prepared": {
                    "value": ""
                },
                "primarycheck": {
                    "value": ""
                },
                "range": {
                    "value": "touch"
                },
                "rules": [],
                "save": {
                    "basic": "",
                    "value": ""
                },
                "school": {
                    "value": "transmutation"
                },
                "secondarycasters": {
                    "value": ""
                },
                "secondarycheck": {
                    "value": ""
                },
                "slug": "air-walk",
                "source": {
                    "value": ""
                },
                "spellType": {
                    "value": "utility"
                },
                "sustained": {
                    "value": false
                },
                "target": {
                    "value": "1 creature"
                },
                "time": {
                    "value": "2"
                },
                "traditions": {
                    "value": [
                        "divine",
                        "primal"
                    ]
                },
                "traits": {
                    "custom": "",
                    "rarity": "common",
                    "value": [
                        "air"
                    ]
                }
            },
            "flags": {
                "core": {
                    "sourceId": "Compendium.pf2ettw.spells-srd.b5sGjGlBf58f8jn0"
                }
            },
            "img": "systems/pf2ettw/icons/spells/air-walk.webp",
            "name": "Air Walk (Constant)",
            "sort": 200000,
            "type": "spell"
        },
        {
            "_id": "woRwfDjCNOyaKpLf",
            "data": {
                "ability": {
                    "value": ""
                },
                "area": {
                    "areaType": "",
                    "value": null
                },
                "areasize": {
                    "value": ""
                },
                "category": {
                    "value": "spell"
                },
                "components": {
                    "focus": false,
                    "material": true,
                    "somatic": true,
                    "verbal": true
                },
                "cost": {
                    "value": ""
                },
                "damage": {
                    "value": {}
                },
                "description": {
                    "value": "<p>You craft a trap by binding a hostile spell into a symbol. While Casting this Spell, you also Cast a Spell of a lower spell level to store in the glyph. The stored spell must take 3 actions or fewer to cast, have a hostile effect, and target one creature or have an area. You can set a password, a trigger, or both for the glyph. Any creature that moves, opens, or touches the target container or enters the target area that doesn't speak the password or that matches the trigger activates the glyph, releasing the harmful spell within.</p>\n<p>Once a spell is stored in the glyph, the glyph gains all the traits of that spell. If the stored spell targets one or more creatures, it targets the creature that set off the glyph. If it has an area, that area is centered on the creature that set off the glyph. Glyph of warding's duration ends when the glyph is triggered. The glyph counts as a magical trap, using your spell DC for both the Perception check to notice it and the Thievery check to disable it; both checks require the creature attempting them to be trained in order to succeed.</p>\n<p>You can Dismiss glyph of warding. The maximum number of glyphs of warding you can have active at a time is equal to your spellcasting ability modifier.</p>"
                },
                "duration": {
                    "value": "unlimited"
                },
                "hasCounteractCheck": {
                    "value": false
                },
                "level": {
                    "value": 3
                },
                "location": {
                    "heightenedLevel": 7,
                    "uses": {
                        "max": 3,
                        "value": 3
                    },
                    "value": "Fj81D52uCvQB3Zp7"
                },
                "materials": {
                    "value": ""
                },
                "prepared": {
                    "value": ""
                },
                "primarycheck": {
                    "value": ""
                },
                "range": {
                    "value": "touch"
                },
                "rules": [],
                "save": {
                    "basic": "",
                    "value": ""
                },
                "school": {
                    "value": "abjuration"
                },
                "secondarycasters": {
                    "value": ""
                },
                "secondarycheck": {
                    "value": ""
                },
                "slug": "glyph-of-warding",
                "source": {
                    "value": ""
                },
                "spellType": {
                    "value": "utility"
                },
                "sustained": {
                    "value": false
                },
                "target": {
                    "value": "1 container or a 10-foot-by-10-foot area"
                },
                "time": {
                    "value": "10 minutes"
                },
                "traditions": {
                    "value": [
                        "arcane",
                        "divine",
                        "occult",
                        "primal"
                    ]
                },
                "traits": {
                    "custom": "",
                    "rarity": "common",
                    "value": []
                }
            },
            "flags": {
                "core": {
                    "sourceId": "Compendium.pf2ettw.spells-srd.o0l57UfBm9ScEUMW"
                }
            },
            "img": "systems/pf2ettw/icons/spells/glyph-of-warding.webp",
            "name": "Glyph of Warding",
            "sort": 300000,
            "type": "spell"
        },
        {
            "_id": "RKqAhIetO1HjCvMd",
            "data": {
                "ability": {
                    "value": ""
                },
                "area": {
                    "areaType": "",
                    "value": null
                },
                "areasize": {
                    "value": ""
                },
                "category": {
                    "value": "spell"
                },
                "components": {
                    "focus": false,
                    "material": false,
                    "somatic": true,
                    "verbal": true
                },
                "cost": {
                    "value": ""
                },
                "damage": {
                    "value": {}
                },
                "description": {
                    "value": "<p>You block the target's motor impulses before they can leave its mind, threatening to freeze the target in place. The target must attempt a Will save.</p>\n<hr />\n<p><strong>Critical Success</strong> The target is unaffected.</p>\n<p><strong>Success</strong> The target is @Compendium[pf2ettw.conditionitems.Stunned]{Stunned 1}.</p>\n<p><strong>Failure</strong> The target is @Compendium[pf2ettw.conditionitems.Paralyzed]{Paralyzed} for 1 round.</p>\n<p><strong>Critical Failure</strong> The target is Paralyzed for 4 rounds. At the end of each of its turns, it can attempt a new Will save to reduce the remaining duration by 1 round, or end it entirely on a critical success.</p>\n<hr />\n<p><strong>Heightened (7th)</strong> You can target up to 10 creatures.</p>"
                },
                "duration": {
                    "value": "varies"
                },
                "hasCounteractCheck": {
                    "value": false
                },
                "level": {
                    "value": 3
                },
                "location": {
                    "heightenedLevel": 7,
                    "value": "Fj81D52uCvQB3Zp7"
                },
                "materials": {
                    "value": ""
                },
                "prepared": {
                    "value": ""
                },
                "primarycheck": {
                    "value": ""
                },
                "range": {
                    "value": "30 feet"
                },
                "rules": [],
                "save": {
                    "basic": "",
                    "value": "will"
                },
                "school": {
                    "value": "enchantment"
                },
                "secondarycasters": {
                    "value": ""
                },
                "secondarycheck": {
                    "value": ""
                },
                "slug": "paralyze",
                "source": {
                    "value": ""
                },
                "spellType": {
                    "value": "save"
                },
                "sustained": {
                    "value": false
                },
                "target": {
                    "value": "1 creature"
                },
                "time": {
                    "value": "2"
                },
                "traditions": {
                    "custom": "",
                    "value": [
                        "arcane",
                        "occult"
                    ]
                },
                "traits": {
                    "custom": "",
                    "rarity": "common",
                    "value": [
                        "incapacitation",
                        "mental"
                    ]
                }
            },
            "flags": {
                "core": {
                    "sourceId": "Compendium.pf2ettw.spells-srd.DCQHaLrYXMI37dvW"
                }
            },
            "img": "systems/pf2ettw/icons/spells/paralyze.webp",
            "name": "Paralyze",
            "sort": 400000,
            "type": "spell"
        },
        {
            "_id": "FfYWKhCm4sC7E59H",
            "data": {
                "ability": {
                    "value": ""
                },
                "area": {
                    "areaType": "",
                    "value": ""
                },
                "areasize": {
                    "value": ""
                },
                "category": {
                    "value": "spell"
                },
                "components": {
                    "focus": false,
                    "material": false,
                    "somatic": true,
                    "verbal": true
                },
                "cost": {
                    "value": ""
                },
                "damage": {
                    "value": {}
                },
                "description": {
                    "value": "<p>You snuff the life out of a creature on the brink of death. The target must attempt a Will save. If this kills it, you gain 10 temporary HP and a +1 status bonus to attack and damage rolls for 10 minutes.</p>\n<hr /><strong>Critical Success</strong> The target is unaffected.\n<p><strong>Success</strong> The target's @Compendium[pf2ettw.conditionitems.Dying]{Dying} value increases by 1.</p>\n<p><strong>Failure</strong> The target dies.</p>"
                },
                "duration": {
                    "value": ""
                },
                "hasCounteractCheck": {
                    "value": false
                },
                "level": {
                    "value": 2
                },
                "location": {
                    "heightenedLevel": 2,
                    "value": "Fj81D52uCvQB3Zp7"
                },
                "materials": {
                    "value": ""
                },
                "prepared": {
                    "value": ""
                },
                "primarycheck": {
                    "value": ""
                },
                "range": {
                    "value": "touch"
                },
                "rules": [],
                "save": {
                    "basic": "",
                    "value": "will"
                },
                "school": {
                    "value": "necromancy"
                },
                "secondarycasters": {
                    "value": ""
                },
                "secondarycheck": {
                    "value": ""
                },
                "slug": "death-knell",
                "source": {
                    "value": ""
                },
                "spellType": {
                    "value": "save"
                },
                "sustained": {
                    "value": false
                },
                "target": {
                    "value": "1 living creature that has 0 HP"
                },
                "time": {
                    "value": "2"
                },
                "traditions": {
                    "value": [
                        "divine",
                        "occult"
                    ]
                },
                "traits": {
                    "custom": "",
                    "rarity": "common",
                    "value": [
                        "death"
                    ]
                }
            },
            "flags": {
                "core": {
                    "sourceId": "Compendium.pf2ettw.spells-srd.dLdRqT6UxTKlsPgp"
                }
            },
            "img": "systems/pf2ettw/icons/spells/death-knell.webp",
            "name": "Death Knell",
            "sort": 500000,
            "type": "spell"
        },
        {
            "_id": "0a45Roiy20vW4l7O",
            "data": {
                "ability": {
                    "value": ""
                },
                "area": {
                    "areaType": "",
                    "value": ""
                },
                "areasize": {
                    "value": ""
                },
                "category": {
                    "value": "spell"
                },
                "components": {
                    "focus": false,
                    "material": true,
                    "somatic": true,
                    "verbal": false
                },
                "cost": {
                    "value": ""
                },
                "damage": {
                    "value": {}
                },
                "description": {
                    "value": "<p>Cloaked in illusion, the target becomes @Compendium[pf2ettw.conditionitems.Invisible]{Invisible}. This makes it @Compendium[pf2ettw.conditionitems.Undetected]{Undetected} to all creatures, though the creatures can attempt to find the target, making it @Compendium[pf2ettw.conditionitems.Hidden]{Hidden} to them instead. If the target uses a hostile action, the spell ends after that hostile action is completed.</p>\n<hr />\n<p><strong>Heightened (4th)</strong> The spell lasts 1 minute, but it doesn't end if the target uses a hostile action.</p>"
                },
                "duration": {
                    "value": "10 minutes"
                },
                "hasCounteractCheck": {
                    "value": false
                },
                "level": {
                    "value": 2
                },
                "location": {
                    "heightenedLevel": 4,
                    "value": "Fj81D52uCvQB3Zp7"
                },
                "materials": {
                    "value": ""
                },
                "prepared": {
                    "value": ""
                },
                "primarycheck": {
                    "value": ""
                },
                "range": {
                    "value": "touch"
                },
                "rules": [],
                "save": {
                    "basic": "",
                    "value": ""
                },
                "school": {
                    "value": "illusion"
                },
                "secondarycasters": {
                    "value": ""
                },
                "secondarycheck": {
                    "value": ""
                },
                "slug": "invisibility",
                "source": {
                    "value": ""
                },
                "spellType": {
                    "value": "utility"
                },
                "sustained": {
                    "value": false
                },
                "target": {
                    "value": "1 creature"
                },
                "time": {
                    "value": "2"
                },
                "traditions": {
                    "value": [
                        "arcane",
                        "occult"
                    ]
                },
                "traits": {
                    "custom": "",
                    "rarity": "common",
                    "value": []
                }
            },
            "flags": {
                "core": {
                    "sourceId": "Compendium.pf2ettw.spells-srd.XXqE1eY3w3z6xJCB"
                }
            },
            "img": "systems/pf2ettw/icons/spells/invisibility.webp",
            "name": "Invisibility (At Will)",
            "sort": 600000,
            "type": "spell"
        },
        {
            "_id": "kSkZEEGE3SBLK5M1",
            "data": {
                "ability": {
                    "value": ""
                },
                "area": {
                    "areaType": "emanation",
                    "value": "30"
                },
                "areasize": {
                    "value": "30-foot emanation"
                },
                "category": {
                    "value": "spell"
                },
                "components": {
                    "focus": false,
                    "material": false,
                    "somatic": true,
                    "verbal": true
                },
                "cost": {
                    "value": ""
                },
                "damage": {
                    "value": {}
                },
                "description": {
                    "value": "<p>Your eyes glow as you sense aligned auras. Choose chaotic, evil, good, or lawful. You detect auras of that alignment. You receive no information beyond presence or absence. You can choose not to detect creatures or effects you're aware have that alignment.</p>\n<p>Only creatures of 6th level or higher-unless divine spellcasters, undead, or beings from the Outer Sphere-have alignment auras.</p>\n<hr />\n<p><strong>Heightened (2nd)</strong> You learn each aura's location and strength.</p>"
                },
                "duration": {
                    "value": ""
                },
                "hasCounteractCheck": {
                    "value": false
                },
                "level": {
                    "value": 1
                },
                "location": {
                    "heightenedLevel": 1,
                    "value": "Fj81D52uCvQB3Zp7"
                },
                "materials": {
                    "value": ""
                },
                "prepared": {
                    "value": ""
                },
                "primarycheck": {
                    "value": ""
                },
                "range": {
                    "value": ""
                },
                "rules": [],
                "save": {
                    "basic": "",
                    "value": ""
                },
                "school": {
                    "value": "divination"
                },
                "secondarycasters": {
                    "value": ""
                },
                "secondarycheck": {
                    "value": ""
                },
                "slug": "detect-alignment",
                "source": {
                    "value": ""
                },
                "spellType": {
                    "value": "utility"
                },
                "sustained": {
                    "value": false
                },
                "target": {
                    "value": ""
                },
                "time": {
                    "value": "2"
                },
                "traditions": {
                    "value": [
                        "divine",
                        "occult"
                    ]
                },
                "traits": {
                    "custom": "",
                    "rarity": "uncommon",
                    "value": [
                        "detection"
                    ]
                }
            },
            "flags": {
                "core": {
                    "sourceId": "Compendium.pf2ettw.spells-srd.QnTtGCAvdWRU4spv"
                }
            },
            "img": "systems/pf2ettw/icons/spells/detect-alignment.webp",
            "name": "Detect Alignment  (Constant) (Good Only)",
            "sort": 700000,
            "type": "spell"
        },
        {
            "_id": "MZU1jjRuppHz03lI",
            "data": {
                "ability": {
                    "value": ""
                },
                "area": {
                    "areaType": "",
                    "value": ""
                },
                "areasize": {
                    "value": ""
                },
                "category": {
                    "value": "spell"
                },
                "components": {
                    "focus": false,
                    "material": false,
                    "somatic": true,
                    "verbal": true
                },
                "cost": {
                    "value": ""
                },
                "damage": {
                    "value": {}
                },
                "description": {
                    "value": "<p>You plant fear in the target; it must attempt a Will save.</p>\n<hr />\n<p><strong>Critical Success</strong> The target is unaffected.</p>\n<p><strong>Success</strong> The target is @Compendium[pf2ettw.conditionitems.Frightened]{Frightened 1}.</p>\n<p><strong>Failure</strong> The target is @Compendium[pf2ettw.conditionitems.Frightened]{Frightened 2}.</p>\n<p><strong>Critical Failure</strong> The target is @Compendium[pf2ettw.conditionitems.Frightened]{Frightened 3} and @Compendium[pf2ettw.conditionitems.Fleeing]{Fleeing} for 1 round.</p>\n<hr />\n<p><strong>Heightened (3rd)</strong> You can target up to five creatures.</p>"
                },
                "duration": {
                    "value": "varies"
                },
                "hasCounteractCheck": {
                    "value": false
                },
                "level": {
                    "value": 1
                },
                "location": {
                    "heightenedLevel": 4,
                    "value": "Fj81D52uCvQB3Zp7"
                },
                "materials": {
                    "value": ""
                },
                "prepared": {
                    "value": ""
                },
                "primarycheck": {
                    "value": ""
                },
                "range": {
                    "value": "30 feet"
                },
                "rules": [],
                "save": {
                    "basic": "",
                    "value": "will"
                },
                "school": {
                    "value": "enchantment"
                },
                "secondarycasters": {
                    "value": ""
                },
                "secondarycheck": {
                    "value": ""
                },
                "slug": "fear",
                "source": {
                    "value": ""
                },
                "spellType": {
                    "value": "save"
                },
                "sustained": {
                    "value": false
                },
                "target": {
                    "value": "1 creature"
                },
                "time": {
                    "value": "2"
                },
                "traditions": {
                    "value": [
                        "arcane",
                        "divine",
                        "occult",
                        "primal"
                    ]
                },
                "traits": {
                    "custom": "",
                    "rarity": "common",
                    "value": [
                        "emotion",
                        "fear",
                        "mental"
                    ]
                }
            },
            "flags": {
                "core": {
                    "sourceId": "Compendium.pf2ettw.spells-srd.4koZzrnMXhhosn0D"
                }
            },
            "img": "systems/pf2ettw/icons/spells/fear.webp",
            "name": "Fear",
            "sort": 800000,
            "type": "spell"
        },
        {
            "_id": "m8WR1jKIWEJbbaKO",
            "data": {
                "ability": {
                    "value": ""
                },
                "area": {
                    "areaType": "",
                    "value": ""
                },
                "areasize": {
                    "value": ""
                },
                "category": {
                    "value": "spell"
                },
                "components": {
                    "focus": false,
                    "material": false,
                    "somatic": true,
                    "verbal": true
                },
                "cost": {
                    "value": ""
                },
                "damage": {
                    "value": {
                        "0": {
                            "type": {
                                "categories": [],
                                "value": "mental"
                            },
                            "value": "2d4"
                        }
                    }
                },
                "description": {
                    "value": "<p>Illusory pain wracks the target, dealing 2d4 mental damage and [[/r {1d4}[persistent,mental]]] @Compendium[pf2ettw.conditionitems.Persistent Damage]{Persistent Mental Damage}. The target must attempt a Will save.</p>\n<hr />\n<p><strong>Critical Success</strong> The target is unaffected.</p>\n<p><strong>Success</strong> The target takes full initial damage but no @Compendium[pf2ettw.conditionitems.Persistent Damage]{Persistent Damage}, and the spell ends immediately.</p>\n<p><strong>Failure</strong> The target takes full initial and Persistent Damage, and the target is @Compendium[pf2ettw.conditionitems.Sickened]{Sickened 1}. If the target recovers from being Sickened, the Persistent Damage ends and the spell ends.</p>\n<p><strong>Critical Failure</strong> As failure, but the target is @Compendium[pf2ettw.conditionitems.Sickened]{Sickened 2}.</p>\n<hr />\n<p><strong>Heightened (+1)</strong> The damage increases by 2d4 and the Persistent Damage by 1d4.</p>"
                },
                "duration": {
                    "value": "1 minute"
                },
                "hasCounteractCheck": {
                    "value": false
                },
                "heightening": {
                    "damage": {
                        "0": "2d4"
                    },
                    "interval": 1,
                    "type": "interval"
                },
                "level": {
                    "value": 1
                },
                "location": {
                    "heightenedLevel": 4,
                    "value": "Fj81D52uCvQB3Zp7"
                },
                "materials": {
                    "value": ""
                },
                "prepared": {
                    "value": ""
                },
                "primarycheck": {
                    "value": ""
                },
                "range": {
                    "value": "30 feet"
                },
                "rules": [],
                "save": {
                    "basic": "",
                    "value": "will"
                },
                "school": {
                    "value": "illusion"
                },
                "secondarycasters": {
                    "value": ""
                },
                "secondarycheck": {
                    "value": ""
                },
                "slug": "phantom-pain",
                "source": {
                    "value": ""
                },
                "spellType": {
                    "value": "save"
                },
                "sustained": {
                    "value": false
                },
                "target": {
                    "value": "1 creature"
                },
                "time": {
                    "value": "2"
                },
                "traditions": {
                    "value": [
                        "occult"
                    ]
                },
                "traits": {
                    "custom": "",
                    "rarity": "common",
                    "value": [
                        "mental",
                        "nonlethal"
                    ]
                }
            },
            "flags": {
                "core": {
                    "sourceId": "Compendium.pf2ettw.spells-srd.R8bqnYiThB6MYTxD"
                }
            },
            "img": "systems/pf2ettw/icons/spells/phantom-pain.webp",
            "name": "Phantom Pain (At Will)",
            "sort": 900000,
            "type": "spell"
        },
        {
            "_id": "mrHQQjwSTfXCnZch",
            "data": {
                "attack": {
                    "value": ""
                },
                "attackEffects": {
                    "value": []
                },
                "bonus": {
                    "value": 30
                },
                "damageRolls": {
                    "tur7iftgdfc4h0gifgis": {
                        "damage": "4d4+14",
                        "damageType": "piercing"
                    }
                },
                "description": {
                    "value": "<p>@Localize[pf2ettw.PersistentDamage.Bleed2d6.success]</p>"
                },
                "rules": [
                    {
                        "key": "Note",
                        "outcome": [
                            "success"
                        ],
                        "selector": "{item|_id}-damage",
                        "text": "pf2ettw.PersistentDamage.Bleed2d6.success",
                        "visibility": "gm"
                    },
                    {
                        "key": "Note",
                        "outcome": [
                            "criticalSuccess"
                        ],
                        "selector": "{item|_id}-damage",
                        "text": "pf2ettw.PersistentDamage.Bleed2d6.criticalSuccess",
                        "visibility": "gm"
                    }
                ],
                "slug": null,
                "source": {
                    "value": ""
                },
                "traits": {
                    "custom": "",
                    "rarity": "common",
                    "value": [
                        "agile",
                        "finesse",
                        "magical",
                        "reach-10",
                        "versatile-s"
                    ]
                },
                "weaponType": {
                    "value": "melee"
                }
            },
            "img": "systems/pf2ettw/icons/default-icons/melee.svg",
            "name": "Chained Dagger",
            "sort": 1000000,
            "type": "melee"
        },
        {
            "_id": "j7hDiUXLpry6mkqN",
            "data": {
                "actionCategory": {
                    "value": "interaction"
                },
                "actionType": {
                    "value": "passive"
                },
                "actions": {
                    "value": null
                },
                "description": {
                    "value": "<p>@Localize[pf2ettw.NPC.Abilities.Glossary.Darkvision]</p>"
                },
                "requirements": {
                    "value": ""
                },
                "rules": [],
                "slug": "darkvision",
                "source": {
                    "value": "Pathfinder Bestiary"
                },
                "traits": {
                    "custom": "",
                    "rarity": "common",
                    "value": []
                },
                "trigger": {
                    "value": ""
                },
                "weapon": {
                    "value": ""
                }
            },
            "flags": {
                "core": {
                    "sourceId": "Compendium.pf2ettw.bestiary-ability-glossary-srd.qCCLZhnp2HhP3Ex6"
                }
            },
            "img": "systems/pf2ettw/icons/actions/Passive.webp",
            "name": "Darkvision",
            "sort": 1100000,
            "type": "action"
        },
        {
            "_id": "vevNfOyFN6QRJtR2",
            "data": {
                "actionCategory": {
                    "value": "interaction"
                },
                "actionType": {
                    "value": "passive"
                },
                "actions": {
                    "value": null
                },
                "description": {
                    "value": "<p>@Localize[pf2ettw.NPC.Abilities.Glossary.AtWillSpells]</p>"
                },
                "requirements": {
                    "value": ""
                },
                "rules": [],
                "slug": "at-will-spells",
                "source": {
                    "value": "Pathfinder Bestiary"
                },
                "traits": {
                    "custom": "",
                    "rarity": "common",
                    "value": []
                },
                "trigger": {
                    "value": ""
                },
                "weapon": {
                    "value": ""
                }
            },
            "flags": {
                "core": {
                    "sourceId": "Compendium.pf2ettw.bestiary-ability-glossary-srd.2YRDYVnC1eljaXKK"
                }
            },
            "img": "systems/pf2ettw/icons/actions/Passive.webp",
            "name": "At-Will Spells",
            "sort": 1200000,
            "type": "action"
        },
        {
            "_id": "U6Wwg69lSYJAW46L",
            "data": {
                "actionCategory": {
                    "value": "interaction"
                },
                "actionType": {
                    "value": "passive"
                },
                "actions": {
                    "value": null
                },
                "description": {
                    "value": "<p>@Localize[pf2ettw.NPC.Abilities.Glossary.ConstantSpells]</p>"
                },
                "requirements": {
                    "value": ""
                },
                "rules": [],
                "slug": "constant-spells",
                "source": {
                    "value": "Pathfinder Bestiary"
                },
                "traits": {
                    "custom": "",
                    "rarity": "common",
                    "value": []
                },
                "trigger": {
                    "value": ""
                },
                "weapon": {
                    "value": ""
                }
            },
            "flags": {
                "core": {
                    "sourceId": "Compendium.pf2ettw.bestiary-ability-glossary-srd.kakyXBG5WA8c6Zfd"
                }
            },
            "img": "systems/pf2ettw/icons/actions/Passive.webp",
            "name": "Constant Spells",
            "sort": 1300000,
            "type": "action"
        },
        {
            "_id": "9APnpN5PuTxG8v98",
            "data": {
                "actionCategory": {
                    "value": "defensive"
                },
                "actionType": {
                    "value": "passive"
                },
                "actions": {
                    "value": null
                },
                "description": {
                    "value": ""
                },
                "requirements": {
                    "value": ""
                },
                "rules": [
                    {
                        "key": "FlatModifier",
                        "predicate": {
                            "any": [
                                "magical",
                                "arcane",
                                "divine",
                                "primal",
                                "occult"
                            ]
                        },
                        "selector": "saving-throw",
                        "type": "status",
                        "value": 1
                    }
                ],
                "slug": null,
                "source": {
                    "value": ""
                },
                "traits": {
                    "custom": "",
                    "rarity": "common",
                    "value": []
                },
                "trigger": {
                    "value": ""
                },
                "weapon": {
                    "value": ""
                }
            },
            "img": "systems/pf2ettw/icons/actions/Passive.webp",
            "name": "+1 Status to All Saves vs. Magic",
            "sort": 1400000,
            "type": "action"
        },
        {
            "_id": "DDzd3ocX0kkjYD9e",
            "data": {
                "actionCategory": {
                    "value": "defensive"
                },
                "actionType": {
                    "value": "passive"
                },
                "actions": {
                    "value": null
                },
                "description": {
                    "value": "<p>Crucidaemons are all but impossible to fool with traps. Whenever a crucidaemon rolls a saving throw against a trap hazard, its degree of success is one better than it rolled.</p>"
                },
                "requirements": {
                    "value": ""
                },
                "rules": [
                    {
                        "adjustment": {
                            "criticalFailure": "one-degree-better",
                            "criticalSuccess": "one-degree-better",
                            "failure": "one-degree-better",
                            "success": "one-degree-better"
                        },
                        "key": "AdjustDegreeOfSuccess",
                        "predicate": {
                            "all": [
                                "trap"
                            ]
                        },
                        "selector": "saving-throw",
                        "type": "skill"
                    }
                ],
                "slug": null,
                "source": {
                    "value": ""
                },
                "traits": {
                    "custom": "",
                    "rarity": "common",
                    "value": []
                },
                "trigger": {
                    "value": ""
                },
                "weapon": {
                    "value": ""
                }
            },
            "img": "systems/pf2ettw/icons/actions/Passive.webp",
            "name": "Trap Dodger",
            "sort": 1500000,
            "type": "action"
        },
        {
            "_id": "yo9I3mhk7rIUPwWa",
            "data": {
                "actionCategory": {
                    "value": "offensive"
                },
                "actionType": {
                    "value": "passive"
                },
                "actions": {
                    "value": null
                },
                "description": {
                    "value": "<p>When the crucidaemon casts its innate <em>@Compendium[pf2ettw.spells-srd.Glyph of Warding]{Glyph of Warding}</em> spell, it can store any arcane or divine spell of an appropriate level in the glyph, even if it can't otherwise cast the spell.</p>"
                },
                "requirements": {
                    "value": ""
                },
                "rules": [],
                "slug": null,
                "source": {
                    "value": ""
                },
                "traits": {
                    "custom": "",
                    "rarity": "common",
                    "value": [
                        "divine"
                    ]
                },
                "trigger": {
                    "value": ""
                },
                "weapon": {
                    "value": ""
                }
            },
            "img": "systems/pf2ettw/icons/actions/Passive.webp",
            "name": "Daemonic Trap Making",
            "sort": 1600000,
            "type": "action"
        },
        {
            "_id": "7WZNigBilIpl5GhG",
            "data": {
                "actionCategory": {
                    "value": "offensive"
                },
                "actionType": {
                    "value": "action"
                },
                "actions": {
                    "value": 1
                },
                "description": {
                    "value": "<p>The crucidaemon makes two chained dagger Strikes against a single target. These attacks count toward the crucidaemon's multiple attack penalty and its multiple attack penalty doesn't increase until after both attacks.</p>"
                },
                "requirements": {
                    "value": ""
                },
                "rules": [],
                "slug": null,
                "source": {
                    "value": ""
                },
                "traits": {
                    "custom": "",
                    "rarity": "common",
                    "value": []
                },
                "trigger": {
                    "value": ""
                },
                "weapon": {
                    "value": ""
                }
            },
            "img": "systems/pf2ettw/icons/actions/OneAction.webp",
            "name": "Flurry of Daggers",
            "sort": 1700000,
            "type": "action"
        },
        {
            "_id": "ZyKpCc2am8rFqQ93",
            "data": {
                "actionCategory": {
                    "value": "offensive"
                },
                "actionType": {
                    "value": "action"
                },
                "actions": {
                    "value": 1
                },
                "description": {
                    "value": "<p>The crucidaemon summons a new chained dagger to replace a destroyed one. A crucidaemon's daggers can't be disarmed, and they become non-magical when severed from the daemon or upon the daemon's death.</p>"
                },
                "requirements": {
                    "value": ""
                },
                "rules": [],
                "slug": null,
                "source": {
                    "value": ""
                },
                "traits": {
                    "custom": "",
                    "rarity": "common",
                    "value": []
                },
                "trigger": {
                    "value": ""
                },
                "weapon": {
                    "value": ""
                }
            },
            "img": "systems/pf2ettw/icons/actions/OneAction.webp",
            "name": "Manifest Dagger",
            "sort": 1800000,
            "type": "action"
        },
        {
            "_id": "j5jw7EF9ndsBxX6Q",
            "data": {
                "description": {
                    "value": ""
                },
                "mod": {
                    "value": 30
                },
                "proficient": {
                    "value": 0
                },
                "rules": [],
                "slug": null,
                "source": {
                    "value": ""
                },
                "traits": {
                    "custom": "",
                    "rarity": "common",
                    "value": []
                }
            },
            "img": "systems/pf2ettw/icons/default-icons/lore.svg",
            "name": "Acrobatics",
            "sort": 1900000,
            "type": "lore"
        },
        {
            "_id": "9HzCEZxi5w1UHMgA",
            "data": {
                "description": {
                    "value": ""
                },
                "mod": {
                    "value": 26
                },
                "proficient": {
                    "value": 0
                },
                "rules": [],
                "slug": null,
                "source": {
                    "value": ""
                },
                "traits": {
                    "custom": "",
                    "rarity": "common",
                    "value": []
                }
            },
            "img": "systems/pf2ettw/icons/default-icons/lore.svg",
            "name": "Arcana",
            "sort": 2000000,
            "type": "lore"
        },
        {
            "_id": "CKnMzr9mvVQ0YFwt",
            "data": {
                "description": {
                    "value": ""
                },
                "mod": {
                    "value": 30
                },
                "proficient": {
                    "value": 0
                },
                "rules": [],
                "slug": null,
                "source": {
                    "value": ""
                },
                "traits": {
                    "custom": "",
                    "rarity": "common",
                    "value": []
                }
            },
            "img": "systems/pf2ettw/icons/default-icons/lore.svg",
            "name": "Crafting",
            "sort": 2100000,
            "type": "lore"
        },
        {
            "_id": "P1O6WHWAm5AYu95S",
            "data": {
                "description": {
                    "value": ""
                },
                "mod": {
                    "value": 26
                },
                "proficient": {
                    "value": 0
                },
                "rules": [],
                "slug": null,
                "source": {
                    "value": ""
                },
                "traits": {
                    "custom": "",
                    "rarity": "common",
                    "value": []
                }
            },
            "img": "systems/pf2ettw/icons/default-icons/lore.svg",
            "name": "Deception",
            "sort": 2200000,
            "type": "lore"
        },
        {
            "_id": "IgURpTUMei7t2Ilb",
            "data": {
                "description": {
                    "value": ""
                },
                "mod": {
                    "value": 28
                },
                "proficient": {
                    "value": 0
                },
                "rules": [],
                "slug": null,
                "source": {
                    "value": ""
                },
                "traits": {
                    "custom": "",
                    "rarity": "common",
                    "value": []
                }
            },
            "img": "systems/pf2ettw/icons/default-icons/lore.svg",
            "name": "Intimidation",
            "sort": 2300000,
            "type": "lore"
        },
        {
            "_id": "42uah5Nvz5OGzULw",
            "data": {
                "description": {
                    "value": ""
                },
                "mod": {
                    "value": 30
                },
                "proficient": {
                    "value": 0
                },
                "rules": [],
                "slug": null,
                "source": {
                    "value": ""
                },
                "traits": {
                    "custom": "",
                    "rarity": "common",
                    "value": []
                }
            },
            "img": "systems/pf2ettw/icons/default-icons/lore.svg",
            "name": "Stealth",
            "sort": 2400000,
            "type": "lore"
        },
        {
            "_id": "pyX6pZ9EqxSSCoPR",
            "data": {
                "description": {
                    "value": ""
                },
                "mod": {
                    "value": 26
                },
                "proficient": {
                    "value": 0
                },
                "rules": [],
                "slug": null,
                "source": {
                    "value": ""
                },
                "traits": {
                    "custom": "",
                    "rarity": "common",
                    "value": []
                }
            },
            "img": "systems/pf2ettw/icons/default-icons/lore.svg",
            "name": "Thievery",
            "sort": 2500000,
            "type": "lore"
        }
    ],
    "name": "Crucidaemon",
    "token": {
        "disposition": -1,
        "height": 1,
        "img": "systems/pf2ettw/icons/default-icons/npc.svg",
        "name": "Crucidaemon",
        "width": 1
    },
    "type": "npc"
}
