{
    "_id": "kBYuJs4je7XBPisk",
    "data": {
        "attributes": {
            "ac": {
                "value": 16
            },
            "hardness": 5,
            "hasHealth": true,
            "hp": {
                "details": "",
                "max": 20,
                "temp": 0,
                "value": 20
            },
            "stealth": {
                "details": "<p>(trained); @Check[type:perception|dc:20|traits:hazard,mechanical,trap] when the bat swarm is active</p>",
                "value": 0
            }
        },
        "creatureType": "",
        "details": {
            "description": "<p>A metal pincer trap lies hidden at the bottom of a weakened spot in the floor.</p>",
            "disable": "<p>@Check[type:thievery|dc:17|name:Jam Mechanism|traits:trap,mechanical] to jam the pincer's triggeer mechanism.</p>",
            "isComplex": false,
            "level": {
                "value": 1
            },
            "reset": "<p>The foot pincer must be reset manually before it can activate again.</p>",
            "routine": ""
        },
        "saves": {
            "fortitude": {
                "saveDetail": "",
                "value": 10
            },
            "reflex": {
                "saveDetail": "",
                "value": 4
            },
            "will": {
                "saveDetail": "",
                "value": 0
            }
        },
        "source": {
            "value": "Pathfinder Bounty #18: From Family Lost"
        },
        "statusEffects": [],
        "traits": {
            "ci": [],
            "di": {
                "custom": "",
                "selected": {},
                "value": [
                    "critical-hits",
                    "object-immunities",
                    "precision"
                ]
            },
            "dr": [],
            "dv": [],
            "rarity": "common",
            "size": {
                "value": "med"
            },
            "traits": {
                "custom": "",
                "value": [
                    "mechanical",
                    "trap"
                ]
            }
        }
    },
    "img": "systems/pf2ettw/icons/default-icons/hazard.svg",
    "items": [
        {
            "_id": "oLSV57GLZgOFHEFQ",
            "data": {
                "actionCategory": {
                    "value": "offensive"
                },
                "actionType": {
                    "value": "reaction"
                },
                "actions": {
                    "value": null
                },
                "description": {
                    "value": "<p><strong>Trigger</strong> A creature steps onto a foot pincer</p>\n<hr />\n<p><strong>Effect</strong> The trap slams shut on the triggering creature's foot. The creature must succeed at a @Check[type:reflex|dc:18] save or take [[/r {1d6+5}[slashing]]]{1d6+5 slashing damage} and @Localize[pf2ettw.PersistentDamage.Bleed1d4.success].</p>"
                },
                "requirements": {
                    "value": ""
                },
                "rules": [],
                "slug": null,
                "source": {
                    "value": ""
                },
                "traits": {
                    "custom": "",
                    "rarity": "common",
                    "value": []
                },
                "trigger": {
                    "value": ""
                }
            },
            "img": "systems/pf2ettw/icons/actions/Reaction.webp",
            "name": "Slam Shut",
            "sort": 0,
            "type": "action"
        }
    ],
    "name": "Foot Pincer",
    "token": {
        "disposition": 0,
        "height": 1,
        "img": "systems/pf2ettw/icons/default-icons/hazard.svg",
        "name": "Foot Pincer",
        "width": 1
    },
    "type": "hazard"
}
