{
    "_id": "LiKplPXYeqLVJ462",
    "data": {
        "attributes": {
            "ac": {
                "value": 25
            },
            "hardness": 15,
            "hp": {
                "details": "",
                "max": 60,
                "temp": 0,
                "value": 60
            },
            "stealth": {
                "details": "<p>(trained)</p>",
                "value": 17
            }
        },
        "creatureType": "",
        "customModifiers": {},
        "details": {
            "description": "<p>Pressure plates trigger hidden mauls in the walls of the pits that swing up to slam creatures and knock them off the span.</p>",
            "disable": "<p>@Check[type:society|dc:23|name:Locate the hidden switch] (expert) to locate the hidden deactivation switch or @Check[type:thievery|dc:30|name:Jam the mechanics] (trained) to jam the mechanics on the span.</p>",
            "isComplex": false,
            "level": {
                "value": 7
            },
            "reset": "<p>The trap resets over the course of the round and is ready to swing again 1 round later. It can be manually reset if Disabled.</p>",
            "routine": ""
        },
        "saves": {
            "fortitude": {
                "saveDetail": "",
                "value": 18
            },
            "reflex": {
                "saveDetail": "",
                "value": 12
            },
            "will": {
                "saveDetail": "",
                "value": 0
            }
        },
        "source": {
            "value": "Pathfinder Society Scenario #3-14: The Tomb Between Worlds"
        },
        "statusEffects": [],
        "traits": {
            "di": {
                "custom": "",
                "selected": {},
                "value": [
                    "critical-hits",
                    "object-immunities",
                    "precision"
                ]
            },
            "dr": [],
            "dv": [],
            "rarity": "rare",
            "size": {
                "value": "med"
            },
            "traits": {
                "custom": "",
                "value": [
                    "mechanical",
                    "trap"
                ]
            }
        }
    },
    "img": "systems/pf2ettw/icons/default-icons/hazard.svg",
    "items": [
        {
            "_id": "MyIOS8naAz13CG3i",
            "data": {
                "actionCategory": {
                    "value": "offensive"
                },
                "actionType": {
                    "value": "reaction"
                },
                "actions": {
                    "value": null
                },
                "description": {
                    "value": "<p><strong>Trigger</strong> A creature moves onto the span.</p>\n<p><strong>Effect</strong> The mauls swing up, making an attack against the triggering creature.</p>"
                },
                "requirements": {
                    "value": ""
                },
                "rules": [],
                "slug": null,
                "source": {
                    "value": ""
                },
                "traits": {
                    "custom": "",
                    "rarity": "common",
                    "value": []
                },
                "trigger": {
                    "value": ""
                }
            },
            "img": "systems/pf2ettw/icons/actions/Reaction.webp",
            "name": "Chastise the Disrespectful",
            "sort": 0,
            "type": "action"
        },
        {
            "_id": "FcbqM9wRNIhKdiRO",
            "data": {
                "attack": {
                    "value": ""
                },
                "attackEffects": {
                    "custom": "",
                    "value": []
                },
                "bonus": {
                    "value": 22
                },
                "damageRolls": {
                    "ygsps4d5yxi9qgtr5e2e": {
                        "damage": "4d10+18",
                        "damageType": "bludgeoning"
                    }
                },
                "description": {
                    "value": "<p>If struck by the Mauls strike, the target must succeed at a @Check[type:fortitude|dc:25] save or be knocked off the span into a pit. The target can use the @Compendium[pf2ettw.actionspf2ettw.Grab an Edge]{Grab an Edge} reaction to avoid falling.</p>"
                },
                "rules": [],
                "slug": null,
                "source": {
                    "value": ""
                },
                "traits": {
                    "custom": "",
                    "rarity": "common",
                    "value": []
                },
                "weaponType": {
                    "value": "melee"
                }
            },
            "img": "systems/pf2ettw/icons/default-icons/melee.svg",
            "name": "Mauls",
            "sort": 0,
            "type": "melee"
        }
    ],
    "name": "Insolent's Retort",
    "token": {
        "disposition": -1,
        "height": 1,
        "img": "systems/pf2ettw/icons/default-icons/hazard.svg",
        "name": "Insolent's Retort",
        "width": 1
    },
    "type": "hazard"
}
