{
    "_id": "0T4gSWRTGUN0aFzT",
    "data": {
        "attributes": {
            "ac": {
                "value": 0
            },
            "hardness": 0,
            "hp": {
                "details": "",
                "max": 0,
                "temp": 0,
                "value": 0
            },
            "stealth": {
                "details": "<p>(expert)</p>",
                "value": 23
            }
        },
        "creatureType": "",
        "details": {
            "description": "<p>Negative-energy charged natron sprays out of the tub and starts to mummify nearby creatures.</p>",
            "disable": "<p>@Check[type:thievery|dc:30|name:Safely remove the vise] (expert) to safely remove the umbral vise from the tub without triggering the natron or <em>@Compendium[pf2ettw.spells-srd.Dispel Magic]{Dispel Magic}</em> (5th level; counteract DC 28) to counteract the ritual energy.</p>",
            "isComplex": false,
            "level": {
                "value": 9
            },
            "reset": "<p>The trap resets after 24 hours.</p>",
            "routine": ""
        },
        "saves": {
            "fortitude": {
                "saveDetail": "",
                "value": 0
            },
            "reflex": {
                "saveDetail": "",
                "value": 0
            },
            "will": {
                "saveDetail": "",
                "value": 0
            }
        },
        "source": {
            "value": "Pathfinder Society Scenario #3-14: The Tomb Between Worlds"
        },
        "statusEffects": [],
        "traits": {
            "di": {
                "custom": "",
                "selected": {},
                "value": []
            },
            "dr": [],
            "dv": [],
            "rarity": "unique",
            "size": {
                "value": "med"
            },
            "traits": {
                "custom": "",
                "value": [
                    "magical",
                    "trap"
                ]
            }
        }
    },
    "img": "systems/pf2ettw/icons/default-icons/hazard.svg",
    "items": [
        {
            "_id": "DwBFFkjWgCikIgP1",
            "data": {
                "actionCategory": {
                    "value": "offensive"
                },
                "actionType": {
                    "value": "reaction"
                },
                "actions": {
                    "value": null
                },
                "description": {
                    "value": "<p><strong>Trigger</strong> A creature touches or disturbs the umbral vise.</p>\n<p><strong>Effect</strong> Natron sprays out of the tub, infusing all creatures adjacent to the tub with negative energy and desiccating their internal organs. Each creature takes [[/r {2d10+4}[negative]+{2d10+4}[poison]]]{2d10+4 negative damage and 2d10+4 poison damage} (@Check[type:fortitude|dc:32|basic:true] save). On a failure, the internal damage makes the creature more susceptible to other effects that would cause it to mummify, such as Mummy Rot. For 1 day, the first time it is exposed to such an effect, it uses the outcome one degree of success worse than the result of its saving throw.</p>"
                },
                "requirements": {
                    "value": ""
                },
                "rules": [],
                "slug": null,
                "source": {
                    "value": ""
                },
                "traits": {
                    "custom": "",
                    "rarity": "common",
                    "value": [
                        "divine",
                        "necromancy"
                    ]
                },
                "trigger": {
                    "value": ""
                }
            },
            "img": "systems/pf2ettw/icons/actions/Reaction.webp",
            "name": "Mummify",
            "sort": 0,
            "type": "action"
        }
    ],
    "name": "Natron Explosion",
    "token": {
        "disposition": -1,
        "height": 1,
        "img": "systems/pf2ettw/icons/default-icons/hazard.svg",
        "name": "Natron Explosion",
        "width": 1
    },
    "type": "hazard"
}
