{
    "_id": "WpdOwEpoWwxrBUpF",
    "data": {
        "abilities": {
            "cha": {
                "mod": 3
            },
            "con": {
                "mod": 2
            },
            "dex": {
                "mod": 3
            },
            "int": {
                "mod": 0
            },
            "str": {
                "mod": 4
            },
            "wis": {
                "mod": 5
            }
        },
        "attributes": {
            "ac": {
                "details": "",
                "value": 21
            },
            "allSaves": {
                "value": ""
            },
            "hp": {
                "details": "",
                "max": 60,
                "temp": 0,
                "value": 60
            },
            "initiative": {
                "ability": "perception"
            },
            "perception": {
                "value": 13
            },
            "speed": {
                "otherSpeeds": [
                    {
                        "type": "fly",
                        "value": "50"
                    }
                ],
                "value": "25"
            }
        },
        "details": {
            "alignment": {
                "value": "CE"
            },
            "blurb": "",
            "creatureType": "Beast",
            "level": {
                "value": 4
            },
            "privateNotes": "",
            "publicNotes": "<p>The perytons have muzzle-like mutations protruding from their antlers, making them prime trophies for the Arcadian beast gunner ritual.</p>\n<hr />\n<p>The peryton is an amalgam of horror, merging the features of a stag, wolf, and hawk. They love using shadows to stalk their victims before ripping out their still-beating hearts and relishing the dying pulse as they swallow them whole, so the doomed victims spends their last moments watching as their flesh is consumed.</p>\n<p>Despite perytons' animalistic appearance and brutal behavior, they are viciously cunning and as intelligent as humans. Their preferred tactic is to find a lone traveler and stalk it from on high. Most perytons are loners who loathe all other creatures. These feelings extend to other perytons as well, and adult males attack each other on sight as surely as they attack anything else.</p>\n<p>Once per year, perytons mate. The males offer up hearts they have collected from humanoids to attract females. Those that manage to secure a mate rarely survive long though, as their mating ritual is short and violent. Female perytons generally abandon their eggs after laying them, so newly hatched perytons must fend for themselves from the moment they emerge.</p>\n<p>A lone peryton typically builds a nest in a rocky overhang or an exceptionally tall and strong tree where they can observe nearby lands. Although they aren't particularly interested in wealth, perytons do like to collect small objects from their victims. During those times between hunts, they sometimes study these trophies in order to relive the memories of victims' last moments and the taste of victims' hearts.</p>",
            "source": {
                "value": "Pathfinder Society Scenario #3-13: Guardian's Covenant"
            }
        },
        "resources": {},
        "saves": {
            "fortitude": {
                "saveDetail": "",
                "value": 8
            },
            "reflex": {
                "saveDetail": "",
                "value": 11
            },
            "will": {
                "saveDetail": "",
                "value": 13
            }
        },
        "traits": {
            "attitude": {
                "value": "hostile"
            },
            "ci": [],
            "di": {
                "custom": "",
                "value": []
            },
            "dr": [],
            "dv": [],
            "languages": {
                "custom": "",
                "selected": [],
                "value": [
                    "common"
                ]
            },
            "rarity": "uncommon",
            "senses": {
                "value": "darkvision"
            },
            "size": {
                "value": "med"
            },
            "traits": {
                "custom": "",
                "value": [
                    "beast"
                ]
            }
        }
    },
    "img": "systems/pf2ettw/icons/default-icons/npc.svg",
    "items": [
        {
            "_id": "LqIsXOTw0kTELToc",
            "data": {
                "attack": {
                    "value": ""
                },
                "attackEffects": {
                    "value": []
                },
                "bonus": {
                    "value": 14
                },
                "damageRolls": {
                    "wy1yold13inb06yq31dv": {
                        "damage": "1d12+7",
                        "damageType": "piercing"
                    }
                },
                "description": {
                    "value": ""
                },
                "rules": [],
                "slug": null,
                "source": {
                    "value": ""
                },
                "traits": {
                    "custom": "",
                    "rarity": "common",
                    "value": [
                        "deadly-d8"
                    ]
                },
                "weaponType": {
                    "value": "melee"
                }
            },
            "img": "systems/pf2ettw/icons/default-icons/melee.svg",
            "name": "Antler",
            "sort": 100000,
            "type": "melee"
        },
        {
            "_id": "dXKhtDCdlXRIWq2O",
            "data": {
                "attack": {
                    "value": ""
                },
                "attackEffects": {
                    "value": []
                },
                "bonus": {
                    "value": 14
                },
                "damageRolls": {
                    "7zwdybwda7dc26tht1a4": {
                        "damage": "1d8+7",
                        "damageType": "slashing"
                    }
                },
                "description": {
                    "value": ""
                },
                "rules": [],
                "slug": null,
                "source": {
                    "value": ""
                },
                "traits": {
                    "custom": "",
                    "rarity": "common",
                    "value": [
                        "agile"
                    ]
                },
                "weaponType": {
                    "value": "melee"
                }
            },
            "img": "systems/pf2ettw/icons/default-icons/melee.svg",
            "name": "Fangs",
            "sort": 200000,
            "type": "melee"
        },
        {
            "_id": "8mptO3PLF3L5YurY",
            "data": {
                "attack": {
                    "value": ""
                },
                "attackEffects": {
                    "custom": "",
                    "value": [
                        "cumbersome-mutation"
                    ]
                },
                "bonus": {
                    "value": 14
                },
                "damageRolls": {
                    "7qs5idqk51cyqrdossm1": {
                        "damage": "1d10+5",
                        "damageType": "piercing"
                    }
                },
                "description": {
                    "value": ""
                },
                "rules": [],
                "slug": null,
                "source": {
                    "value": ""
                },
                "traits": {
                    "custom": "",
                    "rarity": "common",
                    "value": [
                        "range-150",
                        "reload-1"
                    ]
                },
                "weaponType": {
                    "value": "ranged"
                }
            },
            "img": "systems/pf2ettw/icons/default-icons/melee.svg",
            "name": "Antler Rifle",
            "sort": 300000,
            "type": "melee"
        },
        {
            "_id": "32RMKlAce7FfxW8e",
            "data": {
                "actionCategory": {
                    "value": "interaction"
                },
                "actionType": {
                    "value": "passive"
                },
                "actions": {
                    "value": null
                },
                "description": {
                    "value": "<p>@Localize[pf2ettw.NPC.Abilities.Glossary.Darkvision]</p>"
                },
                "requirements": {
                    "value": ""
                },
                "rules": [],
                "slug": "darkvision",
                "source": {
                    "value": "Pathfinder Bestiary"
                },
                "traits": {
                    "custom": "",
                    "rarity": "common",
                    "value": []
                },
                "trigger": {
                    "value": ""
                },
                "weapon": {
                    "value": ""
                }
            },
            "flags": {
                "core": {
                    "sourceId": "Compendium.pf2ettw.bestiary-ability-glossary-srd.qCCLZhnp2HhP3Ex6"
                }
            },
            "img": "systems/pf2ettw/icons/actions/Passive.webp",
            "name": "Darkvision",
            "sort": 400000,
            "type": "action"
        },
        {
            "_id": "XNqtx1P6jhhzWrEb",
            "data": {
                "actionCategory": {
                    "value": "interaction"
                },
                "actionType": {
                    "value": "passive"
                },
                "actions": {
                    "value": null
                },
                "description": {
                    "value": "<p>While a mutated peryton's antler rifle is drawn, it is @Compendium[pf2ettw.conditionitems.Flat-Footed]{Flat-Footed} against melee Strikes. It can suppress the mutation to stow the antler rifle with a single Interact action; if it does so, it cannot use the weapon again until it re-activates the mutation and draws the weapon with another Interact action.</p>"
                },
                "requirements": {
                    "value": ""
                },
                "rules": [],
                "slug": null,
                "source": {
                    "value": ""
                },
                "traits": {
                    "custom": "",
                    "rarity": "common",
                    "value": []
                },
                "trigger": {
                    "value": ""
                }
            },
            "img": "systems/pf2ettw/icons/actions/Passive.webp",
            "name": "Cumbersome Mutation",
            "sort": 500000,
            "type": "action"
        },
        {
            "_id": "osi4ctAQErnOa2BZ",
            "data": {
                "actionCategory": {
                    "value": "offensive"
                },
                "actionType": {
                    "value": "action"
                },
                "actions": {
                    "value": 1
                },
                "description": {
                    "value": "<p>The peryton rips out the heart of an adjacent corpse with their jaws. The creature must have died in the last minute. As the peryton rips the heart free and swallows it whole, they regain [[/r {2d6} #hit points]]{2d6 HP}, and any non-peryton that witnesses this event must succeed at a @Check[type:will|dc:21] save or become @Compendium[pf2ettw.conditionitems.Frightened]{Frightened 1} (or @Compendium[pf2ettw.conditionitems.Frightened]{Frightened 2} on a critical failure).</p>"
                },
                "requirements": {
                    "value": ""
                },
                "rules": [],
                "slug": null,
                "source": {
                    "value": ""
                },
                "traits": {
                    "custom": "",
                    "rarity": "common",
                    "value": [
                        "attack",
                        "emotion",
                        "fear",
                        "visual"
                    ]
                },
                "trigger": {
                    "value": ""
                },
                "weapon": {
                    "value": ""
                }
            },
            "img": "systems/pf2ettw/icons/actions/OneAction.webp",
            "name": "Heart Ripper",
            "sort": 600000,
            "type": "action"
        },
        {
            "_id": "BZfKFoVLNm5bmKHc",
            "data": {
                "actionCategory": {
                    "value": "offensive"
                },
                "actionType": {
                    "value": "action"
                },
                "actions": {
                    "value": 1
                },
                "description": {
                    "value": "<p><strong>Requirements</strong> The target must be casting a shadow</p>\n<hr />\n<p><strong>Effect</strong> The peryton Flies, going no higher than 20 feet over the target creature. The target creature must succeed at a @Check[type:will|dc:21] save or the peryton's shadow changes to match that cast by the target creature. With their shadow so transformed, the peryton gains a +2 status bonus to attack and damage rolls against that creature.</p>\n<p>In addition, each time the peryton successfully Strikes that creature, the creature must succeed at a @Check[type:will|dc:21] save or become @Compendium[pf2ettw.conditionitems.Frightened]{Frightened 1}, or increase its frightened condition by 1 if it's already frightened. This is an emotion and fear effect. The shadow remains transformed for 1 hour or until the peryton Mimics a Shadow again, whichever comes first.</p>"
                },
                "requirements": {
                    "value": ""
                },
                "rules": [
                    {
                        "key": "FlatModifier",
                        "predicate": {
                            "all": [
                                "mimic-shadow"
                            ]
                        },
                        "selector": "attack",
                        "type": "status",
                        "value": 2
                    },
                    {
                        "key": "FlatModifier",
                        "predicate": {
                            "all": [
                                "mimic-shadow"
                            ]
                        },
                        "selector": "strike-damage",
                        "type": "status",
                        "value": 2
                    },
                    {
                        "domain": "all",
                        "key": "RollOption",
                        "option": "mimic-shadow",
                        "toggleable": true,
                        "value": false
                    }
                ],
                "slug": null,
                "source": {
                    "value": ""
                },
                "traits": {
                    "custom": "",
                    "rarity": "common",
                    "value": [
                        "necromancy",
                        "occult",
                        "shadow",
                        "emotion",
                        "fear"
                    ]
                },
                "trigger": {
                    "value": ""
                },
                "weapon": {
                    "value": ""
                }
            },
            "img": "systems/pf2ettw/icons/actions/OneAction.webp",
            "name": "Mimic Shadow",
            "sort": 700000,
            "type": "action"
        },
        {
            "_id": "pzFnK1WJO7CUnzjL",
            "data": {
                "description": {
                    "value": ""
                },
                "mod": {
                    "value": 11
                },
                "proficient": {
                    "value": 0
                },
                "rules": [],
                "slug": null,
                "source": {
                    "value": ""
                },
                "traits": {
                    "custom": "",
                    "rarity": "common",
                    "value": []
                }
            },
            "img": "systems/pf2ettw/icons/default-icons/lore.svg",
            "name": "Acrobatics",
            "sort": 800000,
            "type": "lore"
        },
        {
            "_id": "SQt3ydpVVOvRBQUF",
            "data": {
                "description": {
                    "value": ""
                },
                "mod": {
                    "value": 11
                },
                "proficient": {
                    "value": 0
                },
                "rules": [],
                "slug": null,
                "source": {
                    "value": ""
                },
                "traits": {
                    "custom": "",
                    "rarity": "common",
                    "value": []
                }
            },
            "img": "systems/pf2ettw/icons/default-icons/lore.svg",
            "name": "Intimidation",
            "sort": 900000,
            "type": "lore"
        },
        {
            "_id": "mLG81JPpnT55XHAd",
            "data": {
                "description": {
                    "value": ""
                },
                "mod": {
                    "value": 11
                },
                "proficient": {
                    "value": 0
                },
                "rules": [],
                "slug": null,
                "source": {
                    "value": ""
                },
                "traits": {
                    "custom": "",
                    "rarity": "common",
                    "value": []
                }
            },
            "img": "systems/pf2ettw/icons/default-icons/lore.svg",
            "name": "Stealth",
            "sort": 1000000,
            "type": "lore"
        }
    ],
    "name": "Peryton (Rifle Mutation)",
    "token": {
        "disposition": -1,
        "height": 1,
        "img": "systems/pf2ettw/icons/default-icons/npc.svg",
        "name": "Peryton",
        "width": 1
    },
    "type": "npc"
}
