{
    "_id": "IGPbMkKjnlFW1w1a",
    "data": {
        "actionCategory": {
            "value": "interaction"
        },
        "actionType": {
            "value": "passive"
        },
        "actions": {
            "value": null
        },
        "description": {
            "value": "<p><strong>Cost</strong> A bribe worth at least one-tenth of the Currency per Additional PC listed on Core Rulebook 509 (see table below). Doubling this amount grants a +2 circumstance bonus to the check.</p>\n<p><strong>Requirements</strong> You've successfully Gained a Contact. You offer a bribe to your contact to help the heist in some way. Attempt a hard or very hard Deception or Diplomacy check.</p>\n<hr />\n<p><strong>Success</strong> The contact accepts the bribe and you gain 1 EP.</p>\n<p><strong>Failure</strong> You believe you successfully Bribed your Contact and gained 1 EP, but in fact the contact informs the opposition of the attempted bribery, adding 1 AP to the infiltration. The GM can reveal that this Edge Point grants no benefit at any point during the infiltration, as befits the story.</p>\n<p><strong>Critical Failure</strong> As failure, but adding 2 AP to the infiltration.</p>\n<hr />\n<table class=\"pf2-table\">\n<thead>\n<tr>\n<th>NPC Level</th>\n<th>Minimum</th>\n<th>+2 Bonus</th>\n<th>NPC Level</th>\n<th>Minimum</th>\n<th>+2 Bonus</th>\n</tr>\n</thead>\n<tbody>\n<tr>\n<td>1</td>\n<td>1 gp</td>\n<td>2 gp</td>\n<td>11</td>\n<td>70 gp</td>\n<td>140 gp</td>\n</tr>\n<tr>\n<td>2</td>\n<td>1 gp, 8 sp</td>\n<td>3gp, 6sp</td>\n<td>12</td>\n<td>100 gp</td>\n<td>200 gp</td>\n</tr>\n<tr>\n<td>3</td>\n<td>3 gp</td>\n<td>6 gp</td>\n<td>13</td>\n<td>150 gp</td>\n<td>300 gp</td>\n</tr>\n<tr>\n<td>4</td>\n<td>5 gp</td>\n<td>10 gp</td>\n<td>14</td>\n<td>225 gp</td>\n<td>450 gp</td>\n</tr>\n<tr>\n<td>5</td>\n<td>8 gp</td>\n<td>16 gp</td>\n<td>15</td>\n<td>325 gp</td>\n<td>650 gp</td>\n</tr>\n<tr>\n<td>6</td>\n<td>12 gp, 5 sp</td>\n<td>25 gp</td>\n<td>16</td>\n<td>500 gp</td>\n<td>1,000 gp</td>\n</tr>\n<tr>\n<td>7</td>\n<td>18 gp</td>\n<td>36 gp</td>\n<td>17</td>\n<td>750 gp</td>\n<td>1,500 gp</td>\n</tr>\n<tr>\n<td>8</td>\n<td>25 gp</td>\n<td>50 gp</td>\n<td>18</td>\n<td>1,200 gp</td>\n<td>2,400 gp</td>\n</tr>\n<tr>\n<td>9</td>\n<td>35 gp</td>\n<td>70 gp</td>\n<td>19</td>\n<td>2,000 gp</td>\n<td>4,000 gp</td>\n</tr>\n<tr>\n<td>10</td>\n<td>50 gp</td>\n<td>100 gp</td>\n<td>20</td>\n<td>3,500 gp</td>\n<td>7,000 gp</td>\n</tr>\n</tbody>\n</table>"
        },
        "requirements": {
            "value": ""
        },
        "rules": [],
        "source": {
            "value": "Pathfinder Gamemastery Guide"
        },
        "traits": {
            "custom": "",
            "rarity": "common",
            "value": [
                "downtime",
                "secret"
            ]
        },
        "trigger": {
            "value": ""
        }
    },
    "img": "systems/pf2ettw/icons/actions/Passive.webp",
    "name": "Bribe Contact",
    "type": "action"
}
