{
    "_id": "TXqTIwNGULs3j6CH",
    "data": {
        "actionCategory": {
            "value": "offensive"
        },
        "actionType": {
            "value": "reaction"
        },
        "actions": {
            "value": null
        },
        "description": {
            "value": "<p><strong>Trigger</strong> You attempt a melee Strike against your opponent, but haven't rolled yet.</p>\n<p><strong>Requirements</strong> You're in a duel, you're trained in Intimidation, and you rolled an Intimidation check for initiative this round.</p>\n<hr />\n<p>If you hit, your opponent becomes @Compendium[pf2ettw.conditionitems.Frightened]{Frightened 1}. If your opponent is using Perception for initiative when this ability is used, they become @Compendium[pf2ettw.conditionitems.Frightened]{Frightened 2} instead.</p>"
        },
        "requirements": {
            "value": ""
        },
        "rules": [],
        "source": {
            "value": "Pathfinder Gamemastery Guide"
        },
        "traits": {
            "custom": "",
            "rarity": "common",
            "value": [
                "flourish"
            ]
        },
        "trigger": {
            "value": ""
        }
    },
    "img": "systems/pf2ettw/icons/actions/Reaction.webp",
    "name": "Bullying Press",
    "type": "action"
}
