{
    "_id": "mk6rzaAzsBBRGJnh",
    "data": {
        "actionCategory": {
            "value": ""
        },
        "actionType": {
            "value": "reaction"
        },
        "actions": {
            "value": null
        },
        "description": {
            "value": "<p><strong>Trigger</strong> You attempt an attack roll, skill check, or saving throw while performing the course of action from your <em>@Compendium[pf2ettw.spells-srd.Augury]{Augury}</em>, but you haven't rolled yet</p>\n<hr />\n<p>You gain a +1 status bonus to the triggering check, or a +2 status bonus if the result of the augury was \"woe\" and you proceeded anyway.</p>\n<p>@Compendium[pf2ettw.feat-effects.Effect: Brightness Seeker]{Effect: Brightness Seeker}</p>"
        },
        "requirements": {
            "value": ""
        },
        "rules": [],
        "source": {
            "value": "Pathfinder Lost Omens: Character Guide"
        },
        "traits": {
            "custom": "",
            "rarity": "common",
            "selected": {
                "concentrate": "Concentrate"
            },
            "value": [
                "concentrate"
            ]
        },
        "trigger": {
            "value": ""
        },
        "weapon": {
            "value": ""
        }
    },
    "img": "systems/pf2ettw/icons/actions/Reaction.webp",
    "name": "Call Upon the Brightness",
    "type": "action"
}
