{
    "_id": "KyKXp599tK9BgodC",
    "data": {
        "actionCategory": {
            "value": "offensive"
        },
        "actionType": {
            "value": "reaction"
        },
        "actions": {
            "value": null
        },
        "description": {
            "value": "<p><strong>Trigger</strong> An enemy within 15 feet of you hits you with a Strike and deals damage to you.</p>\n<p><strong>Requirements</strong> Your eidolon is within 15 feet of you.</p>\n<p>Your eidolon instinctively flashes with ectoplasmic energy, allowing them to strike back against an enemy who dares to harm you. Your eidolon makes a melee unarmed Strike against the triggering enemy, even if that enemy isn't within your eidolon's reach.</p>"
        },
        "requirements": {
            "value": ""
        },
        "rules": [],
        "source": {
            "value": "Pathfinder Secrets of Magic"
        },
        "traits": {
            "custom": "",
            "rarity": "common",
            "value": [
                "eidolon",
                "occult",
                "transmutation"
            ]
        },
        "trigger": {
            "value": ""
        },
        "weapon": {
            "value": ""
        }
    },
    "img": "systems/pf2ettw/icons/actions/Reaction.webp",
    "name": "Dutiful Retaliation",
    "type": "action"
}
