{
    "_id": "7dq6bpYvLArJ5odx",
    "data": {
        "actionCategory": {
            "value": "interaction"
        },
        "actionType": {
            "value": "passive"
        },
        "actions": {
            "value": null
        },
        "description": {
            "value": "<p>You prepare forgeries that might serve as convincing props. Attempt a hard or very hard Society check.</p>\n<hr />\n<p><strong>Success</strong> You create convincing forgeries and gain 1 EP you can use only when presenting some form of paperwork.</p>\n<p><strong>Failure</strong> You create unconvincing documents. You gain 1 EP that (unknown to you) grants no benefit when used.</p>\n<p><strong>Critical Failure</strong> As a failure, but a PC who tries to use the Edge Point gets a critical failure, even if they use the Edge Point after rolling a failure.</p>"
        },
        "requirements": {
            "value": ""
        },
        "rules": [],
        "source": {
            "value": "Pathfinder Gamemastery Guide"
        },
        "traits": {
            "custom": "",
            "rarity": "common",
            "value": [
                "downtime",
                "secret"
            ]
        },
        "trigger": {
            "value": ""
        }
    },
    "img": "systems/pf2ettw/icons/actions/Passive.webp",
    "name": "Forge Documents",
    "type": "action"
}
