{
    "_id": "MLchOIG6uLvzK3r0",
    "data": {
        "actionCategory": {
            "value": "interaction"
        },
        "actionType": {
            "value": "passive"
        },
        "actions": {
            "value": null
        },
        "description": {
            "value": "<p>You try to make contact with an individual who can aid you in the infiltration. Attempt a normal, hard, or very hard DC Diplomacy or Society check, or a check using a Lore skill appropriate to your prospective contact.</p>\n<hr />\n<p><strong>Success</strong> You make contact and gain 1 EP.</p>\n<p><strong>Failure</strong> You fail to make contact.</p>\n<p><strong>Critical Failure</strong> You insult or spook the contact in some way. Future attempts take a -2 circumstance penalty.</p>\n<hr />\n<p><strong>Special</strong> Multiple critical failures might cause the contact to work against the PCs in some way, likely increasing the party's Awareness Points.</p>"
        },
        "requirements": {
            "value": ""
        },
        "rules": [],
        "source": {
            "value": "Pathfinder Gamemastery Guide"
        },
        "traits": {
            "custom": "",
            "rarity": "common",
            "value": [
                "downtime"
            ]
        },
        "trigger": {
            "value": ""
        }
    },
    "img": "systems/pf2ettw/icons/actions/Passive.webp",
    "name": "Gain Contact",
    "type": "action"
}
