{
    "_id": "plBGdZhqq5JBl1D8",
    "data": {
        "actionCategory": {
            "value": "interaction"
        },
        "actionType": {
            "value": "passive"
        },
        "actions": {
            "value": null
        },
        "description": {
            "value": "<p>You canvass local markets, taverns, and gathering places in an attempt to learn about a specific individual or topic. The GM determines the DC of the <span data-pf2-action=\"gatherInformation\">Diplomacy</span> check and the amount of time it takes (typically 2 hours, but sometimes more), along with any benefit you might be able to gain by spending coin on bribes, drinks, or gifts.</p>\n<hr />\n<p><strong>Success</strong> You collect information about the individual or topic. The GM determines the specifics.</p>\n<p><strong>Critical Failure</strong> You collect incorrect information about the individual or topic.</p><h2 class=\"title\">Sample Gather Information Tasks</h2>\n<ul>\n<li><strong>Untrained</strong> talk of the town</li>\n<li><strong>Trained</strong> common rumor</li>\n<li><strong>Expert</strong> obscure rumor, poorly guarded secret</li>\n<li><strong>Master</strong> well-guarded or esoteric information</li>\n<li><strong>Legendary</strong> information known only to an incredibly select few, or only to extraordinary beings </li>\n</ul>"
        },
        "requirements": {
            "value": ""
        },
        "rules": [],
        "source": {
            "value": "Pathfinder Core Rulebook"
        },
        "traits": {
            "custom": "",
            "rarity": "common",
            "value": [
                "skill",
                "secret",
                "exploration"
            ]
        },
        "trigger": {
            "value": ""
        },
        "weapon": {
            "value": ""
        }
    },
    "img": "systems/pf2ettw/icons/actions/Passive.webp",
    "name": "Gather Information",
    "type": "action"
}
