{
    "_id": "JYi4MnsdFu618hPm",
    "data": {
        "actionCategory": {
            "value": "offensive"
        },
        "actionType": {
            "value": "action"
        },
        "actions": {
            "value": 1
        },
        "description": {
            "value": "<p>You designate a single creature as your prey and focus your attacks against that creature. You must be able to see or hear the prey, or you must be tracking the prey during exploration.</p>\n<p>You gain a +2 circumstance bonus to Perception checks when you Seek your prey and a +2 circumstance bonus to Survival checks when you @Compendium[pf2ettw.actionspf2ettw.Track]{Track} your prey. You also ignore the penalty for making ranged attacks within your second range increment against the prey you're hunting.</p>\n<p>You can have only one creature designated as your prey at a time. If you use Hunt Prey against a creature when you already have a creature designated, the prior creature loses the designation and the new prey gains the designation. Your designation lasts until your next daily preparations.</p>"
        },
        "requirements": {
            "value": ""
        },
        "rules": [
            {
                "domain": "all",
                "key": "RollOption",
                "label": "pf2ettw.SpecificRule.HuntPrey.TargetHuntedPrey",
                "option": "hunted-prey",
                "toggleable": true
            },
            {
                "key": "FlatModifier",
                "label": "pf2ettw.SpecificRule.HuntPrey.SeekHuntedPrey",
                "predicate": {
                    "all": [
                        "action:seek",
                        "hunted-prey"
                    ]
                },
                "selector": "perception",
                "type": "circumstance",
                "value": 2
            },
            {
                "key": "FlatModifier",
                "label": "pf2ettw.SpecificRule.HuntPrey.TrackHuntedPrey",
                "predicate": {
                    "all": [
                        "action:track",
                        "hunted-prey"
                    ]
                },
                "selector": "survival",
                "type": "circumstance",
                "value": 2
            },
            {
                "domain": "ranged-attack-roll",
                "key": "RollOption",
                "option": "ignore-range-penalty:2",
                "predicate": {
                    "all": [
                        "hunted-prey"
                    ]
                }
            }
        ],
        "source": {
            "value": "Pathfinder Core Rulebook"
        },
        "traits": {
            "custom": "",
            "rarity": "common",
            "value": [
                "concentrate",
                "ranger"
            ]
        },
        "trigger": {
            "value": ""
        },
        "weapon": {
            "value": ""
        }
    },
    "img": "systems/pf2ettw/icons/actions/OneAction.webp",
    "name": "Hunt Prey",
    "type": "action"
}
