{
    "_id": "hFRHPBj6wjAayNtW",
    "data": {
        "actionCategory": {
            "value": "offensive"
        },
        "actionType": {
            "value": "action"
        },
        "actions": {
            "value": 2
        },
        "description": {
            "value": "<p><strong>Frequency</strong> once per day</p>\n<hr />\n<p>You can curse another creature with clumsiness. This curse has a range of 30 feet, and you must be able to see your target. The target gets a @Check[type:will|dc:resolve(@actor.attributes.classOrSpellDC.value)] to resist this jinx, using your class DC or spell DC, whichever is higher.</p>\n<hr />\n<p><strong>Success</strong> The target is unaffected and is temporarily immune for 24 hours.</p>\n<p><strong>Failure</strong> The target is @Compendium[pf2ettw.conditionitems.Clumsy]{Clumsy 1} for 1 minute.</p>\n<p><strong>Critical Failure</strong> The target is @Compendium[pf2ettw.conditionitems.Clumsy]{Clumsy 2} for 1 minute.</p>"
        },
        "requirements": {
            "value": ""
        },
        "rules": [],
        "source": {
            "value": "Pathfinder Advanced Player's Guide"
        },
        "traits": {
            "custom": "",
            "rarity": "common",
            "value": [
                "curse",
                "necromancy",
                "occult"
            ]
        },
        "trigger": {
            "value": ""
        },
        "weapon": {
            "value": ""
        }
    },
    "img": "systems/pf2ettw/icons/actions/TwoActions.webp",
    "name": "Jinx",
    "type": "action"
}
