{
    "_id": "00LNVSCbwJ8pszwE",
    "data": {
        "actionCategory": {
            "value": "interaction"
        },
        "actionType": {
            "value": "free"
        },
        "actions": {
            "value": null
        },
        "description": {
            "value": "<p><strong>Frequency</strong> once per day</p>\n<hr />\n<p>You experience a brief resurgence of a mutagen. Choose one mutagen you've consumed since your last daily preparations. You gain the effects of that mutagen for 1 minute.</p>"
        },
        "requirements": {
            "value": ""
        },
        "rules": [],
        "source": {
            "value": "Pathfinder Core Rulebook"
        },
        "traits": {
            "custom": "",
            "rarity": "common",
            "value": [
                "alchemist",
                "manipulate"
            ]
        },
        "trigger": {
            "value": ""
        },
        "weapon": {
            "value": ""
        }
    },
    "img": "systems/pf2ettw/icons/actions/FreeAction.webp",
    "name": "Mutagenic Flashback",
    "type": "action"
}
