{
    "_id": "ijZ0DDFpMkWqaShd",
    "data": {
        "actionCategory": {
            "value": "interaction"
        },
        "actionType": {
            "value": "action"
        },
        "actions": {
            "value": 1
        },
        "description": {
            "value": "<p>Palming a small, unattended object without being noticed requires you to roll a single Thievery check against the Perception DCs of all creatures who are currently observing you. You take the object whether or not you successfully conceal that you did so. You can typically only Palm Objects of negligible Bulk, though the GM might determine otherwise depending on the situation.</p>\n<hr />\n<p><strong>Success</strong> The creature does not notice you Palming the Object.</p>\n<p><strong>Failure</strong> The creature notices you Palming the Object, and the GM determines the creature's response.</p>"
        },
        "requirements": {
            "value": ""
        },
        "rules": [],
        "source": {
            "value": "Pathfinder Core Rulebook"
        },
        "traits": {
            "custom": "",
            "rarity": "common",
            "value": [
                "manipulate",
                "skill"
            ]
        },
        "trigger": {
            "value": ""
        },
        "weapon": {
            "value": ""
        }
    },
    "img": "systems/pf2ettw/icons/actions/OneAction.webp",
    "name": "Palm an Object",
    "type": "action"
}
