{
    "_id": "EEDElIyin4z60PXx",
    "data": {
        "actionCategory": {
            "value": "interaction"
        },
        "actionType": {
            "value": "action"
        },
        "actions": {
            "value": 1
        },
        "description": {
            "value": "<p>When making a brief performance-one song, a quick dance, or a few jokes-you use the Perform action. This action is most useful when you want to prove your capability or impress someone quickly. Performing rarely has an impact on its own, but it might influence the DCs of subsequent Diplomacy checks against the observers-or even change their attitudes-if the GM sees fit.</p>\n<hr />\n<p><strong>Critical Success</strong> Your performance impresses the observers, and they're likely to share stories of your ability.</p>\n<p><strong>Success</strong> You prove yourself, and observers appreciate the quality of your performance.</p>\n<p><strong>Failure</strong> Your performance falls flat.</p>\n<p><strong>Critical Failure</strong> You demonstrate only incompetence.</p><h2 class=\"title\">Sample Perform Tasks</h2>\n<ul>\n<li><strong>Untrained</strong> audience of commoners</li>\n<li><strong>Trained</strong> audience of artisans</li>\n<li><strong>Expert</strong> audience of merchants or minor nobles</li>\n<li><strong>Master</strong> audience of high nobility or minor royalty</li>\n<li><strong>Legendary</strong> audience of major royalty or otherworldly beings</li>\n</ul>"
        },
        "requirements": {
            "value": ""
        },
        "rules": [],
        "source": {
            "value": "Pathfinder Core Rulebook"
        },
        "traits": {
            "custom": "",
            "rarity": "common",
            "value": [
                "concentrate",
                "skill"
            ]
        },
        "trigger": {
            "value": ""
        },
        "weapon": {
            "value": ""
        }
    },
    "img": "systems/pf2ettw/icons/actions/OneAction.webp",
    "name": "Perform",
    "type": "action"
}
