{
    "_id": "xJEkXFJgEfEida27",
    "data": {
        "actionCategory": {
            "value": "interaction"
        },
        "actionType": {
            "value": "passive"
        },
        "actions": {
            "value": null
        },
        "description": {
            "value": "<p><strong>Prerequisites</strong> trained in Diplomacy, Intimidation, or Performance</p>\n<hr />\n<p>You spend 1 minute encouraging your ally. Though this action typically has the auditory and linguistic traits, if you're using the Performance skill, the GM might adjust the traits for this action to match the traits for your type of performance.</p>\n<p>Attempt a DC 15 skill check. The GM might adjust this DC based on the circumstances, such as attempting to Rally an ally who just suffered a humiliating defeat.</p>\n<hr />\n<p><strong>Critical Success</strong> The ally can spend 1 Resolve Point to regain all their Stamina Points.</p>\n<p><strong>Success</strong> You can continue encouraging your ally for a total of 10 minutes. If you do, they can spend 1 Resolve Point to regain all their Stamina Points.</p>\n<p><strong>Critical Failure</strong> The ally takes [[/r {1d8}[mental]]]{1d8 mental damage}, but this can reduce only Stamina Points, never Hit Points.</p>"
        },
        "requirements": {
            "value": ""
        },
        "rules": [],
        "source": {
            "value": "Pathfinder Gamemastery Guide"
        },
        "traits": {
            "custom": "",
            "rarity": "common",
            "selected": {
                "auditory": "Auditory",
                "emotion": "Emotion",
                "exploration": "Exploration",
                "linguistic": "Linguistic",
                "mental": "Mental"
            },
            "value": [
                "auditory",
                "emotion",
                "exploration",
                "linguistic",
                "mental"
            ]
        },
        "trigger": {
            "value": ""
        },
        "weapon": {
            "value": ""
        }
    },
    "img": "systems/pf2ettw/icons/actions/Passive.webp",
    "name": "Rally",
    "type": "action"
}
