{
    "_id": "DYn1igFjCGJEiP22",
    "data": {
        "actionCategory": {
            "value": "interaction"
        },
        "actionType": {
            "value": "reaction"
        },
        "actions": {
            "value": null
        },
        "description": {
            "value": "<p><strong>Trigger</strong> You miss with a firearm or crossbow Strike while using an ordinary level-0 bolt or bullet</p>\n<hr />\n<p>You amplify the connection between bullet and firearm, calling your missed shot back into your gun. The ammunition you just fired is reloaded back into your gun and immediately ready to fire again.</p>"
        },
        "requirements": {
            "value": ""
        },
        "rules": [],
        "source": {
            "value": "Pathfinder Guns & Gears"
        },
        "traits": {
            "custom": "",
            "rarity": "common",
            "value": [
                "conjuration",
                "magical",
                "spellshot",
                "teleportation"
            ]
        },
        "trigger": {
            "value": ""
        }
    },
    "img": "systems/pf2ettw/icons/actions/Reaction.webp",
    "name": "Recall Ammunition",
    "type": "action"
}
