{
    "_id": "QIrJJ1pl4H6DctaQ",
    "data": {
        "actionCategory": {
            "value": "interaction"
        },
        "actionType": {
            "value": "passive"
        },
        "actions": {
            "value": null
        },
        "description": {
            "value": "<p>You spend time surveying and exploring a specific area, getting the lay of the land and looking for unusual features and specific sites. Reconnoitering a single hex takes a number of hexploration activities equal to the number of Travel activities necessary to traverse the hex-1 for open terrain, 2 for difficult terrain, and 3 for greater difficult terrain. Traveling on roads doesn't lessen the time required to Reconnoiter. Once the hex has been Reconnoitered, you can Map the Area to reduce your chance of getting lost in that hex. You automatically find any special feature that doesn't require a check to find, and you attempt the appropriate checks to find hidden special features.</p>\n<p>For instance, if you were looking for an obvious rock formation among some hills, you would spend 2 hexploration activities to Reconnoiter the hex, and you'd find the rock formation. But if you were looking for a hidden tengu monastery somewhere in some deep forests, after spending 2 activities to Reconnoiter the forest hex, you would have to succeed at a Perception check as part of your Reconnoiter activity to find the monastery.</p>"
        },
        "requirements": {
            "value": ""
        },
        "rules": [],
        "source": {
            "value": "Pathfinder Gamemastery Guide"
        },
        "traits": {
            "custom": "",
            "rarity": "common",
            "value": [
                "concentrate"
            ]
        },
        "trigger": {
            "value": ""
        }
    },
    "img": "systems/pf2ettw/icons/actions/Passive.webp",
    "name": "Reconnoiter",
    "type": "action"
}
