{
    "_id": "XeZwXzR1KBlJF770",
    "data": {
        "actionCategory": {
            "value": "defensive"
        },
        "actionType": {
            "value": "reaction"
        },
        "actions": {
            "value": null
        },
        "description": {
            "value": "<p><strong>Trigger</strong> You attempt a saving throw against a harmful magical effect but haven't rolled yet.</p>\n<hr />\n<p>Your innate magic protects you. You gain a +1 circumstance bonus to the triggering saving throw. Additionally, if the triggering effect is arcane, if you roll a success, you get a critical success instead.</p>"
        },
        "requirements": {
            "value": ""
        },
        "rules": [
            {
                "domain": "all",
                "key": "RollOption",
                "option": "resist-magic",
                "toggleable": true
            },
            {
                "key": "FlatModifier",
                "label": "Resist Magic",
                "predicate": {
                    "all": [
                        "resist-magic"
                    ],
                    "any": [
                        "arcane",
                        "divine",
                        "primal",
                        "occult",
                        "magical"
                    ]
                },
                "selector": "saving-throw",
                "type": "circumstance",
                "value": 1
            },
            {
                "adjustment": {
                    "success": "one-degree-better"
                },
                "key": "AdjustDegreeOfSuccess",
                "predicate": {
                    "all": [
                        "resist-magic",
                        "arcane"
                    ]
                },
                "selector": "saving-throw",
                "type": "save"
            }
        ],
        "source": {
            "value": "Pathfinder Guns & Gears"
        },
        "traits": {
            "custom": "",
            "rarity": "common",
            "value": []
        },
        "trigger": {
            "value": ""
        }
    },
    "img": "systems/pf2ettw/icons/actions/Reaction.webp",
    "name": "Resist Magic",
    "type": "action"
}
