{
    "_id": "enQieRrITuEQZxx2",
    "data": {
        "actionCategory": {
            "value": "defensive"
        },
        "actionType": {
            "value": "reaction"
        },
        "actions": {
            "value": null
        },
        "description": {
            "value": "<p><strong>Trigger</strong> An enemy within 15 feet damages you</p>\n<hr />\n<p>Your self-interest keeps you safe. You gain resistance against the triggering damage equal to 2 + half your level, regardless of damage type.</p>\n<p>In addition, your Strikes against the triggering creature deal [[/r {1}]]{1 damage} extra damage until the end of your next turn. You choose whether this extra damage is evil or negative each time you use this reaction. This extra damage increases to [[/r {2}]]{2 damage} at 9th level and [[/r {3}]]{3 damage} at 16th level.</p>"
        },
        "requirements": {
            "value": ""
        },
        "rules": [],
        "source": {
            "value": "Pathfinder Advanced Player's Guide"
        },
        "traits": {
            "custom": "",
            "rarity": "common",
            "value": [
                "champion"
            ]
        },
        "trigger": {
            "value": ""
        },
        "weapon": {
            "value": ""
        }
    },
    "img": "systems/pf2ettw/icons/actions/Reaction.webp",
    "name": "Selfish Shield",
    "type": "action"
}
