{
    "_id": "JpcegMRqdizrkG0m",
    "data": {
        "actionCategory": {
            "value": "interaction"
        },
        "actionType": {
            "value": "free"
        },
        "actions": {
            "value": null
        },
        "description": {
            "value": "<p><strong>Trigger</strong> You roll initiative and can observe a creature you know is undead</p>\n<hr />\n<p>You attempt to Recall Knowledge to identify the undead creature with a +1 circumstance bonus. If you're a master in the skill you're using to Recall Knowledge, you gain a +2 circumstance bonus instead.</p>"
        },
        "requirements": {
            "value": ""
        },
        "rules": [],
        "source": {
            "value": "Pathfinder Book of the Dead"
        },
        "traits": {
            "custom": "",
            "rarity": "common",
            "value": []
        },
        "trigger": {
            "value": ""
        }
    },
    "img": "systems/pf2ettw/icons/actions/FreeAction.webp",
    "name": "Slayer's Identification",
    "type": "action"
}
