{
    "_id": "ge56Lu1xXVFYUnLP",
    "data": {
        "actionCategory": {
            "value": "offensive"
        },
        "actionType": {
            "value": "action"
        },
        "actions": {
            "value": 1
        },
        "description": {
            "value": "<p><strong>Requirements</strong> You have at least one hand free. Your target can't be more than one size larger than you</p>\n<hr />\n<p>You try to knock a creature to the ground. Attempt an <span data-pf2-action=\"trip\" data-pf2-glyph=\"A\">Athletics</span> check against the target's Reflex DC.</p>\n<hr />\n<p><strong>Critical Success</strong> The target falls and lands @Compendium[pf2ettw.conditionitems.Prone]{Prone} and takes [[/r {1d6}[bludgeoning]]]{1d6 bludgeoning damage}.</p>\n<p><strong>Success</strong> The target falls and lands prone.</p>\n<p><strong>Critical Failure</strong> You lose your balance and fall and land prone.</p>"
        },
        "requirements": {
            "value": ""
        },
        "rules": [],
        "source": {
            "value": "Pathfinder Core Rulebook"
        },
        "traits": {
            "custom": "",
            "rarity": "common",
            "value": [
                "attack",
                "skill"
            ]
        },
        "trigger": {
            "value": ""
        },
        "weapon": {
            "value": ""
        }
    },
    "img": "systems/pf2ettw/icons/actions/OneAction.webp",
    "name": "Trip",
    "type": "action"
}
