{
    "_id": "C9Tnl6Q7Z5Sbw5EY",
    "data": {
        "badge": null,
        "description": {
            "value": "<p><strong>Benefit</strong> You gain resistance 10 to the attuned energy type. Whenever you score a hit with a melee weapon, add 1 damage of the attuned energy type.</p>\n<p><strong>Drawback</strong> You gain weakness 5 to the other three energy types.</p>"
        },
        "duration": {
            "expiry": "turn-start",
            "sustained": false,
            "unit": "minutes",
            "value": 1
        },
        "level": {
            "value": 1
        },
        "rules": [
            {
                "choices": [
                    {
                        "label": "pf2ettw.TraitAcid",
                        "value": "acid"
                    },
                    {
                        "label": "pf2ettw.TraitCold",
                        "value": "cold"
                    },
                    {
                        "label": "pf2ettw.TraitElectricity",
                        "value": "electricity"
                    },
                    {
                        "label": "pf2ettw.TraitFire",
                        "value": "fire"
                    }
                ],
                "flag": "energyChoice",
                "key": "ChoiceSet",
                "prompt": "Choose Energy Type",
                "rollOption": "energy-mutagen"
            },
            {
                "key": "Weakness",
                "predicate": {
                    "not": [
                        "energy-mutagen:acid"
                    ]
                },
                "type": "acid",
                "value": 5
            },
            {
                "key": "Weakness",
                "predicate": {
                    "not": [
                        "energy-mutagen:cold"
                    ]
                },
                "type": "cold",
                "value": 5
            },
            {
                "key": "Weakness",
                "predicate": {
                    "not": [
                        "energy-mutagen:electricity"
                    ]
                },
                "type": "electricity",
                "value": 5
            },
            {
                "key": "Weakness",
                "predicate": {
                    "not": [
                        "energy-mutagen:fire"
                    ]
                },
                "type": "fire",
                "value": 5
            },
            {
                "damageType": "{item|flags.pf2ettw.rulesSelections.energyChoice}",
                "key": "FlatModifier",
                "predicate": {
                    "all": [
                        "weapon:melee"
                    ],
                    "not": [
                        "unarmed"
                    ]
                },
                "selector": "strike-damage",
                "value": 1
            },
            {
                "key": "Resistance",
                "type": "{item|flags.pf2ettw.rulesSelections.energyChoice}",
                "value": 5
            }
        ],
        "source": {
            "value": "Pathfinder Adventure: The Fall of Plaguestone"
        },
        "start": {
            "initiative": null,
            "value": 0
        },
        "target": null,
        "tokenIcon": {
            "show": true
        },
        "traits": {
            "custom": "",
            "rarity": "common",
            "value": []
        }
    },
    "img": "systems/pf2ettw/icons/equipment/alchemical-items/alchemical-elixirs/energy-mutagen.webp",
    "name": "Effect: Energy Mutagen (Lesser)",
    "type": "effect"
}
