{
    "_id": "w0LUnfS2whVhDBUF",
    "data": {
        "badge": null,
        "description": {
            "value": "<p>The creature takes a -1 status penalty to Stealth checks for 1 minute or until it uses an Interact action to remove the glitter.</p>"
        },
        "duration": {
            "expiry": "turn-end",
            "sustained": false,
            "unit": "minutes",
            "value": 1
        },
        "level": {
            "value": 4
        },
        "rules": [
            {
                "key": "FlatModifier",
                "label": "Glittering Snare (Success)",
                "selector": "stealth",
                "type": "status",
                "value": -1
            }
        ],
        "source": {
            "value": ""
        },
        "start": {
            "initiative": null,
            "value": 0
        },
        "target": null,
        "tokenIcon": {
            "show": false
        },
        "traits": {
            "custom": "",
            "rarity": "common",
            "value": []
        }
    },
    "img": "systems/pf2ettw/icons/equipment/snares/glittering-snare-effect.webp",
    "name": "Effect: Glittering Snare (Success)",
    "type": "effect"
}
