{
    "_id": "Bg4hNMqBx0yqmWYJ",
    "data": {
        "badge": null,
        "description": {
            "value": "<p>You gain low-light vision, darkvision, and <em>@Compendium[pf2ettw.spells-srd.See Invisibility]{See Invisibility}</em> for 10 minutes.</p>"
        },
        "duration": {
            "expiry": "turn-start",
            "sustained": false,
            "unit": "minutes",
            "value": 10
        },
        "level": {
            "value": 8
        },
        "rules": [
            {
                "key": "Sense",
                "label": "pf2ettw.SensesLowLightVision",
                "selector": "lowLightVision"
            },
            {
                "key": "Sense",
                "label": "pf2ettw.SensesDarkvision",
                "selector": "darkvision"
            }
        ],
        "source": {
            "value": "Pathfinder Guns & Gears"
        },
        "start": {
            "initiative": null,
            "value": 0
        },
        "target": null,
        "tokenIcon": {
            "show": true
        },
        "traits": {
            "custom": "",
            "rarity": "common",
            "value": []
        }
    },
    "img": "systems/pf2ettw/icons/equipment/worn-items/other-worn-items/clockwork-goggles.webp",
    "name": "Effect: Clockwork Goggles (Major)",
    "type": "effect"
}
