{
    "_id": "UlalLihKzDxcOdXL",
    "data": {
        "description": {
            "value": "<p>Granted by @Compendium[pf2ettw.equipment-srd.Thurible of Revelation (Moderate)]{Thurible of Revelation (Moderate)}</p>"
        },
        "duration": {
            "expiry": "turn-start",
            "sustained": false,
            "unit": "hours",
            "value": 1
        },
        "level": {
            "value": 10
        },
        "rules": [
            {
                "key": "FlatModifier",
                "selector": "religion",
                "type": "item",
                "value": 2
            }
        ],
        "source": {
            "value": ""
        },
        "start": {
            "initiative": null,
            "value": 0
        },
        "target": null,
        "tokenIcon": {
            "show": true
        },
        "traits": {
            "custom": "",
            "rarity": "common",
            "value": []
        }
    },
    "img": "systems/pf2ettw/icons/equipment/held-items/thurible-of-revelation.webp",
    "name": "Effect: Thurible of Revelation (Moderate)",
    "type": "effect"
}
