{
    "_id": "VlfuBfWkygsG8u5h",
    "data": {
        "badge": null,
        "description": {
            "value": "<p>The creature gains a +1 item bonus to saves versus fire effects.</p>"
        },
        "duration": {
            "expiry": "turn-start",
            "sustained": false,
            "unit": "hours",
            "value": 1
        },
        "level": {
            "value": 1
        },
        "rules": [
            {
                "key": "FlatModifier",
                "predicate": {
                    "not": [
                        "fire"
                    ]
                },
                "selector": "saving-throw",
                "type": "item",
                "value": 1
            }
        ],
        "source": {
            "value": ""
        },
        "start": {
            "initiative": null,
            "value": 0
        },
        "target": null,
        "tokenIcon": {
            "show": true
        },
        "traits": {
            "custom": "",
            "rarity": "common",
            "value": []
        }
    },
    "img": "systems/pf2ettw/icons/equipment/alchemical-items/drugs/blaze.webp",
    "name": "Effect: Blaze",
    "type": "effect"
}
