{
    "_id": "aIZsC56OdotiGb9M",
    "data": {
        "badge": null,
        "description": {
            "value": "<p>You gain a +1 item bonus to your attack rolls with this weapon and to Will saves against fear effects.</p>"
        },
        "duration": {
            "expiry": "turn-start",
            "sustained": false,
            "unit": "minutes",
            "value": 1
        },
        "level": {
            "value": 1
        },
        "rules": [
            {
                "choices": {
                    "ownedItems": true,
                    "types": [
                        "weapon"
                    ]
                },
                "key": "ChoiceSet",
                "prompt": "pf2ettw.SpecificRule.Prompt.Weapon"
            },
            {
                "key": "FlatModifier",
                "selector": "{item|flags.pf2ettw.rulesSelections.effectWarBloodMutagenLesser}-attack",
                "type": "item",
                "value": 1
            },
            {
                "key": "FlatModifier",
                "predicate": {
                    "all": [
                        "fear"
                    ]
                },
                "selector": "will",
                "type": "item",
                "value": 1
            }
        ],
        "source": {
            "value": ""
        },
        "start": {
            "initiative": null,
            "value": 0
        },
        "target": null,
        "tokenIcon": {
            "show": true
        },
        "traits": {
            "custom": "",
            "rarity": "common",
            "value": []
        }
    },
    "img": "systems/pf2ettw/icons/equipment/alchemical-items/alchemical-elixirs/war-blood-mutagen.webp",
    "name": "Effect: War Blood Mutagen (Lesser)",
    "type": "effect"
}
