{
    "_id": "fYe48HmFgfmcqbvL",
    "data": {
        "badge": null,
        "description": {
            "value": "<p>The Hero grants its wearer a +3 status bonus to attack rolls with bows for 1 minute.</p>"
        },
        "duration": {
            "expiry": "turn-start",
            "sustained": false,
            "unit": "minutes",
            "value": 1
        },
        "level": {
            "value": 1
        },
        "rules": [
            {
                "key": "FlatModifier",
                "selector": "bow-weapon-group-attack",
                "type": "status",
                "value": 3
            }
        ],
        "source": {
            "value": ""
        },
        "start": {
            "initiative": null,
            "value": 0
        },
        "target": null,
        "tokenIcon": {
            "show": true
        },
        "traits": {
            "custom": "",
            "rarity": "common",
            "value": []
        }
    },
    "img": "systems/pf2ettw/icons/equipment/worn-items/other-worn-items/demon-mask.webp",
    "name": "Effect: Taljjae's Mask (The Hero)",
    "type": "effect"
}
