{
    "_id": "R5ugeFK3MPwkbv0s",
    "data": {
        "badge": null,
        "description": {
            "value": "<p>Granted by @Compendium[pf2ettw.equipment-srd.Potency Crystal]{Potency Crystal}</p>\n<p>The weapon becomes a <em>+1 striking weapon</em> for the rest of the turn, gaining a +1 item bonus to the attack roll and increasing the damage on a hit to two weapon damage dice.</p>"
        },
        "duration": {
            "expiry": "turn-start",
            "sustained": false,
            "unit": "rounds",
            "value": 1
        },
        "level": {
            "value": 1
        },
        "rules": [
            {
                "choices": {
                    "ownedItems": true,
                    "types": [
                        "weapon"
                    ]
                },
                "key": "ChoiceSet",
                "prompt": "pf2ettw.SpecificRule.Prompt.Weapon"
            },
            {
                "key": "WeaponPotency",
                "selector": "{item|flags.pf2ettw.rulesSelections.effectPotencyCrystal}-attack",
                "value": 1
            },
            {
                "key": "Striking",
                "selector": "{item|flags.pf2ettw.rulesSelections.effectPotencyCrystal}-damage",
                "value": 1
            }
        ],
        "source": {
            "value": "Pathfinder Core Rulebook"
        },
        "start": {
            "initiative": null,
            "value": 0
        },
        "target": null,
        "tokenIcon": {
            "show": true
        },
        "traits": {
            "custom": "",
            "rarity": "common",
            "value": []
        }
    },
    "img": "systems/pf2ettw/icons/equipment/consumables/talismans/potency-crystal.webp",
    "name": "Effect: Potency Crystal",
    "type": "effect"
}
