{
    "_id": "D7teqZ68L21aZCpd",
    "data": {
        "badge": null,
        "description": {
            "value": "<p>The creature takes a -2 status penalty to Stealth checks for 2 minutes or until it spends a 2-action activity, which has the manipulate trait, to remove the glitter. If the creature was @Compendium[pf2ettw.conditionitems.Invisible]{Invisible}, the glitter outlines it for 1 round, making it @Compendium[pf2ettw.conditionitems.Concealed]{Concealed} rather than @Compendium[pf2ettw.conditionitems.Undetected]{Undetected} to visual senses.</p>"
        },
        "duration": {
            "expiry": "turn-end",
            "sustained": false,
            "unit": "minutes",
            "value": 2
        },
        "level": {
            "value": 4
        },
        "rules": [
            {
                "key": "FlatModifier",
                "label": "Glittering Snare (Success)",
                "selector": "stealth",
                "type": "status",
                "value": -2
            }
        ],
        "source": {
            "value": ""
        },
        "start": {
            "initiative": null,
            "value": 0
        },
        "target": null,
        "tokenIcon": {
            "show": false
        },
        "traits": {
            "custom": "",
            "rarity": "common",
            "value": []
        }
    },
    "img": "systems/pf2ettw/icons/equipment/snares/glittering-snare-effect.webp",
    "name": "Effect: Glittering Snare (Failure)",
    "type": "effect"
}
