{
    "_id": "WXsWkFosSGBrptwF",
    "data": {
        "badge": null,
        "description": {
            "value": "<p>The construct gains a +1 status bonus to attack rolls, damage rolls, and saving throws (except saving throws against the ivory baton).</p>"
        },
        "duration": {
            "expiry": "turn-start",
            "sustained": false,
            "unit": "rounds",
            "value": 1
        },
        "level": {
            "value": 1
        },
        "rules": [
            {
                "key": "FlatModifier",
                "selector": "attack",
                "type": "status",
                "value": 1
            },
            {
                "key": "FlatModifier",
                "selector": "strike-damage",
                "type": "status",
                "value": 1
            },
            {
                "key": "FlatModifier",
                "selector": "saving-throw",
                "type": "status",
                "value": 1
            }
        ],
        "source": {
            "value": ""
        },
        "start": {
            "initiative": null,
            "value": 0
        },
        "target": null,
        "tokenIcon": {
            "show": true
        },
        "traits": {
            "custom": "",
            "rarity": "common",
            "value": []
        }
    },
    "img": "systems/pf2ettw/icons/equipment/held-items/ivory-baton.webp",
    "name": "Effect: Ivory Baton",
    "type": "effect"
}
