{
    "_id": "hy6LAC13QIJNDYXm",
    "data": {
        "badge": null,
        "description": {
            "value": "<p>While you have a status bonus to at least one of your Speeds, your Strikes with this scimitar that deal fire damage gain a +2 status bonus to their fire damage. The status bonus increases to +3 if the weapon has a greater striking rune and +4 for major striking.</p>\n<hr />\n<p>Note: The damage cannot currently be made to automatically increase as the damage dice increase.</p>"
        },
        "duration": {
            "expiry": "turn-start",
            "sustained": false,
            "unit": "unlimited",
            "value": -1
        },
        "level": {
            "value": 10
        },
        "rules": [
            {
                "damageType": "fire",
                "key": "FlatModifier",
                "selector": "south-winds-scorch-song-damage",
                "type": "status",
                "value": 2
            }
        ],
        "source": {
            "value": ""
        },
        "start": {
            "initiative": null,
            "value": 0
        },
        "target": null,
        "tokenIcon": {
            "show": true
        },
        "traits": {
            "custom": "",
            "rarity": "common",
            "value": []
        }
    },
    "img": "systems/pf2ettw/icons/equipment/weapons/specific-magic-weapons/south-winds-scorch-song.webp",
    "name": "Equipment Effect: South Wind's Scorch Song (Damage)",
    "type": "effect"
}
