{
    "_id": "qXaXfqQfW3cp8kbI",
    "data": {
        "attributes": {
            "ac": {
                "value": 16
            },
            "hardness": 7,
            "hasHealth": true,
            "hp": {
                "details": "",
                "max": 24,
                "temp": 0,
                "value": 24
            },
            "stealth": {
                "details": "<p>(trained)</p>",
                "value": 7
            }
        },
        "creatureType": "",
        "details": {
            "description": "<p>A cloud of invisible magical sensors in a 10-foot radius surrounds the central column of the room.</p>",
            "disable": "<p>@Check[type:acrobatics|dc:15|name:Approach the Rune|traits:magical,trap] to approach without triggering the trap followed by @Check[type:thievery|dc:17|name:Erase the Rune|traits:magical,trap] (trained) to erase the rune, or @Check[type:athletics|dc:19|name:Remove Stones|traits:magical,trap] to remove enough stones from the pillar to disrupt the magic, or dispel magic (1st level; counteract DC 15) to counteract the rune.</p>",
            "isComplex": true,
            "level": {
                "value": 1
            },
            "reset": "<p>The trap resets each day at dawn.</p>",
            "routine": ""
        },
        "saves": {
            "fortitude": {
                "saveDetail": "",
                "value": 10
            },
            "reflex": {
                "saveDetail": "",
                "value": 2
            },
            "will": {
                "saveDetail": "",
                "value": 0
            }
        },
        "source": {
            "value": ""
        },
        "statusEffects": [],
        "traits": {
            "ci": [],
            "di": {
                "custom": "",
                "selected": {},
                "value": [
                    "critical-hits",
                    "object-immunities",
                    "precision"
                ]
            },
            "dr": [],
            "dv": [],
            "rarity": "uncommon",
            "size": {
                "value": "med"
            },
            "traits": {
                "custom": "",
                "value": [
                    "magical",
                    "trap"
                ]
            }
        }
    },
    "img": "systems/pf2ettw/icons/default-icons/hazard.svg",
    "items": [
        {
            "_id": "wz43EsdDh8PtPAEO",
            "data": {
                "actionCategory": {
                    "value": "offensive"
                },
                "actionType": {
                    "value": "reaction"
                },
                "actions": {
                    "value": null
                },
                "description": {
                    "value": "<p><strong>Trigger</strong> A creature enters the cloud of magical sensors</p>\n<hr />\n<p><strong>Effect</strong> The trap summons one of the creatures previously encountered in area B with the weak adjustment. The creature rolls initiative and remains for 7 rounds, after which the spell ends and the creature disappears. The summoned creature also disappears if a creature disables the trap before the duration expires. The summoned creature can use 3 actions each round and can use reactions, unlike most summoned creatures.</p>"
                },
                "requirements": {
                    "value": ""
                },
                "rules": [],
                "slug": null,
                "source": {
                    "value": ""
                },
                "traits": {
                    "custom": "",
                    "rarity": "common",
                    "value": [
                        "arcane",
                        "conjuration",
                        "summon"
                    ]
                },
                "trigger": {
                    "value": ""
                },
                "weapon": {
                    "value": ""
                }
            },
            "img": "systems/pf2ettw/icons/actions/Reaction.webp",
            "name": "Summon Weak Monster",
            "sort": 0,
            "type": "action"
        }
    ],
    "name": "Ancient Summoning Rune",
    "token": {
        "disposition": 0,
        "height": 1,
        "img": "systems/pf2ettw/icons/default-icons/hazard.svg",
        "name": "Ancient Summoning Rune",
        "width": 1
    },
    "type": "hazard"
}
