{
    "_id": "GYfIWbgOu5LAsUOg",
    "data": {
        "attributes": {
            "ac": {
                "value": 0
            },
            "hardness": 0,
            "hasHealth": true,
            "hp": {
                "details": "",
                "max": 0,
                "temp": 0,
                "value": 0
            },
            "stealth": {
                "details": "<p>(trained)</p>",
                "value": 10
            }
        },
        "creatureType": "",
        "details": {
            "description": "<p>The image of a ghostly warrior her holy symbol dripping blood and pulsing with negative energy, steps from the wall and seeks to kill any living creature.</p>",
            "disable": "<p>@Check[type:religion|dc:20|name:Exorcise Spirit|traits:complex,haunt] (trained) to exorcise the spirit, @Check[type:religion|dc:21|name:Sever Spiritual Connection|traits:complex,haunt] or @Check[type:occultism|dc:21|name:Sever Spiritual Connection|traits:complex,haunt] (trained) to sever the connection between <em>Hunger's Call</em> and the temple, or @Check[type:thievery|dc:21|name:Scratch Eyes out of the Mural|traits:complex,haunt] (trained) to scratch the eyes out of the mural; three total successes are required to disable the haunt.</p>",
            "isComplex": true,
            "level": {
                "value": 3
            },
            "reset": "<p>The spectral warrior returns to the wall and ceases 2 rounds after all living creatures are out of sight of the stairs. After 6 hours the haunt is ready to trigger again.</p>",
            "routine": "<p><span class=\"pf2-icon\">3</span> The warrior's blade sweeps through the bodies of any living creature within sight of the exit stairs, and they each take [[/r {1d10+4}[slashing]]]{1d10+4 slashing damage} (@Check[type:fortitude|dc:20|basic:true|name:Avoid the Warrior's Blade|traits:complex,haunt,slashing] save). Undead creatures in the area gain 5 temporary hit points.</p>"
        },
        "saves": {
            "fortitude": {
                "saveDetail": "",
                "value": 0
            },
            "reflex": {
                "saveDetail": "",
                "value": 0
            },
            "will": {
                "saveDetail": "",
                "value": 0
            }
        },
        "source": {
            "value": ""
        },
        "statusEffects": [],
        "traits": {
            "ci": [],
            "di": {
                "custom": "",
                "selected": {},
                "value": []
            },
            "dr": [],
            "dv": [],
            "rarity": "common",
            "size": {
                "value": "med"
            },
            "traits": {
                "custom": "",
                "value": [
                    "haunt"
                ]
            }
        }
    },
    "img": "systems/pf2ettw/icons/default-icons/hazard.svg",
    "items": [
        {
            "_id": "OsRJ9mpFyuDME5oa",
            "data": {
                "actionCategory": {
                    "value": "offensive"
                },
                "actionType": {
                    "value": "reaction"
                },
                "actions": {
                    "value": null
                },
                "description": {
                    "value": "<p><strong>Trigger</strong> A living creature bearing <em>Hunger's Call</em> moves within 30 feet of the exit stairs</p>\n<hr />\n<p><strong>Effect</strong> Blood pounds in the targe's body as their heart races uncontrollably. The creature must attempt a @Check[type:will|dc:20|name:Resist Racing Blood|traits:complex] save, and the haunt then rolls initiative.</p>\n<hr />\n<p><strong>Critical Success</strong> The target is unaffected.</p>\n<p><strong>Success</strong> The target is @Compendium[pf2ettw.conditionitems.Sickened]{Sickened 1}.</p>\n<p><strong>Failure</strong> The target is @Compendium[pf2ettw.conditionitems.Sickened]{Sickened 2}.</p>\n<p><strong>Critical Failure</strong> As failure, and the target's move speed is reduced by 10 for 1 minute.</p>"
                },
                "requirements": {
                    "value": ""
                },
                "rules": [],
                "slug": null,
                "source": {
                    "value": ""
                },
                "traits": {
                    "custom": "",
                    "rarity": "common",
                    "value": [
                        "arcane",
                        "death",
                        "fear"
                    ]
                },
                "trigger": {
                    "value": ""
                }
            },
            "img": "systems/pf2ettw/icons/actions/Reaction.webp",
            "name": "Racing Blood",
            "sort": 0,
            "type": "action"
        }
    ],
    "name": "Spite of the Righteous",
    "token": {
        "disposition": 0,
        "height": 1,
        "img": "systems/pf2ettw/icons/default-icons/hazard.svg",
        "name": "Spite of the Righteous",
        "width": 1
    },
    "type": "hazard"
}
