{
    "_id": "z4cvqtpkkAYoFpHa",
    "data": {
        "ancestry": {
            "name": "Shoony",
            "uuid": "Compendium.pf2ettw.ancestries.q6rsqYARyOGXZA8F"
        },
        "description": {
            "value": "<p>Your ancestors were famous trackers, and you carry in your blood that same gift of the hunt.</p>\n<p>You gain a special sense: imprecise scent with a range of 30 feet. This means you can use your sense of smell to determine the location of a creature, but it remains @Compendium[pf2ettw.conditionitems.Hidden]{Hidden}.</p>\n<p>In addition, you gain a +2 circumstance bonus to Survival checks to @Compendium[pf2ettw.actionspf2ettw.Track]{Track} creatures that you have previously sensed with your scent.</p>"
        },
        "rules": [
            {
                "key": "FlatModifier",
                "label": "Bloodhound Shoony (Track smelled creatures)",
                "predicate": {
                    "all": [
                        "action:track",
                        "target:previously-smelled"
                    ]
                },
                "selector": "survival",
                "type": "circumstance",
                "value": 2
            },
            {
                "acuity": "imprecise",
                "key": "Sense",
                "label": "pf2ettw.SensesScent",
                "range": 30,
                "selector": "scent"
            }
        ],
        "source": {
            "value": "Pathfinder #153: Life's Long Shadows"
        },
        "traits": {
            "custom": "",
            "rarity": "common",
            "value": []
        }
    },
    "img": "systems/pf2ettw/icons/features/ancestry/bloodhound-shoony.webp",
    "name": "Bloodhound Shoony",
    "type": "heritage"
}
