{
    "_id": "2cii5ZkBsJ4DYdd2",
    "data": {
        "ancestry": {
            "name": "Leshy",
            "uuid": "Compendium.pf2ettw.ancestries.cdhgByGG1WtuaK73"
        },
        "description": {
            "value": "<p>Spines cover your body. You gain a spine unarmed attack that deals [[/r {1d6}[piercing]]]{1d6 piercing damage}. Your spines are in the brawling group and have the finesse and unarmed traits.</p>"
        },
        "rules": [
            {
                "category": "unarmed",
                "damage": {
                    "base": {
                        "damageType": "piercing",
                        "dice": 1,
                        "die": "d6"
                    }
                },
                "group": "brawling",
                "img": "systems/pf2ettw/icons/unarmed-attacks/spine.webp",
                "key": "Strike",
                "label": "pf2ettw.BattleForm.Attack.Spine",
                "range": null,
                "traits": [
                    "finesse",
                    "unarmed"
                ]
            }
        ],
        "source": {
            "value": "Pathfinder Lost Omens: Ancestry Guide"
        },
        "traits": {
            "custom": "",
            "rarity": "common",
            "value": []
        }
    },
    "img": "systems/pf2ettw/icons/default-icons/heritage.svg",
    "name": "Cactus Leshy",
    "type": "heritage"
}
