{
    "_id": "ZZKZkeSP5TuT62IA",
    "data": {
        "ancestry": null,
        "description": {
            "value": "<p>Thanks to an ancient bargain, your soul has been reborn as a duskwalker, a planar scion with a connection to psychopomps and the Boneyard. You gain the duskwalker trait in addition to the traits from your ancestry. You also gain @Compendium[pf2ettw.ancestryfeatures.Low-Light Vision]{Low-Light Vision}, or you gain @Compendium[pf2ettw.ancestryfeatures.Darkvision]{Darkvision} if your ancestry already has low-light vision. Neither your body nor your spirit can ever become undead. You can choose from duskwalker feats and feats from your ancestry whenever you gain an ancestry feat.</p>"
        },
        "rules": [
            {
                "add": [
                    "duskwalker"
                ],
                "key": "ActorTraits"
            },
            {
                "key": "Sense",
                "label": "pf2ettw.SensesLowLightVision",
                "selector": "lowLightVision"
            },
            {
                "key": "Sense",
                "label": "pf2ettw.SensesDarkvision",
                "predicate": {
                    "all": [
                        "self:low-light-vision:from-ancestry"
                    ]
                },
                "selector": "darkvision"
            }
        ],
        "source": {
            "value": "Pathfinder Advanced Player's Guide"
        },
        "traits": {
            "custom": "",
            "rarity": "uncommon",
            "value": [
                "duskwalker"
            ]
        }
    },
    "img": "systems/pf2ettw/icons/features/ancestry/duskwalker.webp",
    "name": "Duskwalker",
    "type": "heritage"
}
