{
    "_id": "tLd8Qg82AwEbbmgX",
    "data": {
        "ancestry": {
            "name": "Human",
            "uuid": "Compendium.pf2ettw.ancestries.IiG7DgeLWYrSNXuX"
        },
        "description": {
            "value": "<p>One of your parents was an orc, or one or both were half-orcs. You have a green tinge to your skin and other indicators of orc heritage. You gain the orc trait, the half-orc trait, and @Compendium[pf2ettw.ancestryfeatures.Low-Light Vision]{Low-Light Vision}. In addition, you can select orc, half-orc, and human feats whenever you gain an ancestry feat.</p>"
        },
        "rules": [
            {
                "key": "Sense",
                "label": "pf2ettw.SensesLowLightVision",
                "selector": "lowLightVision"
            },
            {
                "add": [
                    "orc",
                    "half-orc"
                ],
                "key": "ActorTraits"
            }
        ],
        "source": {
            "value": "Pathfinder Core Rulebook"
        },
        "traits": {
            "custom": "",
            "rarity": "common",
            "value": [
                "half-orc"
            ]
        }
    },
    "img": "systems/pf2ettw/icons/features/ancestry/half-orc.webp",
    "name": "Half-Orc",
    "type": "heritage"
}
