{
    "_id": "G9Gwfi8ZIva52uGp",
    "data": {
        "ancestry": {
            "name": "Halfling",
            "uuid": "Compendium.pf2ettw.ancestries.GgZAHbrjnzWOZy2v"
        },
        "description": {
            "value": "<p>You were born with a strange blessing: bereft of the typical halfling luck, you can instead manipulate the fortunes of others. You can never take the @Compendium[pf2ettw.feats-srd.Halfling Luck]{Halfling Luck} feat, and you gain the @Compendium[pf2ettw.actionspf2ettw.Jinx]{Jinx} action.</p>"
        },
        "rules": [
            {
                "key": "GrantItem",
                "uuid": "Compendium.pf2ettw.actionspf2ettw.Jinx"
            }
        ],
        "source": {
            "value": "Pathfinder Advanced Player's Guide"
        },
        "traits": {
            "custom": "",
            "rarity": "uncommon",
            "value": []
        }
    },
    "img": "systems/pf2ettw/icons/features/ancestry/jinxed-halfling.webp",
    "name": "Jinxed Halfling",
    "type": "heritage"
}
