{
    "_id": "ITgkqfnAOJCbcIys",
    "data": {
        "ancestry": null,
        "description": {
            "value": "<p>An earth elemental ancestor has influenced your bloodline, and your features highlight this elemental planar connection. You might have a crystalline or metallic sheen to your skin or hair, rough and stony flesh, or glittering gemstone eyes. You gain the oread trait, in addition to the traits from your ancestry. You also gain @Compendium[pf2ettw.ancestryfeatures.Low-Light Vision]{Low-Light Vision}, or you gain @Compendium[pf2ettw.ancestryfeatures.Darkvision]{Darkvision} if your ancestry already has low-light vision. You can choose from oread feats and feats from your ancestry whenever you gain an ancestry feat.</p>"
        },
        "rules": [
            {
                "add": [
                    "oread"
                ],
                "key": "ActorTraits"
            },
            {
                "key": "Sense",
                "label": "pf2ettw.SensesLowLightVision",
                "selector": "lowLightVision"
            },
            {
                "key": "Sense",
                "label": "pf2ettw.SensesDarkvision",
                "predicate": {
                    "all": [
                        "self:low-light-vision:from-ancestry"
                    ]
                },
                "selector": "darkvision"
            }
        ],
        "source": {
            "value": "Pathfinder Lost Omens: Ancestry Guide"
        },
        "traits": {
            "custom": "",
            "rarity": "uncommon",
            "value": [
                "geniekin",
                "oread"
            ]
        }
    },
    "img": "systems/pf2ettw/icons/default-icons/heritage.svg",
    "name": "Oread",
    "type": "heritage"
}
