{
    "_id": "KbG2BZ3Sbr3xU1sW",
    "data": {
        "ancestry": {
            "name": "Sprite",
            "uuid": "Compendium.pf2ettw.ancestries.TRqoeYfGAFjQbviF"
        },
        "description": {
            "value": "<p>You are larger than other sprites. Instead of Tiny, your size is Small.</p>"
        },
        "rules": [
            {
                "key": "CreatureSize",
                "value": "sm"
            }
        ],
        "source": {
            "value": "Pathfinder Lost Omens: Ancestry Guide"
        },
        "traits": {
            "custom": "",
            "rarity": "common",
            "value": []
        }
    },
    "img": "systems/pf2ettw/icons/default-icons/heritage.svg",
    "name": "Pixie",
    "type": "heritage"
}
