{
    "_id": "jEtVesbqYcWGbBYk",
    "data": {
        "ancestry": {
            "name": "Elf",
            "uuid": "Compendium.pf2ettw.ancestries.PgKmsA2aKdbLU6O0"
        },
        "description": {
            "value": "<p>You have an inborn ability to detect and understand magical phenomena. You can cast the <em>@Compendium[pf2ettw.spells-srd.Detect Magic]{Detect Magic}</em> cantrip as an arcane innate spell at will. A cantrip is heightened to a spell level equal to half your level rounded up.</p>\n<p>In addition, you gain a +1 circumstance bonus to checks to @Compendium[pf2ettw.actionspf2ettw.Identify Magic]{Identify Magic} and to @Compendium[pf2ettw.actionspf2ettw.Decipher Writing]{Decipher Writing} of a magical nature. These skill actions typically use the Arcana, Nature, Occultism, or Religion skill.</p>"
        },
        "rules": [
            {
                "key": "FlatModifier",
                "label": "Seer Elf (Identity Magic or Decipher Writing)",
                "predicate": {
                    "any": [
                        "action:identify-magic",
                        "action:decipher-writing"
                    ]
                },
                "selector": "skill-check",
                "type": "circumstance",
                "value": 1
            }
        ],
        "source": {
            "value": "Pathfinder Core Rulebook"
        },
        "traits": {
            "custom": "",
            "rarity": "common",
            "value": []
        }
    },
    "img": "systems/pf2ettw/icons/features/ancestry/seer-elf.webp",
    "name": "Seer Elf",
    "type": "heritage"
}
