{
    "_id": "zVf0Hlp5xG0Q7kmc",
    "data": {
        "ancestry": {
            "name": "Human",
            "uuid": "Compendium.pf2ettw.ancestries.IiG7DgeLWYrSNXuX"
        },
        "description": {
            "value": "<p>Your ingenuity allows you to train in a wide variety of skills. You become trained in one skill of your choice. At 5th level, you become an expert in the chosen skill.</p>"
        },
        "rules": [],
        "source": {
            "value": "Pathfinder Core Rulebook"
        },
        "traits": {
            "custom": "",
            "rarity": "common",
            "value": []
        }
    },
    "img": "systems/pf2ettw/icons/features/ancestry/skilled-heritage.webp",
    "name": "Skilled Heritage",
    "type": "heritage"
}
