{
    "_id": "WxcbLvufI6JBpLt0",
    "data": {
        "ancestry": {
            "name": "Anadi",
            "uuid": "Compendium.pf2ettw.ancestries.TQEqWqc7BYiadUdY"
        },
        "description": {
            "value": "<p>Your limbs are exceptionally long in both forms, allowing you to skitter about with surprising agility. Your Speed increases from 25 to 30 feet.</p>"
        },
        "rules": [
            {
                "key": "FlatModifier",
                "selector": "land-speed",
                "value": 5
            }
        ],
        "source": {
            "value": "Pathfinder Lost Omens: The Mwangi Expanse"
        },
        "traits": {
            "custom": "",
            "rarity": "common",
            "value": []
        }
    },
    "img": "systems/pf2ettw/icons/default-icons/heritage.svg",
    "name": "Spindly Anadi",
    "type": "heritage"
}
