{
    "_id": "WaCn0mcivFv1omNK",
    "data": {
        "ancestry": {
            "name": "Kobold",
            "uuid": "Compendium.pf2ettw.ancestries.7oQxL6wgsokD3QXG"
        },
        "description": {
            "value": "<p>Your bloodline is noted for their powerful jaws and sharp teeth. You gain a jaws unarmed attack that deals [[/r {1d6}[piercing]]]{1d6 piercing damage}. Your jaws are in the brawling group and have the finesse and unarmed traits</p>"
        },
        "rules": [
            {
                "category": "unarmed",
                "damage": {
                    "base": {
                        "damageType": "piercing",
                        "dice": 1,
                        "die": "d6"
                    }
                },
                "group": "brawling",
                "key": "Strike",
                "label": "pf2ettw.Weapon.Base.jaws",
                "range": null,
                "traits": [
                    "finesse",
                    "unarmed"
                ]
            }
        ],
        "source": {
            "value": "Pathfinder Advanced Player's Guide"
        },
        "traits": {
            "custom": "",
            "rarity": "common",
            "value": []
        }
    },
    "img": "systems/pf2ettw/icons/features/ancestry/strongjaw-kobold.webp",
    "name": "Strongjaw Kobold",
    "type": "heritage"
}
