{
    "_id": "G8jfMayPv4vZvAVr",
    "data": {
        "ancestry": null,
        "description": {
            "value": "<p>You are descended from air elementals or were born under the element's influence. You gain the sylph trait, in addition to the traits from your ancestry. You also gain @Compendium[pf2ettw.ancestryfeatures.Low-Light Vision]{Low-Light Vision} or @Compendium[pf2ettw.ancestryfeatures.Darkvision]{Darkvision} if your ancestry already has low-light vision. You can choose from sylph feats and feats from your ancestry whenever you gain an ancestry feat.</p>"
        },
        "rules": [
            {
                "add": [
                    "sylph"
                ],
                "key": "ActorTraits"
            },
            {
                "key": "Sense",
                "label": "pf2ettw.SensesLowLightVision",
                "selector": "lowLightVision"
            },
            {
                "key": "Sense",
                "label": "pf2ettw.SensesDarkvision",
                "predicate": {
                    "all": [
                        "self:low-light-vision:from-ancestry"
                    ]
                },
                "selector": "darkvision"
            }
        ],
        "source": {
            "value": "Pathfinder Lost Omens: Ancestry Guide"
        },
        "traits": {
            "custom": "",
            "rarity": "uncommon",
            "value": []
        }
    },
    "img": "systems/pf2ettw/icons/default-icons/heritage.svg",
    "name": "Sylph",
    "type": "heritage"
}
