{
    "_id": "EEvA4uj8h3zDiAfP",
    "data": {
        "ancestry": {
            "name": "Goblin",
            "uuid": "Compendium.pf2ettw.ancestries.sQfjTMDaZbT9DThq"
        },
        "description": {
            "value": "<p>You have adapted particularly well to living in forested environments. As long as you are in a forest or jungle, you gain a +2 circumstance bonus to Stealth checks to @Compendium[pf2ettw.actionspf2ettw.Hide]{Hide} and @Compendium[pf2ettw.actionspf2ettw.Sneak]{Sneak}, Survival checks to @Compendium[pf2ettw.actionspf2ettw.Subsist]{Subsist}, and your Survival DC to @Compendium[pf2ettw.actionspf2ettw.Cover Tracks]{Cover Tracks}.</p>"
        },
        "rules": [
            {
                "key": "FlatModifier",
                "label": "Treedweller Goblin (Subsist)",
                "predicate": {
                    "any": [
                        "action:subsist"
                    ]
                },
                "selector": "survival",
                "type": "circumstance",
                "value": 2
            },
            {
                "key": "FlatModifier",
                "label": "Treedweller Goblin (Hide or Sneak)",
                "predicate": {
                    "any": [
                        "action:hide",
                        "action:sneak"
                    ]
                },
                "selector": "stealth",
                "type": "circumstance",
                "value": 2
            }
        ],
        "source": {
            "value": "Pathfinder Lost Omens: Character Guide"
        },
        "traits": {
            "custom": "",
            "rarity": "common",
            "value": []
        }
    },
    "img": "systems/pf2ettw/icons/features/ancestry/treedweller-goblin.webp",
    "name": "Treedweller Goblin",
    "type": "heritage"
}
