{
    "_id": "cCy8vsZENlwiAyZ6",
    "data": {
        "ancestry": {
            "name": "Halfling",
            "uuid": "Compendium.pf2ettw.ancestries.GgZAHbrjnzWOZy2v"
        },
        "description": {
            "value": "<p>Your ancestors performed many secret acts under the concealing cover of dusk, whether for good or ill, and over time they developed the ability to see in twilight beyond even the usual keen sight of halflings. You gain @Compendium[pf2ettw.ancestryfeatures.Low-Light Vision]{Low-Light Vision}.</p>"
        },
        "rules": [
            {
                "key": "Sense",
                "label": "pf2ettw.SensesLowLightVision",
                "selector": "lowLightVision"
            }
        ],
        "source": {
            "value": "Pathfinder Core Rulebook"
        },
        "traits": {
            "custom": "",
            "rarity": "common",
            "value": []
        }
    },
    "img": "systems/pf2ettw/icons/features/ancestry/twilight-halfling.webp",
    "name": "Twilight Halfling",
    "type": "heritage"
}
