{
    "_id": "Gmk7oNITvMVBy78Z",
    "data": {
        "ancestry": null,
        "description": {
            "value": "<p>A water elemental ancestor influences your bloodline. You gain the undine trait, in addition to the traits from your ancestry. You gain a swim Speed of 10 feet and the amphibious trait. Like all creatures with the amphibious trait, you can breathe both water and air. You can choose from undine feats and feats from your ancestry whenever you gain an ancestry feat.</p>"
        },
        "rules": [
            {
                "add": [
                    "undine",
                    "amphibious"
                ],
                "key": "ActorTraits"
            },
            {
                "key": "BaseSpeed",
                "selector": "swim",
                "value": "10"
            }
        ],
        "source": {
            "value": "Pathfinder Lost Omens: Ancestry Guide"
        },
        "traits": {
            "custom": "",
            "rarity": "uncommon",
            "value": []
        }
    },
    "img": "systems/pf2ettw/icons/default-icons/heritage.svg",
    "name": "Undine",
    "type": "heritage"
}
