{
    "_id": "0vaeOoECfVD5EGbq",
    "data": {
        "ancestry": {
            "name": "Hobgoblin",
            "uuid": "Compendium.pf2ettw.ancestries.piNLXUrm9iaGqD2i"
        },
        "description": {
            "value": "<p>Your ancestors lived underground. Your ears are larger than those of other hobgoblins and sensitive to echoes. When you are underground, you can use the @Compendium[pf2ettw.actionspf2ettw.Seek]{Seek} action to sense @Compendium[pf2ettw.conditionitems.Undetected]{Undetected} creatures within a @Template[type:burst|distance:30] instead of a @Template[type:burst|distance:15]. In addition, if you roll a success on an Acrobatics check to @Compendium[pf2ettw.actionspf2ettw.Squeeze]{Squeeze}, you get a critical success instead.</p>"
        },
        "rules": [
            {
                "key": "Note",
                "predicate": {
                    "all": [
                        "action:squeeze"
                    ]
                },
                "selector": "acrobatics",
                "text": "When you roll a success to Squeeze, you get a critical success instead.",
                "title": "{item|name}"
            },
            {
                "adjustment": {
                    "success": "one-degree-better"
                },
                "key": "AdjustDegreeOfSuccess",
                "predicate": {
                    "all": [
                        "action:squeeze"
                    ]
                },
                "selector": "acrobatics",
                "type": "skill"
            }
        ],
        "source": {
            "value": "Pathfinder Lost Omens: Character Guide"
        },
        "traits": {
            "custom": "",
            "rarity": "common",
            "value": []
        }
    },
    "img": "systems/pf2ettw/icons/features/ancestry/warrenbred-hobgoblin.webp",
    "name": "Warrenbred Hobgoblin",
    "type": "heritage"
}
