{
    "_id": "dJeiekfqGQ8dkwsO",
    "data": {
        "ancestry": {
            "name": "Lizardfolk",
            "uuid": "Compendium.pf2ettw.ancestries.HWEgF7Gmoq55VhTL"
        },
        "description": {
            "value": "<p>Your family is descended from the most common lizardfolk heritage, and you are accustomed to aquatic environments. You gain a 15-foot @Compendium[pf2ettw.actionspf2ettw.Swim]{Swim} Speed.</p>"
        },
        "rules": [
            {
                "key": "BaseSpeed",
                "selector": "swim",
                "value": 15
            }
        ],
        "source": {
            "value": "Pathfinder Lost Omens: Character Guide"
        },
        "traits": {
            "custom": "",
            "rarity": "common",
            "value": []
        }
    },
    "img": "systems/pf2ettw/icons/features/ancestry/wetlander-lizardfolk.webp",
    "name": "Wetlander Lizardfolk",
    "type": "heritage"
}
