{
    "_id": "tBQgipDUVhamBNrZ",
    "data": {
        "abilities": {
            "cha": {
                "mod": -2
            },
            "con": {
                "mod": 4
            },
            "dex": {
                "mod": 6
            },
            "int": {
                "mod": -4
            },
            "str": {
                "mod": 6
            },
            "wis": {
                "mod": 3
            }
        },
        "attributes": {
            "ac": {
                "details": "",
                "value": 28
            },
            "allSaves": {
                "value": ""
            },
            "hp": {
                "details": "",
                "max": 150,
                "temp": 0,
                "value": 150
            },
            "initiative": {
                "ability": "perception"
            },
            "perception": {
                "value": 19
            },
            "speed": {
                "otherSpeeds": [],
                "value": "30"
            }
        },
        "details": {
            "alignment": {
                "value": "N"
            },
            "blurb": "",
            "creatureType": "",
            "level": {
                "value": 10
            },
            "privateNotes": "",
            "publicNotes": "<p>Dromornises are large, flightless, carnivorous birds that travel in packs to ambush prey. Their short, stubby wings may give them a comical appearance, but anyone who's been on the receiving end of the beast's powerful beak finds the experience less than amusing. Dromornis use their beaks to easily tear flesh and sinew from prey's bones, quickly dispatching sizable mammals like deer, tapirs, and primates. Particularly hungry or aggressive dromornises have even been known to attack humanoids. The bird's strong legs sport sharp talons that, while secondary in combat to its beak, can nonetheless trample and shred smaller creatures like rodents and amphibians caught underfoot.</p>\n<p>While a lone dromornis is dangerous enough, a pack of dromornises can take down a den of bears or village of humanoids. A dromornis pack typically consists of three or four adults and up to five juveniles, all of whom work in tandem to overpower larger prey. Packs lie in wait for something like an anaconda, boar, buffalo or, in cases of desperation, a dinosaur to emerge, then move as one for a surprise strike. Dromornises aren't particularly intelligent, but they have been known to use an ingenious (if hazardous) decoy tactic, luring in massive prey by putting one of their own fledglings at risk.</p>\n<p>Dromornises most often live in tropical jungles far from the reaches of civilization, though they sometimes make their homes in mountainside caves or along rocky coastlines. While most onlookers would be hard-pressed to tell one dromornis from another, dromornises maintain tight familial structures based on pheromones and scent glands, so it's obvious when a straggler from another family is trying to encroach on a pack's den. Such disputes over breeding grounds are common; a particularly prized dromornis den might change hands several times in the course of a year. Fights between dromornis packs are chaotic and swift, marked with the sounds of terrifying screeches and sprays of blood.</p>",
            "source": {
                "value": "Pathfinder #166: Despair on Danger Island"
            }
        },
        "resources": {},
        "saves": {
            "fortitude": {
                "saveDetail": "",
                "value": 20
            },
            "reflex": {
                "saveDetail": "",
                "value": 21
            },
            "will": {
                "saveDetail": "",
                "value": 17
            }
        },
        "traits": {
            "attitude": {
                "value": "hostile"
            },
            "ci": [],
            "di": {
                "custom": "",
                "value": []
            },
            "dr": [],
            "dv": [],
            "languages": {
                "custom": "",
                "selected": [],
                "value": []
            },
            "rarity": "uncommon",
            "senses": {
                "value": "low-light vision, scent (imprecise) 30 feet"
            },
            "size": {
                "value": "lg"
            },
            "traits": {
                "custom": "",
                "value": [
                    "animal"
                ]
            }
        }
    },
    "img": "systems/pf2ettw/icons/default-icons/npc.svg",
    "items": [
        {
            "_id": "rBUwtqIn3bI3N8vp",
            "data": {
                "attack": {
                    "value": ""
                },
                "attackEffects": {
                    "value": []
                },
                "bonus": {
                    "value": 22
                },
                "damageRolls": {
                    "f5yxmisi819tst48szj3": {
                        "damage": "2d12+10",
                        "damageType": "piercing"
                    }
                },
                "description": {
                    "value": "<p>@Localize[pf2ettw.PersistentDamage.Bleed1d8.success]</p>"
                },
                "rules": [
                    {
                        "key": "Note",
                        "outcome": [
                            "success"
                        ],
                        "selector": "{item|_id}-damage",
                        "text": "pf2ettw.PersistentDamage.Bleed1d8.success",
                        "visibility": "gm"
                    },
                    {
                        "key": "Note",
                        "outcome": [
                            "criticalSuccess"
                        ],
                        "selector": "{item|_id}-damage",
                        "text": "pf2ettw.PersistentDamage.Bleed1d8.criticalSuccess",
                        "visibility": "gm"
                    }
                ],
                "slug": null,
                "source": {
                    "value": ""
                },
                "traits": {
                    "custom": "",
                    "rarity": "common",
                    "value": [
                        "reach-10"
                    ]
                },
                "weaponType": {
                    "value": "melee"
                }
            },
            "img": "systems/pf2ettw/icons/default-icons/melee.svg",
            "name": "Beak",
            "sort": 100000,
            "type": "melee"
        },
        {
            "_id": "BabPRyWiNWTD0pjg",
            "data": {
                "attack": {
                    "value": ""
                },
                "attackEffects": {
                    "value": []
                },
                "bonus": {
                    "value": 20
                },
                "damageRolls": {
                    "0ys2l5q7l4nfkfhxz0vl": {
                        "damage": "2d8+10",
                        "damageType": "slashing"
                    }
                },
                "description": {
                    "value": "<p>@Localize[pf2ettw.PersistentDamage.Bleed1d4.success]</p>"
                },
                "rules": [
                    {
                        "key": "Note",
                        "outcome": [
                            "success"
                        ],
                        "selector": "{item|_id}-damage",
                        "text": "pf2ettw.PersistentDamage.Bleed1d4.success",
                        "visibility": "gm"
                    },
                    {
                        "key": "Note",
                        "outcome": [
                            "criticalSuccess"
                        ],
                        "selector": "{item|_id}-damage",
                        "text": "pf2ettw.PersistentDamage.Bleed1d4.criticalSuccess",
                        "visibility": "gm"
                    }
                ],
                "slug": null,
                "source": {
                    "value": ""
                },
                "traits": {
                    "custom": "",
                    "rarity": "common",
                    "value": [
                        "agile"
                    ]
                },
                "weaponType": {
                    "value": "melee"
                }
            },
            "img": "systems/pf2ettw/icons/default-icons/melee.svg",
            "name": "Talon",
            "sort": 200000,
            "type": "melee"
        },
        {
            "_id": "yoCyQ8hKhH9Vf9xB",
            "data": {
                "actionCategory": {
                    "value": "interaction"
                },
                "actionType": {
                    "value": "passive"
                },
                "actions": {
                    "value": null
                },
                "description": {
                    "value": "<p>@Localize[pf2ettw.NPC.Abilities.Glossary.LowLightVision]</p>"
                },
                "requirements": {
                    "value": ""
                },
                "rules": [],
                "slug": "low-light-vision",
                "source": {
                    "value": "Pathfinder Bestiary"
                },
                "traits": {
                    "custom": "",
                    "rarity": "common",
                    "value": []
                },
                "trigger": {
                    "value": ""
                },
                "weapon": {
                    "value": ""
                }
            },
            "flags": {
                "core": {
                    "sourceId": "Compendium.pf2ettw.bestiary-ability-glossary-srd.fFu2sZz4KB01fVRc"
                }
            },
            "img": "systems/pf2ettw/icons/actions/Passive.webp",
            "name": "Low-Light Vision",
            "sort": 300000,
            "type": "action"
        },
        {
            "_id": "2ahCptrlPPU2hlfy",
            "data": {
                "actionCategory": {
                    "value": "interaction"
                },
                "actionType": {
                    "value": "passive"
                },
                "actions": {
                    "value": null
                },
                "description": {
                    "value": "<p>@Localize[pf2ettw.NPC.Abilities.Glossary.Scent]</p>"
                },
                "requirements": {
                    "value": ""
                },
                "rules": [],
                "slug": "scent",
                "source": {
                    "value": "Pathfinder Bestiary"
                },
                "traits": {
                    "custom": "",
                    "rarity": "common",
                    "value": []
                },
                "trigger": {
                    "value": ""
                },
                "weapon": {
                    "value": ""
                }
            },
            "flags": {
                "core": {
                    "sourceId": "Compendium.pf2ettw.bestiary-ability-glossary-srd.rqfnQ5VHT5hxm25r"
                }
            },
            "img": "systems/pf2ettw/icons/actions/Passive.webp",
            "name": "Scent (Imprecise) 30 feet",
            "sort": 400000,
            "type": "action"
        },
        {
            "_id": "FBTWvsZTjynInvCc",
            "data": {
                "actionCategory": {
                    "value": "interaction"
                },
                "actionType": {
                    "value": "reaction"
                },
                "actions": {
                    "value": null
                },
                "description": {
                    "value": "<p><strong>Trigger</strong> Another dromornis within 10 feet Strides.</p>\n<hr />\n<p><strong>Effect</strong> The dromornis Strides up to half its Speed.</p>"
                },
                "requirements": {
                    "value": ""
                },
                "rules": [],
                "slug": null,
                "source": {
                    "value": ""
                },
                "traits": {
                    "custom": "",
                    "rarity": "common",
                    "value": []
                },
                "trigger": {
                    "value": ""
                },
                "weapon": {
                    "value": ""
                }
            },
            "img": "systems/pf2ettw/icons/actions/Reaction.webp",
            "name": "Pack Ambush",
            "sort": 500000,
            "type": "action"
        },
        {
            "_id": "FKn1hN8LerlfFOmh",
            "data": {
                "actionCategory": {
                    "value": "offensive"
                },
                "actionType": {
                    "value": "passive"
                },
                "actions": {
                    "value": null
                },
                "description": {
                    "value": "<p>Dromornises fight best while among their fellows. A dromornis deals [[/r 1d8]] extra damage to any creature that's within reach of at least two of the dromornis's allies.</p>"
                },
                "requirements": {
                    "value": ""
                },
                "rules": [
                    {
                        "domain": "damage-roll",
                        "key": "RollOption",
                        "option": "pack-attack",
                        "toggleable": true
                    },
                    {
                        "diceNumber": 1,
                        "dieSize": "d8",
                        "key": "DamageDice",
                        "predicate": {
                            "all": [
                                "pack-attack"
                            ]
                        },
                        "selector": "strike-damage"
                    }
                ],
                "slug": null,
                "source": {
                    "value": ""
                },
                "traits": {
                    "custom": "",
                    "rarity": "common",
                    "value": []
                },
                "trigger": {
                    "value": ""
                },
                "weapon": {
                    "value": ""
                }
            },
            "img": "systems/pf2ettw/icons/actions/Passive.webp",
            "name": "Pack Attack",
            "sort": 600000,
            "type": "action"
        },
        {
            "_id": "TjBA9hok8Ij2mLzV",
            "data": {
                "actionCategory": {
                    "value": "offensive"
                },
                "actionType": {
                    "value": "action"
                },
                "actions": {
                    "value": 2
                },
                "description": {
                    "value": "<p>The dromornis suddenly Strides and makes a Strike at the end of its movement. During the Stride, it gains a +10-foot circumstance bonus to its Speed.</p>"
                },
                "requirements": {
                    "value": ""
                },
                "rules": [],
                "slug": null,
                "source": {
                    "value": ""
                },
                "traits": {
                    "custom": "",
                    "rarity": "common",
                    "value": []
                },
                "trigger": {
                    "value": ""
                },
                "weapon": {
                    "value": ""
                }
            },
            "img": "systems/pf2ettw/icons/actions/TwoActions.webp",
            "name": "Rushing Attack",
            "sort": 700000,
            "type": "action"
        },
        {
            "_id": "HFEPOplpcEvYuYcg",
            "data": {
                "actionCategory": {
                    "value": "offensive"
                },
                "actionType": {
                    "value": "action"
                },
                "actions": {
                    "value": 3
                },
                "description": {
                    "value": "<p>Medium or smaller, talon, @Check[type:reflex|dc:26|basic:true] save</p>\n<hr />\n<p>@Localize[pf2ettw.NPC.Abilities.Glossary.Trample]</p>"
                },
                "requirements": {
                    "value": ""
                },
                "rules": [],
                "slug": "trample",
                "source": {
                    "value": "Pathfinder Bestiary"
                },
                "traits": {
                    "custom": "",
                    "rarity": "common",
                    "value": []
                },
                "trigger": {
                    "value": ""
                },
                "weapon": {
                    "value": ""
                }
            },
            "flags": {
                "core": {
                    "sourceId": "Compendium.pf2ettw.bestiary-ability-glossary-srd.UNah0bxXxkcZjxO3"
                }
            },
            "img": "systems/pf2ettw/icons/actions/ThreeActions.webp",
            "name": "Trample",
            "sort": 800000,
            "type": "action"
        },
        {
            "_id": "72OrQCny3D6SYfcw",
            "data": {
                "description": {
                    "value": ""
                },
                "mod": {
                    "value": 18
                },
                "proficient": {
                    "value": 0
                },
                "rules": [],
                "slug": null,
                "source": {
                    "value": ""
                },
                "traits": {
                    "custom": "",
                    "rarity": "common",
                    "value": []
                }
            },
            "img": "systems/pf2ettw/icons/default-icons/lore.svg",
            "name": "Acrobatics",
            "sort": 900000,
            "type": "lore"
        },
        {
            "_id": "qH4mnWVRVucRxcl2",
            "data": {
                "description": {
                    "value": ""
                },
                "mod": {
                    "value": 22
                },
                "proficient": {
                    "value": 0
                },
                "rules": [],
                "slug": null,
                "source": {
                    "value": ""
                },
                "traits": {
                    "custom": "",
                    "rarity": "common",
                    "value": []
                }
            },
            "img": "systems/pf2ettw/icons/default-icons/lore.svg",
            "name": "Athletics",
            "sort": 1000000,
            "type": "lore"
        },
        {
            "_id": "AduXOGQ1pQwLyFVn",
            "data": {
                "description": {
                    "value": ""
                },
                "mod": {
                    "value": 14
                },
                "proficient": {
                    "value": 0
                },
                "rules": [],
                "slug": null,
                "source": {
                    "value": ""
                },
                "traits": {
                    "custom": "",
                    "rarity": "common",
                    "value": []
                }
            },
            "img": "systems/pf2ettw/icons/default-icons/lore.svg",
            "name": "Deception",
            "sort": 1100000,
            "type": "lore"
        },
        {
            "_id": "3sFFh6GnbRcBdFnd",
            "data": {
                "description": {
                    "value": ""
                },
                "mod": {
                    "value": 20
                },
                "proficient": {
                    "value": 0
                },
                "rules": [],
                "slug": null,
                "source": {
                    "value": ""
                },
                "traits": {
                    "custom": "",
                    "rarity": "common",
                    "value": []
                }
            },
            "img": "systems/pf2ettw/icons/default-icons/lore.svg",
            "name": "Stealth",
            "sort": 1200000,
            "type": "lore"
        }
    ],
    "name": "Dromornis",
    "token": {
        "disposition": -1,
        "height": 2,
        "img": "systems/pf2ettw/icons/default-icons/npc.svg",
        "name": "Dromornis",
        "width": 2
    },
    "type": "npc"
}
