{
    "_id": "YCfpTifMs2minJrF",
    "data": {
        "attributes": {
            "ac": {
                "value": 10
            },
            "hardness": 0,
            "hasHealth": true,
            "hp": {
                "details": "",
                "max": 10,
                "temp": 0,
                "value": 10
            },
            "stealth": {
                "details": "<p>DC 10</p>",
                "value": 0
            }
        },
        "creatureType": "",
        "details": {
            "description": "<p>Mogaru exhales a blast of intense flames to eradicate any meddlesome pests in the area.</p>",
            "disable": "<p>@Check[type:performance|dc:50|name:Divert Mogaru's Attention] (legendary) or @Check[type:deception|dc:53|name:Divert Mogaru's Attention] (legendary) to momentarily divert Mogaru's attention</p>",
            "isComplex": false,
            "level": {
                "value": 21
            },
            "reset": "<p>Mogaru must wait [[/br 1d4 #rounds]]{1d4 rounds} before letting loose another gout of fire.</p>",
            "routine": ""
        },
        "saves": {
            "fortitude": {
                "saveDetail": "",
                "value": 0
            },
            "reflex": {
                "saveDetail": "",
                "value": 0
            },
            "will": {
                "saveDetail": "",
                "value": 0
            }
        },
        "source": {
            "value": "Pathfinder #167: Ready? Fight!"
        },
        "statusEffects": [],
        "traits": {
            "ci": [],
            "di": {
                "custom": "",
                "selected": {},
                "value": []
            },
            "dr": [],
            "dv": [],
            "rarity": "common",
            "size": {
                "value": "med"
            },
            "traits": {
                "custom": "",
                "value": [
                    "environmental",
                    "evocation",
                    "fire",
                    "kaiju",
                    "primal"
                ]
            }
        }
    },
    "img": "systems/pf2ettw/icons/default-icons/hazard.svg",
    "items": [
        {
            "_id": "mdp8vBq6ZOiNg1Zt",
            "data": {
                "actionCategory": {
                    "value": "offensive"
                },
                "actionType": {
                    "value": "reaction"
                },
                "actions": {
                    "value": null
                },
                "description": {
                    "value": "<p><strong>Trigger</strong> A creature takes a hostile action against Mogaru, produces a visible area effect, or flies within 120 feet of Mogaru</p>\n<hr />\n<p><strong>Effect</strong> Mogaru breathes a @Template[type:cone|distance:120] of fire toward the object of his ire. Flammable objects in the area immediately combust, and stone or metal surfaces warp into difficult terrain. Creatures in the area take [[/r {20d6}[fire]]]{20d6 fire damage} (@Check[type:reflex|dc:44|basic:true] save). On a failed or critically failed save, a creature also takes [[/r {3d6}[persistent,fire]]] @Compendium[pf2ettw.conditionitems.Persistent Damage]{Persistent Fire Damage}.</p>"
                },
                "requirements": {
                    "value": ""
                },
                "rules": [],
                "slug": null,
                "source": {
                    "value": ""
                },
                "traits": {
                    "custom": "",
                    "rarity": "common",
                    "value": []
                },
                "trigger": {
                    "value": ""
                },
                "weapon": {
                    "value": ""
                }
            },
            "img": "systems/pf2ettw/icons/actions/Reaction.webp",
            "name": "Volcanic Breath",
            "sort": 0,
            "type": "action"
        }
    ],
    "name": "Mogaru's Breath",
    "token": {
        "disposition": 0,
        "height": 1,
        "img": "systems/pf2ettw/icons/default-icons/hazard.svg",
        "name": "Mogaru's Breath",
        "width": 1
    },
    "type": "hazard"
}
