{
    "_id": "O5TIjqXAuta8iVSz",
    "data": {
        "description": {
            "value": "<p>When you Refocus, you generate magical energy that heals your familiar. Your familiar regains 1 Hit Point per level whenever you Refocus.</p>"
        },
        "duration": {
            "expiry": "turn-start",
            "sustained": false,
            "unit": "unlimited",
            "value": -1
        },
        "level": {
            "value": 1
        },
        "rules": [],
        "source": {
            "value": ""
        },
        "start": {
            "initiative": null,
            "value": 0
        },
        "target": null,
        "tokenIcon": {
            "show": false
        },
        "traits": {
            "custom": "",
            "rarity": "common",
            "value": []
        }
    },
    "img": "systems/pf2ettw/icons/actions/Passive.webp",
    "name": "Focused Rejuvenation",
    "type": "effect"
}
