{
    "_id": "2fiQzoEKu6YUnrU9",
    "data": {
        "badge": null,
        "description": {
            "value": "<p>In an encounter, if you don't Command your familiar, it still gains 1 action each round. Typically, you still decide how it spends that action, but, the GM might determine that your familiar chooses its own tactics rather than performing your preferred action. This doesn't work with @Compendium[pf2ettw.familiar-abilities.Valet]{Valet} or similar abilities that require a command, if you're capable of riding your familiar, or similar situations.</p>"
        },
        "duration": {
            "expiry": "turn-start",
            "sustained": false,
            "unit": "unlimited",
            "value": -1
        },
        "level": {
            "value": 1
        },
        "rules": [],
        "source": {
            "value": ""
        },
        "start": {
            "initiative": null,
            "value": 0
        },
        "target": null,
        "tokenIcon": {
            "show": false
        },
        "traits": {
            "custom": "",
            "rarity": "common",
            "value": []
        }
    },
    "img": "systems/pf2ettw/icons/actions/Passive.webp",
    "name": "Independent",
    "type": "effect"
}
