{
    "_id": "nrPl3Dz7fbnmas7T",
    "data": {
        "badge": null,
        "description": {
            "value": "<p>Your familiar can touch incorporeal creatures. If you have the spell delivery master ability from your familiar, any spell the familiar delivers with it gains the benefits of the <em>@Compendium[pf2ettw.equipment-srd.Ghost Touch]{Ghost Touch}</em> property rune.</p>"
        },
        "duration": {
            "expiry": "turn-start",
            "sustained": false,
            "unit": "unlimited",
            "value": -1
        },
        "level": {
            "value": 1
        },
        "rules": [],
        "source": {
            "value": "Pathfinder: Book of the Dead"
        },
        "start": {
            "initiative": null,
            "value": 0
        },
        "target": null,
        "tokenIcon": {
            "show": false
        },
        "traits": {
            "custom": "",
            "rarity": "common",
            "value": []
        }
    },
    "img": "systems/pf2ettw/icons/actions/Passive.webp",
    "name": "Spirit Touch",
    "type": "effect"
}
