{
    "_id": "aEKA3YWekLhEhuV8",
    "data": {
        "badge": null,
        "description": {
            "value": "<p>Your familiar helps you convey wordless threats through body language.</p>\n<p>Whenever you attempt an Intimidation check to @Compendium[pf2ettw.actionspf2ettw.Demoralize]{Demoralize} a creature, if your familiar is within 30 feet of your target and can act, it accompanies you with snarls, hisses, or raising its hackles.</p>\n<p>If it can do so, you don't take the normal -4 penalty on the Intimidation check if your target doesn't understand the language you're speaking.</p>"
        },
        "duration": {
            "expiry": "turn-start",
            "sustained": false,
            "unit": "unlimited",
            "value": -1
        },
        "level": {
            "value": 1
        },
        "rules": [],
        "source": {
            "value": "Pathfinder Lost Omens: The Grand Bazaar"
        },
        "start": {
            "initiative": null,
            "value": 0
        },
        "target": null,
        "tokenIcon": {
            "show": false
        },
        "traits": {
            "custom": "",
            "rarity": "common",
            "value": []
        }
    },
    "img": "systems/pf2ettw/icons/actions/Passive.webp",
    "name": "Threat Display",
    "type": "effect"
}
