{
    "_id": "SKIS1xexaOvrecdV",
    "data": {
        "description": {
            "value": "<p>Prequisites @Compendium[pf2ettw.feats-srd.Leshy Familiar Secrets]{Leshy Familiar Secrets}</p>\n<p>When your familiar dies,it releases its primal energy to cast the 3-action version of <em>@Compendium[pf2ettw.spells-srd.Heal]{Heal}</em>, heightened to a level 1 lower than your highest-level spell slot. The <em>heal</em> spell gains a status bonus equal to twice the spell's level to the Hit Points it restores to plants. You must be able to cast 2nd-level spells using spell slots to select this familiar ability.</p>"
        },
        "duration": {
            "expiry": "turn-start",
            "sustained": false,
            "unit": "unlimited",
            "value": -1
        },
        "level": {
            "value": 4
        },
        "rules": [],
        "source": {
            "value": ""
        },
        "start": {
            "initiative": null,
            "value": 0
        },
        "target": null,
        "tokenIcon": {
            "show": false
        },
        "traits": {
            "custom": "",
            "rarity": "common",
            "value": []
        }
    },
    "img": "systems/pf2ettw/icons/actions/Passive.webp",
    "name": "Verdant Burst",
    "type": "effect"
}
