{
    "_id": "TkRuKKYyPHTGPfgf",
    "data": {
        "description": {
            "value": "<p>Granted by @Compendium[pf2ettw.equipment-srd.Sixfingers Elixir (Greater)]{Sixfingers Elixir (Greater)}</p>\n<hr />\n<p>Auomatically applied effects:</p>\n<ul>\n<li>gain a Climb speed of 20 feet</li>\n</ul>"
        },
        "duration": {
            "expiry": "turn-start",
            "sustained": false,
            "unit": "hours",
            "value": 8
        },
        "level": {
            "value": 17
        },
        "rules": [
            {
                "key": "BaseSpeed",
                "selector": "climb",
                "value": 20
            }
        ],
        "source": {
            "value": ""
        },
        "start": {
            "initiative": null,
            "value": 0
        },
        "target": null,
        "tokenIcon": {
            "show": true
        },
        "traits": {
            "custom": "",
            "rarity": "common",
            "value": []
        }
    },
    "img": "systems/pf2ettw/icons/equipment/alchemical-items/alchemical-elixirs/sixfingers-elixir.webp",
    "name": "Effect: Sixfingers Elixir (Greater)",
    "type": "effect"
}
