{
    "_id": "1ouUo8lLK6H79Rqh",
    "data": {
        "badge": null,
        "description": {
            "value": "<p>Granted by @Compendium[pf2ettw.equipment-srd.Bestial Mutagen (Major)]{Bestial Mutagen (Major)}</p>\n<p>Implemented effects:</p>\n<ul>\n<li>+4 item bonus to Athletics checks</li>\n<li>+4 item bonus to unarmed attack rolls</li>\n<li>Gain a claw unarmed attack</li>\n<li>Gain a jaws unarmed attack</li>\n<li>-1 penalty to AC</li>\n<li>-2 to penalty Reflex saves</li>\n</ul>\n<p>Unimplemented effects:</p>\n<ul>\n<li>Gain weapon specialization, or greater weapon specialization, with these unarmed attacks</li>\n</ul>"
        },
        "duration": {
            "expiry": "turn-start",
            "sustained": false,
            "unit": "hours",
            "value": 1
        },
        "level": {
            "value": 17
        },
        "rules": [
            {
                "key": "FlatModifier",
                "selector": "athletics",
                "type": "item",
                "value": 4
            },
            {
                "key": "FlatModifier",
                "selector": "ac",
                "type": "untyped",
                "value": -1
            },
            {
                "key": "FlatModifier",
                "selector": "reflex",
                "type": "untyped",
                "value": -2
            },
            {
                "key": "FlatModifier",
                "predicate": {
                    "all": [
                        "unarmed"
                    ]
                },
                "selector": "attack",
                "type": "item",
                "value": 4
            },
            {
                "category": "unarmed",
                "damage": {
                    "base": {
                        "damageType": "piercing",
                        "dice": 1,
                        "die": "d10"
                    }
                },
                "group": "brawling",
                "key": "Strike",
                "label": "pf2ettw.Weapon.Base.jaws",
                "options": [
                    "bestial-mutagen-strike"
                ],
                "predicate": {
                    "not": [
                        "self:bestial-mutagen:feral"
                    ]
                },
                "range": null,
                "traits": [
                    "unarmed"
                ]
            },
            {
                "category": "unarmed",
                "damage": {
                    "base": {
                        "damageType": "slashing",
                        "dice": 1,
                        "die": "d8"
                    }
                },
                "group": "brawling",
                "key": "Strike",
                "label": "pf2ettw.Weapon.Base.claw",
                "options": [
                    "bestial-mutagen-strike"
                ],
                "predicate": {
                    "not": [
                        "self:bestial-mutagen:feral"
                    ]
                },
                "range": null,
                "traits": [
                    "unarmed",
                    "agile"
                ]
            },
            {
                "key": "FlatModifier",
                "predicate": {
                    "all": [
                        "feat:feral-mutagen"
                    ]
                },
                "selector": "intimidation",
                "type": "item",
                "value": 4
            },
            {
                "key": "AdjustStrike",
                "mode": "add",
                "predicate": {
                    "all": [
                        "feat:feral-mutagen"
                    ]
                },
                "property": "weapon-traits",
                "selector": "bestial-mutagen-strike",
                "value": "deadly-d10"
            },
            {
                "adjustName": false,
                "choices": [
                    {
                        "label": "Yes",
                        "value": "feral"
                    },
                    {
                        "label": "No",
                        "value": "normal"
                    }
                ],
                "key": "ChoiceSet",
                "predicate": {
                    "all": [
                        "feat:feral-mutagen"
                    ]
                },
                "prompt": "pf2ettw.Mutagens.BestialMutagen.FeralPrompt",
                "rollOption": "self:bestial-mutagen"
            },
            {
                "key": "FlatModifier",
                "predicate": {
                    "all": [
                        "self:bestial-mutagen:feral"
                    ]
                },
                "selector": "ac",
                "slug": "feral-mutagen-major",
                "type": "untyped",
                "value": -1
            },
            {
                "category": "unarmed",
                "damage": {
                    "base": {
                        "damageType": "piercing",
                        "dice": 1,
                        "die": "d12"
                    }
                },
                "group": "brawling",
                "key": "Strike",
                "label": "pf2ettw.Weapon.Base.jaws",
                "options": [
                    "bestial-mutagen-strike"
                ],
                "predicate": {
                    "all": [
                        "self:bestial-mutagen:feral"
                    ]
                },
                "range": null,
                "traits": [
                    "unarmed"
                ]
            },
            {
                "category": "unarmed",
                "damage": {
                    "base": {
                        "damageType": "slashing",
                        "dice": 1,
                        "die": "d10"
                    }
                },
                "group": "brawling",
                "key": "Strike",
                "label": "pf2ettw.Weapon.Base.claw",
                "options": [
                    "bestial-mutagen-strike"
                ],
                "predicate": {
                    "all": [
                        "self:bestial-mutagen:feral"
                    ]
                },
                "range": null,
                "traits": [
                    "unarmed",
                    "agile"
                ]
            }
        ],
        "source": {
            "value": ""
        },
        "start": {
            "initiative": null,
            "value": 0
        },
        "target": null,
        "tokenIcon": {
            "show": true
        },
        "traits": {
            "custom": "",
            "rarity": "common",
            "value": []
        }
    },
    "img": "systems/pf2ettw/icons/equipment/alchemical-items/alchemical-elixirs/bestial-mutagen.webp",
    "name": "Effect: Bestial Mutagen (Major)",
    "type": "effect"
}
