{
    "_id": "16tOZk4qy329s2aK",
    "data": {
        "description": {
            "value": "<p>Granted by @Compendium[pf2ettw.equipment-srd.Shielding Salve]{Shielding Salve}</p>\n<hr />\n<p>Auomatically applied effects:</p>\n<ul>\n<li>gain a +1 circumstance bonus to AC</li>\n</ul>"
        },
        "duration": {
            "expiry": "turn-start",
            "sustained": false,
            "unit": "rounds",
            "value": 1
        },
        "level": {
            "value": 1
        },
        "rules": [
            {
                "key": "FlatModifier",
                "selector": "ac",
                "type": "circumstance",
                "value": 1
            }
        ],
        "source": {
            "value": ""
        },
        "start": {
            "initiative": null,
            "value": 0
        },
        "target": null,
        "tokenIcon": {
            "show": true
        },
        "traits": {
            "custom": "",
            "rarity": "common",
            "value": []
        }
    },
    "img": "systems/pf2ettw/icons/equipment/consumables/oils/shielding-salve.webp",
    "name": "Effect: Shielding Salve",
    "type": "effect"
}
