{
    "_id": "5o33sch67Z8j5Vom",
    "data": {
        "badge": null,
        "description": {
            "value": "<p>Granted by @Compendium[pf2ettw.equipment-srd.Lastwall Soup (Improved)]{Lastwall Soup (Improved)}</p>\n<p>The creature gains a +3 item bonus to Stealth checks and DCs against undead.</p>"
        },
        "duration": {
            "expiry": "turn-start",
            "sustained": false,
            "unit": "hours",
            "value": 1
        },
        "level": {
            "value": 5
        },
        "rules": [
            {
                "key": "FlatModifier",
                "predicate": {
                    "any": [
                        "target:trait:undead",
                        "origin:trait:undead"
                    ]
                },
                "selector": "stealth",
                "type": "item",
                "value": 3
            }
        ],
        "source": {
            "value": "Pathfinder Lost Omens: Knights of Lastwall"
        },
        "start": {
            "initiative": null,
            "value": 0
        },
        "target": null,
        "tokenIcon": {
            "show": true
        },
        "traits": {
            "custom": "",
            "rarity": "uncommon",
            "value": []
        }
    },
    "img": "systems/pf2ettw/icons/equipment/alchemical-items/alchemical-elixirs/lastwall-soup.webp",
    "name": "Effect: Lastwall Soup (Improved)",
    "type": "effect"
}
