{
    "_id": "wFF0SZs1Hcf87Kk1",
    "data": {
        "description": {
            "value": "<p>Granted by @Compendium[pf2ettw.equipment-srd.Bloodhound Mask (Moderate)]{Bloodhound Mask (Moderate)}</p>"
        },
        "duration": {
            "expiry": "turn-start",
            "sustained": false,
            "unit": "hours",
            "value": 1
        },
        "level": {
            "value": 6
        },
        "rules": [
            {
                "acuity": "imprecise",
                "key": "Sense",
                "label": "pf2ettw.SensesScent",
                "range": 30,
                "selector": "scent"
            },
            {
                "key": "FlatModifier",
                "label": "Bloodhound Mask (Track by scent)",
                "predicate": {
                    "all": [
                        "action:track",
                        "scent"
                    ]
                },
                "selector": "survival",
                "type": "item",
                "value": 2
            }
        ],
        "source": {
            "value": ""
        },
        "start": {
            "initiative": null,
            "value": 0
        },
        "target": null,
        "tokenIcon": {
            "show": true
        },
        "traits": {
            "custom": "",
            "rarity": "common",
            "value": []
        }
    },
    "img": "systems/pf2ettw/icons/equipment/alchemical-items/alchemical-tools/bloodhound-mask.webp",
    "name": "Effect: Bloodhound Mask (Moderate)",
    "type": "effect"
}
