{
    "_id": "fUrZ4xcMJz0CfTyG",
    "data": {
        "description": {
            "value": "<p>Granted by @Compendium[pf2ettw.equipment-srd.Juggernaut Mutagen (Moderate)]{Juggernaut Mutagen (Moderate)}</p>\n<p>Implemented effects:</p>\n<ul>\n<li>+2 item bonus to Fortitude saves</li>\n<li>Gain 10 temporary Hit Points</li>\n<li>-2 penalty to Will saves</li>\n<li>-2 penalty to Perception checks</li>\n<li>-2 penalty to initiative rolls</li>\n</ul>\n<p>Unimplemented effects:</p>\n<ul>\n<li>Whenever you are at maximum Hit Points for at least 1 full minute, you regain the temporary Hit Points.</li>\n</ul>"
        },
        "duration": {
            "expiry": "turn-start",
            "sustained": false,
            "unit": "minutes",
            "value": 10
        },
        "level": {
            "value": 3
        },
        "rules": [
            {
                "key": "FlatModifier",
                "label": "Juggernaut Mutagen (Moderate)",
                "selector": "fortitude",
                "type": "item",
                "value": 2
            },
            {
                "key": "FlatModifier",
                "label": "Juggernaut Mutagen (Moderate)",
                "selector": "will",
                "type": "untyped",
                "value": -2
            },
            {
                "key": "FlatModifier",
                "label": "Juggernaut Mutagen (Moderate)",
                "selector": "perception",
                "type": "untyped",
                "value": -2
            },
            {
                "key": "FlatModifier",
                "label": "Juggernaut Mutagen (Moderate)",
                "selector": "initiative",
                "type": "untyped",
                "value": -2
            },
            {
                "key": "TempHP",
                "value": 10
            }
        ],
        "source": {
            "value": ""
        },
        "start": {
            "initiative": null,
            "value": 0
        },
        "target": null,
        "tokenIcon": {
            "show": true
        },
        "traits": {
            "custom": "",
            "rarity": "common",
            "value": []
        }
    },
    "img": "systems/pf2ettw/icons/equipment/alchemical-items/alchemical-elixirs/juggernaut-mutagen.webp",
    "name": "Effect: Juggernaut Mutagen (Moderate)",
    "type": "effect"
}
