{
    "_id": "XwBFT7VO9M7M6AgQ",
    "data": {
        "attributes": {
            "ac": {
                "value": 10
            },
            "hardness": 0,
            "hasHealth": false,
            "hp": {
                "details": "",
                "max": 0,
                "temp": 0,
                "value": 0
            },
            "stealth": {
                "details": "<p>(master) to notice Ebeshra twisting its shape in preparation of creating a planar rift</p>",
                "value": 32
            }
        },
        "creatureType": "",
        "details": {
            "description": "<p>Ebeshra opens a massive rift in the Material Plane that pulls nearby creatures into another plane entirely. The rift is typically to a random plane in the multiverse, though Ebeshra can have the rift pull creatures into a plane of Ebeshra's choosing. Additionally, Ebeshra can choose any number of creatures to be immune to the effects of the planar rift, usually due to the kaiju recognizing the innocence of the creatures.</p>",
            "disable": "<p>DC 47 Lore (master) related to the specific plane beyond the rift to disrupt the planar frequency and close the rift, @Check[type:arcana|dc:52|name:Undo the Rift's Manifestation (Arcana)|traits:complex,conjuration,divine,environmental,kaiju,teleportation,hazard] (legendary) or @Check[type:occultism|dc:52|name:Undo the Rift's Manifestation (Occultism)|traits:complex,conjuration,divine,environmental,kaiju,teleportation,hazard] (legendary) to undo the magical manifestation of the rift, @Check[type:performance|dc:55|name:Counteract the Rift's Frequency|traits:complex,conjuration,divine,environmental,kaiju,teleportation,hazard] (legendary) to play a tone that counteracts the rift's harmonic frequency, or @Check[type:diplomacy|dc:55|name:Plead With Ebeshra (Diplomacy)|traits:complex,conjuration,divine,environmental,kaiju,teleportation,hazard] (legendary) or @Check[type:religion|dc:55|name:Plead With Ebeshra (Religion)|traits:complex,conjuration,divine,environmental,kaiju,teleportation,hazard] (legendary) to plead with Ebeshra to close the rift</p>",
            "isComplex": true,
            "level": {
                "value": 20
            },
            "reset": "<p>Ebeshra vanishes 1 minute after opening the rift, which closes the rift. Ebeshra must wait 1 week before it can open another planar rift.</p>",
            "routine": "<p>The rift pulls creatures within 500 feet toward it. The rift can pull any creature, regardless of its size. Creatures in the area must attempt a @Check[type:fortitude|dc:45|name:Planar Rift|traits:complex,conjuration,divine,environmental,kaiju,teleportation,hazard] or @Check[type:reflex|dc:45|name:Planar Rift|traits:complex,conjuration,divine,environmental,kaiju,teleportation,hazard] save (the creature's choice) to resist the effects of this pull or attempt to grab something to avoid getting pulled.</p>\n<hr />\n<p><strong>Critical Success</strong> The creature resists the pull and doesn't move toward the rift.</p>\n<p><strong>Success</strong> The creature is moved 25 feet toward the rift.</p>\n<p><strong>Failure</strong> The creature is moved 50 feet toward the rift.</p>\n<p><strong>Critical Failure</strong> The creature is moved 100 feet toward the rift. The harsh pull causes the creature to take [[/r {10d6}[bludgeoning]]]{10d6 bludgeoning damage}.</p>\n<p>If a creature is directly beneath the rift when the rift pulls it, the creature instead attempts a @Check[type:fortitude|dc:50|name:Pull Into the Rift|traits:complex,conjuration,divine,environmental,kaiju,teleportation,hazard] or @Check[type:reflex|dc:50|name:Pull Into the Rift|traits:complex,conjuration,divine,environmental,kaiju,teleportation,hazard] save (the creature's choice) to avoid being pulled into the rift. On a failure, the creature is pulled up into the rift and thrown to a random point on the plane on the other side.</p>"
        },
        "flavourText": "",
        "recallKnowledgeText": "",
        "saves": {
            "fortitude": {
                "saveDetail": "",
                "value": 0
            },
            "reflex": {
                "saveDetail": "",
                "value": 0
            },
            "will": {
                "saveDetail": "",
                "value": 0
            }
        },
        "sidebarText": "",
        "source": {
            "value": ""
        },
        "statusEffects": [],
        "traits": {
            "ci": [],
            "di": {
                "custom": "",
                "selected": {},
                "value": []
            },
            "dr": [],
            "dv": [],
            "rarity": "rare",
            "size": {
                "value": "med"
            },
            "traits": {
                "custom": "",
                "value": [
                    "conjuration",
                    "divine",
                    "environmental",
                    "kaiju",
                    "teleportation"
                ]
            }
        }
    },
    "img": "systems/pf2ettw/icons/default-icons/hazard.svg",
    "items": [
        {
            "_id": "y6jr0lkbt6kt67bi",
            "data": {
                "actionCategory": {
                    "value": "offensive"
                },
                "actionType": {
                    "value": "reaction"
                },
                "actions": {
                    "value": null
                },
                "description": {
                    "value": "<p><strong>Trigger</strong> Ebeshra recognizes a nearby threat as needing an indisputable resolution, or a deity tasks Ebeshra with creating a planar rift</p>\n<hr />\n<p><strong>Effect</strong> Ebeshra twists its body, aligning its segmented sections into a fine blade, and cuts the fabric of the Material Plane. It creates an enormous rift in a point in the sky within 1 mile. The rift is 100 feet long and 50 feet wide. The hazard rolls initiative.</p>"
                },
                "requirements": {
                    "value": ""
                },
                "rules": [],
                "slug": null,
                "source": {
                    "value": ""
                },
                "traits": {
                    "custom": "",
                    "rarity": "common",
                    "value": []
                },
                "trigger": {
                    "value": ""
                }
            },
            "img": "systems/pf2ettw/icons/actions/Reaction.webp",
            "name": "Tear Reality",
            "sort": 0,
            "type": "action"
        }
    ],
    "name": "Planar Tear",
    "token": {
        "disposition": 0,
        "height": 1,
        "img": "systems/pf2ettw/icons/default-icons/npc.svg",
        "name": "Planar Tear",
        "width": 1
    },
    "type": "hazard"
}
