{
    "_id": "vI7wAKNDX05DShWy",
    "data": {
        "attributes": {
            "ac": {
                "value": 10
            },
            "hardness": 0,
            "hasHealth": false,
            "hp": {
                "details": "",
                "max": 0,
                "temp": 0,
                "value": 0
            },
            "stealth": {
                "details": "",
                "value": 0
            }
        },
        "creatureType": "",
        "details": {
            "description": "<p>Ebeshra slithers across the ground, causing the earth to tremble as though from a powerful earthquake.</p>",
            "disable": "<p>three @Check[type:athletics|dc:38|name:Brace for Earthquake (Athletics)|traits:environmental,kaiju,hazard] (trained), @Check[type:crafting|dc:38|name:Brace for Earthquake (Crafting)|traits:environmental,kaiju,hazard] (trained), or @Check[type:engineering|dc:38|name:Brace for Earthquake (Engineering)|traits:environmental,kaiju,hazard]{Engineering Lore} (trained) checks to brace a small structure or surface to cancel the effects of the quake in that area, or a single @Check[type:diplomacy|dc:41|name:Entreat With Ebeshra|traits:environmental,kaiju,hazard] (master) check to entreat Ebeshra to stand down</p>",
            "isComplex": false,
            "level": {
                "value": 14
            },
            "reset": "<p>Ebeshra doesn't rush this way again for [[/r 1d4 #Rounds]] rounds.</p>",
            "routine": ""
        },
        "flavourText": "",
        "recallKnowledgeText": "",
        "saves": {
            "fortitude": {
                "saveDetail": "",
                "value": 0
            },
            "reflex": {
                "saveDetail": "",
                "value": 0
            },
            "will": {
                "saveDetail": "",
                "value": 0
            }
        },
        "sidebarText": "",
        "source": {
            "value": ""
        },
        "statusEffects": [],
        "traits": {
            "ci": [],
            "di": {
                "custom": "",
                "selected": {},
                "value": []
            },
            "dr": [],
            "dv": [],
            "rarity": "rare",
            "size": {
                "value": "med"
            },
            "traits": {
                "custom": "",
                "value": [
                    "environmental",
                    "kaiju"
                ]
            }
        }
    },
    "img": "systems/pf2ettw/icons/default-icons/hazard.svg",
    "items": [
        {
            "_id": "2z1eeofpv2a65zba",
            "data": {
                "actionCategory": {
                    "value": "offensive"
                },
                "actionType": {
                    "value": "reaction"
                },
                "actions": {
                    "value": null
                },
                "description": {
                    "value": "<p><strong>Trigger</strong> Ebeshra moves at least 60 feet on land</p>\n<hr />\n<p><strong>Effect</strong> The ground shakes in a @Template[type:emanation|distance:120] from Ebeshra's space. This creates a variety of effects depending on the surrounding environment.</p>\n<p>In an area without significant underground space, the ground becomes greater difficult terrain, and creatures on it are @Compendium[pf2ettw.conditionitems.Flat-Footed]{Flat-Footed} and @Compendium[pf2ettw.conditionitems.Clumsy]{Clumsy 2} for 1 round.</p>\n<p>In areas with existing underground spaces (like sewers, sinkholes, or catacombs), fissures open up in the ground. Creatures in the area tumble into the resulting 80-foot-deep hole unless they succeed at a @Check[type:reflex|dc:40|name:Avoid Fissure|traits:environmental,kaiju,hazard] save.</p>\n<p>In bays, on beaches, and in other relatively substantial but shallow bodies of water, the tremors create dangerous waves. Creatures in the water or within 60 feet of the waterline are struck by waves that deal [[/r {10d8}[bludgeoning]]]{10d8 bludgeoning damage} (@Check[type:reflex|dc:35|basic:true|name:Crashing Waves|traits:environmental,kaiju,hazard] save). On a critical failure, a creature is instantly swept 60 feet out to sea and 60 feet under the water's surface.</p>"
                },
                "requirements": {
                    "value": ""
                },
                "rules": [],
                "slug": null,
                "source": {
                    "value": ""
                },
                "traits": {
                    "custom": "",
                    "rarity": "common",
                    "value": []
                },
                "trigger": {
                    "value": ""
                }
            },
            "img": "systems/pf2ettw/icons/actions/Reaction.webp",
            "name": "Quake",
            "sort": 0,
            "type": "action"
        }
    ],
    "name": "Quaking Slither",
    "token": {
        "disposition": 0,
        "height": 1,
        "img": "systems/pf2ettw/icons/default-icons/npc.svg",
        "name": "Quaking Slither",
        "width": 1
    },
    "type": "hazard"
}
