{
    "_id": "HtRxo4J3elFteIqu",
    "data": {
        "ability": [
            "con",
            "int"
        ],
        "alignment": {
            "follower": [
                "CG",
                "LN",
                "N",
                "CN",
                "NE"
            ],
            "own": "NE"
        },
        "description": {
            "value": "<p>More than anything, Arazni is a survivor. Once, long ago, she was a force for good, a warrior-mage who sought to improve the quality of life for residents of her homeland. Long after her mortal death, she returned as a herald of the god Aroden and fought alongside mortals during one of their darkest hours. But humanity and her patron alike abandoned her-first to the Whispering Tyrant, then to the necromancer Geb-and the torments she endured because of it changed her deeply. Still she survived, her broken body reanimated against her will as a powerful undead monstrosity. For over a millennium she was held captive as the lich queen of the undead nation of Geb, and her view of mortals, and humanity in particular, soured.</p>\n<p><strong>Edicts</strong> act with dignity, do whatever it takes to survive, despise and never forgive those who have hurt you</p>\n<p><strong>Anathema</strong> create unwilling undead, insult Arazni</p>\n<p><strong>Areas of Concern</strong> abused, dignity, unwilling undeath</p>"
        },
        "domains": {
            "alternate": [
                "sorrow"
            ],
            "primary": [
                "confidence",
                "freedom",
                "pain",
                "protection"
            ]
        },
        "font": [
            "harm"
        ],
        "rules": [],
        "skill": "itm",
        "source": {
            "value": "Pathfinder Lost Omens: Gods & Magic"
        },
        "spells": {
            "1": "Compendium.pf2ettw.spells-srd.4c1c6eNzU1PFGkAy",
            "2": "Compendium.pf2ettw.spells-srd.fWU7Qjp1JiX9g6eg",
            "6": "Compendium.pf2ettw.spells-srd.5BbU1V6wGSGbrmRD"
        },
        "weapons": [
            "rapier"
        ]
    },
    "img": "systems/pf2ettw/icons/default-icons/deity.svg",
    "name": "Arazni",
    "type": "deity"
}
