{
    "_id": "WxM0yYk9YbslJ9hQ",
    "content": "<h1 style=\"box-sizing:border-box;user-select:text;margin-top:var(--space-l);margin-bottom:var(--space-s);width:649.531px;font-family:var(--serif)\">Astara</h1>\n<p id=\"docs-internal-guid-788469aa-7fff-d534-8dcf-23d696ca48da\" dir=\"ltr\">Astara is the god of war, but her portfolio also encompasses adventure, exploration and innovation. Her temple teaches that it was she who first taught humanity the true arts of battle and enabled them to defend themselves against the creatures of the wild. She is the patron of knights and hunters, explorers and seekers of knowledge, and competition in all its forms.</p>\n<p dir=\"ltr\">Perhaps the most independent of the Seven Sages, Astara’s followers can sometimes butt up against those of Duramas and Gomnal, who see their forceful nature as disruptive to the greater good and are wary of their sometimes destructive actions. They however find allies in the adaptive adherents of Rossok, and in the joint appreciation of knowledge they share with disciples of Banin.</p>\n<p dir=\"ltr\">Astara is usually depicted as an exemplar of the martial ideal, clad in silvered armour, wielding sword and lance. Astaran priests remain true to her example, maintaining their bodies as they would any other weapon, and keeping hair close-cropped, lest it impede them in their efforts. Her symbol is two crossed silver swords on a field of black, and her knights most commonly keep to simple, dark clothing and polished steel armour. Her temples are generally also functionally constructed, but the spark of competition ensures that their keepers rarely allow them to be overshadowed by those of other gods.</p>\n<p dir=\"ltr\">Astara favours resolution through conflict, both in battle and in contests of ideas. Though not opposed to diplomatic solutions, devout Astarans will never shy away from a challenge when they think it winnable. This has earned them a reputation as both brave, and sometimes infuriating, people. When the darkness draws in, Astara’s chosen will be there to protect civilization, but they may soon wear out their welcome in the peace that follows.</p>\n<p style=\"box-sizing:border-box;user-select:text;margin-top:var(--p-space,1em);width:649.531px;color:#1c1c1c;font-size:15.6px\"><strong style=\"box-sizing:border-box;user-select:text\">Edicts</strong> Protect civilization from the wild, try new things, respect victories.</p>\n<p style=\"box-sizing:border-box;user-select:text;margin-top:var(--p-space,1em);width:649.531px;color:#1c1c1c;font-size:15.6px\"><strong style=\"box-sizing:border-box;user-select:text\">Anathema</strong> Deny reality, refuse a winnable challenge out of fear, reward failure.</p>\n<p style=\"box-sizing:border-box;user-select:text;margin-top:var(--p-space,1em);width:649.531px;color:#1c1c1c;font-size:15.6px\"><strong style=\"box-sizing:border-box;user-select:text\">Areas of Concern</strong> War, competition, discovery.</p>\n<h2 style=\"box-sizing:border-box;user-select:text;margin-top:var(--p-space,1em);width:649.531px;font-family:var(--serif)\">Devotee Benefits</h2>\n<div style=\"box-sizing:border-box;user-select:text;margin-top:var(--p-space,1em);width:649.531px;color:#1c1c1c;font-size:15.6px\">\n<div style=\"box-sizing:border-box;user-select:text\"><strong style=\"box-sizing:border-box;user-select:text\">Divine Ability</strong> Strength or Intelligence</div>\n<div style=\"box-sizing:border-box;user-select:text;margin-top:var(--p-space,1em)\"><strong style=\"box-sizing:border-box;user-select:text\">Divine Font</strong> Harm</div>\n<div style=\"box-sizing:border-box;user-select:text;margin-top:var(--p-space,1em)\"><strong style=\"box-sizing:border-box;user-select:text\">Divine Skill</strong> Athletics</div>\n<div style=\"box-sizing:border-box;user-select:text;margin-top:var(--p-space,1em)\"><strong style=\"box-sizing:border-box;user-select:text\">Favored Weapon</strong> @Compendium[pf2ettw.equipment-srd.Lance]{Lance}, @Compendium[pf2ettw.equipment-srd.Longbow]{Longbow}, and @Compendium[pf2ettw.equipment-srd.Longsword]{Longsword}</div>\n<div style=\"box-sizing:border-box;user-select:text;margin-top:var(--p-space,1em)\"><strong style=\"box-sizing:border-box;user-select:text\">Domains</strong> @Compendium[pf2ettw.domains.Ambition Domain]{Ambition}, @Compendium[pf2ettw.domains.Confidence Domain]{Confidence}, @Compendium[pf2ettw.domains.Might Domain]{Might}, @Compendium[pf2ettw.domains.Truth Domain]{Truth}</div>\n<div style=\"box-sizing:border-box;user-select:text;margin-top:var(--p-space,1em)\"><strong style=\"box-sizing:border-box;user-select:text\">Alternate Domains</strong><span style=\"font-size:15.6px\"> @Compendium[pf2ettw.domains.Knowledge Domain]{Knowledge}, @Compendium[pf2ettw.domains.Protection Domain]{Protection}</span></div>\n<div style=\"box-sizing:border-box;user-select:text;margin-top:var(--p-space,1em)\"><strong style=\"box-sizing:border-box;user-select:text\">Cleric Spells</strong> 1st: @Compendium[pf2ettw.spells-srd.True Strike]{True Strike}, 3rd: @Compendium[pf2ettw.spells-srd.Haste]{Haste}, 6th: @Compendium[pf2ettw.spells-srd.Wall of Force]{Wall of Force}</div>\n<div style=\"box-sizing:border-box;user-select:text;margin-top:var(--p-space,1em)\"><strong style=\"box-sizing:border-box;user-select:text\">Damage Type</strong><span style=\"font-size:15.6px;font-family:var(--journal-serif)\"> Radiant or Void</span></div>\n<div style=\"box-sizing:border-box;user-select:text;margin-top:var(--p-space,1em)\">\n<h2 style=\"box-sizing:border-box;user-select:text;margin-top:var(--p-space,1em);width:649.531px;font-family:var(--serif)\">Devotees of the Pantheon</h2>\n<p><span id=\"docs-internal-guid-79c78156-7fff-e977-92f1-4efeb9b61c0c\">Representing the commonality of the Sages, the following edicts and anathema apply to all those devoted to the pantheon.</span></p>\n<div style=\"box-sizing:border-box;user-select:text;margin-top:var(--p-space,1em);width:649.531px;color:#1c1c1c;font-size:15.6px\">\n<div style=\"box-sizing:border-box;user-select:text\"><strong style=\"box-sizing:border-box;user-select:text\">Edicts </strong><span style=\"font-size:15.6px;font-family:var(--journal-serif)\">Maintain civilization, preserve the Temples, study the Lessons.</span></div>\n<div style=\"box-sizing:border-box;user-select:text\"><span style=\"font-size:15.6px;font-family:var(--journal-serif)\"><strong style=\"box-sizing:border-box;user-select:text\">Anathema </strong></span><span style=\"font-size:15.6px;font-family:var(--journal-serif)\">Heed false idols, dishonour the Sages, seek harm to a fellow Student.</span></div>\n</div>\n<div style=\"box-sizing:border-box;user-select:text;margin-top:var(--p-space,1em);width:649.531px;color:#1c1c1c;font-size:15.6px\">\n<div style=\"box-sizing:border-box;user-select:text\"> </div>\n</div>\n</div>\n</div>",
    "flags": {},
    "name": "Astara",
    "permission": {
        "default": 0
    }
}
