{
    "_id": "9WD0hbUT0IbnuTiM",
    "data": {
        "ability": [
            "dex",
            "cha"
        ],
        "alignment": {
            "follower": [
                "LE"
            ],
            "own": "LE"
        },
        "description": {
            "value": "<p>Baalzebul was one of the first angels of Heaven, a glorious lieutenant who followed Asmodeus in his exodus to Hell. In this new realm, he led the infernal armies and trained several other archdevils as generals. When Asmodeus divided the nine realms of Hell between himself and the eight archdevils, Baalzebul protested, thinking he had earned a place at his god's side. Asmodeus responded by stripping away the archdevil's radiant form, reducing him to a figure composed of swarming flies. Now known as the Lord of Flies, he rules over Cocytus, the frozen seventh layer of Hell, and attracts followers possessed of deep ambition and a powerful drive to triumph.</p>\n<p><strong>Edicts</strong> Convey yourself with regal dignity, claim what you desire and deserve, seek vengeance from those who wrong you</p>\n<p><strong>Anathema</strong> Provoke Baalzebul's envy, show humility</p>"
        },
        "domains": {
            "alternate": [],
            "primary": [
                "air",
                "ambition",
                "magic",
                "trickery"
            ]
        },
        "font": [
            "harm"
        ],
        "rules": [],
        "skill": "dec",
        "source": {
            "value": "Pathfinder Lost Omens: Gods & Magic"
        },
        "spells": {
            "1": "Compendium.pf2ettw.spells-srd.aEM2cttJ2eYcLssW",
            "2": "Compendium.pf2ettw.spells-srd.cB17yFc9456Pyfec",
            "6": "Compendium.pf2ettw.spells-srd.WPXzPl7YbMEIGWfi"
        },
        "weapons": [
            "spear"
        ]
    },
    "img": "systems/pf2ettw/icons/default-icons/deity.svg",
    "name": "Baalzebul",
    "type": "deity"
}
