{
    "_id": "Xqu6V1uzvVuZKkeW",
    "content": "<h1 style=\"box-sizing:border-box;user-select:text;margin-top:var(--space-l);margin-bottom:var(--space-s);width:649.531px;font-family:var(--serif)\">Banin</h1>\n<p id=\"docs-internal-guid-393fc949-7fff-b5eb-ac83-8d058e2cddbf\" dir=\"ltr\">Banin is commonly held to be the youngest of the Sages, and in his aspect of the scholar, he records the deeds of those who came before. Banin's domain is knowledge, teaching, and family, and it is he who is said to have gifted writing to humanity. Among his followers, Banin numbers parents, students, and storytellers. His priests also oversee the passing of the dead, and the memory of what they accomplished in life.</p>\n<p dir=\"ltr\">Baninites find few foes amongst the other temples, as they are generally content to go quietly about their business. Utunites are often particularly appreciative of the role of records and teaching in maintaining order, whilst Astarans may share their eager approach to learning. Occasionally, those devoted to Gomnal or Enkaris may dismiss the Scholar’s work as ineffectual or needlessly dogmatic, but there is rarely any true animosity behind such jibes.</p>\n<p dir=\"ltr\">There is little in Banin’s appearance to betray his divine nature; he is shown as an earnest looking young man, wearing simple brown robes - attire also adopted by his monks and acolytes. Those of his calling who take up arms will commonly keep these robes, simply supplementing them with steel as circumstances require. Banin’s symbol is the candle-lit quill, displayed as striking gold against the ubiquitous brown. Banin’s temples frequently double as places of learning, welcoming those of all ages, and dispensing knowledge to those who stay to listen.</p>\n<p dir=\"ltr\">Baninites are frequently characterised as quiet and gentle types, and not without reason. However, when roused, they can be moved to more passionate displays, words spilling from their lips as they recount some great sage, or sterner offerings for any who threaten their charges. Easily overlooked, the Students of Banin offer a great deal to those they minister to, and are welcome wherever they go.</p>\n<p style=\"box-sizing:border-box;user-select:text;margin-top:var(--p-space,1em);width:649.531px;color:#1c1c1c;font-size:15.6px\"><strong style=\"box-sizing:border-box;user-select:text\">Edicts</strong> Preserve and spread knowledge, protect children and families, honour the dead.</p>\n<p style=\"box-sizing:border-box;user-select:text;margin-top:var(--p-space,1em);width:649.531px;color:#1c1c1c;font-size:15.6px\"><strong style=\"box-sizing:border-box;user-select:text\">Anathema</strong> Destroy the written word, create or control undead, turn away one seeking shelter.</p>\n<p style=\"box-sizing:border-box;user-select:text;margin-top:var(--p-space,1em);width:649.531px;color:#1c1c1c;font-size:15.6px\"><strong style=\"box-sizing:border-box;user-select:text\">Areas of Concern</strong> Writing, stories, family, the dead.</p>\n<h2 style=\"box-sizing:border-box;user-select:text;margin-top:var(--p-space,1em);width:649.531px;font-family:var(--serif)\">Devotee Benefits</h2>\n<div style=\"box-sizing:border-box;user-select:text;margin-top:var(--p-space,1em);width:649.531px;color:#1c1c1c;font-size:15.6px\">\n<div style=\"box-sizing:border-box;user-select:text\"><strong style=\"box-sizing:border-box;user-select:text\">Divine Ability</strong> Wisdom or Intelligence</div>\n<div style=\"box-sizing:border-box;user-select:text;margin-top:var(--p-space,1em)\"><strong style=\"box-sizing:border-box;user-select:text\">Divine Font</strong> Heal</div>\n<div style=\"box-sizing:border-box;user-select:text;margin-top:var(--p-space,1em)\"><strong style=\"box-sizing:border-box;user-select:text\">Divine Skill</strong> Society</div>\n<div style=\"box-sizing:border-box;user-select:text;margin-top:var(--p-space,1em)\"><strong style=\"box-sizing:border-box;user-select:text\">Favored Weapon</strong> @Compendium[pf2ettw.equipment-srd.Staff]{Staff}, @Compendium[pf2ettw.equipment-srd.Bo Staff]{Bo Staff}, and @Compendium[pf2ettw.equipment-srd.Shuriken]{Shuriken}</div>\n<div style=\"box-sizing:border-box;user-select:text;margin-top:var(--p-space,1em)\"><strong style=\"box-sizing:border-box;user-select:text\">Domains</strong> @Compendium[pf2ettw.domains.Family Domain]{Family}, @Compendium[pf2ettw.domains.Glyph Domain]{Glyph}*, @Compendium[pf2ettw.domains.Knowledge Domain]{Knowledge}, @Compendium[pf2ettw.domains.Vigil Domain]{Vigil}</div>\n<div style=\"box-sizing:border-box;user-select:text;margin-top:var(--p-space,1em)\">(*@Compendium[pf2ettw.spells-srd.Redact]{Redact} is inconsistent with Banin's reverence for the written word - replace it with @Compendium[pf2ettw.spells-srd.Loremaster's Etude]{Loremaster's Etude})</div>\n<div style=\"box-sizing:border-box;user-select:text;margin-top:var(--p-space,1em)\"><strong style=\"box-sizing:border-box;user-select:text\">Alternate Domains</strong><span style=\"box-sizing:border-box;user-select:text;margin-top:var(--p-space,1em);font-size:15.6px\"> @Compendium[pf2ettw.domains.Death Domain]{Death}, @Compendium[pf2ettw.domains.Healing Domain]{Healing}</span></div>\n<div style=\"box-sizing:border-box;user-select:text;margin-top:var(--p-space,1em)\"><strong style=\"box-sizing:border-box;user-select:text\">Cleric Spells</strong> 1st: @Compendium[pf2ettw.spells-srd.Message Rune]{Message Rune} and @Compendium[pf2ettw.spells-srd.Share Lore]{Share Lore}, 2nd: @Compendium[pf2ettw.spells-srd.Blistering Invective]{Blistering Invective}, 3rd: @Compendium[pf2ettw.spells-srd.Hypercognition]{Hypercognition}, 7th: @Compendium[pf2ettw.spells-srd.Retrocognition]{Retrocognition}</div>\n<div style=\"box-sizing:border-box;user-select:text;margin-top:var(--p-space,1em)\"><strong style=\"box-sizing:border-box;user-select:text\">Damage Type</strong><span style=\"box-sizing:border-box;user-select:text;margin-top:var(--p-space,1em);font-size:15.6px;font-family:var(--journal-serif)\"> Void</span></div>\n<div style=\"box-sizing:border-box;user-select:text;margin-top:var(--p-space,1em)\">\n<h2 style=\"box-sizing:border-box;user-select:text;margin-top:var(--p-space,1em);font-family:var(--serif);width:649.531px\">Devotees of the Pantheon</h2>\n<p style=\"box-sizing:border-box;user-select:text;font-size:15.6px\"><span id=\"docs-internal-guid-79c78156-7fff-e977-92f1-4efeb9b61c0c\" style=\"box-sizing:border-box;user-select:text\">Representing the commonality of the Sages, the following edicts and anathema apply to all those devoted to the pantheon.</span></p>\n<div style=\"box-sizing:border-box;user-select:text;margin-top:var(--p-space,1em);font-size:15.6px;width:649.531px\">\n<div style=\"box-sizing:border-box;user-select:text\"><strong style=\"box-sizing:border-box;user-select:text\">Edicts </strong><span style=\"box-sizing:border-box;user-select:text;margin-top:var(--p-space,1em);font-size:15.6px;font-family:var(--journal-serif)\">Maintain civilization, preserve the Temples, study the Lessons.</span></div>\n<div style=\"box-sizing:border-box;user-select:text;margin-top:var(--p-space,1em)\"><span style=\"box-sizing:border-box;user-select:text;font-size:15.6px;font-family:var(--journal-serif)\"><strong style=\"box-sizing:border-box;user-select:text\">Anathema </strong></span><span style=\"box-sizing:border-box;user-select:text;margin-top:var(--p-space,1em);font-size:15.6px;font-family:var(--journal-serif)\">Heed false idols, dishonour the Sages, seek harm to a fellow Student.</span></div>\n</div>\n</div>\n</div>",
    "flags": {},
    "name": "Banin",
    "permission": {
        "default": 0
    }
}
