{
    "_id": "aj4ChTlDcZCmrtJD",
    "data": {
        "ability": [
            "int",
            "wis"
        ],
        "alignment": {
            "follower": [
                "CN",
                "CE"
            ],
            "own": "CE"
        },
        "description": {
            "value": "<p>Baphomet, Lord of the Labyrinth, is the demon lord of beasts, labyrinths, and minotaurs. Baphomet was originally a consort of @Compendium[pf2ettw.deities.Lamashtu]{Lamashtu} who achieved demon lord status after escaping from imprisonment in a labyrinth constructed by @Compendium[pf2ettw.deities.Asmodeus]{Asmodeus}. Baphomet appears as an enormous emaciated minotaur with feathered wings and a goat-like head that bears three horns, as well as a blazing pentagram branded into his forehead. Baphomet's cults are among the most prolific in Golarion-human-dominated secret societies devoted to the demon lord are present in many cities and may have members ensconced in positions of political power, while most minotaurs prefer his patronage to that of Lamashtu.</p>\n<p><strong>Edicts</strong> Confuse paths and roads, outwit your foes instead of overpowering them, pace labyrinths</p>\n<p><strong>Anathema</strong> Kill something that cannot significantly harm you, bargain with @Compendium[pf2ettw.deities.Asmodeus]{Asmodeus}</p>\n<p><strong>Areas of Concern</strong> beasts, labyrinths, and minotaurs</p>"
        },
        "domains": {
            "alternate": [],
            "primary": [
                "indulgence",
                "might",
                "secrecy",
                "zeal"
            ]
        },
        "font": [
            "harm",
            "heal"
        ],
        "rules": [],
        "skill": "sur",
        "source": {
            "value": "Pathfinder Lost Omens: Gods & Magic"
        },
        "spells": {
            "1": "Compendium.pf2ettw.spells-srd.4YnON9JHYqtLzccu",
            "2": "Compendium.pf2ettw.spells-srd.wzctak6BxOW8xvFV",
            "8": "Compendium.pf2ettw.spells-srd.Oj1PJBMQD9vuwCv7"
        },
        "weapons": [
            "glaive"
        ]
    },
    "img": "systems/pf2ettw/icons/default-icons/deity.svg",
    "name": "Baphomet",
    "type": "deity"
}
