{
    "_id": "eyGEoggFlTEUQmvJ",
    "data": {
        "ability": [
            "con",
            "cha"
        ],
        "alignment": {
            "follower": [
                "LG",
                "NG",
                "CG"
            ],
            "own": "NG"
        },
        "description": {
            "value": "<p>Bes is a member of the pantheon often worshiped in Ancient Osirion.</p>\n<p><strong>Edicts</strong> Aid childbirths, spread joy and celebration, protect sleeping creatures</p>\n<p><strong>Anathema</strong> Harm or neglect a child, separate families, use magic to corrupt dreams</p>"
        },
        "domains": {
            "alternate": [],
            "primary": [
                "earth",
                "family",
                "luck",
                "protection"
            ]
        },
        "font": [
            "heal"
        ],
        "rules": [],
        "skill": "prf",
        "source": {
            "value": "Pathfinder Lost Omens: Gods & Magic"
        },
        "spells": {
            "1": "Compendium.pf2ettw.spells-srd.o4lRVTwSxnOOn5vl",
            "2": "Compendium.pf2ettw.spells-srd.tlSE7Ly8vi1Dgddv",
            "3": "Compendium.pf2ettw.spells-srd.IihxWhRfpsBgQ5jS"
        },
        "weapons": [
            "mambele"
        ]
    },
    "img": "systems/pf2ettw/icons/default-icons/deity.svg",
    "name": "Bes",
    "type": "deity"
}
