{
    "_id": "v67fHklTZ6LoU54q",
    "data": {
        "ability": [
            "con",
            "cha"
        ],
        "alignment": {
            "follower": [
                "NG",
                "CG",
                "CN"
            ],
            "own": "CG"
        },
        "description": {
            "value": "<p>Once a mortal human, Cayden Cailean is now one the few deities known as the Ascended. In his mortal years, Cayden was a sellsword of no small fame, known for his boisterous manner, skill with a blade, and fearless resolve. During a particularly rowdy night of drinking, a series of escalating dares led the wandering mercenary to attempt the Test of the Starstone. He emerged from the Starstone Cathedral 3 days later, laughing, a fully realized god. Divine responsibility did little to change Cayden's attitude from what it was in his mortal life. He continues to crave adventure, drink, and pleasurable company while abhorring bullies, tyrants, and cowards.</p>\n<p><strong>Edicts</strong> drink, free slaves and aid the oppressed, seek glory and adventure</p>\n<p><strong>Anathema</strong> waste alcohol, be mean or standoffish when drunk, own a slave</p>\n<p><strong>Areas of Concern</strong> ale, bravery, freedom, and wine</p>"
        },
        "domains": {
            "alternate": [],
            "primary": [
                "cities",
                "freedom",
                "indulgence",
                "might"
            ]
        },
        "font": [
            "heal"
        ],
        "rules": [],
        "skill": "ath",
        "source": {
            "value": "Pathfinder Core Rulebook"
        },
        "spells": {
            "1": "Compendium.pf2ettw.spells-srd.aEM2cttJ2eYcLssW",
            "2": "Compendium.pf2ettw.spells-srd.CQb8HtQ1BPeZmu9h",
            "5": "Compendium.pf2ettw.spells-srd.U58aQWJ47VrI36yP"
        },
        "weapons": [
            "rapier"
        ]
    },
    "img": "systems/pf2ettw/icons/deity/Cayden%20Cailean.webp",
    "name": "Cayden Cailean",
    "type": "deity"
}
