{
    "_id": "H1VrZ1QX0d2aPXT8",
    "data": {
        "ability": [
            "con",
            "wis"
        ],
        "alignment": {
            "follower": [
                "LG"
            ],
            "own": "LG"
        },
        "description": {
            "value": "<p><strong>Edicts</strong> Perform just executions, study local laws, oppose corrupt or bloodthirsty government officials</p>\n<p><strong>Anathema</strong> Kill without thought, execute the innocent, mock the condemned, falsely incriminate another</p>"
        },
        "domains": {
            "alternate": [],
            "primary": [
                "death",
                "duty",
                "truth",
                "vigil"
            ]
        },
        "font": [
            "harm",
            "heal"
        ],
        "rules": [],
        "skill": "ath",
        "source": {
            "value": "Pathfinder Lost Omens: Gods & Magic"
        },
        "spells": {
            "1": "Compendium.pf2ettw.spells-srd.Gb7SeieEvd0pL2Eh",
            "3": "Compendium.pf2ettw.spells-srd.DCQHaLrYXMI37dvW",
            "4": "Compendium.pf2ettw.spells-srd.2BV2yYPfVJ5zirZt"
        },
        "weapons": [
            "greataxe"
        ]
    },
    "img": "systems/pf2ettw/icons/default-icons/deity.svg",
    "name": "Dammerich",
    "type": "deity"
}
