{
    "_id": "39z55kowQFOUH2v0",
    "data": {
        "ability": [
            "con",
            "int"
        ],
        "alignment": {
            "follower": [
                "LE",
                "NE",
                "CE"
            ],
            "own": "NE"
        },
        "description": {
            "value": "<p>Cast out and cursed by @Compendium[pf2ettw.deities.Torag]{Torag}, the Dark Smith works constantly to prove his significance, cheating and enslaving others to further his goal</p>\n<p><strong>Edicts</strong> achieve goals at any cost, continually improve your abilities, establish dominance, work ceaselessly</p>\n<p><strong>Anathema</strong> fail to work toward goals or grow in skill, relax excessively or give into sloth</p>"
        },
        "domains": {
            "alternate": [
                "ambition",
                "fire",
                "toil"
            ],
            "primary": [
                "duty",
                "earth",
                "trickery",
                "tyranny"
            ]
        },
        "font": [
            "harm"
        ],
        "rules": [],
        "skill": "cra",
        "source": {
            "value": "Pathfinder Lost Omens: Gods & Magic"
        },
        "spells": {
            "1": "Compendium.pf2ettw.spells-srd.X9dkmh23lFwMjrYd",
            "3": "Compendium.pf2ettw.spells-srd.o6YCGx4lycsYpww4",
            "6": "Compendium.pf2ettw.spells-srd.OsOhx3TGIZ7AhD0P"
        },
        "weapons": [
            "light-hammer"
        ]
    },
    "img": "systems/pf2ettw/icons/deity/Droskar.webp",
    "name": "Droskar",
    "type": "deity"
}
