{
    "_id": "aVyxfqY9GBjTqQul",
    "data": {
        "ability": [
            "str",
            "dex"
        ],
        "alignment": {
            "follower": [
                "LE"
            ],
            "own": "LE"
        },
        "description": {
            "value": "<p>Hell's Valkyrie rules a domain spanning part of Dispater's realm, commanding her legions of erinyes and executioner devil soldiers as she sees fit. Eiseth operates outside Dispater's rule, and she has forged powerful alliances with those in Hell and beyond, having long ago rejected limitations placed upon her by others. Foremost among the Queens of the Night, she embodies battle, revenge, and wrath, and her ambitions are as lofty as her aerie of Widow's Cry, where she forges souls of the damned into unequaled infernal legions answering to her alone.</p>\n<p><strong>Edicts</strong> Avenge all insults, claim what you desire and deserve, humiliate your foes in ironic fashion</p>\n<p><strong>Anathema</strong> Allow a slight to go unanswered, show humility or fear</p>"
        },
        "domains": {
            "alternate": [],
            "primary": [
                "ambition",
                "destruction",
                "might",
                "zeal"
            ]
        },
        "font": [
            "harm"
        ],
        "rules": [],
        "skill": "itm",
        "source": {
            "value": "Pathfinder Lost Omens: Gods & Magic"
        },
        "spells": {
            "1": "Compendium.pf2ettw.spells-srd.Gb7SeieEvd0pL2Eh",
            "3": "Compendium.pf2ettw.spells-srd.sxQZ6yqTn0czJxVd",
            "4": "Compendium.pf2ettw.spells-srd.VlNcjmYyu95vOUe8"
        },
        "weapons": [
            "longbow"
        ]
    },
    "img": "systems/pf2ettw/icons/default-icons/deity.svg",
    "name": "Eiseth",
    "type": "deity"
}
