{
    "_id": "DEKKbg6riAdL2ARf",
    "data": {
        "ability": [
            "con",
            "cha"
        ],
        "alignment": {
            "follower": [
                "CG",
                "CN",
                "CE"
            ],
            "own": "CN"
        },
        "description": {
            "value": "<p>Hei Feng, the tengu god of storms, is as unpredictable as the sea, as destructive as a hurricane, and, more often than not, as drunk and foulmouthed as the sailors who pray to him. Impulsive and passionate, his heart moves between joy, sorrow, and anger in the time it takes him to finish his cup, though whatever his mood, he rarely feels it lightly. He may be so moved by a fisher's prayer that he blesses her with a catch large enough to feed her village, while later unleashing torrential waves against that same village for a slight. This unpredictability leads the rest of the Heavenly Court to regard him as troublesome, and mortals to view him with wary respect.</p>\n<p><strong>Edicts</strong> follow your passions, make token attempts to apologize to those you have wronged, respect the power of the sea and sky, encourage flashy entertainment</p>\n<p><strong>Anathema</strong> fake friendship with those you despise, disrespect Hei Feng or Hei Feng's estranged wife Lady Jingxi, ignore an affront to you or Hei Feng</p>\n<p><strong>Areas of Concern</strong> sea, storms, tengu, sailors</p>"
        },
        "domains": {
            "alternate": [
                "destruction",
                "travel"
            ],
            "primary": [
                "air",
                "indulgence",
                "lightning",
                "water"
            ]
        },
        "font": [
            "harm",
            "heal"
        ],
        "rules": [],
        "skill": "prf",
        "source": {
            "value": "Pathfinder Lost Omens: Gods & Magic"
        },
        "spells": {
            "1": "Compendium.pf2ettw.spells-srd.g8QqHpv2CWDwmIm1",
            "4": "Compendium.pf2ettw.spells-srd.Y3G6Y6EDgCY0s3fq",
            "6": "Compendium.pf2ettw.spells-srd.TDNlDWbYb58Y55Da"
        },
        "weapons": [
            "nine-ring-sword"
        ]
    },
    "img": "systems/pf2ettw/icons/deity/Hei%20Feng.webp",
    "name": "Hei Feng",
    "type": "deity"
}
