{
    "_id": "TW7Q6O928YWNME9r",
    "data": {
        "ability": [
            "dex",
            "cha"
        ],
        "alignment": {
            "follower": [
                "NE",
                "CE"
            ],
            "own": "CE"
        },
        "description": {
            "value": "<p>If any fervent devotees of the monstrous firefly goddess exist, they don't venture into civilization. The closest Kitumu has to servants or worshipers are those willing to placate the goddess in order to satisfy her demands and hungers.</p>\n<p><strong>Edicts</strong> offer sacrifices to Kitumu, feed the hungers of nature with humanoid creatures</p>\n<p><strong>Anathema</strong> step on a firefly, kill those marked by Kitumu</p>"
        },
        "domains": {
            "alternate": [],
            "primary": [
                "destruction",
                "indulgence",
                "nightmares",
                "swarm"
            ]
        },
        "font": [
            "harm"
        ],
        "rules": [],
        "skill": "nat",
        "source": {
            "value": "Pathfinder Lost Omens: The Mwangi Expanse"
        },
        "spells": {
            "1": "Compendium.pf2ettw.spells-srd.o4lRVTwSxnOOn5vl",
            "2": "Compendium.pf2ettw.spells-srd.cB17yFc9456Pyfec",
            "3": "Compendium.pf2ettw.spells-srd.XI6Lzd2B5pernkPd"
        },
        "weapons": [
            "dagger"
        ]
    },
    "img": "systems/pf2ettw/icons/default-icons/deity.svg",
    "name": "Kitumu",
    "type": "deity"
}
