{
    "_id": "idAu7puhPp3kFTnl",
    "data": {
        "ability": [],
        "alignment": {
            "follower": [
                "LE",
                "NE"
            ],
            "own": "LE"
        },
        "description": {
            "value": "<p>Lorthact’s cult is incredibly small. Even in his reduced state, he can still grant spells to his few remaining clerics. His symbol is a staff wrapped in scrolls.</p>\n<p><strong>Edicts</strong> learn arcane secrets, take from others what you cannot make yourself, rule from the shadows</p>\n<p><strong>Anathema</strong> reveal your actual identity, share power with the weak</p>\n<p><strong>Follower Alignments</strong> LE, NE</p>\n<hr />\n<h2>Devotee Benefits</h2>\n<p><strong>Divine Font</strong> <em>@Compendium[pf2ettw.spells-srd.Harm]{Harm}</em></p>\n<p><strong>Divine Skill</strong> Arcana</p>\n<p><strong>Favored Weapon</strong> staff</p>\n<p><strong>Domains</strong> magic, time, trickery, tyranny</p>\n<p><strong>Cleric Spells</strong> 1st: <em>@Compendium[pf2ettw.spells-srd.Magic Missile]{Magic Missile}</em>, 3rd: <em>@Compendium[pf2ettw.spells-srd.Slow]{Slow}</em>, 6th: <em>@Compendium[pf2ettw.spells-srd.Feeblemind]{Feeblemind}</em></p>"
        },
        "domains": {
            "alternate": [],
            "primary": [
                "magic",
                "time",
                "trickery",
                "tyranny"
            ]
        },
        "font": [
            "harm"
        ],
        "rules": [],
        "skill": "arc",
        "source": {
            "value": "Pathfinder Adventure: Shadows at Sundown"
        },
        "spells": {
            "1": "Compendium.pf2ettw.spells-srd.gKKqvLohtrSJj3BM",
            "3": "Compendium.pf2ettw.spells-srd.WsUwpfmhKrKwoIe3",
            "6": "Compendium.pf2ettw.spells-srd.5BbU1V6wGSGbrmRD"
        },
        "weapons": [
            "staff"
        ]
    },
    "img": "systems/pf2ettw/icons/default-icons/deity.svg",
    "name": "Lorthact's Cult",
    "type": "deity"
}
