{
    "_id": "fTJLgTfEMZreJ19r",
    "data": {
        "ability": [
            "str",
            "wis"
        ],
        "alignment": {
            "follower": [
                "NG",
                "CG",
                "CN"
            ],
            "own": "CG"
        },
        "description": {
            "value": "<p>Milani is the patron mother of those who war against oppression, rewarding those willing to sacrifice their lives and use whatever tools are available to fight for those who cannot defend themselves, especially people who have been captured or enslaved. Throughout Golarion, Milani is also known as the Everbloom, as the symbol of her church is a beautiful rose growing from blood-soaked soil.</p>\n<p><strong>Edicts</strong> confront oppression in all its forms, defend the common folk, overcome despair to seize victory</p>\n<p><strong>Anathema</strong> abandon those in need, enslave or oppress others, harm the innocent through direct or inadvertent action</p>\n<p><strong>Areas of Concern</strong> devotion, hope, and uprisings</p>"
        },
        "domains": {
            "alternate": [],
            "primary": [
                "change",
                "destruction",
                "freedom",
                "zeal"
            ]
        },
        "font": [
            "heal"
        ],
        "rules": [],
        "skill": "soc",
        "source": {
            "value": "Pathfinder Lost Omens: Gods & Magic"
        },
        "spells": {
            "1": "Compendium.pf2ettw.spells-srd.aAbfKn8maGjJjk2W",
            "3": "Compendium.pf2ettw.spells-srd.IihxWhRfpsBgQ5jS",
            "4": "Compendium.pf2ettw.spells-srd.YrzBLPLd3r9m6t1p"
        },
        "weapons": [
            "morningstar"
        ]
    },
    "img": "systems/pf2ettw/icons/deity/Milani.webp",
    "name": "Milani",
    "type": "deity"
}
