{
    "_id": "woDEgBs1MznhzpJ4",
    "data": {
        "ability": [
            "str",
            "int"
        ],
        "alignment": {
            "follower": [
                "LG",
                "LN",
                "N"
            ],
            "own": "LN"
        },
        "description": {
            "value": "<p><strong>Edicts</strong> Bring order to places of chaos, kill evil monsters and fiends, encourage just laws, provide warmth where needed</p>\n<p><strong>Anathema</strong> Avoid personal change, kill a plant or a creature with cold damage, seal a building to completely block sunlight</p>"
        },
        "domains": {
            "alternate": [],
            "primary": [
                "fire",
                "nature",
                "sun",
                "time"
            ]
        },
        "font": [
            "heal"
        ],
        "rules": [],
        "skill": "soc",
        "source": {
            "value": "Pathfinder Lost Omens: Gods & Magic"
        },
        "spells": {
            "1": "Compendium.pf2ettw.spells-srd.y6rAdMK6EFlV6U0t",
            "2": "Compendium.pf2ettw.spells-srd.2ZdHjnpEQJuqOYSG",
            "3": "Compendium.pf2ettw.spells-srd.MNiT0dHol5fEcKlz"
        },
        "weapons": [
            "spear"
        ]
    },
    "img": "systems/pf2ettw/icons/default-icons/deity.svg",
    "name": "Ra",
    "type": "deity"
}
