{
    "_id": "ekYDHPV6giFezPWk",
    "content": "<h1 style=\"box-sizing:border-box;user-select:text;margin-top:var(--space-l);margin-bottom:var(--space-s);width:649.531px;font-family:var(--serif)\">Rossok</h1>\n<p id=\"docs-internal-guid-e1e743ce-7fff-f765-d2ae-d6f461abebd6\" dir=\"ltr\">Rossok, of all the gods, least resembles the conventional notion of a sage. Despite this, his priests know that beneath the rakish surface lies a surprising depth of wisdom. It was Rossok who taught the skills of sailing and shipmaking to humanity, and his Lessons emphasise the adaptability and composure needed to face the ever-changing sea. These skills have wide application, and his followers extend beyond those who cross the waves, to merchants, soldiers, and thieves. Rossokites do not endorse such illegal endeavours, but that doesn’t necessarily stop the use of his teachings.</p>\n<p dir=\"ltr\">Rossok’s Lessons have an individualist bent, advising each to find the role within society that best suits them, and this can be off putting to the more collectivist view of Duramasans. By contrast, their willingness to adjust to change serves them well in dealing with the innovation of Enkarites and the challenging approach of Astarans, though this in turn distances them from the more rigid structures favoured by the sworn of Utun.</p>\n<p dir=\"ltr\">Rossok himself is portrayed as a charming figure, frequently attired in the fashion of the times. Though he is most often depicted with a brace of short blades, the values instilled by his teachings leave his adherents willing to utilise whichever implements best suit their current purpose. Rossokite temples mirror this approach, occupying whatever site best allows them to reach their flock, be that a towering spire or a converted grain silo. Above each temple flies the blue and silver pennant of a ship upon the waves.</p>\n<p dir=\"ltr\">The Students of Rossok recognise that there is no one approach that serves every situation, and will turn their hand to many arts. A diplomat might make offering ahead of an important negotiation, or a servant might ask for aid in dealing with a challenging lord. Those sworn to Rossok are problem solvers, survivors, and understanding listeners, serving in whichever way they feel most called to. Thus, Rossokites might be found wielding whatever is needed in the moment - be that knitting needles, kind words, spices and ladle, or the tools of war.</p>\n<p style=\"box-sizing:border-box;user-select:text;margin-top:var(--p-space,1em);width:649.531px;color:#1c1c1c;font-size:15.6px\"><strong style=\"box-sizing:border-box;user-select:text\">Edicts</strong> Find your own way in life, bend without breaking, seek solutions that suit the situation.</p>\n<p style=\"box-sizing:border-box;user-select:text;margin-top:var(--p-space,1em);width:649.531px;color:#1c1c1c;font-size:15.6px\"><strong style=\"box-sizing:border-box;user-select:text\">Anathema</strong> Permit prejudice to shape your actions, own a slave, refuse to communicate.</p>\n<p style=\"box-sizing:border-box;user-select:text;margin-top:var(--p-space,1em);width:649.531px;color:#1c1c1c;font-size:15.6px\"><strong style=\"box-sizing:border-box;user-select:text\">Areas of Concern</strong> Ships &amp; Sailors, Flexibility, Problem Solving.</p>\n<h2 style=\"box-sizing:border-box;user-select:text;margin-top:var(--p-space,1em);width:649.531px;font-family:var(--serif)\">Devotee Benefits</h2>\n<div style=\"box-sizing:border-box;user-select:text;margin-top:var(--p-space,1em);width:649.531px;color:#1c1c1c;font-size:15.6px\">\n<div style=\"box-sizing:border-box;user-select:text\"><strong style=\"box-sizing:border-box;user-select:text\">Divine Ability</strong> Charisma, Dexterity, or Wisdom</div>\n<div style=\"box-sizing:border-box;user-select:text;margin-top:var(--p-space,1em)\"><strong style=\"box-sizing:border-box;user-select:text\">Divine Font</strong> Harm or Heal</div>\n<div style=\"box-sizing:border-box;user-select:text;margin-top:var(--p-space,1em)\"><strong style=\"box-sizing:border-box;user-select:text\">Divine Skill</strong> Diplomacy</div>\n<div style=\"box-sizing:border-box;user-select:text;margin-top:var(--p-space,1em)\"><strong style=\"box-sizing:border-box;user-select:text\">Favored Weapon</strong> None. Champions of Rossok gain the @Compendium[pf2ettw.feats-srd.Quick Draw]{Quick Draw} feat at level 1, and Warpriests of Rossok gain it at level 2.</div>\n<div style=\"box-sizing:border-box;user-select:text;margin-top:var(--p-space,1em)\"><strong style=\"box-sizing:border-box;user-select:text\">Domains</strong> @Compendium[pf2ettw.domains.Change Domain]{Change}, @Compendium[pf2ettw.domains.Freedom Domain]{Freedom}, @Compendium[pf2ettw.domains.Travel Domain]{Travel}, @Compendium[pf2ettw.domains.Water Domain]{Water}</div>\n<div style=\"box-sizing:border-box;user-select:text;margin-top:var(--p-space,1em)\"><strong style=\"box-sizing:border-box;user-select:text\">Alternate Domains</strong><span style=\"box-sizing:border-box;user-select:text;margin-top:var(--p-space,1em);font-size:15.6px\"> @Compendium[pf2ettw.domains.Passion Domain]{Passion}, @Compendium[pf2ettw.domains.Trickery Domain]{Trickery}</span></div>\n<div style=\"box-sizing:border-box;user-select:text;margin-top:var(--p-space,1em)\"><strong style=\"box-sizing:border-box;user-select:text\">Cleric Spells</strong> 1st: @Compendium[pf2ettw.spells-srd.Animate Rope]{Animate Rope}, 4th: @Compendium[pf2ettw.spells-srd.Rebounding Barrier]{Rebounding Barrier}, 5th: @Compendium[pf2ettw.spells-srd.Mariner's Curse]{Mariner's Curse}</div>\n<div style=\"box-sizing:border-box;user-select:text;margin-top:var(--p-space,1em)\"><strong style=\"box-sizing:border-box;user-select:text\">Damage Type</strong><span style=\"box-sizing:border-box;user-select:text;margin-top:var(--p-space,1em);font-size:15.6px;font-family:var(--journal-serif)\"> Radiant or Void</span></div>\n<h2 style=\"box-sizing:border-box;user-select:text;margin-top:var(--p-space,1em);font-family:var(--serif);width:649.531px\">Devotees of the Pantheon</h2>\n<p style=\"box-sizing:border-box;user-select:text;font-size:15.6px\"><span id=\"docs-internal-guid-79c78156-7fff-e977-92f1-4efeb9b61c0c\" style=\"box-sizing:border-box;user-select:text\">Representing the commonality of the Sages, the following edicts and anathema apply to all those devoted to the pantheon.</span></p>\n<div style=\"box-sizing:border-box;user-select:text;margin-top:var(--p-space,1em);font-size:15.6px;width:649.531px\">\n<div style=\"box-sizing:border-box;user-select:text\"><strong style=\"box-sizing:border-box;user-select:text\">Edicts </strong><span style=\"box-sizing:border-box;user-select:text;margin-top:var(--p-space,1em);font-size:15.6px;font-family:var(--journal-serif)\">Maintain civilization, preserve the Temples, study the Lessons.</span></div>\n<div style=\"box-sizing:border-box;user-select:text;margin-top:var(--p-space,1em)\"><span style=\"box-sizing:border-box;user-select:text;font-size:15.6px;font-family:var(--journal-serif)\"><strong style=\"box-sizing:border-box;user-select:text\">Anathema </strong></span><span style=\"box-sizing:border-box;user-select:text;margin-top:var(--p-space,1em);font-size:15.6px;font-family:var(--journal-serif)\">Heed false idols, dishonour the Sages, seek harm to a fellow Student.</span></div>\n</div>\n</div>",
    "flags": {},
    "name": "Rossok",
    "permission": {
        "default": 0
    }
}
