{
    "_id": "WfqLY2Fm1LGCcG5X",
    "data": {
        "ability": [
            "int",
            "wis"
        ],
        "alignment": {
            "follower": [
                "LG",
                "NG",
                "LN",
                "N",
                "LE"
            ],
            "own": "N"
        },
        "description": {
            "value": "<p>The philosophy of Sangpotshi, also known as the River of Life, centers around concepts of fate, karma, and cyclic reincarnation. Adherents believe each soul is judged upon its actions in life, and these actions determine its station when it returns to the living world. This cycle repeats until the soul reaches its perfected form through the accrual of experience and wisdom, whereupon it passes on to Pharasma's court and the afterlife to come.</p>\n<p><strong>Edicts</strong> live selflessly; heed the wisdom of the learned, the wise, and those in stations of authority</p>\n<p><strong>Anathema</strong> needlessly break significant traditions, actively interfere with the perfection efforts of another soul or allow others to do so</p>\n<p><strong>Areas of Concern</strong> fate, karma, and reincarnation</p>"
        },
        "domains": {
            "alternate": [],
            "primary": []
        },
        "font": [],
        "rules": [],
        "skill": "rel",
        "source": {
            "value": "Pathfinder Lost Omens: Gods & Magic"
        },
        "spells": {},
        "weapons": []
    },
    "img": "systems/pf2ettw/icons/default-icons/deity.svg",
    "name": "Sangpotshi",
    "type": "deity"
}
