{
    "_id": "83jKKHQPoqVylmrF",
    "data": {
        "ability": [
            "dex",
            "int"
        ],
        "alignment": {
            "follower": [
                "LE",
                "NE"
            ],
            "own": "LE"
        },
        "description": {
            "value": "<p><strong>Edicts</strong> Commit assassinations for hire, strike unseen, carry out punishment for convicted criminals</p>\n<p><strong>Anathema</strong> Show mercy to a target, take credit for your assassinations, refuse to punish a lawfully convicted criminal</p>"
        },
        "domains": {
            "alternate": [],
            "primary": [
                "death",
                "duty",
                "pain",
                "trickery"
            ]
        },
        "font": [
            "harm"
        ],
        "rules": [],
        "skill": "ste",
        "source": {
            "value": "Pathfinder Lost Omens: Gods & Magic"
        },
        "spells": {
            "1": "Compendium.pf2ettw.spells-srd.Gb7SeieEvd0pL2Eh",
            "2": "Compendium.pf2ettw.spells-srd.XXqE1eY3w3z6xJCB",
            "6": "Compendium.pf2ettw.spells-srd.WPXzPl7YbMEIGWfi"
        },
        "weapons": [
            "shuriken"
        ]
    },
    "img": "systems/pf2ettw/icons/deity/Yaezhing.webp",
    "name": "Yaezhing",
    "type": "deity"
}
