{
    "_id": "Ze2hoTyOQHbaQ6jD",
    "content": "<p><strong>Deities</strong> @Compendium[pf2ettw.deities.Apollyon]{Apollyon}, @Compendium[pf2ettw.deities.Baalzebul]{Baalzebul}, @Compendium[pf2ettw.deities.Ghlaunder]{Ghlaunder}, @Compendium[pf2ettw.deities.Gozreh]{Gozreh},@Compendium[pf2ettw.deities.Hei Feng]{Hei Feng},@Compendium[pf2ettw.deities.Horus]{Horus},@Compendium[pf2ettw.deities.Hshurha]{Hshurha},@Compendium[pf2ettw.deities.Pazuzu]{Pazuzu},@Compendium[pf2ettw.deities.Ragdya]{Ragdya},@Compendium[pf2ettw.deities.Ranginori]{Ranginori},@Compendium[pf2ettw.deities.Rovagug]{Rovagug},@Compendium[pf2ettw.deities.Sturovenen]{Sturovenen},@Compendium[pf2ettw.deities.Uvuko]{Uvuko},@Compendium[pf2ettw.deities.Ylimancha]{Ylimancha}</p>\n<p><strong>Domain Spell</strong><em>@Compendium[pf2ettw.spells-srd.Pushing Gust]{Pushing Gust}</em>;<strong>Advanced Domain Spell</strong><em>@Compendium[pf2ettw.spells-srd.Disperse into Air]{Disperse into Air}</em></p>\n<p>You can control winds and the weather.</p>",
    "name": "Air Domain",
    "permission": {
        "default": 0
    }
}
