{
    "_id": "wCPGej4ZwdKCNtym",
    "content": "<p><strong>Deities</strong>@Compendium[pf2ettw.deities.Alseta]{Alseta}, @Compendium[pf2ettw.deities.Belial]{Belial}, @Compendium[pf2ettw.deities.Cyth-V'sug]{Cyth-V'sug}, @Compendium[pf2ettw.deities.Dagon]{Dagon}, @Compendium[pf2ettw.deities.Daikitsu]{Daikitsu}, @Compendium[pf2ettw.deities.Enkaris]{Enkaris}, @Compendium[pf2ettw.deities.Grandmother Spider]{Grandmother Spider}, @Compendium[pf2ettw.deities.Irori]{Irori}, @Compendium[pf2ettw.deities.Korada]{Korada}, @Compendium[pf2ettw.deities.Lamashtu]{Lamashtu}, @Compendium[pf2ettw.deities.Lymnieris]{Lymnieris}, @Compendium[pf2ettw.deities.Milani]{Milani}, @Compendium[pf2ettw.deities.Mother Vulture]{Mother Vulture}, @Compendium[pf2ettw.deities.Narakaas]{Narakaas}, @Compendium[pf2ettw.deities.Nocticula]{Nocticula}, @Compendium[pf2ettw.deities.Osiris]{Osiris}, @Compendium[pf2ettw.deities.Rossok]{Rossok}, @Compendium[pf2ettw.deities.Saloc]{Saloc}, @Compendium[pf2ettw.deities.The Lantern King]{The Lantern King}, @Compendium[pf2ettw.deities.Tlehar]{Tlehar}, @Compendium[pf2ettw.deities.Tsukiyo]{Tsukiyo}, @Compendium[pf2ettw.deities.Xhamen-Dor]{Xhamen-Dor}, @Compendium[pf2ettw.deities.Ydajisk]{Ydajisk}</p>\n<p><strong>Domain Spell</strong> <em>@Compendium[pf2ettw.spells-srd.Adapt Self]{Adapt Self}</em>; <strong>Advanced Domain Spell</strong> <em>@Compendium[pf2ettw.spells-srd.Adaptive Ablation]{Adaptive Ablation}</em></p>\n<p>You can restructure the physical and metaphysical.</p>",
    "name": "Change Domain",
    "permission": {
        "default": 0
    }
}
