{
    "_id": "MRHDhBQvgJhDZ1zq",
    "content": "<p><strong>Deities</strong>@Compendium[pf2ettw.deities.Abadar]{Abadar}, @Compendium[pf2ettw.deities.Cayden Cailean]{Cayden Cailean}, @Compendium[pf2ettw.deities.Chohar]{Chohar}, @Compendium[pf2ettw.deities.Dispater]{Dispater}, @Compendium[pf2ettw.deities.Duramas]{Duramas}, @Compendium[pf2ettw.deities.Findeladlara]{Findeladlara}, @Compendium[pf2ettw.deities.Folgrit]{Folgrit}, @Compendium[pf2ettw.deities.Kazutal]{Kazutal}, @Compendium[pf2ettw.deities.Luhar]{Luhar}, @Compendium[pf2ettw.deities.Matravash]{Matravash}, @Compendium[pf2ettw.deities.Tlehar]{Tlehar}, @Compendium[pf2ettw.deities.Utun]{Utun}, @Compendium[pf2ettw.deities.Zohls]{Zohls}</p>\n<p><strong>Domain Spell</strong> <em>@Compendium[pf2ettw.spells-srd.Face in the Crowd]{Face in the Crowd}</em>; <strong>Advanced Domain Spell</strong> <em>@Compendium[pf2ettw.spells-srd.Pulse of the City]{Pulse of the City}</em></p>\n<p>You have powers over urban environments and denizens.</p>",
    "name": "Cities Domain",
    "permission": {
        "default": 0
    }
}
