{
    "_id": "zec5N7EnDJANGHmy",
    "content": "<p><strong>Deities</strong> @Compendium[pf2ettw.deities.Hshurha]{Hshurha}, @Compendium[pf2ettw.deities.Nurgal]{Nurgal}, @Compendium[pf2ettw.deities.Trelmarixian]{Trelmarixian}, @Compendium[pf2ettw.deities.Ymeri]{Ymeri}</p>\n<p><strong>Domain Spell</strong> <em>@Compendium[pf2ettw.spells-srd.Parch]{Parch}</em>; <strong>Advanced Domain Spell</strong> <em>@Compendium[pf2ettw.spells-srd.Dust Storm]{Dust Storm}</em></p>\n<p>You have the power to dry and crumble what opposes you.</p>",
    "name": "Dust Domain",
    "permission": {
        "default": 0
    }
}
