{
    "_id": "0cbxczrql4MwAHwV",
    "content": "<p><strong>Deities</strong> @Compendium[pf2ettw.deities.Asmodeus]{Asmodeus}, @Compendium[pf2ettw.deities.Banin]{Banin}, @Compendium[pf2ettw.deities.Dwarven Pantheon]{Dwarven Pantheon}, @Compendium[pf2ettw.deities.Eritrice]{Eritrice}, @Compendium[pf2ettw.deities.Gruhastha]{Gruhastha}, @Compendium[pf2ettw.deities.Hastur]{Hastur}, @Compendium[pf2ettw.deities.Imot]{Imot}, @Compendium[pf2ettw.deities.Irez]{Irez}, @Compendium[pf2ettw.deities.Lady Jingxi]{Lady Jingxi}, @Compendium[pf2ettw.deities.Lissala]{Lissala}, @Compendium[pf2ettw.deities.Magdh]{Magdh}, @Compendium[pf2ettw.deities.Magrim]{Magrim}, @Compendium[pf2ettw.deities.Mephistopheles]{Mephistopheles}, @Compendium[pf2ettw.deities.Nalinivati]{Nalinivati}, @Compendium[pf2ettw.deities.Nethys]{Nethys}, @Compendium[pf2ettw.deities.Pillars of Knowledge]{Pillars of Knowledge}, @Compendium[pf2ettw.deities.Sivanah]{Sivanah}, @Compendium[pf2ettw.deities.Thoth]{Thoth}, @Compendium[pf2ettw.deities.Valmallos]{Valmallos}, @Compendium[pf2ettw.deities.Wards of the Pharaoh]{Wards of the Pharaoh}, @Compendium[pf2ettw.deities.Winlas]{Winlas}, @Compendium[pf2ettw.deities.Ydajisk]{Ydajisk}</p>\n<p><strong>Domain Spell</strong> <em>@Compendium[pf2ettw.spells-srd.Redact]{Redact}</em>; <strong>Advanced Domain Spell</strong> <em>@Compendium[pf2ettw.spells-srd.Ghostly Transcription]{Ghostly Transcription}</em></p>\n<p>You wield power over written words and symbols.</p>",
    "name": "Glyph Domain",
    "permission": {
        "default": 0
    }
}
