{
    "_id": "mBvjWSvg7UYdS9TL",
    "content": "<p><strong>Deities</strong> @Compendium[pf2ettw.deities.Ashava]{Ashava}, @Compendium[pf2ettw.deities.Cosmic Caravan]{Cosmic Caravan}, @Compendium[pf2ettw.deities.Desna]{Desna}, @Compendium[pf2ettw.deities.Findeladlara]{Findeladlara}, @Compendium[pf2ettw.deities.Horus]{Horus}, @Compendium[pf2ettw.deities.Ketephys]{Ketephys}, @Compendium[pf2ettw.deities.The Path of the Heavens]{The Path of the Heavens}, @Compendium[pf2ettw.deities.The Prismatic Ray]{The Prismatic Ray}, @Compendium[pf2ettw.deities.Thoth]{Thoth}, @Compendium[pf2ettw.deities.Tsukiyo]{Tsukiyo}</p>\n<p><strong>Domain Spell</strong> <em>@Compendium[pf2ettw.spells-srd.Moonbeam]{Moonbeam}</em>; <strong>Advanced Domain Spell</strong> <em>@Compendium[pf2ettw.spells-srd.Touch of the Moon]{Touch of the Moon}</em></p>\n<p>You command powers associated with the moon.</p>",
    "name": "Moon Domain",
    "permission": {
        "default": 0
    }
}
