{
    "_id": "X7MkBRJGUIp91k6f",
    "content": "<p><strong>Deities</strong> @Compendium[pf2ettw.deities.Andoletta]{Andoletta}, @Compendium[pf2ettw.deities.Arazni]{Arazni}, @Compendium[pf2ettw.deities.Count Ranalc]{Count Ranalc}, @Compendium[pf2ettw.deities.Doloras]{Doloras}, @Compendium[pf2ettw.deities.Likha]{Likha}, @Compendium[pf2ettw.deities.Naderi]{Naderi}, @Compendium[pf2ettw.deities.Narakaas]{Narakaas}, @Compendium[pf2ettw.deities.Pulura]{Pulura}, @Compendium[pf2ettw.deities.Ravithra]{Ravithra}, @Compendium[pf2ettw.deities.Shizuru]{Shizuru}, @Compendium[pf2ettw.deities.Sifkesh]{Sifkesh}, @Compendium[pf2ettw.deities.The Lost Prince]{The Lost Prince}, @Compendium[pf2ettw.deities.Utun]{Utun}, @Compendium[pf2ettw.deities.Vildeis]{Vildeis}, @Compendium[pf2ettw.deities.Zyphus]{Zyphus}</p>\n<p><strong>Domain Spell</strong> <em>@Compendium[pf2ettw.spells-srd.Lament]{Lament}</em>; <strong>Advanced Domain Spell</strong> <em>@Compendium[pf2ettw.spells-srd.Overflowing Sorrow]{Overflowing Sorrow}</em></p>\n<p>You have a painful connection to melancholy and sadness.</p>",
    "name": "Sorrow Domain",
    "permission": {
        "default": 0
    }
}
