{
    "_id": "FJ9D4qpeRhJvjHai",
    "content": "<p><strong>Deities</strong> @Compendium[pf2ettw.deities.Black Butterfly]{Black Butterfly}, @Compendium[pf2ettw.deities.Cosmic Caravan]{Cosmic Caravan}, @Compendium[pf2ettw.deities.Desna]{Desna}, @Compendium[pf2ettw.deities.Findeladlara]{Findeladlara}, @Compendium[pf2ettw.deities.Luhar]{Luhar}, @Compendium[pf2ettw.deities.Ma'at]{Ma'at}, @Compendium[pf2ettw.deities.Pulura]{Pulura}, @Compendium[pf2ettw.deities.The Path of the Heavens]{The Path of the Heavens}</p>\n<p><strong>Domain Spell</strong> <em>@Compendium[pf2ettw.spells-srd.Zenith Star]{Zenith Star}</em>; <strong>Advanced Domain Spell</strong> <em>@Compendium[pf2ettw.spells-srd.Asterism]{Asterism}</em></p>\n<p>You command the power of the stars.</p>",
    "name": "Star Domain",
    "permission": {
        "default": 0
    }
}
