{
    "_id": "nU0r77AZXMXIlti6",
    "data": {
        "actionCategory": {
            "value": ""
        },
        "actionType": {
            "value": "free"
        },
        "actions": {
            "value": null
        },
        "description": {
            "value": "<p><strong>Trigger</strong> You succeed or critically succeed at a check to @Compendium[pf2ettw.actionspf2ettw.Recall Knowledge (Arcana)]{Recall Knowledge} on your hunted prey.</p>\n<hr />\n<p>You scan the battlefield quickly, remembering critical details about multiple opponents you face. You immediately attempt a check to Recall Knowledge about a different creature you can perceive.</p>"
        },
        "featType": {
            "value": "class"
        },
        "level": {
            "value": 6
        },
        "prerequisites": {
            "value": []
        },
        "rules": [],
        "source": {
            "value": "Pathfinder Advanced Player's Guide"
        },
        "traits": {
            "custom": "",
            "rarity": "common",
            "value": [
                "ranger"
            ]
        }
    },
    "img": "systems/pf2ettw/icons/features/feats/feats.webp",
    "name": "Additional Recollection",
    "type": "feat"
}
