{
    "_id": "rXY2fhyteYhaQnMl",
    "data": {
        "actionCategory": {
            "value": ""
        },
        "actionType": {
            "value": "passive"
        },
        "actions": {
            "value": null
        },
        "description": {
            "value": "<p>You gain one rogue feat. For the purpose of meeting its prerequisites, your rogue level is equal to half your character level.</p>\n<hr />\n<p><strong>Special</strong> You can select this feat more than once. Each time you select it, you gain another rogue feat.</p>"
        },
        "featType": {
            "value": "archetype"
        },
        "level": {
            "value": 6
        },
        "location": null,
        "maxTakable": null,
        "prerequisites": {
            "value": [
                {
                    "value": "Basic Trickery"
                }
            ]
        },
        "rules": [],
        "source": {
            "value": "Pathfinder Core Rulebook"
        },
        "traits": {
            "custom": "",
            "rarity": "common",
            "value": [
                "archetype"
            ]
        }
    },
    "img": "systems/pf2ettw/icons/features/feats/feats.webp",
    "name": "Advanced Trickery",
    "type": "feat"
}
