{
    "_id": "Ht6b8H9DpA9lWzAg",
    "data": {
        "actionCategory": {
            "value": ""
        },
        "actionType": {
            "value": "passive"
        },
        "actions": {
            "value": null
        },
        "description": {
            "value": "<p>Over the course of adventuring, your adaptability has let you pick up numerous useful abilities. You gain a general feat of 7th level or lower. You must meet the feat's prerequisites.</p>\n<hr />\n<p><strong>Special</strong> You can select this feat multiple times, choosing a different feat each time.</p>"
        },
        "featType": {
            "value": "ancestry"
        },
        "level": {
            "value": 13
        },
        "location": "",
        "maxTakable": null,
        "prerequisites": {
            "value": []
        },
        "rules": [
            {
                "adjustName": false,
                "allowedDrops": {
                    "all": [
                        "item:type:feat",
                        "item:trait:general"
                    ],
                    "label": "pf2ettw.SpecificRule.AdvancedGeneralTraining.AllowedDrops"
                },
                "choices": {
                    "query": "{\"data.level.value\":{\"$lte\":7},\"data.traits.value\":{\"$elemMatch\":\"general\"}}"
                },
                "key": "ChoiceSet",
                "prompt": "pf2ettw.SpecificRule.AdvancedGeneralTraining.Prompt"
            },
            {
                "key": "GrantItem",
                "uuid": "{item|flags.pf2ettw.rulesSelections.advancedGeneralTraining}"
            }
        ],
        "source": {
            "value": "Pathfinder Advanced Player's Guide"
        },
        "traits": {
            "custom": "",
            "rarity": "common",
            "value": [
                "human"
            ]
        }
    },
    "img": "systems/pf2ettw/icons/features/feats/feats.webp",
    "name": "Advanced General Training",
    "type": "feat"
}
