{
    "_id": "CnKc1kBejFV5gWtN",
    "data": {
        "actionCategory": {
            "value": ""
        },
        "actionType": {
            "value": "passive"
        },
        "actions": {
            "value": null
        },
        "description": {
            "value": "<p>Your animalistic connections help you resist natural afflictions. You gain a +2 circumstance bonus to saves to resist diseases and poisons.</p>"
        },
        "featType": {
            "value": "ancestry"
        },
        "level": {
            "value": 5
        },
        "location": "",
        "prerequisites": {
            "value": []
        },
        "rules": [
            {
                "key": "FlatModifier",
                "label": "Animalistic Resistance (vs. disease and poison)",
                "predicate": {
                    "any": [
                        "disease",
                        "poison"
                    ]
                },
                "selector": "saving-throw",
                "type": "circumstance",
                "value": 2
            }
        ],
        "source": {
            "value": "Pathfinder Lost Omens: Ancestry Guide"
        },
        "traits": {
            "custom": "",
            "rarity": "common",
            "value": [
                "beastkin"
            ]
        }
    },
    "img": "systems/pf2ettw/icons/features/feats/feats.webp",
    "name": "Animalistic Resistance",
    "type": "feat"
}
