{
    "_id": "evwCimenReYvcruj",
    "data": {
        "actionCategory": {
            "value": ""
        },
        "actionType": {
            "value": "passive"
        },
        "actions": {
            "value": null
        },
        "description": {
            "value": "<p>You hear animal sounds as conversations instead of unintelligent noise, and can respond in turn. You can speak to all animals, not just animals with a burrow Speed. You gain a +1 circumstance bonus to Make an Impression on animals (which usually uses the Diplomacy skill).</p>"
        },
        "featType": {
            "value": "ancestry"
        },
        "level": {
            "value": 5
        },
        "location": null,
        "prerequisites": {
            "value": [
                {
                    "value": "Burrow Elocutionist"
                }
            ]
        },
        "rules": [
            {
                "key": "FlatModifier",
                "predicate": {
                    "all": [
                        "target:trait:animal",
                        "action:make-an-impression"
                    ]
                },
                "selector": "diplomacy",
                "type": "circumstance",
                "value": 1
            }
        ],
        "source": {
            "value": "Pathfinder Core Rulebook"
        },
        "traits": {
            "custom": "",
            "rarity": "common",
            "value": [
                "gnome"
            ]
        }
    },
    "img": "systems/pf2ettw/icons/features/feats/feats.webp",
    "name": "Animal Elocutionist",
    "type": "feat"
}
