{
    "_id": "hXfyIWMtvB2kAEvA",
    "data": {
        "actionCategory": {
            "value": ""
        },
        "actionType": {
            "value": "passive"
        },
        "actions": {
            "value": null
        },
        "description": {
            "value": "<p>You blend into the waves. While fully submerged in water, as long as an observer is at least 20 feet away from you, you don't need cover from that observer to @Compendium[pf2ettw.actionspf2ettw.Hide]{Hide} or @Compendium[pf2ettw.actionspf2ettw.Sneak]{Sneak}.</p>"
        },
        "featType": {
            "value": "ancestry"
        },
        "level": {
            "value": 13
        },
        "location": "",
        "prerequisites": {
            "value": []
        },
        "rules": [],
        "source": {
            "value": "Pathfinder Lost Omens: Ancestry Guide"
        },
        "traits": {
            "custom": "",
            "rarity": "common",
            "value": [
                "azarketi"
            ]
        }
    },
    "img": "systems/pf2ettw/icons/default-icons/feats.webp",
    "name": "Aquatic Camouflage",
    "type": "feat"
}
