{
    "_id": "h9b5CId7S7gV7j2t",
    "data": {
        "actionCategory": {
            "value": ""
        },
        "actionType": {
            "value": "passive"
        },
        "actions": {
            "value": null
        },
        "description": {
            "value": "<p>You have reconfigured the magical resonance of your core to attune to the planar energies of Axis. You can cast <em>@Compendium[pf2ettw.spells-srd.Plane Shift]{Plane Shift}</em> twice per week as an arcane innate spell that can only target yourself; you can travel only to Axis or the Material Plane, and your body serves as the focus component.</p>"
        },
        "featType": {
            "value": "ancestry"
        },
        "level": {
            "value": 17
        },
        "location": "",
        "prerequisites": {
            "value": []
        },
        "rules": [],
        "source": {
            "value": "Pathfinder Guns & Gears"
        },
        "traits": {
            "custom": "",
            "rarity": "uncommon",
            "value": [
                "automaton"
            ]
        }
    },
    "img": "systems/pf2ettw/icons/default-icons/feats.webp",
    "name": "Axial Recall",
    "type": "feat"
}
