{
    "_id": "ybSPDS4uVOi6rXnY",
    "data": {
        "actionCategory": {
            "value": ""
        },
        "actionType": {
            "value": "passive"
        },
        "actions": {
            "value": null
        },
        "description": {
            "value": "<p id=\"docs-internal-guid-cee57815-7fff-bcc9-70dd-74049b45edbd\" dir=\"ltr\"><em>Beneath your gaze, even the most formidable of foes must resist the sensation of being prey before the hunter.</em></p>\n<hr />\n<p dir=\"ltr\">You gain the trained proficiency rank in Intimidation. If you were already trained in Intimidation, you become trained in another skill of your choice.</p>\n<p dir=\"ltr\">You gain the @Compendium[pf2ettw.feats-srd.Intimidating Glare]{Intimidating Glare} skill feat, as well as a +1 status bonus on Intimidation checks to @Compendium[pf2ettw.actionspf2ettw.Demoralize]{Demoralize} when in dim light or darkness.</p>"
        },
        "featType": {
            "value": "vampire"
        },
        "level": {
            "value": 1
        },
        "location": "",
        "prerequisites": {
            "value": []
        },
        "rules": [
            {
                "key": "FlatModifier",
                "label": "Baleful Glare (dim light/darkness)",
                "predicate": {
                    "all": [
                        "action:demoralize"
                    ]
                },
                "selector": "intimidation",
                "type": "status",
                "value": 1
            },
            {
                "key": "ActiveEffectLike",
                "mode": "upgrade",
                "path": "data.skills.itm.rank",
                "value": 1
            }
        ],
        "source": {
            "value": ""
        },
        "traits": {
            "custom": "",
            "rarity": "common",
            "value": [
                "presence",
                "vampire"
            ]
        }
    },
    "img": "systems/pf2ettw/icons/features/feats/feats.webp",
    "name": "Baleful Glare",
    "type": "feat"
}
