{
    "_id": "uKBT0D9gxdwMcwNl",
    "data": {
        "actionCategory": {
            "value": ""
        },
        "actionType": {
            "value": "passive"
        },
        "actions": {
            "value": null
        },
        "description": {
            "value": "<p>You gain a 1st- or 2nd-level champion feat.</p>"
        },
        "featType": {
            "value": "archetype"
        },
        "level": {
            "value": 4
        },
        "location": "",
        "prerequisites": {
            "value": [
                {
                    "value": "Champion Dedication"
                }
            ]
        },
        "rules": [
            {
                "key": "ActiveEffectLike",
                "mode": "add",
                "path": "data.custom.modifiers.champion-dedication-count",
                "value": 1
            },
            {
                "adjustName": false,
                "allowedDrops": {
                    "all": [
                        "item:type:feat",
                        "item:trait:champion"
                    ],
                    "label": "pf2ettw.SpecificRule.Prompt.LevelOneOrTwoClassFeat"
                },
                "choices": {
                    "query": "{\"data.level.value\":{\"$lte\":2},\"data.traits.value\":{\"$elemMatch\":\"champion\"}}"
                },
                "key": "ChoiceSet",
                "prompt": "pf2ettw.SpecificRule.Prompt.LevelOneOrTwoClassFeat"
            },
            {
                "key": "GrantItem",
                "uuid": "{item|flags.pf2ettw.rulesSelections.basicDevotion}"
            }
        ],
        "source": {
            "value": "Pathfinder Core Rulebook"
        },
        "traits": {
            "custom": "",
            "rarity": "common",
            "value": [
                "archetype"
            ]
        }
    },
    "img": "systems/pf2ettw/icons/features/feats/feats.webp",
    "name": "Basic Devotion",
    "type": "feat"
}
