{
    "_id": "ePObIpaJDgDb9CQj",
    "data": {
        "actionCategory": {
            "value": ""
        },
        "actionType": {
            "value": "passive"
        },
        "actions": {
            "value": null
        },
        "description": {
            "value": "<p>When you roll initiative, you can yell a mighty battle cry and <span data-pf2-action=\"demoralize\" data-pf2-glyph=\"F\">Demoralize</span> an observed foe as a free action.</p>\n<p>If you're legendary in Intimidation, you can use a reaction to <span data-pf2-action=\"demoralize\" data-pf2-glyph=\"R\">Demoralize</span> your foe when you critically succeed at an attack roll.</p>"
        },
        "featType": {
            "value": "skill"
        },
        "level": {
            "value": 7
        },
        "location": "",
        "prerequisites": {
            "value": [
                {
                    "value": "master in Intimidation"
                }
            ]
        },
        "rules": [
            {
                "key": "Note",
                "selector": "initiative",
                "text": "<p class='compact-text'><strong>{item|name}</strong> You can yell a mighty battle cry and <span data-pf2-action=\"demoralize\" data-pf2-glyph=\"F\">Demoralize</span> an observed foe as a free action.</p>"
            }
        ],
        "source": {
            "value": "Pathfinder Core Rulebook"
        },
        "traits": {
            "custom": "",
            "rarity": "common",
            "value": [
                "general",
                "skill"
            ]
        }
    },
    "img": "systems/pf2ettw/icons/features/feats/feats.webp",
    "name": "Battle Cry",
    "type": "feat"
}
