{
    "_id": "nBlzWZnmYuFHrMyV",
    "data": {
        "actionCategory": {
            "value": ""
        },
        "actionType": {
            "value": "action"
        },
        "actions": {
            "value": 1
        },
        "description": {
            "value": "<p>Calling out to your deity, you recite scripture to harm a foe. When you select this feat, choose chaos, evil, good, or law. Your choice must match one of your deity's alignment components. This action has the trait corresponding to the chosen alignment.</p>\n<p>Attempt a Religion check against the Will DC of a foe within 30 feet. The foe is then temporarily immune to Battle Prayers from your deity for 1 day.</p>\n<hr />\n<p><strong>Critical Success</strong> You deal 2d6 damage of the chosen alignment type, or 6d6 damage if you have legendary proficiency in Religion.</p>\n<p><strong>Success</strong> You deal 1d6 damage of the chosen alignment type, or 3d6 damage if you have legendary proficiency in Religion.</p>\n<p><strong>Failure</strong> There is no effect.</p>\n<p><strong>Critical Failure</strong> The backlash of your foe's will against your prayer prevents you from using Battle Prayer again for 10 minutes.</p>"
        },
        "featType": {
            "value": "skill"
        },
        "level": {
            "value": 7
        },
        "prerequisites": {
            "value": [
                {
                    "value": "master in Religion"
                },
                {
                    "value": "you follow a deity"
                }
            ]
        },
        "rules": [],
        "source": {
            "value": "Pathfinder Lost Omens: Gods & Magic"
        },
        "traits": {
            "custom": "",
            "rarity": "common",
            "value": [
                "general",
                "skill",
                "divine"
            ]
        }
    },
    "img": "systems/pf2ettw/icons/features/feats/feats.webp",
    "name": "Battle Prayer",
    "type": "feat"
}
