{
    "_id": "zL6zUrt44tZYyuh4",
    "data": {
        "actionCategory": {
            "value": ""
        },
        "actionType": {
            "value": "passive"
        },
        "actions": {
            "value": null
        },
        "description": {
            "value": "<p>Underestimating you is a grave mistake, but it's one others keep making. You've learned to take advantage of slips in your foes' defenses.</p>\n<p>When you Strike a @Compendium[pf2ettw.conditionitems.Flat-Footed]{Flat-Footed} creature using a melee weapon or unarmed attack that has the agile and finesse traits, it gains the backstabber trait.</p>"
        },
        "featType": {
            "value": "ancestry"
        },
        "level": {
            "value": 9
        },
        "location": null,
        "prerequisites": {
            "value": []
        },
        "rules": [
            {
                "definition": {
                    "all": [
                        "weapon:trait:agile",
                        "weapon:trait:finesse"
                    ],
                    "not": [
                        "weapon:ranged"
                    ]
                },
                "key": "AdjustStrike",
                "mode": "add",
                "predicate": {
                    "all": [
                        "target:condition:flat-footed"
                    ]
                },
                "property": "weapon-traits",
                "value": "backstabber"
            }
        ],
        "source": {
            "value": "Pathfinder Advanced Player's Guide"
        },
        "traits": {
            "custom": "",
            "rarity": "common",
            "value": [
                "kobold"
            ]
        }
    },
    "img": "systems/pf2ettw/icons/features/feats/feats.webp",
    "name": "Between The Scales",
    "type": "feat"
}
