{
    "_id": "1j9QCzHHxi5MbIY3",
    "data": {
        "actionCategory": {
            "value": ""
        },
        "actionType": {
            "value": "passive"
        },
        "actions": {
            "value": null
        },
        "description": {
            "value": "<p>You can set snares specifically for big prey, leaving smaller creatures unscathed. Each time you set a snare, you can choose Small, Medium, Large, or Huge. That snare can be triggered only by creatures of that size or larger.</p>"
        },
        "featType": {
            "value": "archetype"
        },
        "level": {
            "value": 4
        },
        "location": "",
        "prerequisites": {
            "value": [
                {
                    "value": "Snare Crafter"
                },
                {
                    "value": "Game Hunter Dedication"
                }
            ]
        },
        "rules": [],
        "source": {
            "value": "Pathfinder #175: Broken Tusk Moon"
        },
        "traits": {
            "custom": "",
            "rarity": "common",
            "value": [
                "archetype"
            ]
        }
    },
    "img": "systems/pf2ettw/icons/default-icons/feats.webp",
    "name": "Big Game Trapper",
    "type": "feat"
}
