{
    "_id": "ysFXAHrwi8e2z7iS",
    "data": {
        "actionCategory": {
            "value": ""
        },
        "actionType": {
            "value": "passive"
        },
        "actions": {
            "value": null
        },
        "description": {
            "value": "<p dir=\"ltr\"><span id=\"docs-internal-guid-07734d07-7fff-8361-0cef-85870446204f\">Your shadow can now perform more challenging actions, including actions that would require a check to accomplish, and activating items.</span></p>\n<p dir=\"ltr\"><span id=\"docs-internal-guid-07734d07-7fff-8361-0cef-85870446204f\">It can use athletics actions, including those with the attack trait, but it still cannot wield weapons or shields or make other attacks. </span></p>\n<p dir=\"ltr\"><span id=\"docs-internal-guid-07734d07-7fff-8361-0cef-85870446204f\">To use actions which require a free hand, the shadow must not be holding an item.</span></p>"
        },
        "featType": {
            "value": "vampire"
        },
        "level": {
            "value": 7
        },
        "location": "",
        "prerequisites": {
            "value": [
                {
                    "value": "Grasping Shadow"
                }
            ]
        },
        "rules": [],
        "source": {
            "value": ""
        },
        "traits": {
            "custom": "",
            "rarity": "common",
            "value": [
                "shadow",
                "vampire"
            ]
        }
    },
    "img": "systems/pf2ettw/icons/features/feats/feats.webp",
    "name": "Binding Shadow",
    "type": "feat"
}
