{
    "_id": "YrRlbIzjsFlGGmVN",
    "data": {
        "actionCategory": {
            "value": "offensive"
        },
        "actionType": {
            "value": "action"
        },
        "actions": {
            "value": 2
        },
        "description": {
            "value": "<p><strong>Requirements</strong> You're wielding a loaded firearm.</p>\n<hr />\n<p>You learn to take advantage of every shot, flying across the battlefield with the help of your weapon's recoil. Stride and use Black Powder Boost. Make a ranged Strike with the required weapon at any point during the Black Powder Boost.</p>"
        },
        "featType": {
            "value": "archetype"
        },
        "level": {
            "value": 8
        },
        "location": "",
        "prerequisites": {
            "value": [
                {
                    "value": "Bullet Dancer Dedication"
                },
                {
                    "value": "Black Powder Boost"
                }
            ]
        },
        "rules": [],
        "source": {
            "value": ""
        },
        "traits": {
            "custom": "",
            "rarity": "common",
            "value": [
                "archetype"
            ]
        }
    },
    "img": "systems/pf2ettw/icons/default-icons/feats.webp",
    "name": "Black Powder Blaze",
    "type": "feat"
}
