{
    "_id": "6pwwIoI3k7oGzdh4",
    "data": {
        "actionCategory": {
            "value": "interaction"
        },
        "actionType": {
            "value": "reaction"
        },
        "actions": {
            "value": null
        },
        "description": {
            "value": "<p dir=\"ltr\"><em>Vital energies released at the moment of death can be briefly captured to empower magics.</em></p>\n<hr />\n<p id=\"docs-internal-guid-9317f09a-7fff-5567-6584-0ed79775fca0\" dir=\"ltr\"><strong>Trigger</strong> A creature within 30 feet dies.</p>\n<hr />\n<p dir=\"ltr\">You may heighten the next spell you cast within 1 minute by 1 spell level, to a maximum spell level of 1 less than the highest level you can cast. Heightening a spell in this way does not increase the level of the spell slot it consumes.</p>\n<p dir=\"ltr\">This effect does not stack - if the trigger is met again, you may activate the reaction again to refresh the duration, but it provides no further benefit.</p>"
        },
        "featType": {
            "value": "vampire"
        },
        "level": {
            "value": 7
        },
        "location": "",
        "prerequisites": {
            "value": []
        },
        "rules": [],
        "source": {
            "value": ""
        },
        "traits": {
            "custom": "",
            "rarity": "common",
            "value": [
                "bloodmage",
                "vampire"
            ]
        }
    },
    "img": "systems/pf2ettw/icons/features/feats/feats.webp",
    "name": "Blood in the Air (Vampire)",
    "type": "feat"
}
