{
    "_id": "QicYF43HqgpOBLzo",
    "data": {
        "actionCategory": {
            "value": ""
        },
        "actionType": {
            "value": "passive"
        },
        "actions": {
            "value": null
        },
        "description": {
            "value": "<p>Your attacks slice arteries and veins. Add the following debilitation to the list you can choose from when you use @Compendium[pf2ettw.actionspf2ettw.Debilitating Strike]{Debilitating Strike}.</p>\n<ul>\n<li><strong>Debilitation</strong> The target takes @Localize[pf2ettw.PersistentDamage.Bleed3d6.success].</li>\n</ul>"
        },
        "featType": {
            "value": "class"
        },
        "level": {
            "value": 12
        },
        "location": "",
        "prerequisites": {
            "value": [
                {
                    "value": "trained in Medicine"
                },
                {
                    "value": "Debilitating Strike"
                }
            ]
        },
        "rules": [
            {
                "key": "Note",
                "predicate": {
                    "all": [
                        "target:condition:flat-footed"
                    ]
                },
                "selector": "strike-damage",
                "text": "<span data-visibility='owner'><span class='pf2-icon'>f</span> @Compendium[pf2ettw.feats-srd.Bloody Debilitation]{Bloody Debilitation}</span>"
            }
        ],
        "source": {
            "value": "Pathfinder Advanced Player's Guide"
        },
        "traits": {
            "custom": "",
            "rarity": "common",
            "value": [
                "rogue"
            ]
        }
    },
    "img": "systems/pf2ettw/icons/features/feats/feats.webp",
    "name": "Bloody Debilitation",
    "type": "feat"
}
