{
    "_id": "H1mx9xBUkkTfDTK9",
    "data": {
        "actionCategory": {
            "value": ""
        },
        "actionType": {
            "value": "passive"
        },
        "actions": {
            "value": null
        },
        "description": {
            "value": "<p id=\"docs-internal-guid-af4e169a-7fff-67bc-ffcb-076926b53ead\" dir=\"ltr\">You gain one Bloodmage feat.</p>\n<p dir=\"ltr\">For the purpose of meeting its prerequisites, your Vampire level is equal to half your character level.</p>\n<hr />\n<p dir=\"ltr\"><strong>Special</strong> You can select this feat more than once. Each time you select it, you gain another Bloodmage feat.</p>"
        },
        "featType": {
            "value": "bonus"
        },
        "level": {
            "value": 6
        },
        "location": "",
        "prerequisites": {
            "value": [
                {
                    "value": "Sangromancer Dedication"
                }
            ]
        },
        "rules": [],
        "source": {
            "value": ""
        },
        "traits": {
            "custom": "",
            "rarity": {
                "value": "common"
            },
            "value": [
                "archetype"
            ]
        }
    },
    "img": "systems/pf2ettw/icons/default-icons/feats.webp",
    "name": "Blood Arts",
    "type": "feat"
}
