{
    "_id": "UtUT6JngJbQRHySX",
    "data": {
        "actionCategory": {
            "value": ""
        },
        "actionType": {
            "value": "action"
        },
        "actions": {
            "value": 1
        },
        "description": {
            "value": "<p>You call out a foe, causing them to become flustered and easier to defeat. Select one creature you can see and declare a challenge. For your challenge, attempt a Deception, Diplomacy, or Intimidation check against that creature's Will DC. Your challenge must include a linguistic, auditory, or visual component and gains the corresponding trait. If you succeed, you gain a +2 status bonus to damage rolls with your weapon or unarmed Strikes against that foe until the end of your next turn; if you have master proficiency in the skill you used, you gain a +4 status bonus instead, and if you're legendary, you gain a +6 status bonus. On a critical success, the status bonus lasts for 3 rounds instead. Whether you succeed or fail, creatures who witnessed your challenge gain a +4 circumstance bonus to their Will DCs against your attempts to challenge for 1 minute.</p>"
        },
        "featType": {
            "value": "archetype"
        },
        "level": {
            "value": 6
        },
        "location": "",
        "prerequisites": {
            "value": [
                {
                    "value": "expert in Deception, Diplomacy, or Intimidation"
                },
                {
                    "value": "Firebrand Braggart Dedication"
                }
            ]
        },
        "rules": [],
        "source": {
            "value": "Pathfinder Lost Omens: Character Guide"
        },
        "traits": {
            "custom": "",
            "rarity": "common",
            "value": [
                "archetype",
                "mental"
            ]
        }
    },
    "img": "systems/pf2ettw/icons/features/feats/feats.webp",
    "name": "Boaster's Challenge",
    "type": "feat"
}
