{
    "_id": "cBYTVYqw1EFVEuzs",
    "data": {
        "actionCategory": {
            "value": ""
        },
        "actionType": {
            "value": "action"
        },
        "actions": {
            "value": 3
        },
        "description": {
            "value": "<p><strong>Frequency</strong> Three times per day</p>\n<hr />\n<p>You focus your attention on a single creature within 30 feet. That creature must attempt a Will save against your Perception DC. On a failure, the creature finds itself unable to speak any deliberate and intentional lies and takes a -2 penalty to Deception checks. On a critical failure, the penalty to Deception checks is -4. This effect lasts for 10 minutes as long as you are within 30 feet of the target and the target is aware that you are using the ability against it. If you begin a new interrogation, this effect ends for any previous target. After your interrogation ends, the target is immune to this ability for 24 hours.</p>\n<p>@Compendium[pf2ettw.feat-effects.Effect: Bolera's Interrogation (failure)]{Effect: Bolera's Interrogation (failure)}</p>\n<p>@Compendium[pf2ettw.feat-effects.Effect: Bolera's Interrogation (Critical Failure)]{Effect: Bolera's Interrogation (Critical Failure)}</p>"
        },
        "featType": {
            "value": "archetype"
        },
        "level": {
            "value": 6
        },
        "location": "",
        "prerequisites": {
            "value": [
                {
                    "value": "Edgewatch Detective Dedication"
                }
            ]
        },
        "rules": [],
        "source": {
            "value": "Pathfinder #157: Devil at the Dreaming Palace"
        },
        "traits": {
            "custom": "",
            "rarity": "common",
            "value": []
        }
    },
    "img": "systems/pf2ettw/icons/features/feats/feats.webp",
    "name": "Bolera's Interrogation",
    "type": "feat"
}
