{
    "_id": "XuL3g2ExgadFtWbb",
    "data": {
        "actionCategory": {
            "value": ""
        },
        "actionType": {
            "value": "passive"
        },
        "actions": {
            "value": null
        },
        "description": {
            "value": "<p>You encase yourself in spiritual dinosaur bones to become a Huge dinosaur. You can cast <em>@Compendium[pf2ettw.spells-srd.Dinosaur Form]{Dinosaur Form}</em> on yourself as a 5th-level primal innate spell once per day.</p>"
        },
        "featType": {
            "value": "ancestry"
        },
        "level": {
            "value": 13
        },
        "location": "",
        "prerequisites": {
            "value": []
        },
        "rules": [],
        "source": {
            "value": "Pathfinder Lost Omens: Ancestry Guide"
        },
        "traits": {
            "custom": "",
            "rarity": "common",
            "value": [
                "lizardfolk"
            ]
        }
    },
    "img": "systems/pf2ettw/icons/features/feats/feats.webp",
    "name": "Bone Investiture",
    "type": "feat"
}
