{
    "_id": "aJUXbe9HJVvv0Mxa",
    "data": {
        "actionCategory": {
            "value": ""
        },
        "actionType": {
            "value": "passive"
        },
        "actions": {
            "value": null
        },
        "description": {
            "value": "<p>You have incredible breath control, which grants you advantages when air is hazardous or sparse. You can hold your breath for 25 times as long as usual before suffocating. You gain a +1 circumstance bonus to saving throws against inhaled threats, such as inhaled poisons, and if you roll a success on such a saving throw, you get a critical success instead.</p>"
        },
        "featType": {
            "value": "general"
        },
        "level": {
            "value": 1
        },
        "location": "",
        "prerequisites": {
            "value": []
        },
        "rules": [
            {
                "key": "FlatModifier",
                "label": "Breath control (vs. inhaled)",
                "predicate": {
                    "all": [
                        "inhaled"
                    ]
                },
                "selector": "saving-throw",
                "type": "circumstance",
                "value": 1
            },
            {
                "key": "Note",
                "predicate": {
                    "any": [
                        "inhaled"
                    ]
                },
                "selector": "saving-throw",
                "text": "If you roll a success on a saving throw against an inhaled threat, you get a critical success instead.",
                "title": "{item|name}"
            }
        ],
        "source": {
            "value": "Pathfinder Core Rulebook"
        },
        "traits": {
            "custom": "",
            "rarity": "common",
            "value": [
                "general"
            ]
        }
    },
    "img": "systems/pf2ettw/icons/features/feats/feats.webp",
    "name": "Breath Control",
    "type": "feat"
}
