{
    "_id": "iMh9Ve8Kt8ZcdKU0",
    "data": {
        "actionCategory": {
            "value": ""
        },
        "actionType": {
            "value": "passive"
        },
        "actions": {
            "value": null
        },
        "description": {
            "value": "<p><strong>Archetype</strong> @Compendium[pf2ettw.archetypes.Staff Acrobat]{Staff Acrobat}</p>\n<p><strong>Requirements</strong> You are wielding your staff.</p>\n<hr />\n<p>You can attempt to @Compendium[pf2ettw.actionspf2ettw.Shove]{Shove} or @Compendium[pf2ettw.actionspf2ettw.Trip]{Trip} creatures up to two sizes larger than you. If you have master proficiency with your staff, you can attempt to Shove or Trip creatures up to three sizes larger than you.</p>"
        },
        "featType": {
            "value": "archetype"
        },
        "level": {
            "value": 4
        },
        "prerequisites": {
            "value": [
                {
                    "value": "Staff Acrobat Dedication"
                }
            ]
        },
        "rules": [],
        "source": {
            "value": "Pathfinder #151: The Show Must Go On"
        },
        "traits": {
            "custom": "",
            "rarity": "uncommon",
            "value": [
                "archetype"
            ]
        }
    },
    "img": "systems/pf2ettw/icons/features/feats/feats.webp",
    "name": "Bullying Staff",
    "type": "feat"
}
