{
    "_id": "sJ7WTLDwAbIA9Elc",
    "data": {
        "actionCategory": {
            "value": ""
        },
        "actionType": {
            "value": "passive"
        },
        "actions": {
            "value": null
        },
        "description": {
            "value": "<p>Fire fascinates you. Your spells and alchemical items that deal fire damage gain a status bonus to damage equal to half the spell's level or one-quarter the item's level (minimum 1). You also gain a +1 status bonus to any @Compendium[pf2ettw.conditionitems.Persistent Damage]{Persistent Fire Damage} you deal.</p>"
        },
        "featType": {
            "value": "ancestry"
        },
        "level": {
            "value": 1
        },
        "prerequisites": {
            "value": []
        },
        "rules": [
            {
                "key": "Note",
                "predicate": {
                    "all": [
                        "item:damage:fire"
                    ]
                },
                "selector": "spell-damage",
                "text": "Your spells that deal fire damage gain a +1 status bonus to any @Compendium[pf2ettw.conditionitems.Persistent Damage]{Persistent Fire Damage} you deal.",
                "title": "{item|name}"
            },
            {
                "key": "Note",
                "predicate": {
                    "all": [
                        "weapon:trait:alchemical",
                        "weapon:trait:fire"
                    ]
                },
                "selector": "strike-damage",
                "text": "Your alchemical items that deal fire damage gain a +1 status bonus to any @Compendium[pf2ettw.conditionitems.Persistent Damage]{Persistent Fire Damage} you deal.",
                "title": "{item|name}"
            },
            {
                "key": "FlatModifier",
                "predicate": {
                    "all": [
                        "item:damage:fire"
                    ]
                },
                "selector": "spell-damage",
                "type": "status",
                "value": "max(floor(@spell.level/2), 1)"
            },
            {
                "key": "FlatModifier",
                "predicate": {
                    "all": [
                        "weapon:trait:alchemical",
                        "weapon:trait:fire"
                    ]
                },
                "selector": "strike-damage",
                "type": "status",
                "value": "max(floor(@weapon.level/4), 1)"
            }
        ],
        "source": {
            "value": ""
        },
        "traits": {
            "custom": "",
            "rarity": "common",
            "value": [
                "goblin"
            ]
        }
    },
    "img": "systems/pf2ettw/icons/features/feats/feats.webp",
    "name": "Burn It!",
    "type": "feat"
}
