{
    "_id": "jjAEqDbcYlsYmvje",
    "data": {
        "actionCategory": {
            "value": "interaction"
        },
        "actionType": {
            "value": "action"
        },
        "actions": {
            "value": 1
        },
        "description": {
            "value": "<p id=\"docs-internal-guid-b2c32c82-7fff-1ab7-d3e6-62b3cde33250\" dir=\"ltr\"><em>You ignite the magic without your allies blood, pushing them to greater and greater feats for so long as their body can sustain it.</em></p>\n<hr />\n<p dir=\"ltr\">Spend a blood point. Choose up to 5 willing creatures within 30 feet. Those creatures gain the following effects, which progress over their following turns. An affected creature can choose to use a single action at any point to end the effect.</p>\n<hr />\n<p dir=\"ltr\"><strong>Turn 1</strong> Speed increased by 10 feet, @Compendium[pf2ettw.conditionitems.Quickened]{Quickened} 1 (this action can only be used to @Compendium[pf2ettw.actionspf2ettw.Stride]{Stride}, @Compendium[pf2ettw.actionspf2ettw.Strike]{Strike}, or end the effect). At the end of your turn, if you are still affected by Burning Blood, lose hit points equal to your level.</p>\n<p dir=\"ltr\"><strong>Turn 2</strong> Speed increased by 10 feet, Quickened 2. At the end of your turn, if you are still affected by Burning Blood, lose hit points equal to twice your level and become @Compendium[pf2ettw.conditionitems.Fatigued]{Fatigued}.</p>\n<p dir=\"ltr\"><strong>Turn 3</strong> Speed increase by 20 feet, Quickened 3. At the end of your turn, if you are still affected by Burning Blood, you fall @Compendium[pf2ettw.conditionitems.Unconscious]{Unconscious}, become @Compendium[pf2ettw.conditionitems.Dying]{Dying} 1 and you are no longer under the effects of Burning Blood.</p>"
        },
        "featType": {
            "value": "vampire"
        },
        "level": {
            "value": 19
        },
        "location": "",
        "prerequisites": {
            "value": [
                {
                    "value": "3 Bloodmage Feats"
                }
            ]
        },
        "rules": [],
        "source": {
            "value": ""
        },
        "traits": {
            "custom": "",
            "rarity": {
                "value": "common"
            },
            "value": [
                "bloodmage",
                "transmutation",
                "vampire"
            ]
        }
    },
    "img": "systems/pf2ettw/icons/features/feats/feats.webp",
    "name": "Burning Blood",
    "type": "feat"
}
