{
    "_id": "2i82PgD1BEtAVeZt",
    "data": {
        "actionCategory": {
            "value": ""
        },
        "actionType": {
            "value": "passive"
        },
        "actions": {
            "value": null
        },
        "description": {
            "value": "<p>The wild wonder of Elysium harmonizes within you, and in dire straits, you can share its benefits with your allies.</p>\n<p>Your Speed increases by 5 feet; the Speed increase from this feat isn't cumulative with any Speed increase from your ancestry feats (such as @Compendium[pf2ettw.feats-srd.Nimble Elf]{Nimble Elf}).</p>\n<p>Allies who begin their turn in combat adjacent to you gain a +5-foot status bonus to their Speed for the round.</p>"
        },
        "featType": {
            "value": "ancestry"
        },
        "level": {
            "value": 9
        },
        "location": "",
        "prerequisites": {
            "value": [
                {
                    "value": "Musetouched"
                }
            ]
        },
        "rules": [
            {
                "key": "FlatModifier",
                "selector": "speed",
                "value": 5
            }
        ],
        "source": {
            "value": "Pathfinder Lost Omens: Ancestry Guide"
        },
        "traits": {
            "custom": "",
            "rarity": "common",
            "value": [
                "aasimar"
            ]
        }
    },
    "img": "systems/pf2ettw/icons/features/feats/feats.webp",
    "name": "Call of Elysium",
    "type": "feat"
}
