{
    "_id": "yOPgPF4oRvEJDHsz",
    "data": {
        "actionCategory": {
            "value": "offensive"
        },
        "actionType": {
            "value": "reaction"
        },
        "actions": {
            "value": null
        },
        "description": {
            "value": "<p>You are always ready to seize the initiative, or the throat of your foes.</p>\n<hr />\n<p><strong>Trigger</strong> An ally succeeds or critically succeeds at a check to @Compendium[pf2ettw.actionspf2ettw.Disarm]{Disarm}, @Compendium[pf2ettw.actionspf2ettw.Grapple]{Grapple}, @Compendium[pf2ettw.actionspf2ettw.Scale]{Scale}, @Compendium[pf2ettw.actionspf2ettw.Shove]{Shove} or @Compendium[pf2ettw.actionspf2ettw.Trip]{Trip} an opponent within your reach.</p>\n<hr />\n<p dir=\"ltr\">Make a @Compendium[pf2ettw.actionspf2ettw.Strike]{Strike} against the opponent.</p>"
        },
        "featType": {
            "value": "vampire"
        },
        "level": {
            "value": 9
        },
        "location": "",
        "prerequisites": {
            "value": []
        },
        "rules": [],
        "source": {
            "value": ""
        },
        "traits": {
            "custom": "",
            "rarity": {
                "value": "common"
            },
            "value": [
                "sage",
                "vampire"
            ]
        }
    },
    "img": "systems/pf2ettw/icons/features/feats/feats.webp",
    "name": "Carpe Jugulum",
    "type": "feat"
}
