{
    "_id": "yqMBLt0GUTwiqnZT",
    "data": {
        "actionCategory": {
            "value": ""
        },
        "actionType": {
            "value": "passive"
        },
        "actions": {
            "value": null
        },
        "description": {
            "value": "<p>You learn the focus spell listed under your emotion's entry. You can cast it only while in emotional fervor. If you don't already have one, you gain a focus pool of 1 Focus Point, which you can Refocus while you use @Compendium[pf2ettw.actionspf2ettw.Settle Emotions]{Settle Emotions}.</p>"
        },
        "featType": {
            "value": "archetype"
        },
        "level": {
            "value": 4
        },
        "location": "",
        "prerequisites": {
            "value": [
                {
                    "value": "Cathartic Mage Dedication"
                }
            ]
        },
        "rules": [],
        "source": {
            "value": ""
        },
        "traits": {
            "custom": "",
            "rarity": "common",
            "value": [
                "archetype"
            ]
        }
    },
    "img": "systems/pf2ettw/icons/features/feats/feats.webp",
    "name": "Cathartic Focus Spell",
    "type": "feat"
}
