{
    "_id": "Ot1jI91ccnB2ayfk",
    "data": {
        "actionCategory": {
            "value": ""
        },
        "actionType": {
            "value": "passive"
        },
        "actions": {
            "value": null
        },
        "description": {
            "value": "<p>Your connection to good arms all your attacks against forces of evil. All your weapon and unarmed Strikes deal [[/r {1}[good]]]{1 additional good damage} and have the good and magical traits.</p>"
        },
        "featType": {
            "value": "ancestry"
        },
        "level": {
            "value": 13
        },
        "location": "",
        "prerequisites": {
            "value": []
        },
        "rules": [
            {
                "damageType": "good",
                "key": "FlatModifier",
                "selector": "strike-damage",
                "value": 1
            }
        ],
        "source": {
            "value": "Pathfinder Advanced Player's Guide"
        },
        "traits": {
            "custom": "",
            "rarity": "common",
            "value": [
                "aasimar"
            ]
        }
    },
    "img": "systems/pf2ettw/icons/features/feats/feats.webp",
    "name": "Celestial Strikes",
    "type": "feat"
}
