{
    "_id": "MNArjo5Z5LUYITQm",
    "data": {
        "actionCategory": {
            "value": ""
        },
        "actionType": {
            "value": "passive"
        },
        "actions": {
            "value": null
        },
        "description": {
            "value": "<p>The more people you have looking at you, the more content you are, and you take every opportunity to show up others when their performances are less than perfect.</p>\n<p>You gain the @Compendium[pf2ettw.actionspf2ettw.Upstage]{Upstage} reaction. In addition, when you @Compendium[pf2ettw.actionspf2ettw.Earn Income]{Earn Income}, if the level of the task is higher than your level, you gain a +1 circumstance bonus to your check to Earn Income.</p>\n<p><strong>Special</strong> You can't select another dedication feat until you have gained two other feats from the celebrity archetype.</p>"
        },
        "featType": {
            "value": "archetype"
        },
        "level": {
            "value": 2
        },
        "location": "",
        "prerequisites": {
            "value": []
        },
        "rules": [
            {
                "key": "GrantItem",
                "uuid": "Compendium.pf2ettw.actionspf2ettw.Upstage"
            }
        ],
        "source": {
            "value": "Pathfinder Advanced Player's Guide"
        },
        "traits": {
            "custom": "",
            "rarity": "common",
            "value": [
                "archetype",
                "dedication"
            ]
        }
    },
    "img": "systems/pf2ettw/icons/features/feats/feats.webp",
    "name": "Celebrity Dedication",
    "type": "feat"
}
