{
    "_id": "jSkJIWPfSZZzvYzq",
    "data": {
        "actionCategory": {
            "value": ""
        },
        "actionType": {
            "value": "free"
        },
        "actions": {
            "value": null
        },
        "description": {
            "value": "<p><strong>Frequency</strong> once per round</p>\n<p><strong>Trigger</strong> You use @Compendium[pf2ettw.classfeatures.Quick Alchemy]{Quick Alchemy} to craft an alchemical item that has the elixir trait and is at least 2 levels lower than your advanced alchemy level.</p>\n<hr />\n<p>You've discovered how to mix two elixirs into a single hybrid concoction.</p>\n<p>You can spend 2 additional batches of @Compendium[pf2ettw.classfeatures.Infused Reagents]{Infused Reagents} to add a second elixir to the one you're crafting. The second elixir must also be at least 2 levels lower than your advanced alchemy level, and the combination elixir is an alchemical item two levels higher than the higher of the two elixirs' levels. When this combination elixir is consumed, both the constituent elixirs take effect.</p>\n<p>For example, you can combine two elixirs of life to create a combined elixir that heals twice the normal amount, or you can combine a lesser darkvision elixir with a lesser eagle-eye elixir to both gain darkvision and find secret doors.</p>"
        },
        "featType": {
            "value": "class"
        },
        "level": {
            "value": 6
        },
        "location": "",
        "prerequisites": {
            "value": []
        },
        "rules": [],
        "source": {
            "value": "Pathfinder Core Rulebook"
        },
        "traits": {
            "custom": "",
            "rarity": "common",
            "value": [
                "alchemist",
                "additive2"
            ]
        }
    },
    "img": "systems/pf2ettw/icons/features/feats/feats.webp",
    "name": "Combine Elixirs",
    "type": "feat"
}
