{
    "_id": "N0gJ4Q69nslbdXHg",
    "data": {
        "actionCategory": {
            "value": ""
        },
        "actionType": {
            "value": "action"
        },
        "actions": {
            "value": 1
        },
        "description": {
            "value": "<p>You command the attention of all around you with style, ensuring their gaze falls only upon you until the end of your next turn.</p>\n<p>When creatures within 30 feet of you attempt saving throws against other visual effects, they use the outcome for one degree of success better than the result they rolled.</p>\n<p>An enemy within the area attempting to use a visual effect that involves focusing its attention on a particular creature (such as a medusa's Focus Gaze) must succeed at a Will save against your class DC or spell DC, whichever is higher, in order to target any creature except you.</p>\n<p>Allies in the area can attempt to @Compendium[pf2ettw.actionspf2ettw.Hide]{Hide} even if they don't have cover, as you are continually providing a distraction.</p>"
        },
        "featType": {
            "value": "archetype"
        },
        "level": {
            "value": 10
        },
        "prerequisites": {
            "value": [
                {
                    "value": "Celebrity Dedication"
                }
            ]
        },
        "rules": [],
        "source": {
            "value": "Pathfinder Advanced Player's Guide"
        },
        "traits": {
            "custom": "",
            "rarity": "common",
            "value": [
                "archetype",
                "auditory",
                "emotion",
                "enchantment",
                "mental",
                "visual"
            ]
        }
    },
    "img": "systems/pf2ettw/icons/features/feats/feats.webp",
    "name": "Command Attention",
    "type": "feat"
}
