{
    "_id": "gwIgB6bMh0sruyX7",
    "data": {
        "actionCategory": {
            "value": ""
        },
        "actionType": {
            "value": "passive"
        },
        "actions": {
            "value": null
        },
        "description": {
            "value": "<p><strong>Requirements</strong> You must be pursuing at least two leads.</p>\n<hr />\n<p>Ephemeral connections between people, places, and concepts are invisible to most, but seeing them is your stock and trade.</p>\n<p>You spend 10 minutes considering two different leads you're pursuing. You then attempt a check to investigate how connected the two are.</p>\n<p>Unless the GM determines otherwise, this is a Crafting check if they're both items or a Society check for other combinations of leads. If any subjects are creatures, this check usually uses the highest DC among their Deception and Will DCs. If no subjects are creatures, but at least one is an item, the DC is usually a hard DC for the level of the highest-level item. If neither case applies, the DC is usually a hard expert or hard master DC (22 or 32).</p>\n<p>Once you try to Connect the Dots between two particular leads, you can never try to Connect the Dots between those same leads again unless the GM allows it after you've learned a substantial amount of new information.</p>\n<hr />\n<p><strong>Critical Success</strong> The GM tells you how connected the two leads</p>\n<p>are to one another: highly connected, somewhat connected,</p>\n<p>tangentially connected, or not connected. The GM also tells</p>\n<p>you one specific way in which they're connected, if they are.</p>\n<p><strong>Success</strong> As critical success, but the GM doesn't tell you a</p>\n<p>specific connection.</p>\n<p><strong>Failure</strong> Your results are inconclusive.</p>\n<p><strong>Critical Failure</strong> You misconstrue the information. As success,</p>\n<p>but the GM provides an incorrect degree of connection.</p>"
        },
        "featType": {
            "value": "class"
        },
        "level": {
            "value": 6
        },
        "location": "",
        "prerequisites": {
            "value": []
        },
        "rules": [],
        "source": {
            "value": "Pathfinder Advanced Player's Guide"
        },
        "traits": {
            "custom": "",
            "rarity": "uncommon",
            "value": [
                "concentrate",
                "investigator",
                "secret"
            ]
        }
    },
    "img": "systems/pf2ettw/icons/features/feats/feats.webp",
    "name": "Connect The Dots",
    "type": "feat"
}
