{
    "_id": "Gh0rJNsdxBacK9b8",
    "data": {
        "actionCategory": {
            "value": "offensive"
        },
        "actionType": {
            "value": "passive"
        },
        "actions": {
            "value": null
        },
        "description": {
            "value": "<p>Whenever you gain a class feature that grants you expert or greater proficiency in certain weapons, you also gain that proficiency for @Compendium[pf2ettw.equipment-srd.Composite Shortbow]{Composite Shortbow}, @Compendium[pf2ettw.equipment-srd.Glaive]{Glaive}, @Compendium[pf2ettw.equipment-srd.Longspear]{Longspear}, @Compendium[pf2ettw.equipment-srd.Longsword]{Longsword}, @Compendium[pf2ettw.equipment-srd.Shortbow]{Shortbow}, @Compendium[pf2ettw.equipment-srd.Spear]{Spear}, and all conrasu weapons(@Compendium[pf2ettw.equipment-srd.Buugeng]{Buugeng}) in which you are trained.</p>"
        },
        "featType": {
            "value": "ancestry"
        },
        "level": {
            "value": 13
        },
        "location": "",
        "prerequisites": {
            "value": []
        },
        "rules": [
            {
                "key": "ActiveEffectLike",
                "mode": "upgrade",
                "path": "data.martial.weapon-base-composite-shortbow.rank",
                "value": "@actor.data.data.martial.unarmed.rank"
            },
            {
                "key": "ActiveEffectLike",
                "mode": "upgrade",
                "path": "data.martial.weapon-base-glaive.rank",
                "value": "@actor.data.data.martial.unarmed.rank"
            },
            {
                "key": "ActiveEffectLike",
                "mode": "upgrade",
                "path": "data.martial.weapon-base-longspear.rank",
                "value": "@actor.data.data.martial.unarmed.rank"
            },
            {
                "key": "ActiveEffectLike",
                "mode": "upgrade",
                "path": "data.martial.weapon-base-longsword.rank",
                "value": "@actor.data.data.martial.unarmed.rank"
            },
            {
                "key": "ActiveEffectLike",
                "mode": "upgrade",
                "path": "data.martial.weapon-base-shortbow.rank",
                "value": "@actor.data.data.martial.unarmed.rank"
            },
            {
                "key": "ActiveEffectLike",
                "mode": "upgrade",
                "path": "data.martial.weapon-base-spear.rank",
                "value": "@actor.data.data.martial.unarmed.rank"
            }
        ],
        "source": {
            "value": "Pathfinder Lost Omens: The Mwangi Expanse"
        },
        "traits": {
            "custom": "",
            "rarity": "common",
            "value": [
                "conrasu"
            ]
        }
    },
    "img": "systems/pf2ettw/icons/features/feats/feats.webp",
    "name": "Conrasu Weapon Expertise",
    "type": "feat"
}
