{
    "_id": "kPyyZGD5L6b2Kl8C",
    "data": {
        "actionCategory": {
            "value": "defensive"
        },
        "actionType": {
            "value": "passive"
        },
        "actions": {
            "value": null
        },
        "description": {
            "value": "<p>Your eyes keep a continual watch for dangers from all sides. You can't be flanked by creatures of your level or lower, even when you haven't used Watchful Gaze.</p>"
        },
        "featType": {
            "value": "ancestry"
        },
        "level": {
            "value": 9
        },
        "location": "",
        "prerequisites": {
            "value": [
                {
                    "value": "Watchful Gaze"
                }
            ]
        },
        "rules": [
            {
                "domain": "ac",
                "key": "RollOption",
                "option": "self:condition:flat-footed:ignore:flanking",
                "predicate": {
                    "all": [
                        {
                            "lte": [
                                "origin:level",
                                "self:level"
                            ]
                        }
                    ]
                }
            },
            {
                "key": "ActiveEffectLike",
                "mode": "override",
                "path": "data.attributes.flanking.flatFootable",
                "value": "@actor.level"
            }
        ],
        "source": {
            "value": "Pathfinder Lost Omens: The Mwangi Expanse"
        },
        "traits": {
            "custom": "",
            "rarity": "common",
            "value": [
                "goloma"
            ]
        }
    },
    "img": "systems/pf2ettw/icons/default-icons/feats.webp",
    "name": "Constant Gaze",
    "type": "feat"
}
