{
    "_id": "ulrGnvF0KAgEaifX",
    "data": {
        "actionCategory": {
            "value": ""
        },
        "actionType": {
            "value": "passive"
        },
        "actions": {
            "value": null
        },
        "description": {
            "value": "<p>When physically outmatched, you fight with unexpected ferocity. If a foe of a larger size than you critically hits and damages you, that foe is @Compendium[pf2ettw.conditionitems.Flat-Footed]{Flat-Footed} to you for 1 round.</p>"
        },
        "featType": {
            "value": "ancestry"
        },
        "level": {
            "value": 5
        },
        "location": "",
        "prerequisites": {
            "value": []
        },
        "rules": [],
        "source": {
            "value": "Pathfinder Lost Omens: Ancestry Guide"
        },
        "traits": {
            "custom": "",
            "rarity": "common",
            "value": [
                "ratfolk"
            ]
        }
    },
    "img": "systems/pf2ettw/icons/features/feats/feats.webp",
    "name": "Cornered Fury",
    "type": "feat"
}
