{
    "_id": "CuJzCxGwd1EZDift",
    "data": {
        "actionCategory": {
            "value": ""
        },
        "actionType": {
            "value": "action"
        },
        "actions": {
            "value": null
        },
        "description": {
            "value": "<p>Your mask carries the legacy of Verdant Spider, the Speaker of Needs, allowing you to deceive and outwit your foes. You can attempt to @Compendium[pf2ettw.actionspf2ettw.Feint]{Feint} a target from up to 30 feet away, and if you succeed or critically succeed in your Feint attempt, the target of your Feint takes a -2 circumstance penalty to saving throws against your spells until the start of your next turn. If you don't have the @Compendium[pf2ettw.feats-srd.Conceal Spell]{Conceal Spell} feat, you gain it as a bonus feat, allowing you to disguise your spellcasting from others' eyes. If you already have the Conceal Spell feat, you can use Conceal Spell once per round as a free action instead of as a single action.</p>"
        },
        "featType": {
            "value": "archetype"
        },
        "level": {
            "value": 20
        },
        "location": "",
        "prerequisites": {
            "value": [
                {
                    "value": "Druid Dedication or Wizard Dedication"
                }
            ]
        },
        "rarity": {
            "value": "common"
        },
        "rules": [
            {
                "key": "GrantItem",
                "predicate": {
                    "not": [
                        "feat:conceal-spell"
                    ]
                },
                "uuid": "Compendium.pf2ettw.feats-srd.Conceal Spell"
            }
        ],
        "source": {
            "value": "Pathfinder #174: Shadows of the Ancients"
        },
        "traits": {
            "custom": "",
            "rarity": "common",
            "value": [
                "rare",
                "archetype",
                "druid",
                "wizard"
            ]
        },
        "usage": {
            "value": ""
        }
    },
    "img": "systems/pf2ettw/icons/features/feats/feats.webp",
    "name": "Cunning Trickster Mask",
    "type": "feat"
}
