{
    "_id": "m64PtRsaiOkylVVk",
    "data": {
        "actionCategory": {
            "value": ""
        },
        "actionType": {
            "value": "passive"
        },
        "actions": {
            "value": null
        },
        "description": {
            "value": "<p>Time spent tending to your own form has unlocked your ability to fix other things. You can cast 1st-level <em>@Compendium[pf2ettw.spells-srd.Mending]{Mending}</em> once per day as an arcane innate spell. At 7th level, the spell is heightened to 2nd level, and every 3 levels thereafter, the spell is heightened an additional spell level. Even though you're alive and not an object, and you can't normally recover Hit Points from effects that repair objects (like the Repair skill), you can target yourself with this innate spell and use it to recover Hit Points.</p>"
        },
        "featType": {
            "value": "ancestry"
        },
        "level": {
            "value": 5
        },
        "location": "",
        "prerequisites": {
            "value": []
        },
        "rules": [],
        "source": {
            "value": ""
        },
        "traits": {
            "custom": "",
            "rarity": "common",
            "value": [
                "poppet"
            ]
        }
    },
    "img": "systems/pf2ettw/icons/default-icons/feats.webp",
    "name": "Cunning Tinker",
    "type": "feat"
}
