{
    "_id": "EsA2F4R3UwUdI8Px",
    "data": {
        "actionCategory": {
            "value": ""
        },
        "actionType": {
            "value": "passive"
        },
        "actions": {
            "value": null
        },
        "description": {
            "value": "<p>Your devotion to the cycle of souls grants you an additional divine spell. Choose from <em>@Compendium[pf2ettw.spells-srd.Bless]{Bless}</em>, <em>@Compendium[pf2ettw.spells-srd.Disrupting Weapons]{Disrupting Weapons}</em>, or <em>@Compendium[pf2ettw.spells-srd.Heal]{Heal}</em>. You must make this selection when you take this feat and it can't be changed. Once per day, while your spiral is glowing, you can cast the selected spell as a divine innate spell.</p>"
        },
        "featType": {
            "value": "archetype"
        },
        "level": {
            "value": 4
        },
        "location": null,
        "prerequisites": {
            "value": [
                {
                    "value": "Soul Warden Dedication"
                }
            ]
        },
        "rules": [
            {
                "key": "ActiveEffectLike",
                "mode": "add",
                "path": "data.custom.soulWarden.featCount",
                "value": 1
            }
        ],
        "source": {
            "value": "Pathfinder Book of the Dead"
        },
        "traits": {
            "custom": "",
            "rarity": "common",
            "value": [
                "archetype"
            ]
        }
    },
    "img": "systems/pf2ettw/icons/default-icons/feats.webp",
    "name": "Cycle Spell",
    "type": "feat"
}
