{
    "_id": "XyGTPiBXWTQ2vsxp",
    "data": {
        "actionCategory": {
            "value": ""
        },
        "actionType": {
            "value": "passive"
        },
        "actions": {
            "value": null
        },
        "description": {
            "value": "<p><em>You can syphon a little of the energy from your spells to craft a veil of shadows around you.</em></p>\n<hr />\n<p dir=\"ltr\">When you cast a non-cantrip spell, or make a Spellstrike with non-cantrip spell, you also create a 5-foot emanation around you that reduces bright light to dim light, or dim light to darkness, until the end of your next turn.</p>\n<p dir=\"ltr\">Like in natural dim light or darkness, you can use these shadows to @Compendium[pf2ettw.actionspf2ettw.Hide]{Hide}, but the effect still makes your overall position obvious, so you can't become @Compendium[pf2ettw.conditionitems.Undetected]{Undetected} through the use of these shadows alone.</p>\n<p dir=\"ltr\">When you cast a spell with the darkness trait, increase the radius of this effect to 15-foot.</p>"
        },
        "featType": {
            "value": "vampire"
        },
        "level": {
            "value": 13
        },
        "location": "",
        "prerequisites": {
            "value": []
        },
        "rules": [],
        "source": {
            "value": ""
        },
        "traits": {
            "custom": "",
            "rarity": "common",
            "value": [
                "metamagic",
                "shadow",
                "vampire"
            ]
        }
    },
    "img": "systems/pf2ettw/icons/features/feats/feats.webp",
    "name": "Dark Arts",
    "type": "feat"
}
