{
    "_id": "OH0aBES1sThIGtkv",
    "data": {
        "actionCategory": {
            "value": ""
        },
        "actionType": {
            "value": "passive"
        },
        "actions": {
            "value": null
        },
        "description": {
            "value": "<p id=\"docs-internal-guid-939ffe43-7fff-b9dc-6114-e9d79c084ed3\" dir=\"ltr\"><em>You can manifest a weapon of pure darkness.</em></p>\n<hr />\n<p dir=\"ltr\">If you don't already cast spells from spell slots, you learn to cast spontaneous spells and gain the Cast a Spell activity. You gain a spell repertoire of a tradition of your choice, but containing only the Darkblade cantrip. You're trained in spell attack rolls and spell DCs for that tradition. Your key spellcasting ability for these spells is Charisma.</p>\n<p dir=\"ltr\">If you already cast spells from spell slots, you learn the @Compendium[pf2ettw.spells-srd.Darkblade]{Darkblade} cantrip as a spell of that tradition. If you're a prepared caster, you can prepare this spell in addition to your usual cantrips per day; if you're a spontaneous caster, you add this cantrip to your spell repertoire.</p>\n<p dir=\"ltr\">You become trained in the skill corresponding to your chosen tradition (your choice of Arcana or Nature in the case of Sangromancy). If you are already trained in this skill, you become expert in it.</p>\n<p dir=\"ltr\">You learn the @Compendium[pf2ettw.spells-srd.Manifest Darkness]{Manifest Darkness} ritual.</p>\n<p dir=\"ltr\"><strong>Special</strong> You can't select another dedication feat until you have gained two other feats from the darkblade archetype.</p>"
        },
        "featType": {
            "value": "archetype"
        },
        "level": {
            "value": 2
        },
        "location": "",
        "prerequisites": {
            "value": []
        },
        "rules": [],
        "source": {
            "value": ""
        },
        "traits": {
            "custom": "",
            "rarity": {
                "value": "common"
            },
            "value": [
                "archetype",
                "dedication"
            ]
        }
    },
    "img": "systems/pf2ettw/icons/default-icons/feats.webp",
    "name": "Darkblade Dedication",
    "type": "feat"
}
