{
    "_id": "CtKlNjBDz85lLCHf",
    "data": {
        "actionCategory": {
            "value": "offensive"
        },
        "actionType": {
            "value": "action"
        },
        "actions": {
            "value": 1
        },
        "description": {
            "value": "<p id=\"docs-internal-guid-f8340001-7fff-330d-a9da-b01ba2a5ab83\" dir=\"ltr\"><em>You strike and slide through the shadows to behind your enemy.</em></p>\n<hr />\n<p dir=\"ltr\">Make a melee @Compendium[pf2ettw.actionspf2ettw.Strike]{Strike}. If the Strike hits, you may also apply the success effect of the @Compendium[pf2ettw.actionspf2ettw.Tumble Through]{Tumble Through} action.</p>\n<p dir=\"ltr\">This movement does not trigger reactions.</p>"
        },
        "featType": {
            "value": "vampire"
        },
        "level": {
            "value": 9
        },
        "location": "",
        "prerequisites": {
            "value": []
        },
        "rules": [],
        "source": {
            "value": ""
        },
        "traits": {
            "custom": "",
            "rarity": {
                "value": "common"
            },
            "value": [
                "shadow",
                "teleportation",
                "vampire"
            ]
        }
    },
    "img": "systems/pf2ettw/icons/features/feats/feats.webp",
    "name": "Darting Shadow",
    "type": "feat"
}
