{
    "_id": "l9PYldtyPr7Q8Xow",
    "data": {
        "actionCategory": {
            "value": ""
        },
        "actionType": {
            "value": "passive"
        },
        "actions": {
            "value": null
        },
        "description": {
            "value": "<p>Through a profane pledge or a bloodline quirk, you can tolerate the sun's light. You gain the advanced undead benefits and can't be destroyed by sunlight. This doesn't prevent you from becoming @Compendium[pf2ettw.conditionitems.Slowed]{Slowed} by exposure to the sun.</p>"
        },
        "featType": {
            "value": "archetype"
        },
        "level": {
            "value": 6
        },
        "location": null,
        "prerequisites": {
            "value": [
                {
                    "value": "Vampire Dedication"
                }
            ]
        },
        "rules": [],
        "source": {
            "value": "Pathfinder Book of the Dead"
        },
        "traits": {
            "custom": "",
            "rarity": "common",
            "value": [
                "abjuration",
                "archetype",
                "divine"
            ]
        }
    },
    "img": "systems/pf2ettw/icons/default-icons/feats.webp",
    "name": "Daywalker (Vampire)",
    "type": "feat"
}
