{
    "_id": "PjsIiVM7yI0XgaFi",
    "data": {
        "actionCategory": {
            "value": ""
        },
        "actionType": {
            "value": "passive"
        },
        "actions": {
            "value": null
        },
        "description": {
            "value": "<p>No means of creating or ruling the undead is beyond your grasp, even those of magical traditions not your own. You learn either the <em>@Compendium[pf2ettw.spells-srd.Eyes of the Dead]{Eyes of the Dead}</em> or <em>@Compendium[pf2ettw.spells-srd.Subjugate Undead]{Subjugate Undead}</em> focus spell. If you don't already have one, you gain a focus pool of 1 Focus Point, which you can Refocus by meditating over the earthly remains of a dead sentient creature. Focus spells granted by the reanimator archetype are from the same tradition as those used to meet the archetype's prerequisite.</p>\n<p><strong>Special</strong> You can select this feat more than once. Each time, you learn a different spell and your focus pool increases by 1 Focus Point.</p>"
        },
        "featType": {
            "value": "archetype"
        },
        "level": {
            "value": 6
        },
        "location": null,
        "maxTakable": 2,
        "prerequisites": {
            "value": [
                {
                    "value": "Reanimator Dedication"
                }
            ]
        },
        "rules": [
            {
                "key": "ActiveEffectLike",
                "mode": "add",
                "path": "data.resources.focus.max",
                "value": 1
            }
        ],
        "source": {
            "value": "Pathfinder Book of the Dead"
        },
        "traits": {
            "custom": "",
            "rarity": "common",
            "value": [
                "archetype"
            ]
        }
    },
    "img": "systems/pf2ettw/icons/default-icons/feats.webp",
    "name": "Deathly Secrets",
    "type": "feat"
}
