{
    "_id": "sv4LeEbkOJyLen10",
    "data": {
        "actionCategory": {
            "value": ""
        },
        "actionType": {
            "value": "free"
        },
        "actions": {
            "value": null
        },
        "description": {
            "value": "<p><strong>Frequency</strong> once per round</p>\n<p><strong>Trigger</strong> You use @Compendium[pf2ettw.classfeatures.Quick Alchemy]{Quick Alchemy} to craft an alchemical bomb that is at least 2 levels lower than your advanced alchemy level.</p>\n<hr />\n<p>Your bombs impose additional effects on your enemies. You mix a substance into the bomb that causes one of the following: @Compendium[pf2ettw.conditionitems.Dazzled]{Dazzled}, @Compendium[pf2ettw.conditionitems.Deafened]{Deafened}, @Compendium[pf2ettw.conditionitems.Flat-Footed]{Flat-Footed}, or a -5-foot status penalty to Speeds.</p>\n<p>If the attack with that bomb hits, the target must succeed at a Fortitude saving throw or suffer that effect until the start of your next turn. Use your class DC for this saving throw (even if someone else throws the bomb).</p>"
        },
        "featType": {
            "value": "class"
        },
        "level": {
            "value": 6
        },
        "location": "",
        "prerequisites": {
            "value": []
        },
        "rules": [
            {
                "domain": "attack-roll",
                "key": "RollOption",
                "option": "debilitating-bomb",
                "toggleable": true
            },
            {
                "key": "Note",
                "predicate": {
                    "all": [
                        "alchemical",
                        "bomb",
                        "debilitating-bomb"
                    ]
                },
                "selector": "attack-roll",
                "text": "If your bomb hits, the target must succed at a Fortitude save against your Class DC, or suffer one of the following @Compendium[pf2ettw.feats-srd.Debilitating Bomb]{effects}",
                "title": "{item|name}"
            }
        ],
        "source": {
            "value": "Pathfinder Core Rulebook"
        },
        "traits": {
            "custom": "",
            "rarity": "common",
            "value": [
                "alchemist",
                "additive2"
            ]
        }
    },
    "img": "systems/pf2ettw/icons/features/feats/feats.webp",
    "name": "Debilitating Bomb",
    "type": "feat"
}
