{
    "_id": "B9IytVeJ1SMSJawB",
    "data": {
        "actionCategory": {
            "value": ""
        },
        "actionType": {
            "value": "passive"
        },
        "actions": {
            "value": null
        },
        "description": {
            "value": "<p>Your body is covered in sharp needles or spines which you can use to defend yourself. Each time you become @Compendium[pf2ettw.conditionitems.Grabbed]{Grabbed} by a creature or an adjacent creature hits you with an unarmed attack, you twist and thrash your body around, dealing 2 piercing damage to that creature. This damage increases to 3 at 9th level, 4 at 13th level, and 5 at 17th level.</p>\n<p>[[/r (ceil(@actor.level/4))[piercing]]]{Levelled damage}</p>"
        },
        "featType": {
            "value": "ancestry"
        },
        "level": {
            "value": 5
        },
        "location": null,
        "prerequisites": {
            "value": [
                {
                    "value": "Cactus Leshy or Pine Leshy heritage"
                }
            ]
        },
        "rules": [],
        "source": {
            "value": "Pathfinder #176: Lost Mammoth Valley"
        },
        "traits": {
            "custom": "",
            "rarity": "uncommon",
            "value": [
                "leshy"
            ]
        }
    },
    "img": "systems/pf2ettw/icons/default-icons/feats.webp",
    "name": "Defensive Needles",
    "type": "feat"
}
