{
    "_id": "dxZ6cKWrtCXDUt90",
    "data": {
        "actionCategory": {
            "value": ""
        },
        "actionType": {
            "value": "passive"
        },
        "actions": {
            "value": null
        },
        "description": {
            "value": "<p><em>Your hands are sure, your motions swift.</em></p>\n<hr />\n<p>When you @Compendium[pf2ettw.actionspf2ettw.Interact]{Interact} to draw or put away a worn item, or pick up an item, you can also draw, put away or pick up another worn item as part of the same action.</p>\n<p>If you do this as a free action to draw or put away a quick access item, the other item must also be a quick access item.</p>"
        },
        "featType": {
            "value": "vampire"
        },
        "level": {
            "value": 5
        },
        "location": "",
        "prerequisites": {
            "value": []
        },
        "rules": [],
        "source": {
            "value": ""
        },
        "traits": {
            "custom": "",
            "rarity": {
                "value": "common"
            },
            "value": [
                "sage",
                "vampire"
            ]
        }
    },
    "img": "systems/pf2ettw/icons/features/feats/feats.webp",
    "name": "Deftness",
    "type": "feat"
}
