{
    "_id": "FXKIALDXAzEBfj5A",
    "data": {
        "actionCategory": {
            "value": ""
        },
        "actionType": {
            "value": "passive"
        },
        "actions": {
            "value": null
        },
        "description": {
            "value": "<p>You embody an aspect of your deity. Choose one of your deity's domains. You gain the domain's initial domain spell as a devotion spell.</p>"
        },
        "featType": {
            "value": "class"
        },
        "level": {
            "value": 1
        },
        "location": "",
        "prerequisites": {
            "value": [
                {
                    "value": "You have a patron deity"
                }
            ]
        },
        "rules": [
            {
                "choices": "data.data.details.deities.domains",
                "key": "ChoiceSet",
                "prompt": "pf2ettw.SpecificRule.Prompt.DeitysDomain"
            }
        ],
        "source": {
            "value": "Pathfinder Core Rulebook"
        },
        "traits": {
            "custom": "",
            "rarity": "common",
            "value": [
                "champion"
            ]
        }
    },
    "img": "systems/pf2ettw/icons/features/feats/feats.webp",
    "name": "Deity's Domain",
    "type": "feat"
}
