{
    "_id": "PqZZSo06BH5N7x7C",
    "data": {
        "actionCategory": {
            "value": ""
        },
        "actionType": {
            "value": "action"
        },
        "actions": {
            "value": 1
        },
        "description": {
            "value": "<p><strong>Requirements</strong> Your most recent action was to cast a non-</p>\n<p>cantrip spell.</p>\n<hr />\n<p>You transfer vestiges of magical energy to the air around you, creating a vortex that deflects ranged attacks. Until the start of your next turn, you gain a +1 status bonus to AC against ranged weapon attacks and physical ranged unarmed attacks.</p>"
        },
        "featType": {
            "value": "class"
        },
        "level": {
            "value": 6
        },
        "location": "",
        "prerequisites": {
            "value": []
        },
        "rules": [
            {
                "domain": "ac",
                "key": "RollOption",
                "label": "Use Diverting Vortex",
                "option": "diverting-vortex",
                "toggleable": true
            },
            {
                "key": "FlatModifier",
                "predicate": {
                    "all": [
                        "ranged",
                        "mundane"
                    ]
                },
                "selector": "ac",
                "type": "status",
                "value": 1
            }
        ],
        "source": {
            "value": "Pathfinder Advanced Player's Guide"
        },
        "traits": {
            "custom": "",
            "rarity": "common",
            "value": [
                "sorcerer"
            ]
        }
    },
    "img": "systems/pf2ettw/icons/features/feats/feats.webp",
    "name": "Diverting Vortex",
    "type": "feat"
}
