{
    "_id": "yoeMOIgH8Snw1JCQ",
    "data": {
        "actionCategory": {
            "value": ""
        },
        "actionType": {
            "value": "free"
        },
        "actions": {
            "value": null
        },
        "description": {
            "value": "<p><strong>Frequency</strong> once per round</p>\n<p><strong>Trigger</strong> You successfully Recall Knowledge about a creature you can see, using a skill in which you are a master.</p>\n<hr />\n<p>Your Pathfinder training allows you to quickly size up numerous threats. Attempt to Recall Knowledge against a different kind of creature you can see using the same skill. You must still meet the requirements to attempt this check.</p>"
        },
        "featType": {
            "value": "archetype"
        },
        "level": {
            "value": 8
        },
        "prerequisites": {
            "value": [
                {
                    "value": "Pathfinder Agent Dedication"
                },
                {
                    "value": "master in a skill used to Recall Knowledge"
                }
            ]
        },
        "rules": [],
        "source": {
            "value": "Pathfinder Lost Omens: Pathfinder Society Guide"
        },
        "traits": {
            "custom": "",
            "rarity": "common",
            "value": [
                "archetype",
                "skill"
            ]
        }
    },
    "img": "systems/pf2ettw/icons/features/feats/feats.webp",
    "name": "Diverse Recognition",
    "type": "feat"
}
