{
    "_id": "0W4JSoD7QBPMPpXw",
    "data": {
        "actionCategory": {
            "value": ""
        },
        "actionType": {
            "value": "action"
        },
        "actions": {
            "value": 1
        },
        "description": {
            "value": "<p id=\"docs-internal-guid-b543181f-7fff-01ba-c7f2-61644236365a\" dir=\"ltr\"><em>With a word and a gesture, you can command the attention of a room or gathering.</em></p>\n<hr />\n<p dir=\"ltr\">Spend a blood point. If used out of combat, you can gain and hold the attention of everyone within range to clearly hear your voice, unless they deliberately attempt to resist by making a @Check[type:will|dc:resolve(10+@actor.attributes.vampireDC.totalModifier)] save against your Vampire DC using your Charisma modifier.</p>\n<p dir=\"ltr\">Anyone who does not successfully resist stops and listens to you for 1 minute. During this period you can attempt to @Compendium[pf2ettw.actionspf2ettw.Make an Impression]{Make an Impression} or @Compendium[pf2ettw.actionspf2ettw.Coerce]{Coerce} as if you had the @Compendium[pf2ettw.feats-srd.Group Impression]{Group Impression} or @Compendium[pf2ettw.feats-srd.Group Coercion]{Group Coercion} feats, which can affect a number of targets as if your Diplomacy or Intimidation proficiency was one rank higher. If your proficiency in the relevant skill is already legendary, gain a +2 circumstance bonus to the check.</p>\n<hr />\n<p dir=\"ltr\">If used in combat, all enemies within a 30 foot emanation of you who can hear you must make a @Check[type:will|dc:resolve(10+@actor.attributes.vampireDC.totalModifier)] save against your Vampire DC using your Charisma modifier or be fascinated by you until the start of your next turn.</p>\n<p dir=\"ltr\"><span id=\"docs-internal-guid-eae3d2d2-7fff-a2a5-a37b-0f6b7db6a96e\">This fascination only ends for a creature if a hostile action is used directly against that creature, instead of also when hostile actions are used against their allies.</span></p>"
        },
        "featType": {
            "value": "vampire"
        },
        "level": {
            "value": 3
        },
        "location": "",
        "prerequisites": {
            "value": []
        },
        "rules": [],
        "source": {
            "value": ""
        },
        "traits": {
            "custom": "",
            "rarity": "common",
            "value": [
                "auditory",
                "concentrate",
                "linguistic",
                "mental",
                "presence",
                "vampire"
            ]
        }
    },
    "img": "systems/pf2ettw/icons/features/feats/feats.webp",
    "name": "Domineer",
    "type": "feat"
}
