{
    "_id": "Prc4XJuSFnLffuVt",
    "data": {
        "actionCategory": {
            "value": ""
        },
        "actionType": {
            "value": "action"
        },
        "actions": {
            "value": 1
        },
        "description": {
            "value": "<p><em>Your challenge rings out across the battlefield. Your foe must answer it, or flee.</em></p>\n<hr />\n<p>Choose a creature within 30 feet of you of whom you're aware.</p>\n<p>Attempt an @Compendium[pf2ettw.action-macros.Dread Challenge: Intimidation]{Intimidation} check against that target's Will DC. If the target does not understand the language you are speaking, or you're not speaking a language, you take a –4 circumstance penalty to the check.</p>\n<hr />\n<p><strong>Critical Success</strong> Until the end of its next turn, the target becomes @Compendium[pf2ettw.conditionitems.Fascinated]{Fascinated} by you, cannot voluntarily move away from you or attack targets other than you, and becomes @Compendium[pf2ettw.conditionitems.Frightened]{Frightened 1}. The Fascinated condition is not ended by hostile actions being taken against them or their ally. This effect ends if you become @Compendium[pf2ettw.conditionitems.Undetected]{Undetected} or @Compendium[pf2ettw.conditionitems.Unnoticed]{Unnoticed} by that creature.</p>\n<p><strong>Success</strong> As critical success, but the target can instead choose to become @Compendium[pf2ettw.conditionitems.Fleeing]{Fleeing 1}.</p>\n<hr />\n<p>Regardless of your result, the target is then subsequently temporarily immune to your further Dread Challenges for 10 minutes.</p>"
        },
        "featType": {
            "value": "vampire"
        },
        "level": {
            "value": 5
        },
        "location": "",
        "prerequisites": {
            "value": []
        },
        "rules": [],
        "source": {
            "value": ""
        },
        "traits": {
            "custom": "",
            "rarity": "common",
            "value": [
                "auditory",
                "mental",
                "presence",
                "vampire",
                "warrior"
            ]
        }
    },
    "img": "systems/pf2ettw/icons/features/feats/feats.webp",
    "name": "Dread Challenge",
    "type": "feat"
}
