{
    "_id": "rFmJVDdB313EibTs",
    "data": {
        "actionCategory": {
            "value": ""
        },
        "actionType": {
            "value": "reaction"
        },
        "actions": {
            "value": null
        },
        "description": {
            "value": "<p><strong>Frequency</strong> once per day</p>\n<p><strong>Trigger</strong> A creature within 60 feet uses a fortune or misfortune effect.</p>\n<hr />\n<p>As someone tries to twist fate, you consume the interference. The triggering effect is disrupted.</p>\n<p>If it's a misfortune effect, Eat Fortune gains the fortune trait; if it's a fortune effect, Eat Fortune gains the misfortune trait. This fortune or misfortune applies to the same roll the triggering effect would have, so you couldn't negate a fortune effect with Eat Fortune and then apply a misfortune effect to the same roll.</p>"
        },
        "featType": {
            "value": "ancestry"
        },
        "level": {
            "value": 5
        },
        "prerequisites": {
            "value": []
        },
        "rules": [],
        "source": {
            "value": "Pathfinder Advanced Player's Guide"
        },
        "traits": {
            "custom": "",
            "rarity": "common",
            "value": [
                "concentrate",
                "divination",
                "divine",
                "tengu"
            ]
        }
    },
    "img": "systems/pf2ettw/icons/features/feats/feats.webp",
    "name": "Eat Fortune",
    "type": "feat"
}
