{
    "_id": "lZA7SYBmSPFlKNr2",
    "data": {
        "actionCategory": {
            "value": "interaction"
        },
        "actionType": {
            "value": "free"
        },
        "actions": {
            "value": null
        },
        "description": {
            "value": "<p><strong>Trigger</strong> Your turn begins.</p>\n<hr />\n<p>You maintain your innate enchantments and illusions with hardly a thought. You immediately gain the effects of the Sustain a Spell action, which you can use only to extend the duration of an enchantment or illusion spell.</p>"
        },
        "featType": {
            "value": "archetype"
        },
        "level": {
            "value": 14
        },
        "location": "",
        "prerequisites": {
            "value": [
                {
                    "value": "Captivator Dedication"
                }
            ]
        },
        "rules": [],
        "source": {
            "value": ""
        },
        "traits": {
            "custom": "",
            "rarity": "common",
            "value": [
                "archetype",
                "metamagic"
            ]
        }
    },
    "img": "systems/pf2ettw/icons/default-icons/feats.webp",
    "name": "Effortless Captivation",
    "type": "feat"
}
