{
    "_id": "HxO0Sh3hNFMoSsTB",
    "data": {
        "actionCategory": {
            "value": ""
        },
        "actionType": {
            "value": "action"
        },
        "actions": {
            "value": null
        },
        "description": {
            "value": "<p>Your mask grants you the abilities of Whistling Kite, the Vigilant Seer, who emancipated thousands. When you are attempting a check to free someone else from an effect that immobilizes, paralyzes, or controls them, roll twice and take the higher result; this is a fortune effect. The GM might decide that this fortune effect applies when attempting checks to remove other conditions or effects to free another. Immediately after you Cast a non-cantrip Spell that targets only one creature, you can choose to permit the target to make an attempt to @Compendium[pf2ettw.actionspf2ettw.Escape]{Escape}.</p>"
        },
        "featType": {
            "value": "archetype"
        },
        "level": {
            "value": 20
        },
        "location": "",
        "prerequisites": {
            "value": [
                {
                    "value": "Druid Dedication or Wizard Dedication"
                }
            ]
        },
        "rarity": {
            "value": "common"
        },
        "rules": [],
        "source": {
            "value": "Pathfinder #174: Shadows of the Ancients"
        },
        "traits": {
            "custom": "",
            "rarity": "rare",
            "value": [
                "rare",
                "archetype",
                "druid",
                "wizard"
            ]
        },
        "usage": {
            "value": ""
        }
    },
    "img": "systems/pf2ettw/icons/features/feats/feats.webp",
    "name": "Emancipator's Mask",
    "type": "feat"
}
