{
    "_id": "5f0EbNl7DHkiKCIr",
    "data": {
        "actionCategory": {
            "value": ""
        },
        "actionType": {
            "value": "passive"
        },
        "actions": {
            "value": null
        },
        "description": {
            "value": "<p>As an ultimate foe of evil and protector of the innocent, your very presence is a ward against evil. Each evil creature within @Template[type:emanation|distance:30]{30 feet} of you at the end of your turn must succeed at a @Check[type:will|dc:resolve(@actor.attributes.classOrSpellDC.value)] save against the higher of your class DC or spell DC or else become @Compendium[pf2ettw.conditionitems.Slowed]{Slowed 1} (@Compendium[pf2ettw.conditionitems.Slowed]{Slowed 2} on a critical failure). On a successful save, the creature is temporarily immune for 10 minutes.</p>"
        },
        "featType": {
            "value": "archetype"
        },
        "level": {
            "value": 20
        },
        "location": null,
        "prerequisites": {
            "value": [
                {
                    "value": "Knight Vigilant Dedication"
                },
                {
                    "value": "legendary in Religion"
                }
            ]
        },
        "rules": [],
        "source": {
            "value": "Pathfinder Lost Omens: Knights of Lastwall"
        },
        "traits": {
            "custom": "",
            "rarity": "common",
            "value": [
                "archetype",
                "aura"
            ]
        }
    },
    "img": "systems/pf2ettw/icons/default-icons/feats.webp",
    "name": "Empyreal Aura",
    "type": "feat"
}
