{
    "_id": "heSsD0pv8HzeqzUd",
    "data": {
        "actionCategory": {
            "value": ""
        },
        "actionType": {
            "value": "passive"
        },
        "actions": {
            "value": null
        },
        "description": {
            "value": "<p id=\"docs-internal-guid-130cd2e6-7fff-4f7c-79d9-5972b35f5e3e\" dir=\"ltr\"><em>Some element of your transformation has fired new pathways in your mind, causing it to hold tighter to knowledge.</em></p>\n<hr />\n<p dir=\"ltr\">Pick a Lore skill. You gain the trained proficiency rank in that skill.</p>\n<p dir=\"ltr\">At 2nd level, you gain expert proficiency in the chosen Lore as well as the Lore granted by your background, if any. At 7th level you gain master proficiency in these Lore skills, and at 15th level you gain legendary proficiency in them.</p>"
        },
        "featType": {
            "value": "vampire"
        },
        "level": {
            "value": 1
        },
        "location": "",
        "prerequisites": {
            "value": []
        },
        "rules": [],
        "source": {
            "value": ""
        },
        "traits": {
            "custom": "",
            "rarity": {
                "value": "common"
            },
            "value": [
                "sage",
                "vampire"
            ]
        }
    },
    "img": "systems/pf2ettw/icons/default-icons/feats.webp",
    "name": "Enhanced Recollection",
    "type": "feat"
}
