{
    "_id": "vqHF9U2RkL2NVgMF",
    "data": {
        "actionCategory": {
            "value": ""
        },
        "actionType": {
            "value": "passive"
        },
        "actions": {
            "value": null
        },
        "description": {
            "value": "<p>Your spirit dwelling is particularly inviting to spirit wisps. During your daily preparations, and whenever you spend 10 minutes to find more wisps, you entice two wisps into your spirit dwelling instead of one.</p>"
        },
        "featType": {
            "value": "archetype"
        },
        "level": {
            "value": 12
        },
        "location": null,
        "prerequisites": {
            "value": [
                {
                    "value": "Exorcist Dedication"
                }
            ]
        },
        "rules": [],
        "source": {
            "value": "Pathfinder Book of the Dead"
        },
        "traits": {
            "custom": "",
            "rarity": "common",
            "value": [
                "archetype"
            ]
        }
    },
    "img": "systems/pf2ettw/icons/default-icons/feats.webp",
    "name": "Enticing Dwelling",
    "type": "feat"
}
