{
    "_id": "vbHF6HEC9jQorFGl",
    "data": {
        "actionCategory": {
            "value": ""
        },
        "actionType": {
            "value": "passive"
        },
        "actions": {
            "value": null
        },
        "description": {
            "value": "<p>You've traversed enough untamed wilderness to gain an intuitive understanding of the dangers that exist in such places. Your extensive familiarity means you sometimes notice perils even when you're not trying to. Even if you aren't Searching in exploration mode, you can attempt a check to find environmental hazards that normally require you to Search for them. You still need to meet any other requirements to find a particular hazard.</p>"
        },
        "featType": {
            "value": "archetype"
        },
        "level": {
            "value": 4
        },
        "prerequisites": {
            "value": [
                {
                    "value": "Pathfinder Agent Dedication"
                }
            ]
        },
        "rules": [],
        "source": {
            "value": "Pathfinder Lost Omens: Pathfinder Society Guide"
        },
        "traits": {
            "custom": "",
            "rarity": "common",
            "value": [
                "archetype"
            ]
        }
    },
    "img": "systems/pf2ettw/icons/features/feats/feats.webp",
    "name": "Environmental Explorer",
    "type": "feat"
}
