{
    "_id": "VU7aZC7L08Mk1GVA",
    "data": {
        "actionCategory": {
            "value": ""
        },
        "actionType": {
            "value": "passive"
        },
        "actions": {
            "value": null
        },
        "description": {
            "value": "<p>You've sworn an oath to slay the alien abominations that lurk in the remote corners of the world. Add the following tenet to your champion's code, after the other tenets. \"You must slay aberrations you encounter as long as you have a reasonable chance of success.\"</p>\n<p>If you use @Compendium[pf2ettw.actionspf2ettw.Liberating Step]{Liberating Step} triggered by an aberration, your ally gains a +4 circumstance bonus to checks granted by your Liberating Step, and the ally can @Compendium[pf2ettw.actionspf2ettw.Step]{Step} twice afterward.</p>\n<p>@Compendium[pf2ettw.feat-effects.Effect: Liberating Step (vs. Aberration)]{Effect: Liberating Step (vs. Aberration)}</p>\n<p>You don't consider aberrations to be legitimate authorities, even in nations they rule.</p>\n<p>In the event that you encounter a subject of your oath which you are convinced poses no threat to the tenets of your pantheon, deity, or conviction, you do not have to banish, kill or otherwise oppose it.</p>"
        },
        "featType": {
            "value": "class"
        },
        "level": {
            "value": 2
        },
        "location": "",
        "prerequisites": {
            "value": [
                {
                    "value": "tenets of good"
                },
                {
                    "value": "liberator cause"
                }
            ]
        },
        "rules": [],
        "source": {
            "value": "Pathfinder Advanced Player's Guide"
        },
        "traits": {
            "custom": "",
            "rarity": "common",
            "value": [
                "champion",
                "oath"
            ]
        }
    },
    "img": "systems/pf2ettw/icons/features/feats/feats.webp",
    "name": "Esoteric Oath (Liberator)",
    "type": "feat"
}
