{
    "_id": "mETQarg8nUkas0TM",
    "data": {
        "actionCategory": {
            "value": ""
        },
        "actionType": {
            "value": "action"
        },
        "actions": {
            "value": 1
        },
        "description": {
            "value": "<p>You wrap shadow around all light sources within a 5-foot cube within 120 feet. If you're in dim light or darkness when you Extinguish Light, its range is 240 feet.</p>\n<p>Any non-magical light source you target is automatically extinguished. For magical light sources, attempt a counteract check using your Vampire modifier with your choice of your mental ability modifiers against the target's DC. Your counteract level is equal to half your level rounded up. Successfully counteracting the light source suppresses its ability to produce light for 1 minute, but not any other effects.</p>"
        },
        "featType": {
            "value": "vampire"
        },
        "level": {
            "value": 5
        },
        "location": "",
        "prerequisites": {
            "value": []
        },
        "rules": [],
        "source": {
            "value": ""
        },
        "traits": {
            "custom": "",
            "rarity": "common",
            "value": [
                "darkness",
                "evocation",
                "shadow",
                "vampire"
            ]
        }
    },
    "img": "systems/pf2ettw/icons/features/feats/feats.webp",
    "name": "Extinguish Light (Vampire)",
    "type": "feat"
}
