{
    "_id": "48crF8lpg78fRdhJ",
    "data": {
        "actionCategory": {
            "value": ""
        },
        "actionType": {
            "value": "reaction"
        },
        "actions": {
            "value": null
        },
        "description": {
            "value": "<p><strong>Frequency</strong> once per hour</p>\n<p><strong>Trigger</strong> You deal mental damage.</p>\n<hr />\n<p>The psychic feedback of another creature's pain fills you with false life. You gain temporary Hit Points equal to half the mental damage you dealt from the triggering effect. If the triggering action dealt mental damage to multiple creatures, calculate these temporary Hit Points using the creature that took the most damage. You lose any remaining temporary Hit Points after 1 minute.</p>"
        },
        "featType": {
            "value": "ancestry"
        },
        "level": {
            "value": 5
        },
        "location": "",
        "prerequisites": {
            "value": [
                {
                    "value": "Adhyabhau"
                }
            ]
        },
        "rules": [],
        "source": {
            "value": "Pathfinder Lost Omens: Ancestry Guide"
        },
        "traits": {
            "custom": "",
            "rarity": "common",
            "value": [
                "dhampir"
            ]
        }
    },
    "img": "systems/pf2ettw/icons/features/feats/feats.webp",
    "name": "Feed On Pain",
    "type": "feat"
}
