{
    "_id": "wteuGNhOXLvBudRQ",
    "data": {
        "actionCategory": {
            "value": ""
        },
        "actionType": {
            "value": "passive"
        },
        "actions": {
            "value": null
        },
        "description": {
            "value": "<p>Since ancient times, the mightiest orc beast tamers would draw out the true fighting spirit of their companion beasts by feeding the creatures a draft incorporating the orc's own blood.</p>\n<p>Animal companions or bonded animals you have gain the Orc Ferocity feat, and they gain a reaction they can use only for Orc Ferocity.</p>\n<p>If you have the @Compendium[pf2ettw.feats-srd.Undying Ferocity]{Undying Ferocity} ancestry feat, all animal companions or bonded animals you have also gain the benefits of that feat when using the Orc Ferocity reaction.</p>"
        },
        "featType": {
            "value": "ancestry"
        },
        "level": {
            "value": 13
        },
        "prerequisites": {
            "value": [
                {
                    "value": "Beast Trainer or animal companion"
                },
                {
                    "value": "Orc Ferocity"
                }
            ]
        },
        "rules": [],
        "source": {
            "value": "Pathfinder Advanced Player's Guide"
        },
        "traits": {
            "custom": "",
            "rarity": "common",
            "value": [
                "orc"
            ]
        }
    },
    "img": "systems/pf2ettw/icons/features/feats/feats.webp",
    "name": "Ferocious Beasts",
    "type": "feat"
}
