{
    "_id": "gtXy5gMNU0NDvkBL",
    "data": {
        "actionCategory": {
            "value": ""
        },
        "actionType": {
            "value": "passive"
        },
        "actions": {
            "value": null
        },
        "description": {
            "value": "<p>Your features reshape into those of a type of fiend who serves your deity; for example, as a demon you might have putrid scales, twisted horns, and red eyes.</p>\n<p>You gain a fly Speed equal to your Speed. You gain @Compendium[pf2ettw.ancestryfeatures.Darkvision]{Darkvision} if you don't already have it, and you gain the fiend trait.</p>"
        },
        "featType": {
            "value": "class"
        },
        "level": {
            "value": 18
        },
        "location": "",
        "prerequisites": {
            "value": []
        },
        "rules": [
            {
                "key": "BaseSpeed",
                "selector": "fly",
                "value": "@actor.attributes.speed.value"
            },
            {
                "key": "Sense",
                "label": "pf2ettw.SensesDarkvision",
                "selector": "darkvision"
            }
        ],
        "source": {
            "value": "Pathfinder Advanced Player's Guide"
        },
        "traits": {
            "custom": "",
            "rarity": "uncommon",
            "value": [
                "champion"
            ]
        }
    },
    "img": "systems/pf2ettw/icons/features/feats/feats.webp",
    "name": "Fiendish Form",
    "type": "feat"
}
