{
    "_id": "uL6q4wtwvuP8I4po",
    "data": {
        "actionCategory": {
            "value": ""
        },
        "actionType": {
            "value": "action"
        },
        "actions": {
            "value": 2
        },
        "description": {
            "value": "<p>You take a moment to center yourself, then unleash a powerful blow that sends your target tumbling away.</p>\n<p>Make an unarmed Strike. If you hit, the target must succeed at a Fortitude save against your class DC or be pushed up to 10 feet directly away from you (or 20 feet, on a critical failure) and fall @Compendium[pf2ettw.conditionitems.Prone]{Prone}.</p>\n<p>If another creature or physical object would prevent this movement, both your target and the blocking creature or object take [[/r {1d6}[bludgeoning]]]{1d6 bludgeoning damage} per 5 feet of movement that was prevented.</p>"
        },
        "featType": {
            "value": "class"
        },
        "level": {
            "value": 16
        },
        "location": "",
        "prerequisites": {
            "value": []
        },
        "rules": [],
        "source": {
            "value": "Pathfinder Advanced Player's Guide"
        },
        "traits": {
            "custom": "",
            "rarity": "common",
            "value": [
                "monk"
            ]
        }
    },
    "img": "systems/pf2ettw/icons/features/feats/feats.webp",
    "name": "Flinging Blow",
    "type": "feat"
}
