{
    "_id": "g9AOSz4QDAlUee9M",
    "data": {
        "actionCategory": {
            "value": "interaction"
        },
        "actionType": {
            "value": "free"
        },
        "actions": {
            "value": null
        },
        "description": {
            "value": "<p><strong>Frequency</strong> once per hour</p>\n<hr />\n<p>You always have time for a joke or prank. You @Compendium[pf2ettw.actionspf2ettw.Create a Diversion]{Create a Diversion}, @Compendium[pf2ettw.actionspf2ettw.Conceal an Object]{Conceal an Object}, or @Compendium[pf2ettw.actionspf2ettw.Hide]{Hide}. All creatures who witnessed your Fox Trick then wise up to it, becoming temporarily immune to your Fox Trick for 24 hours.</p>"
        },
        "featType": {
            "value": "ancestry"
        },
        "level": {
            "value": 9
        },
        "location": "",
        "prerequisites": {
            "value": []
        },
        "rules": [],
        "source": {
            "value": "Pathfinder Lost Omens: Ancestry Guide"
        },
        "traits": {
            "custom": "",
            "rarity": "common",
            "value": [
                "kitsune"
            ]
        }
    },
    "img": "systems/pf2ettw/icons/features/feats/feats.webp",
    "name": "Fox Trick",
    "type": "feat"
}
