{
    "_id": "xUaEpnfd1FMGNG1z",
    "data": {
        "actionCategory": {
            "value": ""
        },
        "actionType": {
            "value": "action"
        },
        "actions": {
            "value": 2
        },
        "description": {
            "value": "<p><strong>Frequency</strong> once per 10 minutes</p>\n<hr />\n<p>You lament your fate, forcing each living creature in a @Template[type:emanation|distance:30] to attempt a @Check[type:will|dc:resolve(@actor.attributes.classOrSpellDC)] save against your class DC or spell DC, whichever is higher.</p>\n<p><strong>Success</strong> The creature is unaffected and temporarily immune to Frightful Moans for 1 minute.</p>\n<p><strong>Failure</strong> The creature is @Compendium[pf2ettw.conditionitems.Frightened]{Frightened 1}.</p>\n<p><strong>Critical Failure</strong> The creature is @Compendium[pf2ettw.conditionitems.Frightened]{Frightened 2}.</p>"
        },
        "featType": {
            "value": "archetype"
        },
        "level": {
            "value": 4
        },
        "location": null,
        "prerequisites": {
            "value": [
                {
                    "value": "Ghost Dedication"
                }
            ]
        },
        "rules": [],
        "source": {
            "value": "Pathfinder Book of the Dead"
        },
        "traits": {
            "custom": "",
            "rarity": "common",
            "value": [
                "archetype",
                "auditory",
                "divine",
                "emotion",
                "enchantment",
                "fear",
                "mental"
            ]
        }
    },
    "img": "systems/pf2ettw/icons/default-icons/feats.webp",
    "name": "Frightful Moan",
    "type": "feat"
}
