{
    "_id": "RCjMbLyRnG70R7cO",
    "data": {
        "actionCategory": {
            "value": ""
        },
        "actionType": {
            "value": "action"
        },
        "actions": {
            "value": 1
        },
        "description": {
            "value": "<p>Your very presence chills creatures of the night down to their core and you can use the spiritual power and faithful life force of religious verses to frighten even mindless undead. Attempt to Demoralize an undead target using your Religion modifier instead of your Intimidation modifier if it's higher. If you use your Religion modifier, the Demoralize action loses the emotion and mental traits, as your faith connects to the undead on an instinctual level.</p>"
        },
        "featType": {
            "value": "archetype"
        },
        "level": {
            "value": 6
        },
        "location": null,
        "prerequisites": {
            "value": [
                {
                    "value": "Undead Slayer Dedication"
                },
                {
                    "value": "trained in Intimidation"
                }
            ]
        },
        "rules": [],
        "source": {
            "value": "Pathfinder Book of the Dead"
        },
        "traits": {
            "custom": "",
            "rarity": "common",
            "value": [
                "archetype"
            ]
        }
    },
    "img": "systems/pf2ettw/icons/default-icons/feats.webp",
    "name": "Frighten Undead",
    "type": "feat"
}
