{
    "_id": "sNQC9lbsPJsjhgSb",
    "data": {
        "actionCategory": {
            "value": ""
        },
        "actionType": {
            "value": "action"
        },
        "actions": {
            "value": 1
        },
        "description": {
            "value": "<p id=\"docs-internal-guid-2fbe7eae-7fff-fbaf-4664-32df4cca9c04\" dir=\"ltr\"><em>You can utilise your wings to take to the air. However, without dedicated training, this demands your full attention and will rapidly leave you exhausted, limiting your effectiveness at other endeavours.</em></p>\n<hr />\n<p dir=\"ltr\"><strong>Frequency</strong> Once per hour</p>\n<hr />\n<p dir=\"ltr\">Gain a fly speed equal to your land speed for up to 1 minute (you can end this effect at any time).</p>\n<p dir=\"ltr\">For the duration of this effect, you are @Compendium[pf2ettw.conditionitems.Fatigued]{Fatigued}, can’t use actions or activities with the concentrate trait, and any actions with the manipulate trait (such as reloading) cost an additional action to use.</p>\n<p dir=\"ltr\">You can also choose to expend additional effort to continue to fly beyond this limit, but you will then suffer the aftereffects until you are able to rest and recover.</p>\n<p dir=\"ltr\">If this ability has already been used in the last hour, the flight speed is halved during encounters, and in addition to the usual effects, until you are next able to get a full night’s (or day’s) rest, you are @Compendium[pf2ettw.conditionitems.Fatigued]{Fatigued} and take a -1 status penalty to checks made for any actions or activities with the concentrate trait.</p>\n<p dir=\"ltr\">@Compendium[pf2ettw.feat-effects.Effect: Fundaments of Flight (Overexerted)]{Effect: Fundaments of Flight (Overexerted)}</p>"
        },
        "featType": {
            "value": "ancestryfeature"
        },
        "level": {
            "value": 0
        },
        "location": "",
        "prerequisites": {
            "value": []
        },
        "rules": [],
        "source": {
            "value": ""
        },
        "traits": {
            "custom": "",
            "rarity": "common",
            "value": [
                "sprite",
                "strix"
            ]
        }
    },
    "img": "systems/pf2ettw/icons/default-icons/feats.webp",
    "name": "Fundaments of Flight",
    "type": "feat"
}
