{
    "_id": "HCoDbriaPwnurcNP",
    "data": {
        "actionCategory": {
            "value": ""
        },
        "actionType": {
            "value": "passive"
        },
        "actions": {
            "value": null
        },
        "description": {
            "value": "<p>Whether it's wooden stakes, <em>@Compendium[pf2ettw.equipment-srd.Holy Water]{Holy Water}</em>, or more unusual tools, you always have just the right thing to handle an undead's unusual weaknesses and vulnerabilities. You gain the @Compendium[pf2ettw.feats-srd.Prescient Planner]{Prescient Planner} and @Compendium[pf2ettw.feats-srd.Prescient Consumable]{Prescient Consumable} feats. When using Prescient Planner specifically to pull out an item you need to deal with an undead's weakness or vulnerability, you can pull out the item as a 2-action activity to remove your backpack (or similar container) and draw the item, rather than taking 1 minute.</p>\n<p>If you have the @Compendium[pf2ettw.feats-srd.Hunter's Sanctum]{Hunter's Sanctum} feat, you keep your sanctum well stocked with the basics and can spend 1 hour in your sanctum refreshing your supplies in order to meet the requirements for Prescient Planner, even if you haven't been able to purchase goods.</p>"
        },
        "featType": {
            "value": "archetype"
        },
        "level": {
            "value": 6
        },
        "location": null,
        "prerequisites": {
            "value": [
                {
                    "value": "Undead Slayer Dedication"
                }
            ]
        },
        "rules": [
            {
                "key": "GrantItem",
                "uuid": "Compendium.pf2ettw.feats-srd.Prescient Planner"
            },
            {
                "key": "GrantItem",
                "uuid": "Compendium.pf2ettw.feats-srd.Prescient Consumable"
            }
        ],
        "source": {
            "value": "Pathfinder Book of the Dead"
        },
        "traits": {
            "custom": "",
            "rarity": "common",
            "value": [
                "archetype"
            ]
        }
    },
    "img": "systems/pf2ettw/icons/default-icons/feats.webp",
    "name": "Gear Up",
    "type": "feat"
}
