{
    "_id": "WeQGWvlWdeLeOlCN",
    "data": {
        "actionCategory": {
            "value": ""
        },
        "actionType": {
            "value": "passive"
        },
        "actions": {
            "value": null
        },
        "description": {
            "value": "<p>You are adept at quickly scanning loose papers and carefully discerning the contents of sealed letters without damaging the seal.</p>\n<p>You can attempt Society checks to @Compendium[pf2ettw.actionspf2ettw.Decipher Writing]{Decipher Writing} on a message that is only partially glimpsed, upside down or reversed from your perspective, or even sealed. However, on a critical failure, the recipient is made aware of your efforts (for instance, you damage the seal or disturb the papers in some way).</p>\n<p>When using this feat to decipher sealed letters, your attempt to Decipher Writing gains the manipulate trait.</p>\n<p>This feat doesn't prevent witnesses from noticing your efforts, particularly with sealed letters which you must manipulate directly in order to read; you might need to attempt Deception or Stealth checks to avoid being noticed.</p>"
        },
        "featType": {
            "value": "skill"
        },
        "level": {
            "value": 1
        },
        "prerequisites": {
            "value": [
                {
                    "value": "trained in Society"
                }
            ]
        },
        "rules": [],
        "source": {
            "value": "Pathfinder Advanced Player's Guide"
        },
        "traits": {
            "custom": "",
            "rarity": "common",
            "value": [
                "general",
                "skill"
            ]
        }
    },
    "img": "systems/pf2ettw/icons/features/feats/feats.webp",
    "name": "Glean Contents",
    "type": "feat"
}
