{
    "_id": "OqJMjuK61uST7AlM",
    "data": {
        "actionCategory": {
            "value": ""
        },
        "actionType": {
            "value": "passive"
        },
        "actions": {
            "value": null
        },
        "description": {
            "value": "<p>You produce outstanding results when wielding unusual weapons. Whenever you critically hit using a glaive, kukri, or gnome weapon, you apply the weapon's critical specialization effect.</p>"
        },
        "featType": {
            "value": "ancestry"
        },
        "level": {
            "value": 5
        },
        "location": null,
        "prerequisites": {
            "value": [
                {
                    "value": "Gnome Weapon Familiarity"
                }
            ]
        },
        "rules": [
            {
                "key": "CriticalSpecialization",
                "predicate": {
                    "any": [
                        "weapon:trait:gnome",
                        "weapon:base:glaive",
                        "weapon:base:kukri"
                    ]
                }
            }
        ],
        "source": {
            "value": "Pathfinder Core Rulebook"
        },
        "traits": {
            "custom": "",
            "rarity": "common",
            "value": [
                "gnome"
            ]
        }
    },
    "img": "systems/pf2ettw/icons/features/feats/feats.webp",
    "name": "Gnome Weapon Innovator",
    "type": "feat"
}
