{
    "_id": "lszcn7eO3olp5vEt",
    "data": {
        "actionCategory": {
            "value": ""
        },
        "actionType": {
            "value": "passive"
        },
        "actions": {
            "value": null
        },
        "description": {
            "value": "<p>Your ability to sense undead has improved. You sense undead as an imprecise sense with a range of 60 feet: an uncomfortable sensation brushes against your spirit and stinks of rot. When in proximity to an undead, you can sense its presence, but it has the @Compendium[pf2ettw.conditionitems.Hidden]{Hidden} condition instead of the @Compendium[pf2ettw.conditionitems.Observed]{Observed} condition. An undead using a disguise or otherwise trying to hide its presence must attempt a Deception or Stealth check against your Perception DC to hide its presence from you. If the creature succeeds, it's undetected, and you have to use the @Compendium[pf2ettw.actionspf2ettw.Seek]{Seek} basic action to detect the creature. As with hearing and other imprecise senses, you still need to Seek to locate an undetected creature.</p>"
        },
        "featType": {
            "value": "archetype"
        },
        "level": {
            "value": 10
        },
        "location": null,
        "prerequisites": {
            "value": [
                {
                    "value": "Lastwall Sentry Dedication"
                },
                {
                    "value": "Grave Sense"
                }
            ]
        },
        "rules": [],
        "source": {
            "value": "Pathfinder Lost Omens: Knights of Lastwall"
        },
        "traits": {
            "custom": "",
            "rarity": "common",
            "value": [
                "archetype"
            ]
        }
    },
    "img": "systems/pf2ettw/icons/default-icons/feats.webp",
    "name": "Grave Sight",
    "type": "feat"
}
