{
    "_id": "KWZqHwI82ae8fMML",
    "data": {
        "actionCategory": {
            "value": ""
        },
        "actionType": {
            "value": "passive"
        },
        "actions": {
            "value": null
        },
        "description": {
            "value": "<p>Exposure to the elements, magic, alchemy, and other phenomena intensified the changes from your mummification. You gain the @Compendium[pf2ettw.ancestryfeatures.Advanced Undead Benefits]{Advanced Undead Benefits}.</p>\n<p>In addition, you gain resistance equal to half your level against any damage you'd take from your bound terrain, including its dangerous temperatures, weather, hazardous terrain, and environmental hazards.</p>"
        },
        "featType": {
            "value": "archetype"
        },
        "level": {
            "value": 6
        },
        "location": null,
        "prerequisites": {
            "value": [
                {
                    "value": "Mummy Dedication"
                }
            ]
        },
        "rules": [
            {
                "key": "GrantItem",
                "uuid": "Compendium.pf2ettw.ancestryfeatures.Advanced Undead Benefits"
            }
        ],
        "source": {
            "value": "Pathfinder Book of the Dead"
        },
        "traits": {
            "custom": "",
            "rarity": "common",
            "value": [
                "archetype"
            ]
        }
    },
    "img": "systems/pf2ettw/icons/default-icons/feats.webp",
    "name": "Grave Mummification",
    "type": "feat"
}
