{
    "_id": "HbBNuT1bqdcCU9hM",
    "data": {
        "actionCategory": {
            "value": ""
        },
        "actionType": {
            "value": "passive"
        },
        "actions": {
            "value": null
        },
        "description": {
            "value": "<p>Your connection to the Old Sun Gods grows stronger. You gain an advanced domain spell from a domain you chose with Blessing of the Sun Gods. Increase the number of Focus Points in your focus pool by 1.</p>\n<p><strong>Special</strong> You can select this feat multiple times. Each time you do so, you must select a different domain for which you have an initial domain spell from Blessing of the Sun Gods.</p>"
        },
        "featType": {
            "value": "archetype"
        },
        "level": {
            "value": 12
        },
        "location": "",
        "maxTakable": null,
        "prerequisites": {
            "value": [
                {
                    "value": "Blessing of the Sun Gods"
                }
            ]
        },
        "rules": [
            {
                "key": "ActiveEffectLike",
                "mode": "add",
                "path": "data.resources.focus.max",
                "value": 1
            }
        ],
        "source": {
            "value": "Pathfinder #172: Secrets of the Temple-City"
        },
        "traits": {
            "custom": "",
            "rarity": "common",
            "value": [
                "archetype"
            ]
        }
    },
    "img": "systems/pf2ettw/icons/features/feats/feats.webp",
    "name": "Greater Sun Blessing",
    "type": "feat"
}
