{
    "_id": "O0QrBJfiMCTR0n0z",
    "data": {
        "actionCategory": {
            "value": ""
        },
        "actionType": {
            "value": "passive"
        },
        "actions": {
            "value": null
        },
        "description": {
            "value": "<p>You increase the frequency of Mummy's Despair to once per 10 minutes instead of once per hour. A creature that critically fails its Will saving throw is @Compendium[pf2ettw.conditionitems.Paralyzed]{Paralyzed} for 1 round instead of @Compendium[pf2ettw.conditionitems.Frightened]{Frightened 2}. Mummy's Despair gains the incapacitation trait.</p>"
        },
        "featType": {
            "value": "archetype"
        },
        "level": {
            "value": 12
        },
        "location": null,
        "prerequisites": {
            "value": [
                {
                    "value": "Mummy's Despair"
                }
            ]
        },
        "rules": [],
        "source": {
            "value": "Pathfinder Book of the Dead"
        },
        "traits": {
            "custom": "",
            "rarity": "common",
            "value": [
                "archetype"
            ]
        }
    },
    "img": "systems/pf2ettw/icons/default-icons/feats.webp",
    "name": "Greater Despair",
    "type": "feat"
}
