{
    "_id": "aviDW7htxA77iarV",
    "data": {
        "actionCategory": {
            "value": ""
        },
        "actionType": {
            "value": "passive"
        },
        "actions": {
            "value": null
        },
        "description": {
            "value": "<p><strong>Prerequisites</strong> initial deed that allows you to Interact to draw a weapon</p>\n<hr />\n<p>No one can react faster than you can pull your trigger. When using your initial deed, instead of Interacting to draw a weapon, you can Strike with a firearm or crossbow you're already wielding. If this Strike hits, the target is also @Compendium[pf2ettw.conditionitems.Flat-Footed]{Flat-Footed} until the end of your first turn of the encounter.</p>\n<p><strong>Special</strong> If your initial deed allows you to Interact to draw a weapon more than once, this feat allows you to replace one of these Interact actions and use the other one to draw a weapon. You can't replace both Interact actions with Strikes, but you can draw a loaded firearm or crossbow with one of the actions and immediately shoot it with the other.</p>"
        },
        "featType": {
            "value": "class"
        },
        "level": {
            "value": 16
        },
        "location": "",
        "prerequisites": {
            "value": []
        },
        "rules": [],
        "source": {
            "value": ""
        },
        "traits": {
            "custom": "",
            "rarity": "common",
            "value": [
                "gunslinger"
            ]
        }
    },
    "img": "systems/pf2ettw/icons/default-icons/feats.webp",
    "name": "Hair Trigger",
    "type": "feat"
}
