{
    "_id": "9WsYVbe47aSADs1Q",
    "data": {
        "actionCategory": {
            "value": ""
        },
        "actionType": {
            "value": "passive"
        },
        "actions": {
            "value": null
        },
        "description": {
            "value": "<p>You are particularly adept at fighting with your people's favored weapons. Whenever you critically succeed at an attack roll using a shortsword, a sling, or a halfling weapon, you apply the weapon's critical specialization effect.</p>"
        },
        "featType": {
            "value": "ancestry"
        },
        "level": {
            "value": 5
        },
        "location": null,
        "prerequisites": {
            "value": [
                {
                    "value": "Halfling Weapon Familiarity"
                }
            ]
        },
        "rules": [
            {
                "key": "CriticalSpecialization",
                "predicate": {
                    "any": [
                        "weapon:trait:halfling",
                        "weapon:base:shortsword",
                        "weapon:base:sling"
                    ]
                }
            }
        ],
        "source": {
            "value": "Pathfinder Core Rulebook"
        },
        "traits": {
            "custom": "",
            "rarity": "common",
            "value": [
                "halfling"
            ]
        }
    },
    "img": "systems/pf2ettw/icons/features/feats/feats.webp",
    "name": "Halfling Weapon Trickster",
    "type": "feat"
}
