{
    "_id": "pD1oDbUDkNtHadGY",
    "data": {
        "actionCategory": {
            "value": ""
        },
        "actionType": {
            "value": "passive"
        },
        "actions": {
            "value": null
        },
        "description": {
            "value": "<p>You can magically hurl your weapon at your foe. You gain the <em>@Compendium[pf2ettw.spells-srd.Hand of the Apprentice]{Hand of the Apprentice}</em> universalist spell. Universalist spells are a type of focus spell, much like school spells. You start with a focus pool of 1 Focus Point.</p>\n<p>See Arcane Schools for more information about focus spells.</p>"
        },
        "featType": {
            "value": "class"
        },
        "level": {
            "value": 1
        },
        "location": "",
        "prerequisites": {
            "value": [
                {
                    "value": "universalist wizard"
                }
            ]
        },
        "rules": [],
        "source": {
            "value": "Pathfinder Core Rulebook"
        },
        "traits": {
            "custom": "",
            "rarity": "common",
            "value": [
                "wizard"
            ]
        }
    },
    "img": "systems/pf2ettw/icons/features/feats/feats.webp",
    "name": "Hand of the Apprentice",
    "type": "feat"
}
