{
    "_id": "qOyUYaLoFkciAkaZ",
    "data": {
        "actionCategory": {
            "value": ""
        },
        "actionType": {
            "value": "passive"
        },
        "actions": {
            "value": null
        },
        "description": {
            "value": "<p id=\"docs-internal-guid-dbc9177c-7fff-78c4-c5e3-a538e917823d\" dir=\"ltr\"><em>Your mastery of battle is such that you can cut the heads from your enemies as easily lesser mortals would cut kindling.</em></p>\n<hr />\n<p dir=\"ltr\">Your unarmed attacks and melee or thrown weapons that you’re wielding gain the effect of the @Compendium[pf2ettw.equipment-srd.Vorpal]{Vorpal} weapon property rune, except that the DC of the @Check[type:fortitude|dc:resolve(10+@actor.attributes.vampireDC.totalModifier)] save is your Vampire DC using your Strength modifier.</p>\n<p dir=\"ltr\">If the weapon or unarmed attack already has the vorpal rune, there is no additional effect.</p>"
        },
        "featType": {
            "value": "vampire"
        },
        "level": {
            "value": 17
        },
        "location": "",
        "prerequisites": {
            "value": []
        },
        "rules": [],
        "source": {
            "value": ""
        },
        "traits": {
            "custom": "",
            "rarity": "common",
            "value": [
                "vampire",
                "warrior"
            ]
        }
    },
    "img": "systems/pf2ettw/icons/features/feats/feats.webp",
    "name": "Headtaker",
    "type": "feat"
}
