{
    "_id": "xXHwktc9SymSY8d6",
    "data": {
        "actionCategory": {
            "value": ""
        },
        "actionType": {
            "value": "free"
        },
        "actions": {
            "value": null
        },
        "description": {
            "value": "<p><strong>Frequency</strong> once per round</p>\n<p><strong>Trigger</strong> You craft an @Compendium[pf2ettw.equipment-srd.Elixir of Life (Minor)]{Elixir of Life} using @Compendium[pf2ettw.feats-srd.Quick Alchemy]{Quick Alchemy}, and that elixir is at least 2 levels lower than your advanced alchemy level.</p>\n<hr />\n<p>By adding a special catalyst, you transform a healing elixir into a topical projectile. You grant the elixir the bomb trait.</p>\n<p>If you throw an elixir of life bomb at a willing target, you hit even on a failure, though not on a critical failure. If your Strike with this elixir bomb hits a living target, the target regains Hit Points as if it had consumed the elixir. On a critical success, the target also gains the elixir's item bonus to saving throws against diseases and poisons for 1 minute.</p>"
        },
        "featType": {
            "value": "class"
        },
        "level": {
            "value": 4
        },
        "location": "",
        "prerequisites": {
            "value": []
        },
        "rules": [],
        "source": {
            "value": "Pathfinder Advanced Player's Guide"
        },
        "traits": {
            "custom": "",
            "rarity": "common",
            "value": [
                "additive 2",
                "alchemist"
            ]
        }
    },
    "img": "systems/pf2ettw/icons/features/feats/feats.webp",
    "name": "Healing Bomb",
    "type": "feat"
}
