{
    "_id": "MTp2j4N4H4wj07pH",
    "data": {
        "actionCategory": {
            "value": ""
        },
        "actionType": {
            "value": "passive"
        },
        "actions": {
            "value": null
        },
        "description": {
            "value": "<p>In the past, you would have been a proud initiate of the Saoc Brethren. Today, you carry on their legacy. When you use Saoc Astrology, roll [[/r 1d4]] instead; on a 1, you take a -1 penalty to the skill check. On any other result, you gain a circumstance bonus of that value (for instance, a +3 circumstance bonus on a 3).</p>"
        },
        "featType": {
            "value": "ancestry"
        },
        "level": {
            "value": 9
        },
        "location": null,
        "prerequisites": {
            "value": [
                {
                    "value": "Saoc Astrology"
                }
            ]
        },
        "rules": [
            {
                "domain": "all",
                "key": "RollOption",
                "option": "heir-of-the-saoc"
            }
        ],
        "source": {
            "value": "Pathfinder Lost Omens: Character Guide"
        },
        "traits": {
            "custom": "",
            "rarity": "common",
            "value": [
                "human"
            ]
        }
    },
    "img": "systems/pf2ettw/icons/features/feats/feats.webp",
    "name": "Heir of the Saoc",
    "type": "feat"
}
