{
    "_id": "RtYOsmb9R71J9ce2",
    "data": {
        "actionCategory": {
            "value": ""
        },
        "actionType": {
            "value": "passive"
        },
        "actions": {
            "value": null
        },
        "description": {
            "value": "<p>You know how to turn any weapon into a bone-crushing implement of skeletal destruction. Melee weapons you wield gain the versatile B trait. You can use the weapon only to deal bludgeoning damage when making melee attacks. At the GM's discretion, specific weapons might not be able to gain the versatile B trait.</p>"
        },
        "featType": {
            "value": "archetype"
        },
        "level": {
            "value": 10
        },
        "location": null,
        "prerequisites": {
            "value": [
                {
                    "value": "Knight Reclaimant Dedication"
                }
            ]
        },
        "rules": [
            {
                "definition": {
                    "all": [
                        "weapon:melee"
                    ]
                },
                "key": "AdjustStrike",
                "mode": "add",
                "property": "weapon-traits",
                "value": "versatile-b"
            }
        ],
        "source": {
            "value": "Pathfinder Lost Omens: Knights of Lastwall"
        },
        "traits": {
            "custom": "",
            "rarity": "common",
            "value": [
                "archetype"
            ]
        }
    },
    "img": "systems/pf2ettw/icons/default-icons/feats.webp",
    "name": "Hilt Hammer",
    "type": "feat"
}
