{
    "_id": "XPVqOtHLN6jduHYs",
    "data": {
        "actionCategory": {
            "value": ""
        },
        "actionType": {
            "value": "passive"
        },
        "actions": {
            "value": null
        },
        "description": {
            "value": "<p>You increase your training in battlefield weapons. Whenever you gain a class feature that grants you expert or greater proficiency in certain weapons, you also gain that proficiency rank in all weapons you are trained in from Hobgoblin Weapon Familiarity.</p>"
        },
        "featType": {
            "value": "ancestry"
        },
        "level": {
            "value": 13
        },
        "location": "",
        "prerequisites": {
            "value": [
                {
                    "value": "Hobgoblin Weapon Familiarity"
                }
            ]
        },
        "rules": [
            {
                "key": "ActiveEffectLike",
                "mode": "upgrade",
                "path": "data.martial.weapon-base-composite-longbow.rank",
                "value": "@actor.data.data.martial.unarmed.rank"
            },
            {
                "key": "ActiveEffectLike",
                "mode": "upgrade",
                "path": "data.martial.weapon-base-composite-shortbow.rank",
                "value": "@actor.data.data.martial.unarmed.rank"
            },
            {
                "key": "ActiveEffectLike",
                "mode": "upgrade",
                "path": "data.martial.weapon-base-glaive.rank",
                "value": "@actor.data.data.martial.unarmed.rank"
            },
            {
                "key": "ActiveEffectLike",
                "mode": "upgrade",
                "path": "data.martial.weapon-base-longbow.rank",
                "value": "@actor.data.data.martial.unarmed.rank"
            },
            {
                "key": "ActiveEffectLike",
                "mode": "upgrade",
                "path": "data.martial.weapon-base-longsword.rank",
                "value": "@actor.data.data.martial.unarmed.rank"
            },
            {
                "key": "ActiveEffectLike",
                "mode": "upgrade",
                "path": "data.martial.weapon-base-shortbow.rank",
                "value": "@actor.data.data.martial.unarmed.rank"
            }
        ],
        "source": {
            "value": "Pathfinder Lost Omens: Character Guide"
        },
        "traits": {
            "custom": "",
            "rarity": "common",
            "value": [
                "hobgoblin"
            ]
        }
    },
    "img": "systems/pf2ettw/icons/features/feats/feats.webp",
    "name": "Hobgoblin Weapon Expertise",
    "type": "feat"
}
