{
    "_id": "o89h7ZnrNpS3XS6I",
    "data": {
        "actionCategory": {
            "value": ""
        },
        "actionType": {
            "value": "passive"
        },
        "actions": {
            "value": null
        },
        "description": {
            "value": "<p id=\"docs-internal-guid-50e8a771-7fff-5535-53f6-4ce5d191ec4b\" dir=\"ltr\"><em>You propel your grabbed or restrained foe a great distance.</em></p>\n<hr />\n<p dir=\"ltr\"><strong>Requirements</strong> You have a creature grabbed or restrained.</p>\n<hr />\n<p dir=\"ltr\">Attempt an @Compendium[pf2ettw.action-macros.Hurl: Athletics]{Athletics} check against the foe’s Fortitude DC.</p>\n<p dir=\"ltr\">You take a –2 circumstance penalty to your check if the target is one size larger than you and a –4 circumstance penalty if it’s larger than that. You gain a +2 circumstance bonus to your check if the target is one size smaller than you and a +4 circumstance bonus if it’s smaller than that.</p>\n<hr />\n<p dir=\"ltr\"><strong>Critical Success</strong> You throw the creature any distance up to 10 feet, plus 5 feet × your Strength modifier and it lands @Compendium[pf2ettw.conditionitems.Prone]{Prone}. It takes bludgeoning damage equal to your Strength modifier plus 1d6 per 10 feet you threw it.</p>\n<p dir=\"ltr\"><strong>Success</strong> As critical success, but the creature does not land prone.</p>\n<p dir=\"ltr\"><strong>Failure</strong> You don’t throw the creature.</p>\n<p dir=\"ltr\"><strong>Critical Failure</strong> You don’t throw the creature, and it’s no longer grabbed or restrained by you.</p>"
        },
        "featType": {
            "value": "vampire"
        },
        "level": {
            "value": 7
        },
        "location": "",
        "prerequisites": {
            "value": []
        },
        "rules": [],
        "source": {
            "value": ""
        },
        "traits": {
            "custom": "",
            "rarity": "common",
            "value": [
                "beast",
                "vampire"
            ]
        }
    },
    "img": "systems/pf2ettw/icons/features/feats/feats.webp",
    "name": "Hurl",
    "type": "feat"
}
