{
    "_id": "oERkuYyCL1F6EdgD",
    "data": {
        "actionCategory": {
            "value": ""
        },
        "actionType": {
            "value": "free"
        },
        "actions": {
            "value": null
        },
        "description": {
            "value": "<p><em>None may stand before you, no hand may stay your wrath.</em></p>\n<p id=\"docs-internal-guid-446a4364-7fff-056b-dcb8-26de3c8fc824\" dir=\"ltr\"></p>\n<hr />\n<p id=\"docs-internal-guid-446a4364-7fff-056b-dcb8-26de3c8fc824\" dir=\"ltr\"><strong>Frequency</strong> Once per turn</p>\n<hr />\n<p>Spend a blood point. For each time you hit an enemy with an unarmed or weapon attack this turn, you may make another @Compendium[pf2ettw.actionspf2ettw.Strike]{Strike} as a free action.</p>\n<p>Ranged attacks only grant another Strike in this way if the target is within half the first range increment of the attack.</p>"
        },
        "featType": {
            "value": "vampire"
        },
        "level": {
            "value": 19
        },
        "location": "",
        "prerequisites": {
            "value": [
                {
                    "value": "3 Warrior Feats"
                }
            ]
        },
        "rules": [],
        "source": {
            "value": ""
        },
        "traits": {
            "custom": "",
            "rarity": {
                "value": "common"
            },
            "value": [
                "vampire",
                "warrior"
            ]
        }
    },
    "img": "systems/pf2ettw/icons/features/feats/feats.webp",
    "name": "Immortal Wrath",
    "type": "feat"
}
