{
    "_id": "DIjpbE2dh5MRGiYO",
    "data": {
        "actionCategory": {
            "value": ""
        },
        "actionType": {
            "value": "reaction"
        },
        "actions": {
            "value": null
        },
        "description": {
            "value": "<p><strong>Frequency</strong> once per day</p>\n<p><strong>Trigger</strong> You would critically fail a skill check or suffer an effect with the misfortune trait.</p>\n<hr />\n<p>You shift the underlying fabric of reality to impose a baseline of order. If the trigger was a skill check, you instead receive a result of 10 + your proficiency bonus (don't apply any other bonuses, penalties, or modifiers). If the trigger was an effect with the misfortune trait, the misfortune and fortune effects cancel each other out as normal, negating the triggering misfortune effect.</p>"
        },
        "featType": {
            "value": "ancestry"
        },
        "level": {
            "value": 13
        },
        "location": "",
        "prerequisites": {
            "value": []
        },
        "rules": [],
        "source": {
            "value": "Pathfinder Lost Omens: Ancestry Guide"
        },
        "traits": {
            "custom": "",
            "rarity": "common",
            "value": [
                "aphorite",
                "fortune"
            ]
        }
    },
    "img": "systems/pf2ettw/icons/features/feats/feats.webp",
    "name": "Impose Order",
    "type": "feat"
}
