{
    "_id": "Nxke8WzifQafSa4I",
    "data": {
        "actionCategory": {
            "value": ""
        },
        "actionType": {
            "value": "passive"
        },
        "actions": {
            "value": null
        },
        "description": {
            "value": "<p>You've trained your mount to become a powerful force on the battlefield. The mount you gained through the Cavalier Dedication feat becomes a mature animal companion, granting it additional capabilities. During an encounter, even if you don't use the Command an Animal action, your animal companion can still use 1 action on your turn to Stride or Strike.</p>"
        },
        "featType": {
            "value": "archetype"
        },
        "level": {
            "value": 4
        },
        "prerequisites": {
            "value": [
                {
                    "value": "Cavalier Dedication"
                }
            ]
        },
        "rules": [],
        "source": {
            "value": "Pathfinder Advanced Player's Guide"
        },
        "traits": {
            "custom": "",
            "rarity": "common",
            "value": [
                "archetype"
            ]
        }
    },
    "img": "systems/pf2ettw/icons/features/feats/feats.webp",
    "name": "Impressive Mount",
    "type": "feat"
}
