{
    "_id": "a2RJdxcJAxK2cTrB",
    "data": {
        "actionCategory": {
            "value": ""
        },
        "actionType": {
            "value": "passive"
        },
        "actions": {
            "value": null
        },
        "description": {
            "value": "<p id=\"docs-internal-guid-4bf83732-7fff-b9c4-709f-8aed33d21e6b\" dir=\"ltr\"><em>So long as the enemy lies ahead of you, nothing will halt your advance.</em></p>\n<hr />\n<p dir=\"ltr\">When you @Compendium[pf2ettw.actionspf2ettw.Stride]{Stride} or @Compendium[pf2ettw.actionspf2ettw.Step]{Step}, you can ignore difficult terrain, so long as your movement brings you closer to an enemy than when you started the turn.</p>\n<p dir=\"ltr\">In addition, you ignore the reduction to your Speed from any armour you wear.</p>\n<p dir=\"ltr\"><span id=\"docs-internal-guid-5d4cb152-7fff-519a-7e4c-7c04711cc392\">You ignore spell effects which prevent you from moving in a given direction (such as @Compendium[pf2ettw.spells-srd.Gust of Wind]{Gust of Wind}), but not obstacles created by spells (such as @Compendium[pf2ettw.spells-srd.Wall of Force]{Wall of Force}).</span></p>"
        },
        "featType": {
            "value": "vampire"
        },
        "level": {
            "value": 7
        },
        "location": "",
        "prerequisites": {
            "value": []
        },
        "rules": [],
        "source": {
            "value": ""
        },
        "traits": {
            "custom": "",
            "rarity": "common",
            "value": [
                "vampire",
                "warrior"
            ]
        }
    },
    "img": "systems/pf2ettw/icons/features/feats/feats.webp",
    "name": "Inexorable Advance",
    "type": "feat"
}
