{
    "_id": "N3xyK9keDm00oUY6",
    "data": {
        "actionCategory": {
            "value": ""
        },
        "actionType": {
            "value": "passive"
        },
        "actions": {
            "value": null
        },
        "description": {
            "value": "<p>You can call the fire inside you into the palm of your hand. You can cast the <em>@Compendium[pf2ettw.spells-srd.Produce Flame]{Produce Flame}</em> cantrip as an innate primal or arcane spell at will. A cantrip is heightened to a spell level equal to half your level rounded up.</p>"
        },
        "featType": {
            "value": "ancestry"
        },
        "level": {
            "value": 1
        },
        "location": "",
        "prerequisites": {
            "value": []
        },
        "rules": [],
        "source": {
            "value": "Pathfinder Lost Omens: Ancestry Guide"
        },
        "traits": {
            "custom": "",
            "rarity": "common",
            "value": [
                "ifrit"
            ]
        }
    },
    "img": "systems/pf2ettw/icons/features/feats/feats.webp",
    "name": "Inner Fire (Ifrit)",
    "type": "feat"
}
