{
    "_id": "AbsqV1P8OAhChcRl",
    "data": {
        "actionCategory": {
            "value": "defensive"
        },
        "actionType": {
            "value": "reaction"
        },
        "actions": {
            "value": null
        },
        "description": {
            "value": "<p><strong>Trigger</strong> You and at least one other creature become the target of a spell or effect with the emotion, fear, or mental trait that allows a saving throw, and you haven't rolled the save yet.</p>\n<hr />\n<p>You show defiance in times of hardship and inspire your companions to persevere. Allies within 30 feet of you gain a +1 circumstance bonus to their Will save against the triggering effect, or a +2 circumstance bonus if the effect originated from an undead.</p>\n<p>@Compendium[pf2ettw.feat-effects.Effect: Inspiring Resilience]{Effect: Inspiring Resilience}</p>"
        },
        "featType": {
            "value": "class"
        },
        "level": {
            "value": 4
        },
        "location": null,
        "prerequisites": {
            "value": []
        },
        "rules": [],
        "source": {
            "value": "Pathfinder Lost Omens: Knights of Lastwall"
        },
        "traits": {
            "custom": "",
            "rarity": "uncommon",
            "value": [
                "bard",
                "champion",
                "emotion",
                "mental"
            ]
        }
    },
    "img": "systems/pf2ettw/icons/default-icons/feats.webp",
    "name": "Inspiring Resilience",
    "type": "feat"
}
