{
    "_id": "5iHB5ZFJ25XrZHye",
    "data": {
        "actionCategory": {
            "value": ""
        },
        "actionType": {
            "value": "reaction"
        },
        "actions": {
            "value": null
        },
        "description": {
            "value": "<p><strong>Frequency</strong> once per day</p>\n<p><strong>Trigger</strong> You @Compendium[pf2ettw.actionspf2ettw.Disable Device]{Disable} a hazard.</p>\n<p><strong>Requirements</strong> The hazard isn't broken.</p>\n<hr />\n<p>You awaken a spirit of creation within the hazard. You learn the hazard's effects.</p>\n<p>Once in the next 10 minutes, when you observe a creature take an action that would trigger one of the hazard's reactions or free actions if you hadn't Disabled it, you can use a reaction to rearm the hazard, causing the observed creature to trigger it immediately.</p>"
        },
        "featType": {
            "value": "ancestry"
        },
        "level": {
            "value": 13
        },
        "location": "",
        "prerequisites": {
            "value": []
        },
        "rules": [],
        "source": {
            "value": "Pathfinder Lost Omens: Ancestry Guide"
        },
        "traits": {
            "custom": "",
            "rarity": "common",
            "value": [
                "catfolk",
                "concentrate",
                "occult",
                "transmutation"
            ]
        }
    },
    "img": "systems/pf2ettw/icons/features/feats/feats.webp",
    "name": "Inspirit Hazard",
    "type": "feat"
}
