{
    "_id": "db0RHtFGhCfMx8vT",
    "data": {
        "actionCategory": {
            "value": ""
        },
        "actionType": {
            "value": "passive"
        },
        "actions": {
            "value": null
        },
        "description": {
            "value": "<p>Axis's order suffuses your body and helps it maintain coherency. You and your allies can Treat your Wounds without healer's tools. Once per day, when someone rolls a failure or a critical failure on a check to Treat your Wounds, you can focus on your internal cohesion to increase the degree of success by one step.</p>"
        },
        "featType": {
            "value": "ancestry"
        },
        "level": {
            "value": 1
        },
        "location": "",
        "prerequisites": {
            "value": []
        },
        "rules": [],
        "source": {
            "value": "Pathfinder Lost Omens: Ancestry Guide"
        },
        "traits": {
            "custom": "",
            "rarity": "common",
            "value": [
                "aphorite"
            ]
        }
    },
    "img": "systems/pf2ettw/icons/features/feats/feats.webp",
    "name": "Internal Cohesion",
    "type": "feat"
}
