{
    "_id": "7XcQ8Ygz5cubGxdC",
    "data": {
        "actionCategory": {
            "value": ""
        },
        "actionType": {
            "value": "passive"
        },
        "actions": {
            "value": null
        },
        "description": {
            "value": "<p>You play out battles in your head, allowing you to Strike when the time is right. You gain the @Compendium[pf2ettw.actionspf2ettw.Devise a Stratagem]{Devise a Strategem} action; however, when you substitute its result for your attack roll, you can't use your Intelligence modifier in place of your Strength or Dexterity modifier.</p>\n<p>You also can't use your Intelligence modifier on other rolls from abilities that expand Devise a Stratagem, such as the @Compendium[pf2ettw.feats-srd.Athletic Strategist]{Athletic Strategist} feat.</p>"
        },
        "featType": {
            "value": "archetype"
        },
        "level": {
            "value": 4
        },
        "location": "",
        "prerequisites": {
            "value": [
                {
                    "value": "Investigator Dedication"
                }
            ]
        },
        "rules": [
            {
                "key": "GrantItem",
                "uuid": "Compendium.pf2ettw.actionspf2ettw.Devise a Stratagem"
            }
        ],
        "source": {
            "value": "Pathfinder Advanced Player's Guide"
        },
        "traits": {
            "custom": "",
            "rarity": "common",
            "value": [
                "archetype"
            ]
        }
    },
    "img": "systems/pf2ettw/icons/features/feats/feats.webp",
    "name": "Investigator's Stratagem",
    "type": "feat"
}
