{
    "_id": "4S5mKMrZWV4beNNL",
    "data": {
        "actionCategory": {
            "value": ""
        },
        "actionType": {
            "value": "action"
        },
        "actions": {
            "value": 1
        },
        "description": {
            "value": "<p id=\"docs-internal-guid-a3d21cb9-7fff-cf24-108f-0fac2adb44c7\" dir=\"ltr\"><em>So potent is your will that you can empower your allies as well as yourself</em></p>\n<hr />\n<p dir=\"ltr\">Spend a blood point. All allies within 30 feet may take a single action. A character cannot gain more than a single action this way in a round.</p>"
        },
        "featType": {
            "value": "vampire"
        },
        "level": {
            "value": 9
        },
        "location": "",
        "prerequisites": {
            "value": [
                {
                    "value": "3 Presence Feats"
                }
            ]
        },
        "rules": [],
        "source": {
            "value": ""
        },
        "traits": {
            "custom": "",
            "rarity": {
                "value": "common"
            },
            "value": [
                "presence",
                "vampire"
            ]
        }
    },
    "img": "systems/pf2ettw/icons/features/feats/feats.webp",
    "name": "Invigorating Presence",
    "type": "feat"
}
