{
    "_id": "Tu5Fr5GhY8vveQln",
    "data": {
        "actionCategory": {
            "value": ""
        },
        "actionType": {
            "value": "passive"
        },
        "actions": {
            "value": null
        },
        "description": {
            "value": "<p id=\"docs-internal-guid-9268010a-7fff-8684-96c2-8008b0fd3136\" dir=\"ltr\"><em>For even the most resilient of foes, a well chosen strike can yield great rewards.</em></p>\n<hr />\n<p dir=\"ltr\">Your attacks and spells ignore an amount of resistance to precision damage equal to half your level. Against creatures which are immune to precision damage, you instead halve the precision damage you would deal.</p>"
        },
        "featType": {
            "value": "vampire"
        },
        "level": {
            "value": 7
        },
        "location": "",
        "prerequisites": {
            "value": []
        },
        "rules": [],
        "source": {
            "value": ""
        },
        "traits": {
            "custom": "",
            "rarity": {
                "value": "common"
            },
            "value": [
                "sage",
                "vampire"
            ]
        }
    },
    "img": "systems/pf2ettw/icons/features/feats/feats.webp",
    "name": "It Can Bleed",
    "type": "feat"
}
