{
    "_id": "xDCtfNtbnaG166cy",
    "data": {
        "actionCategory": {
            "value": ""
        },
        "actionType": {
            "value": "passive"
        },
        "actions": {
            "value": null
        },
        "description": {
            "value": "<p>The magic of jann runs through your blood. You can cast <em>@Compendium[pf2ettw.spells-srd.Enlarge]{Enlarge}</em> and <em>@Compendium[pf2ettw.spells-srd.Speak with Animals]{Speak with Animals}</em> once per day each as 2nd-level arcane innate spells.</p>"
        },
        "featType": {
            "value": "ancestry"
        },
        "level": {
            "value": 9
        },
        "location": "",
        "prerequisites": {
            "value": []
        },
        "rules": [],
        "source": {
            "value": "Pathfinder Lost Omens: Ancestry Guide"
        },
        "traits": {
            "custom": "",
            "rarity": "common",
            "value": [
                "suli"
            ]
        }
    },
    "img": "systems/pf2ettw/icons/features/feats/feats.webp",
    "name": "Janni Magic",
    "type": "feat"
}
