{
    "_id": "TW0fUdqqB69rIbRx",
    "data": {
        "actionCategory": {
            "value": "offensive"
        },
        "actionType": {
            "value": "action"
        },
        "actions": {
            "value": 2
        },
        "description": {
            "value": "<p>You move forward, creating an opening for others to follow. Choose one adjacent ally who has a reaction available. You Stride, and that ally can use their reaction to immediately Stride. The ally must end their Stride adjacent to you. If the ally Strides in this way, they don't trigger reactions that are normally triggered by movement. You, however, still trigger those reactions normally.</p>"
        },
        "featType": {
            "value": "archetype"
        },
        "level": {
            "value": 10
        },
        "location": null,
        "prerequisites": {
            "value": [
                {
                    "value": "Knight Vigilant Dedication"
                }
            ]
        },
        "rules": [],
        "source": {
            "value": "Pathfinder Lost Omens: Knights of Lastwall"
        },
        "traits": {
            "custom": "",
            "rarity": "common",
            "value": [
                "archetype"
            ]
        }
    },
    "img": "systems/pf2ettw/icons/default-icons/feats.webp",
    "name": "Lead the Way",
    "type": "feat"
}
