{
    "_id": "peUBtdoG5LyVaf5g",
    "data": {
        "actionCategory": {
            "value": ""
        },
        "actionType": {
            "value": "passive"
        },
        "actions": {
            "value": null
        },
        "description": {
            "value": "<p>After years of study and careful planning, you finally completed a soul cage to house your soul and successfully performed a ritual to transform yourself into a lich. Now, neither death nor time can prevent you from pursuing your studies and achieving your grand ambitions. You gain the undead trait and the basic undead benefits. Your undead craving is for knowledge.</p>\n<p>You gain a unique <em>@Compendium[pf2ettw.equipment-srd.Soul Cage]{Soul Cage}</em>—a magic item that houses your soul. Whenever you would die, your soul flees to the soul cage to allow you to be rebuilt. As long as your soul cage exists, you can't truly be destroyed.</p>\n<p><strong>Special</strong> You can't select another dedication feat until you have gained two other feats from the lich archetype.</p>"
        },
        "featType": {
            "value": "archetype"
        },
        "level": {
            "value": 12
        },
        "location": null,
        "prerequisites": {
            "value": [
                {
                    "value": "living creature"
                },
                {
                    "value": "ability to cast 6th-level or higher spells from spell slots"
                },
                {
                    "value": "expert in Crafting"
                },
                {
                    "value": "completed ritual to become a lich and crafted a soul cage"
                }
            ]
        },
        "rules": [
            {
                "add": [
                    "undead"
                ],
                "key": "ActorTraits"
            },
            {
                "key": "GrantItem",
                "uuid": "Compendium.pf2ettw.ancestryfeatures.Basic Undead Benefits"
            }
        ],
        "source": {
            "value": "Pathfinder Book of the Dead"
        },
        "traits": {
            "custom": "",
            "rarity": "rare",
            "value": [
                "archetype",
                "dedication"
            ]
        }
    },
    "img": "systems/pf2ettw/icons/default-icons/feats.webp",
    "name": "Lich Dedication",
    "type": "feat"
}
