{
    "_id": "iNrR4WOB1UO9iiNE",
    "data": {
        "actionCategory": {
            "value": ""
        },
        "actionType": {
            "value": "passive"
        },
        "actions": {
            "value": null
        },
        "description": {
            "value": "<p>You have a limited ability to sense life force, like your psychopomp forebears.</p>\n<p>You gain lifesense as an imprecise sense with a range of 10 feet. This allows you to sense the life force within living creatures and its counterforce that animates the undead, though you can't distinguish between the two.</p>"
        },
        "featType": {
            "value": "ancestry"
        },
        "level": {
            "value": 5
        },
        "location": null,
        "prerequisites": {
            "value": []
        },
        "rules": [
            {
                "acuity": "imprecise",
                "key": "Sense",
                "range": 10,
                "selector": "lifesense"
            }
        ],
        "source": {
            "value": "Pathfinder Advanced Player's Guide"
        },
        "traits": {
            "custom": "",
            "rarity": "common",
            "value": [
                "divination",
                "divine",
                "duskwalker"
            ]
        }
    },
    "img": "systems/pf2ettw/icons/features/feats/feats.webp",
    "name": "Lifesense",
    "type": "feat"
}
