{
    "_id": "9WzZc110jCNnjjRz",
    "data": {
        "actionCategory": {
            "value": ""
        },
        "actionType": {
            "value": "passive"
        },
        "actions": {
            "value": null
        },
        "description": {
            "value": "<p>You've sworn to rid the world of the self - righteousness of celestial beings. Add the following tenet to your code, after the other tenets. \"You must banish or slay celestials you encounter as long as you have a reasonable chance of success.\"</p>\n<p>When you use your champion's reaction against a celestial, the extra damage you deal with @Compendium[pf2ettw.actionspf2ettw.Strike]{Strikes} increases by 1 (or by 2 at 9th level and by 3 at 16th level).</p>\n<p>In the event that you encounter a subject of your oath which you are convinced poses no threat to the tenets of your pantheon, deity, or conviction, you do not have to banish, kill or otherwise oppose it.</p>"
        },
        "featType": {
            "value": "class"
        },
        "level": {
            "value": 2
        },
        "location": "",
        "prerequisites": {
            "value": []
        },
        "rules": [
            {
                "domain": "damage-roll",
                "key": "RollOption",
                "label": "Used champion's reaction against a celestial",
                "option": "lightslayer-oath",
                "toggleable": true
            },
            {
                "damageType": "negative",
                "key": "FlatModifier",
                "label": "Lightslayer Oath",
                "predicate": {
                    "all": [
                        "lightslayer-oath"
                    ],
                    "any": [
                        "iron-command-negative",
                        "selfish-shield-negative",
                        "destructive-vengeance-negative"
                    ]
                },
                "selector": "strike-damage",
                "slug": "lightslayer-neg",
                "value": {
                    "brackets": [
                        {
                            "end": 8,
                            "value": 1
                        },
                        {
                            "end": 15,
                            "start": 9,
                            "value": 2
                        },
                        {
                            "start": 16,
                            "value": 3
                        }
                    ]
                }
            },
            {
                "damageType": "evil",
                "key": "FlatModifier",
                "label": "Lightslayer Oath",
                "predicate": {
                    "all": [
                        "lightslayer-oath"
                    ],
                    "any": [
                        "iron-command-evil",
                        "selfish-shield-evil",
                        "destructive-vengeance-evil"
                    ]
                },
                "selector": "strike-damage",
                "slug": "lightslayer-evil",
                "value": {
                    "brackets": [
                        {
                            "end": 8,
                            "value": 1
                        },
                        {
                            "end": 15,
                            "start": 9,
                            "value": 2
                        },
                        {
                            "start": 16,
                            "value": 3
                        }
                    ]
                }
            }
        ],
        "source": {
            "value": "Pathfinder Advanced Player's Guide"
        },
        "traits": {
            "custom": "",
            "rarity": "uncommon",
            "value": [
                "champion",
                "oath"
            ]
        }
    },
    "img": "systems/pf2ettw/icons/features/feats/feats.webp",
    "name": "Lightslayer Oath",
    "type": "feat"
}
