{
    "_id": "DXY8PZUJdflw2dii",
    "data": {
        "actionCategory": {
            "value": ""
        },
        "actionType": {
            "value": "passive"
        },
        "actions": {
            "value": null
        },
        "description": {
            "value": "<p><em>You mark a line upon the ground in front of you, and dare any to cross it.</em></p>\n<hr />\n<p dir=\"ltr\">Mark a 25 foot line such that at least one point of the line is adjacent to you <span id=\"docs-internal-guid-620aa705-7fff-5e26-0515-23676dac124c\">- this line is visible to other creatures for the duration of the effect.</span></p>\n<p dir=\"ltr\">Until the start of your next turn, you can use the @Compendium[pf2ettw.actionspf2ettw.Hold the Line!]{Hold the Line!} reaction.</p>\n<p dir=\"ltr\">Until the start of your next turn, at the start of each enemy's turn, you gain an additional reaction which can only be used during that enemy's turn and can only be used for Hold the Line!</p>"
        },
        "featType": {
            "value": "vampire"
        },
        "level": {
            "value": 13
        },
        "location": "",
        "prerequisites": {
            "value": []
        },
        "rules": [],
        "source": {
            "value": ""
        },
        "traits": {
            "custom": "",
            "rarity": "common",
            "value": [
                "flourish",
                "vampire",
                "warrior"
            ]
        }
    },
    "img": "systems/pf2ettw/icons/features/feats/feats.webp",
    "name": "Line in the Sand",
    "type": "feat"
}
