{
    "_id": "5fd95NhJJ55hm0Qt",
    "data": {
        "actionCategory": {
            "value": ""
        },
        "actionType": {
            "value": "passive"
        },
        "actions": {
            "value": null
        },
        "description": {
            "value": "<p>Your bond replenishes your focus. If you have spent at least 3 Focus Points since the last time you @Compendium[pf2ettw.actionspf2ettw.Refocus]{Refocused}, you recover 3 Focus Points when you Refocus instead of 1.</p>"
        },
        "featType": {
            "value": "class"
        },
        "level": {
            "value": 18
        },
        "location": "",
        "prerequisites": {
            "value": [
                {
                    "value": "Link Focus"
                }
            ]
        },
        "rules": [],
        "source": {
            "value": ""
        },
        "traits": {
            "custom": "",
            "rarity": "common",
            "value": [
                "summoner"
            ]
        }
    },
    "img": "systems/pf2ettw/icons/features/feats/feats.webp",
    "name": "Link Wellspring",
    "type": "feat"
}
