{
    "_id": "Jk6gZzXEABiX5A0S",
    "data": {
        "actionCategory": {
            "value": "offensive"
        },
        "actionType": {
            "value": "action"
        },
        "actions": {
            "value": 1
        },
        "description": {
            "value": "<p>Your unpredictable gunfire often catches enemies off guard or hits unprotected areas. Make a ranged Strike with a firearm against a creature that you haven't already attacked on this turn. You gain a circumstance bonus to damage on this Strike equal to the number of weapon damage dice. The Strike gains the following failure effect.</p>\n<hr />\n<p><strong>Failure</strong> The firearm misfires, but it doesn't cause the other critical failure effects listed below.</p>\n<p><strong>Critical Failure</strong> The firearm misfires and also explodes. It becomes broken, and it deals its normal weapon damage to all creatures in a @Template[type:burst|distance:20] centered on the firearm, with a @Check[type:reflex|dc:resolve(@actor.attributes.classDC.value)|basic:true] against your class DC. This damage includes any from the weapon's fundamental and property runes.</p>"
        },
        "featType": {
            "value": "archetype"
        },
        "level": {
            "value": 4
        },
        "location": null,
        "prerequisites": {
            "value": [
                {
                    "value": "Alkenstar Agent Dedication"
                }
            ]
        },
        "rules": [],
        "source": {
            "value": "Pathfinder #178: Punks in a Powder Keg"
        },
        "traits": {
            "custom": "",
            "rarity": "common",
            "value": [
                "archetype"
            ]
        }
    },
    "img": "systems/pf2ettw/icons/default-icons/feats.webp",
    "name": "Loose Cannon",
    "type": "feat"
}
