{
    "_id": "cdeVm8fTDzrP71Sw",
    "data": {
        "actionCategory": {
            "value": ""
        },
        "actionType": {
            "value": "passive"
        },
        "actions": {
            "value": null
        },
        "description": {
            "value": "<p>You know that fate sometimes conspires to keep dangerous knowledge or items from the eyes of those most able to understand them. You deny fate the ability to conceal truths from you. You can cast <em>@Compendium[pf2ettw.spells-srd.Locate]{Locate}</em> as an innate occult spell once per day. When you reach 14th level, this spell is heightened to 5th level.</p>"
        },
        "featType": {
            "value": "archetype"
        },
        "level": {
            "value": 8
        },
        "location": "",
        "prerequisites": {
            "value": [
                {
                    "value": "Eldritch Researcher Dedication"
                }
            ]
        },
        "rules": [],
        "source": {
            "value": "Pathfinder #164: Hands of the Devil"
        },
        "traits": {
            "custom": "",
            "rarity": "common",
            "value": [
                "archetype"
            ]
        }
    },
    "img": "systems/pf2ettw/icons/default-icons/feats.webp",
    "name": "Lorefinder",
    "type": "feat"
}
