{
    "_id": "5FOqVC9Q0eEKEf3w",
    "data": {
        "actionCategory": {
            "value": ""
        },
        "actionType": {
            "value": "passive"
        },
        "actions": {
            "value": null
        },
        "description": {
            "value": "<p><strong>Archetype</strong> @Compendium[pf2ettw.archetypes.Magic Warrior]{Magic Warrior}</p>\n<p><strong>Access</strong> You are from the Mwangi Expanse.</p>\n<hr />\n<p>You have taken up a nameless mask and sworn the oath of the magic warriors. You become trained in your choice of Arcana or Nature and in Magic Warrior Lore; if you were already trained in the skill, you become an expert instead.</p>\n<p>You hide your identity behind a mask representing an animal of your choice, corresponding to one of the general animal types in the animal form spell. You gain a +1 circumstance bonus to saves against pination effects, though sometimes refusing to remove your mask can cause issues in areas that don't respect or understand the magic warrior tradition.</p>\n<p>Once you take this feat, if another creature ever learns your true face or name, you lose your abilities from this archetype. Close allies who knew of your decision to take the mask before your dedication don't break this taboo unless they tell someone else. To regain your abilities, you must discard your mask and obtain a new one of a different animal, then retrain Magic Warrior Dedication into a new Magic Warrior Dedication with your new mask. Your focus spells from the magic warrior archetype are the same tradition as your other spells (choose one if you have spells from multiple traditions).</p>\n<p><strong>Special</strong> You cannot select another dedication feat until you have gained two other feats from the magic warrior archetype.</p>"
        },
        "featType": {
            "value": "archetype"
        },
        "level": {
            "value": 2
        },
        "location": "",
        "prerequisites": {
            "value": [
                {
                    "value": "ability to cast focus spells"
                }
            ]
        },
        "rules": [
            {
                "key": "FlatModifier",
                "label": "vs. divination (Magic Warrior Dedication)",
                "predicate": {
                    "all": [
                        "divination"
                    ]
                },
                "selector": "saving-throw",
                "type": "circumstance",
                "value": 1
            }
        ],
        "source": {
            "value": "Pathfinder Lost Omens: World Guide"
        },
        "traits": {
            "custom": "",
            "rarity": "uncommon",
            "value": [
                "archetype",
                "dedication"
            ]
        }
    },
    "img": "systems/pf2ettw/icons/features/feats/feats.webp",
    "name": "Magic Warrior Dedication",
    "type": "feat"
}
