{
    "_id": "AuIE19F9rY3YvXf6",
    "data": {
        "actionCategory": {
            "value": ""
        },
        "actionType": {
            "value": "passive"
        },
        "actions": {
            "value": null
        },
        "description": {
            "value": "<p>While study is key to your success, a bit of magic is a helpful tool in discovering the secrets of the past. You gain <em>@Compendium[pf2ettw.spells-srd.Detect Magic]{Detect Magic}</em>, <em>@Compendium[pf2ettw.spells-srd.Guidance]{Guidance}</em>, and <em>@Compendium[pf2ettw.spells-srd.Read Aura]{Read Aura}</em> as occult innate cantrips.</p>"
        },
        "featType": {
            "value": "archetype"
        },
        "level": {
            "value": 4
        },
        "prerequisites": {
            "value": [
                {
                    "value": "Archaeologist Dedication"
                }
            ]
        },
        "rules": [],
        "source": {
            "value": "Pathfinder Advanced Player's Guide"
        },
        "traits": {
            "custom": "",
            "rarity": "common",
            "value": [
                "archetype"
            ]
        }
    },
    "img": "systems/pf2ettw/icons/features/feats/feats.webp",
    "name": "Magical Scholastics",
    "type": "feat"
}
