{
    "_id": "oJcRhuJTeSfTOZM3",
    "data": {
        "actionCategory": {
            "value": ""
        },
        "actionType": {
            "value": "passive"
        },
        "actions": {
            "value": null
        },
        "description": {
            "value": "<p><span id=\"docs-internal-guid-7b62100f-7fff-0fad-c741-351b55b55587\">You replace your 5th-level spell slots with a single 7th-level spell slot.</span></p>\n<p><span id=\"docs-internal-guid-7b62100f-7fff-0fad-c741-351b55b55587\">At 18th level, you replace your 6th-level spell slots with a single 8th-level spell slot.</span></p>\n<p><span id=\"docs-internal-guid-7b62100f-7fff-0fad-c741-351b55b55587\">At 20th level, you replace your 7th-level spell slots with a single 9th-level spell slot.</span></p>\n<p><span id=\"docs-internal-guid-7b62100f-7fff-0fad-c741-351b55b55587\">The spells you add to your Thaumoclast spell repertoire must be primal spells from the evocation school. You become a master with spell attack rolls and spell DCs for primal spells.</span></p>"
        },
        "featType": {
            "value": "archetype"
        },
        "level": {
            "value": 16
        },
        "location": "",
        "prerequisites": {
            "value": [
                {
                    "value": "Expert Thaumoclast Spellcasting"
                }
            ]
        },
        "rules": [
            {
                "key": "ActiveEffectLike",
                "mode": "upgrade",
                "path": "data.proficiencies.traditions.primal.rank",
                "value": 3
            }
        ],
        "source": {
            "value": ""
        },
        "traits": {
            "custom": "",
            "rarity": {
                "value": "common"
            },
            "value": [
                "archetype"
            ]
        }
    },
    "img": "systems/pf2ettw/icons/default-icons/feats.webp",
    "name": "Master Thaumoclast Spellcasting",
    "type": "feat"
}
