{
    "_id": "rxacvgLNGJMbYwcf",
    "data": {
        "actionCategory": {
            "value": ""
        },
        "actionType": {
            "value": "passive"
        },
        "actions": {
            "value": null
        },
        "description": {
            "value": "<p><em>Those who seek to venture into the citadel of your mind had best come well prepared.</em></p>\n<hr />\n<p dir=\"ltr\">You gain a +2 status bonus to Will saves against mental effects.</p>\n<p dir=\"ltr\">Any time you critically succeed on a Will save against a magical mental effect, the source of the effect is affected as though they had triggered a 4th-level @Compendium[pf2ettw.spells-srd.Animus Mine]{Animus Mine} Vampire spell.</p>"
        },
        "featType": {
            "value": "vampire"
        },
        "level": {
            "value": 13
        },
        "location": "",
        "prerequisites": {
            "value": [
                {
                    "value": "1 Presence Feat"
                }
            ]
        },
        "rules": [
            {
                "key": "FlatModifier",
                "predicate": {
                    "all": [
                        "mental"
                    ]
                },
                "selector": "will",
                "type": "status",
                "value": 2
            },
            {
                "key": "Note",
                "selector": "will",
                "text": "<p class='compact-text'><strong>{item|name}</strong> Any time you critically succeed on a Will save against a magical mental effect, the source of the effect is affected as though they had triggered a 2nd-level Animus Mine Vampire spell.</p>"
            }
        ],
        "source": {
            "value": ""
        },
        "traits": {
            "custom": "",
            "rarity": "common",
            "value": [
                "presence",
                "vampire"
            ]
        }
    },
    "img": "systems/pf2ettw/icons/features/feats/feats.webp",
    "name": "Mental Fortress",
    "type": "feat"
}
