{
    "_id": "Nd6SRPTKKCx4Vl5G",
    "data": {
        "actionCategory": {
            "value": ""
        },
        "actionType": {
            "value": "passive"
        },
        "actions": {
            "value": null
        },
        "description": {
            "value": "<p id=\"docs-internal-guid-fa82de02-7fff-fb66-4272-4443e35fb791\" dir=\"ltr\"><em>Within your realm, the land and its creatures are yours to command.</em></p>\n<hr />\n<p dir=\"ltr\">Identify an area of 2 mile radius surrounding your place of power.</p>\n<p dir=\"ltr\">Whilst you are within the area, you are aware of all significant entities within it unless they are taking specific measures to avoid magical detection, and maintain a general sense of the other contents of the area (you can compartmentalise this awareness, so as to avoid it becoming overwhelming or distracting).</p>\n<p dir=\"ltr\">Animals and other natural entities within the area are @Compendium[pf2ettw.conditionitems.Helpful]{Helpful} towards you, so long as you do not seek to harm them or the area, and may be @Compendium[pf2ettw.conditionitems.Hostile]{Hostile} to your foes.</p>\n<p id=\"docs-internal-guid-e7eae5c0-7fff-2d6c-0882-ff52e6fb0aaf\" dir=\"ltr\">The fast healing and bonuses to perception and skill checks granted by @Compendium[pf2ettw.feats-srd.Place of Power]{Place of Power} apply within the entire area. Whilst within the area you also gain resistance 10 to all damage you do not have a weakness to, or increase any existing resistances by this amount.</p>\n<p dir=\"ltr\">In addition, once per day, you can cast @Compendium[pf2ettw.spells-srd.Nature's Enmity]{Nature's Enmity} anywhere within the radius.</p>"
        },
        "featType": {
            "value": "vampire"
        },
        "level": {
            "value": 19
        },
        "location": "",
        "prerequisites": {
            "value": [
                {
                    "value": "Place of Power"
                }
            ]
        },
        "rules": [],
        "source": {
            "value": ""
        },
        "traits": {
            "custom": "",
            "rarity": "common",
            "value": [
                "nocturnus",
                "vampire"
            ]
        }
    },
    "img": "systems/pf2ettw/icons/features/feats/feats.webp",
    "name": "Midnight Realm",
    "type": "feat"
}
