{
    "_id": "lhOwSgfCZkzS7tih",
    "data": {
        "actionCategory": {
            "value": ""
        },
        "actionType": {
            "value": "passive"
        },
        "actions": {
            "value": null
        },
        "description": {
            "value": "<p id=\"docs-internal-guid-9cb70242-7fff-1d33-30d0-b12d7288f496\" dir=\"ltr\"><em>You bring battle to the very mind of your foe.</em></p>\n<hr />\n<p dir=\"ltr\">You gain the @Compendium[pf2ettw.spells-srd.Mind War]{Mind War} focus spell.</p>\n<p dir=\"ltr\">Increase the number of Focus Points in your focus pool by 1. If you don't have one, you gain a focus pool of 1 Focus Point.</p>"
        },
        "featType": {
            "value": "vampire"
        },
        "level": {
            "value": 15
        },
        "location": "",
        "prerequisites": {
            "value": [
                {
                    "value": "3 Presence Feats"
                }
            ]
        },
        "rules": [
            {
                "key": "ActiveEffectLike",
                "mode": "add",
                "path": "data.resources.focus.max",
                "value": 1
            }
        ],
        "source": {
            "value": ""
        },
        "traits": {
            "custom": "",
            "rarity": {
                "value": "common"
            },
            "value": [
                "presence",
                "vampire"
            ]
        }
    },
    "img": "systems/pf2ettw/icons/features/feats/feats.webp",
    "name": "Mind War",
    "type": "feat"
}
