{
    "_id": "xOCmeskMkd8nCmba",
    "data": {
        "actionCategory": {
            "value": ""
        },
        "actionType": {
            "value": "passive"
        },
        "actions": {
            "value": null
        },
        "description": {
            "value": "<p>Your mother was a moon hag, a handmaiden of Groetus, and you have a single scarlet eye and a sliver of her supernal foresight. You can cast <em>@Compendium[pf2ettw.spells-srd.Guidance]{Guidance}</em> as an occult innate cantrip. A cantrip is heightened to a spell level equal to half your level rounded up.</p>"
        },
        "featType": {
            "value": "ancestry"
        },
        "level": {
            "value": 1
        },
        "location": "",
        "onlyLevel1": true,
        "prerequisites": {
            "value": []
        },
        "rules": [],
        "source": {
            "value": "Pathfinder Lost Omens: Ancestry Guide"
        },
        "traits": {
            "custom": "",
            "rarity": "common",
            "value": [
                "changeling",
                "lineage"
            ]
        }
    },
    "img": "systems/pf2ettw/icons/features/feats/feats.webp",
    "name": "Moon May",
    "type": "feat"
}
