{
    "_id": "R337W7VveJxlEddE",
    "data": {
        "actionCategory": {
            "value": ""
        },
        "actionType": {
            "value": "passive"
        },
        "actions": {
            "value": null
        },
        "description": {
            "value": "<p>Regular exposure to necromantic effects left you better able to defend against them. When you have your shield raised, you gain your shield's circumstance bonus to saving throws against effects that would deal negative damage. If you have the Shield Block reaction, negative damage you take can trigger the reaction, even though the damage isn't physical damage.</p>"
        },
        "featType": {
            "value": "archetype"
        },
        "level": {
            "value": 8
        },
        "location": null,
        "prerequisites": {
            "value": [
                {
                    "value": "Lastwall Sentry Dedication"
                }
            ]
        },
        "rules": [],
        "source": {
            "value": "Pathfinder Lost Omens: Knights of Lastwall"
        },
        "traits": {
            "custom": "",
            "rarity": "common",
            "value": [
                "archetype"
            ]
        }
    },
    "img": "systems/pf2ettw/icons/default-icons/feats.webp",
    "name": "Necromantic Bulwark",
    "type": "feat"
}
