{
    "_id": "LTIARSoQP8WYE33A",
    "data": {
        "actionCategory": {
            "value": ""
        },
        "actionType": {
            "value": "passive"
        },
        "actions": {
            "value": null
        },
        "description": {
            "value": "<p>Your affinity for negative energy spills outward and grants you a refilling well of necromantic essence. Once per hour, you can cast <em>@Compendium[pf2ettw.spells-srd.Harm]{Harm}</em> as a 6th-level divine innate spell.</p>"
        },
        "featType": {
            "value": "ancestry"
        },
        "level": {
            "value": 17
        },
        "location": null,
        "prerequisites": {
            "value": []
        },
        "rules": [],
        "source": {
            "value": "Pathfinder Book of the Dead"
        },
        "traits": {
            "custom": "",
            "rarity": "common",
            "value": [
                "skeleton"
            ]
        }
    },
    "img": "systems/pf2ettw/icons/default-icons/feats.webp",
    "name": "Necromantic Heir",
    "type": "feat"
}
