{
    "_id": "4rVXlEOsPzIK3ZTc",
    "data": {
        "actionCategory": {
            "value": ""
        },
        "actionType": {
            "value": "action"
        },
        "actions": {
            "value": 2
        },
        "description": {
            "value": "<p><strong>Frequency:</strong> Once per day</p>\n<p><strong>Duration:</strong> One minute</p>\n<hr />\n<p id=\"docs-internal-guid-317d5d18-7fff-642b-d1a9-394486ce4190\" dir=\"ltr\">You can transform into a monstrous, nightmarish form. The exact shape of the beast might vary from vampire to vampire, but they share the qualities in @Compendium[pf2ettw.feature-effects.Effect: Nightmare]{Effect: Nightmare}</p>"
        },
        "featType": {
            "value": "vampire"
        },
        "level": {
            "value": 17
        },
        "location": null,
        "prerequisites": {
            "value": []
        },
        "rules": [],
        "source": {
            "value": ""
        },
        "traits": {
            "custom": "",
            "rarity": "common",
            "value": [
                "concentrate",
                "nocturnus",
                "polymorph",
                "transmutation"
            ]
        }
    },
    "img": "systems/pf2ettw/icons/default-icons/feats.webp",
    "name": "Nightmare",
    "type": "feat"
}
