{
    "_id": "sKuhYCfCbXeRWivv",
    "data": {
        "actionCategory": {
            "value": ""
        },
        "actionType": {
            "value": "passive"
        },
        "actions": {
            "value": null
        },
        "description": {
            "value": "<p>You are so used to wielding a shield that you can do so even while using the hand that's holding it for other purposes.</p>\n<p>The hand you use to wield a shield counts as a free hand for the purposes of the @Compendium[pf2ettw.actionspf2ettw.Interact]{Interact} action. You can also hold another object in this hand (but you still can't use it to wield a weapon).</p>\n<p>This benefit doesn't apply to tower shields, which are still too cumbersome.</p>"
        },
        "featType": {
            "value": "archetype"
        },
        "level": {
            "value": 6
        },
        "prerequisites": {
            "value": [
                {
                    "value": "Bastion Dedication"
                }
            ]
        },
        "rules": [],
        "source": {
            "value": "Pathfinder Advanced Player's Guide"
        },
        "traits": {
            "custom": "",
            "rarity": "common",
            "value": [
                "archetype"
            ]
        }
    },
    "img": "systems/pf2ettw/icons/features/feats/feats.webp",
    "name": "Nimble Shield Hand",
    "type": "feat"
}
