{
    "_id": "zPJ2NyMv97AfkN3P",
    "data": {
        "actionCategory": {
            "value": ""
        },
        "actionType": {
            "value": "passive"
        },
        "actions": {
            "value": null
        },
        "description": {
            "value": "<p>Your study of occult practices has shown you how to best defend against them. You gain a +1 circumstance bonus to all saving throws against occult effects.</p>"
        },
        "featType": {
            "value": "ancestry"
        },
        "level": {
            "value": 9
        },
        "location": "",
        "prerequisites": {
            "value": [
                {
                    "value": "expert in Occultism"
                }
            ]
        },
        "rules": [
            {
                "key": "FlatModifier",
                "label": "vs. occult effects (Occult Resistance)",
                "predicate": {
                    "all": [
                        "occult"
                    ]
                },
                "selector": "saving-throw",
                "type": "circumstance",
                "value": 1
            }
        ],
        "source": {
            "value": "Pathfinder Advanced Player's Guide"
        },
        "traits": {
            "custom": "",
            "rarity": "common",
            "value": [
                "changeling"
            ]
        }
    },
    "img": "systems/pf2ettw/icons/features/feats/feats.webp",
    "name": "Occult Resistance",
    "type": "feat"
}
