{
    "_id": "EpA8bCPaxXVFgEMr",
    "data": {
        "actionCategory": {
            "value": "interaction"
        },
        "actionType": {
            "value": "action"
        },
        "actions": {
            "value": 1
        },
        "description": {
            "value": "<p dir=\"ltr\"><em>You draw upon your allies’ vital force to support your efforts.</em></p>\n<hr />\n<p id=\"docs-internal-guid-43935d3b-7fff-9bb5-185b-783df1c14cc3\" dir=\"ltr\"><strong>Target</strong> One willing creature</p>\n<p dir=\"ltr\"><strong>Range</strong> 30 feet</p>\n<hr />\n<p dir=\"ltr\">The target loses Hit Points equal to your level [[/r @actor.level]]; this cannot be reduced by resistances or other mitigation in any way. You regain Hit Points equal to those they lost. If their Hit Points were lower than your level, you regain Hit Points equal to their remaining Hit Points instead.</p>"
        },
        "featType": {
            "value": "vampire"
        },
        "level": {
            "value": 7
        },
        "location": "",
        "prerequisites": {
            "value": []
        },
        "rules": [],
        "source": {
            "value": ""
        },
        "traits": {
            "custom": "",
            "rarity": "common",
            "value": [
                "bloodmage",
                "vampire"
            ]
        }
    },
    "img": "systems/pf2ettw/icons/features/feats/feats.webp",
    "name": "Offering",
    "type": "feat"
}
