{
    "_id": "fD3RSV9nIkJsW6lD",
    "data": {
        "actionCategory": {
            "value": ""
        },
        "actionType": {
            "value": "action"
        },
        "actions": {
            "value": 1
        },
        "description": {
            "value": "<p>Assuming a peculiar stance, you make a short hop on each toe. You make a vertical @Compendium[pf2ettw.actionspf2ettw.Leap]{Leap} without triggering reactions that can be triggered by move actions or upon leaving or entering a square.</p>"
        },
        "featType": {
            "value": "ancestry"
        },
        "level": {
            "value": 5
        },
        "prerequisites": {
            "value": []
        },
        "rules": [],
        "source": {
            "value": "Pathfinder Advanced Player's Guide"
        },
        "traits": {
            "custom": "",
            "rarity": "common",
            "value": [
                "tengu"
            ]
        }
    },
    "img": "systems/pf2ettw/icons/features/feats/feats.webp",
    "name": "One-Toed Hop",
    "type": "feat"
}
