{
    "_id": "KWXoo738KuddWMOB",
    "data": {
        "actionCategory": {
            "value": ""
        },
        "actionType": {
            "value": "passive"
        },
        "actions": {
            "value": null
        },
        "description": {
            "value": "<p>You're always investigating what's around you, even as you perform other activities. You can move at full Speed while using the @Compendium[pf2ettw.actionspf2ettw.Investigate]{Investigate} exploration activity, and you can use another exploration activity while Investigating.</p>"
        },
        "featType": {
            "value": "class"
        },
        "level": {
            "value": 4
        },
        "prerequisites": {
            "value": []
        },
        "rules": [],
        "source": {
            "value": "Pathfinder Advanced Player's Guide"
        },
        "traits": {
            "custom": "",
            "rarity": "common",
            "value": [
                "investigator"
            ]
        }
    },
    "img": "systems/pf2ettw/icons/features/feats/feats.webp",
    "name": "Ongoing Investigation",
    "type": "feat"
}
