{
    "_id": "EFhh3AenX7wtAmrs",
    "data": {
        "actionCategory": {
            "value": ""
        },
        "actionType": {
            "value": "reaction"
        },
        "actions": {
            "value": null
        },
        "description": {
            "value": "<p><strong>Trigger</strong> You attempt a saving throw against a spell or magical effect, before rolling</p>\n<hr />\n<p>You defend yourself against magic by relying on techniques derived from orc cultural superstitions. You gain a +1 circumstance bonus to your saving throw against the triggering spell or magical effect.</p>"
        },
        "featType": {
            "value": "ancestry"
        },
        "level": {
            "value": 1
        },
        "location": "",
        "prerequisites": {
            "value": []
        },
        "rules": [
            {
                "domain": "all",
                "key": "RollOption",
                "option": "orc-superstition",
                "toggleable": true
            },
            {
                "key": "FlatModifier",
                "label": "Orc Superstition",
                "predicate": {
                    "all": [
                        "orc-superstition"
                    ],
                    "any": [
                        "arcane",
                        "divine",
                        "primal",
                        "occult",
                        "magical"
                    ]
                },
                "selector": "saving-throw",
                "type": "circumstance",
                "value": 1
            }
        ],
        "source": {
            "value": "Pathfinder Core Rulebook"
        },
        "traits": {
            "custom": "",
            "rarity": "common",
            "value": [
                "concentrate",
                "orc"
            ]
        }
    },
    "img": "systems/pf2ettw/icons/features/feats/feats.webp",
    "name": "Orc Superstition",
    "type": "feat"
}
