{
    "_id": "oHdUwzUUblg3neCT",
    "data": {
        "actionCategory": {
            "value": ""
        },
        "actionType": {
            "value": "passive"
        },
        "actions": {
            "value": null
        },
        "description": {
            "value": "<p>You have delved deeper into the teaching of a new order, gaining access to a coveted order spell. Choose an order you have selected with @Compendium[pf2ettw.feats-srd.Order Explorer]{Order Explorer}. You gain the initial order spell from that order.</p>\n<p><strong>Special</strong> You can take this feat multiple times. Each time you do, you must choose a different order you have selected with Order Explorer.</p>"
        },
        "featType": {
            "value": "class"
        },
        "level": {
            "value": 4
        },
        "location": "",
        "prerequisites": {
            "value": [
                {
                    "value": "Order Explorer"
                }
            ]
        },
        "rules": [],
        "source": {
            "value": "Pathfinder Core Rulebook"
        },
        "traits": {
            "custom": "",
            "rarity": "common",
            "value": [
                "druid"
            ]
        }
    },
    "img": "systems/pf2ettw/icons/features/feats/feats.webp",
    "name": "Order Magic",
    "type": "feat"
}
