{
    "_id": "LJw0aCNWPVATNDoM",
    "data": {
        "actionCategory": {
            "value": ""
        },
        "actionType": {
            "value": "passive"
        },
        "actions": {
            "value": null
        },
        "description": {
            "value": "<p id=\"docs-internal-guid-20ac9a85-7fff-7d6b-8e68-092b4b49100c\" dir=\"ltr\"><em>Your blade and shield are unerring in defence, somehow always managing to be exactly where they are needed.</em></p>\n<hr />\n<p dir=\"ltr\">Whenever you gain a circumstance bonus to your AC from raising a shielding or parrying, increase that circumstance bonus by 1.</p>\n<p><br /><br /></p>"
        },
        "featType": {
            "value": "vampire"
        },
        "level": {
            "value": 15
        },
        "location": "",
        "prerequisites": {
            "value": []
        },
        "rules": [],
        "source": {
            "value": ""
        },
        "traits": {
            "custom": "",
            "rarity": {
                "value": "common"
            },
            "value": [
                "vampire",
                "warrior"
            ]
        }
    },
    "img": "systems/pf2ettw/icons/features/feats/feats.webp",
    "name": "Peerless Defence",
    "type": "feat"
}
