{
    "_id": "Y4gYfrxjSir2Enui",
    "data": {
        "actionCategory": {
            "value": ""
        },
        "actionType": {
            "value": "passive"
        },
        "actions": {
            "value": null
        },
        "description": {
            "value": "<div><strong>Archetpe</strong> @Compendium[pf2ettw.archetypes.Student of Perfection]{Student of Perfection}</div>\n<div></div>\n<hr />\n<p>You gain the <em>@Compendium[pf2ettw.spells-srd.Perfect Strike]{Perfect Strike}</em> ki spell. Increase the number of Focus Points in your focus pool by 1.</p>"
        },
        "featType": {
            "value": "archetype"
        },
        "level": {
            "value": 4
        },
        "prerequisites": {
            "value": [
                {
                    "value": "Student of Perfection Dedication"
                }
            ]
        },
        "rules": [
            {
                "key": "ActiveEffectLike",
                "mode": "add",
                "path": "data.resources.focus.max",
                "value": 1
            }
        ],
        "source": {
            "value": "Pathfinder Lost Omens: World Guide"
        },
        "traits": {
            "custom": "",
            "rarity": "common",
            "value": [
                "archetype"
            ]
        }
    },
    "img": "systems/pf2ettw/icons/features/feats/feats.webp",
    "name": "Perfect Strike",
    "type": "feat"
}
