{
    "_id": "xAIUuSw5A85XEStY",
    "data": {
        "actionCategory": {
            "value": ""
        },
        "actionType": {
            "value": "passive"
        },
        "actions": {
            "value": null
        },
        "description": {
            "value": "<p>Thanks to magic and muscle memory, you can stay in your alternate forms indefinitely; you may have even forgotten your original form. When you use Form Control, instead of lasting 1 hour, wild shape is permanent until you Dismiss it.</p>"
        },
        "featType": {
            "value": "class"
        },
        "level": {
            "value": 18
        },
        "prerequisites": {
            "value": [
                {
                    "value": "Form Control"
                },
                {
                    "value": "Strength 18"
                }
            ]
        },
        "rules": [],
        "source": {
            "value": "Pathfinder Core Rulebook"
        },
        "traits": {
            "custom": "",
            "rarity": "common",
            "value": [
                "druid"
            ]
        }
    },
    "img": "systems/pf2ettw/icons/features/feats/feats.webp",
    "name": "Perfect Form Control",
    "type": "feat"
}
