{
    "_id": "Yl2wYv24v5kw95aS",
    "data": {
        "actionCategory": {
            "value": ""
        },
        "actionType": {
            "value": "action"
        },
        "actions": {
            "value": 1
        },
        "description": {
            "value": "<p><strong>Requirements</strong> You are wielding a ranged weapon</p>\n<hr />\n<p>You take aim to pick off nearby enemies quickly.</p>\n<p>When using a ranged volley weapon while you are in this stance, you don't take the penalty to your attack rolls from the volley trait. When using a ranged weapon that doesn't have the volley trait, you gain a +2 circumstance bonus to damage rolls on attacks against targets within the weapon's first range increment.</p>\n<p>@Compendium[pf2ettw.feat-effects.Stance: Point-Blank Shot]{Stance: Point-Blank Shot}</p>"
        },
        "duration": {
            "expiry": "turn-start",
            "sustained": false,
            "unit": "minutes",
            "value": 1
        },
        "featType": {
            "value": "class"
        },
        "identified": {
            "value": true
        },
        "level": {
            "value": 1
        },
        "location": "class-1",
        "prerequisites": {
            "value": []
        },
        "rules": [],
        "source": {
            "value": "Pathfinder Core Rulebook"
        },
        "start": {
            "initiative": null,
            "value": 103462347
        },
        "target": null,
        "traits": {
            "custom": "",
            "rarity": "common",
            "value": [
                "fighter",
                "open",
                "stance"
            ]
        }
    },
    "img": "systems/pf2ettw/icons/features/feats/feats.webp",
    "name": "Point-Blank Shot",
    "type": "feat"
}
