{
    "_id": "EeSP1SNlgAuASvkP",
    "data": {
        "actionCategory": {
            "value": "defensive"
        },
        "actionType": {
            "value": "reaction"
        },
        "actions": {
            "value": null
        },
        "description": {
            "value": "<p><strong>Trigger</strong> You're targeted by a Strike or a spell attack roll, or you're about to roll a saving throw against a spell effect.</p>\n<p><strong>Requirements</strong> You have one or more hands free.</p>\n<hr />\n<p>You snap your weapon or limb into place to ward off harm at the last second. You gain a +2 circumstance bonus to AC and saving throws against the triggering effect until the start of your next turn.</p>"
        },
        "featType": {
            "value": "class"
        },
        "level": {
            "value": 14
        },
        "location": "",
        "prerequisites": {
            "value": [
                {
                    "value": "Spell Parry"
                }
            ]
        },
        "rules": [],
        "source": {
            "value": ""
        },
        "traits": {
            "custom": "",
            "rarity": "common",
            "value": [
                "magus"
            ]
        }
    },
    "img": "systems/pf2ettw/icons/features/feats/feats.webp",
    "name": "Preternatural Parry",
    "type": "feat"
}
