{
    "_id": "Xw7qG0SHepXx24vl",
    "data": {
        "actionCategory": {
            "value": ""
        },
        "actionType": {
            "value": "reaction"
        },
        "actions": {
            "value": null
        },
        "description": {
            "value": "<p><strong>Trigger</strong> You are targeted by an attack or attempt a Reflex saving throw against a damaging effect, and you are in a stance.</p>\n<hr />\n<p>Your willingness to flow from one stance to another lets you sacrifice their benefits to better protect yourself.</p>\n<p>You leave the stance you were in, gaining a +4 circumstance bonus to the triggering saving throw or to your AC against the triggering attack.</p>\n<p>@Compendium[pf2ettw.feat-effects.Effect: Prevailing Position]{Effect: Prevailing Position}</p>"
        },
        "featType": {
            "value": "class"
        },
        "level": {
            "value": 10
        },
        "location": "",
        "prerequisites": {
            "value": [
                {
                    "value": "at least one stance feat"
                }
            ]
        },
        "rules": [],
        "source": {
            "value": "Pathfinder Advanced Player's Guide"
        },
        "traits": {
            "custom": "",
            "rarity": "common",
            "value": [
                "monk"
            ]
        }
    },
    "img": "systems/pf2ettw/icons/features/feats/feats.webp",
    "name": "Prevailing Position",
    "type": "feat"
}
