{
    "_id": "MSqgBffcAXTg700A",
    "data": {
        "actionCategory": {
            "value": ""
        },
        "actionType": {
            "value": "passive"
        },
        "actions": {
            "value": null
        },
        "description": {
            "value": "<p>You provide preventative remedies and care to help your patient fight off future maladies. You Treat a Condition the target doesn't yet have, naming any condition you could normally treat with Treat Condition. The counteract check gains the secret trait, so the GM rolls it secretly. The next time within the next minute the creature would be affected by that condition, your treatment immediately attempts to reduce the condition value with the effects of Treat Condition, using the secret roll result for the check. Preventative Treatment lasts on a creature for 1 minute, until the treatment is used, or until you use Preventative Treatment again on that creature, whichever comes first.</p>"
        },
        "featType": {
            "value": "archetype"
        },
        "level": {
            "value": 8
        },
        "location": null,
        "prerequisites": {
            "value": [
                {
                    "value": "Medic Dedication"
                },
                {
                    "value": "Treat Condition"
                }
            ]
        },
        "rules": [],
        "source": {
            "value": "Pathfinder Lost Omens: Knights of Lastwall"
        },
        "traits": {
            "custom": "",
            "rarity": "uncommon",
            "value": [
                "archetype",
                "secret"
            ]
        }
    },
    "img": "systems/pf2ettw/icons/default-icons/feats.webp",
    "name": "Preventative Treatment",
    "type": "feat"
}
