{
    "_id": "AbjVJIBdNjbQbVnV",
    "data": {
        "actionCategory": {
            "value": ""
        },
        "actionType": {
            "value": "passive"
        },
        "actions": {
            "value": null
        },
        "description": {
            "value": "<p>You surround yourself with a thick field of protective primal energy. You and allies within 30 feet of you gain resistance equal to your Wisdom modifier to acid, cold, electricity, fire, negative, and positive damage.</p>"
        },
        "featType": {
            "value": "class"
        },
        "level": {
            "value": 18
        },
        "prerequisites": {
            "value": []
        },
        "rules": [],
        "source": {
            "value": "Pathfinder Advanced Player's Guide"
        },
        "traits": {
            "custom": "",
            "rarity": "common",
            "value": [
                "druid"
            ]
        }
    },
    "img": "systems/pf2ettw/icons/features/feats/feats.webp",
    "name": "Primal Aegis",
    "type": "feat"
}
