{
    "_id": "otLs7XzMXR1cZKGe",
    "data": {
        "actionCategory": {
            "value": ""
        },
        "actionType": {
            "value": "passive"
        },
        "actions": {
            "value": null
        },
        "description": {
            "value": "<p>When you start to juggle or add another item to those you are Juggling, you add two items instead of one. Increase the maximum number of items you can Juggle by one.</p>"
        },
        "featType": {
            "value": "archetype"
        },
        "level": {
            "value": 4
        },
        "prerequisites": {
            "value": [
                {
                    "value": "Juggler Dedication"
                },
                {
                    "value": "expert in Performance"
                }
            ]
        },
        "rules": [],
        "source": {
            "value": "Pathfinder #151: The Show Must Go On"
        },
        "traits": {
            "custom": "",
            "rarity": "uncommon",
            "value": [
                "archetype"
            ]
        }
    },
    "img": "systems/pf2ettw/icons/features/feats/feats.webp",
    "name": "Quick Juggler",
    "type": "feat"
}
