{
    "_id": "df4cBV3qZn3qNUmP",
    "data": {
        "actionCategory": {
            "value": ""
        },
        "actionType": {
            "value": "action"
        },
        "actions": {
            "value": 2
        },
        "description": {
            "value": "<p>Your fearless charge into battle reinvigorates your allies to carry on the fight.</p>\n<p>You Stride up to your Speed and make a melee Strike. If your Strike hits and damages an enemy, each ally within 60 feet who saw you hit gains temporary Hit Points equal to your Charisma modifier. These temporary Hit Points last until the start of your next turn.</p>"
        },
        "featType": {
            "value": "archetype"
        },
        "level": {
            "value": 6
        },
        "prerequisites": {
            "value": [
                {
                    "value": "Marshal Dedication"
                }
            ]
        },
        "rules": [],
        "source": {
            "value": "Pathfinder Advanced Player's Guide"
        },
        "traits": {
            "custom": "",
            "rarity": "common",
            "value": [
                "archetype",
                "open",
                "visual"
            ]
        }
    },
    "img": "systems/pf2ettw/icons/features/feats/feats.webp",
    "name": "Rallying Charge",
    "type": "feat"
}
