{
    "_id": "z62a8TEf8wyQfVCg",
    "data": {
        "actionCategory": {
            "value": ""
        },
        "actionType": {
            "value": "passive"
        },
        "actions": {
            "value": null
        },
        "description": {
            "value": "<p id=\"docs-internal-guid-c426ba84-7fff-79c8-c9d5-479a162424d5\" dir=\"ltr\">When you use @Compendium[pf2ettw.feats-srd.Red Fury]{Red Fury}, if your @Compendium[pf2ettw.actionspf2ettw.Strike]{Strike} also kills or knocks the target unconscious, you can @Compendium[pf2ettw.actionspf2ettw.Step]{Step} or @Compendium[pf2ettw.actionspf2ettw.Stride]{Stride} up to half your movement speed, and then make another melee Strike.</p>\n<p dir=\"ltr\">You may continue this process until you make a Strike that doesn’t kill or knock a creature unconscious, or until there are no creatures within reach of you after you Step.</p>"
        },
        "featType": {
            "value": "vampire"
        },
        "level": {
            "value": 11
        },
        "location": "",
        "prerequisites": {
            "value": [
                {
                    "value": "Red Fury"
                }
            ]
        },
        "rules": [],
        "source": {
            "value": ""
        },
        "traits": {
            "custom": "",
            "rarity": "common",
            "value": [
                "vampire",
                "warrior"
            ]
        }
    },
    "img": "systems/pf2ettw/icons/features/feats/feats.webp",
    "name": "Red Wake",
    "type": "feat"
}
