{
    "_id": "9WR71zHIycSuPUiN",
    "data": {
        "actionCategory": {
            "value": ""
        },
        "actionType": {
            "value": "passive"
        },
        "actions": {
            "value": null
        },
        "description": {
            "value": "<p id=\"docs-internal-guid-9fcd3bf6-7fff-0a95-bf84-248b37191172\" dir=\"ltr\"><em>You can draw upon the energies of the world around you to continue on beyond all human limits.</em></p>\n<hr />\n<p dir=\"ltr\">You are immune to the @Compendium[pf2ettw.conditionitems.Fatigued]{Fatigued} condition.</p>"
        },
        "featType": {
            "value": "vampire"
        },
        "level": {
            "value": 11
        },
        "location": "",
        "prerequisites": {
            "value": []
        },
        "rules": [
            {
                "key": "Immunity",
                "type": "fatigued"
            }
        ],
        "source": {
            "value": ""
        },
        "traits": {
            "custom": "",
            "rarity": "common",
            "value": [
                "nocturnus",
                "vampire"
            ]
        }
    },
    "img": "systems/pf2ettw/icons/features/feats/feats.webp",
    "name": "Relentless",
    "type": "feat"
}
