{
    "_id": "k31sg0xBIwvkfWyg",
    "data": {
        "actionCategory": {
            "value": ""
        },
        "actionType": {
            "value": "passive"
        },
        "actions": {
            "value": null
        },
        "description": {
            "value": "<p>To you, crocodilians, giant lizards, and dinosaurs are loyal steeds, not monsters. You gain the @Compendium[pf2ettw.feats-srd.Ride]{Ride} feat, even if you don't meet the prerequisites. You gain a +1 circumstance bonus to Nature checks to Handle an Animal as long as the animal is a reptile, dinosaur, or even a non-sapient dragon.</p>\n<hr />\n<p><em><strong>Note</strong> This feat refers to Nature checks to Handle an Animal. This check does not exist in Pathfinder 2, and so the feat instead gives a bonus to Nature checks to @Compendium[pf2ettw.actionspf2ettw.Command an Animal]{Command an Animal}. </em></p>"
        },
        "featType": {
            "value": "ancestry"
        },
        "level": {
            "value": 1
        },
        "location": null,
        "prerequisites": {
            "value": []
        },
        "rules": [
            {
                "key": "GrantItem",
                "uuid": "Compendium.pf2ettw.feats-srd.Ride"
            },
            {
                "key": "FlatModifier",
                "predicate": {
                    "all": [
                        "action:command-an-animal",
                        {
                            "or": [
                                "target:tag:reptile",
                                "target:trait:dinosaur",
                                "target:tag:non-sapient-dragon"
                            ]
                        }
                    ]
                },
                "selector": "nature",
                "type": "circumstance",
                "value": 1
            }
        ],
        "source": {
            "value": "Pathfinder Lost Omens: Ancestry Guide"
        },
        "traits": {
            "custom": "",
            "rarity": "common",
            "value": [
                "lizardfolk"
            ]
        }
    },
    "img": "systems/pf2ettw/icons/features/feats/feats.webp",
    "name": "Reptile Rider",
    "type": "feat"
}
