{
    "_id": "y7SYHv0DWkkwjT95",
    "data": {
        "actionCategory": {
            "value": "defensive"
        },
        "actionType": {
            "value": "reaction"
        },
        "actions": {
            "value": null
        },
        "description": {
            "value": "<p><strong>Trigger</strong> You would take damage from an adjacent creature's Strike.</p>\n<p><strong>Requirements</strong> You're holding holy water or a bomb that deals positive damage in one of your hands.</p>\n<hr />\n<p>You twist your hand in front of the blow, ensuring the enemy's attack shatters the required holy water or bomb. The creature takes the on-hit and splash damage from the holy water or required bomb, not counting any additional effects you would add or apply when you throw the bomb, such as weapon specialization or Calculated Splash. You're splashed by the holy water or required bomb, although since positive damage harms only undead and creatures with negative healing, it's unlikely you will take damage.</p>"
        },
        "featType": {
            "value": "class"
        },
        "level": {
            "value": 8
        },
        "location": null,
        "prerequisites": {
            "value": []
        },
        "rules": [],
        "source": {
            "value": "Pathfinder Lost Omens: Knights of Lastwall"
        },
        "traits": {
            "custom": "",
            "rarity": "uncommon",
            "value": [
                "alchemist"
            ]
        }
    },
    "img": "systems/pf2ettw/icons/default-icons/feats.webp",
    "name": "Retaliatory Cleansing",
    "type": "feat"
}
