{
    "_id": "XZcd1wFHy111klu2",
    "data": {
        "actionCategory": {
            "value": ""
        },
        "actionType": {
            "value": "action"
        },
        "actions": {
            "value": 1
        },
        "description": {
            "value": "<p>You reveal that you played a minor but recurring role in another humanoid's life-or at least convince them that's the case. Attempt a Deception check against the target's Will DC. On a success, the revelation makes them frightened 2, and on a critical success they are frightened 3. In addition, you gain information about the subject as though you had attempted to Recall Knowledge about them using an appropriate skill and received the same result on your roll. You can't use this ability against the same humanoid again until 1 day has passed and you've also successfully disguised yourself as a different person.</p>"
        },
        "featType": {
            "value": "skill"
        },
        "level": {
            "value": 15
        },
        "prerequisites": {
            "value": [
                {
                    "value": "legendary in Deception"
                }
            ]
        },
        "rules": [],
        "source": {
            "value": "Pathfinder #147: Tomorrow Must Burn"
        },
        "traits": {
            "custom": "",
            "rarity": "rare",
            "value": [
                "general",
                "skill"
            ]
        }
    },
    "img": "systems/pf2ettw/icons/features/feats/feats.webp",
    "name": "Reveal Machinations",
    "type": "feat"
}
