{
    "_id": "kU4K9jj9qnktoAaQ",
    "data": {
        "actionCategory": {
            "value": ""
        },
        "actionType": {
            "value": "passive"
        },
        "actions": {
            "value": null
        },
        "description": {
            "value": "<p>You have begun to master the difficult art of casting rituals. You gain a +2 circumstance bonus to all primary checks to perform a ritual.</p>\n<p>You learn two uncommon rituals with a level no higher than half your level; you must meet all prerequisites for casting the ritual to choose it. At 8th level and every 4 levels thereafter, you learn another uncommon ritual with a level no higher than half your level and for which you meet the prerequisites.</p>\n<p>You can cast these as the primary caster, but you can't teach them to anyone else or allow someone else to serve as primary caster unless they know the ritual as well.</p>\n<p><strong>Special</strong> You can't select another dedication feat until you've gained two other feats from the ritualist archetype. If you retrain out of this feat, you lose the rituals learned from it.</p>"
        },
        "featType": {
            "value": "archetype"
        },
        "level": {
            "value": 4
        },
        "location": "",
        "prerequisites": {
            "value": [
                {
                    "value": "expert in Arcana, Nature, Occultism, or Religion"
                }
            ]
        },
        "rules": [
            {
                "key": "FlatModifier",
                "label": "Primary Ritual Check",
                "predicate": {
                    "any": [
                        "primaryRitualCheck"
                    ]
                },
                "selector": "skill-check",
                "type": "circumstance",
                "value": 2
            }
        ],
        "source": {
            "value": "Pathfinder Advanced Player's Guide"
        },
        "traits": {
            "custom": "",
            "rarity": "uncommon",
            "value": [
                "archetype",
                "dedication"
            ]
        }
    },
    "img": "systems/pf2ettw/icons/features/feats/feats.webp",
    "name": "Ritualist Dedication",
    "type": "feat"
}
