{
    "_id": "O0POcPD2aELYTcIK",
    "data": {
        "actionCategory": {
            "value": "offensive"
        },
        "actionType": {
            "value": "action"
        },
        "actions": {
            "value": 1
        },
        "description": {
            "value": "<p><strong>Requirements</strong> You gained a terrain attunement benefit this turn.</p>\n<hr />\n<p>You enter a stance that makes it difficult to move around you. Each square adjacent to you becomes difficult terrain that matches the terrain attunement you gained (rime forms in an arctic terrain, momentary undergrowth shoots up in a forest terrain, and so on). You ignore this difficult terrain.</p>\n<p>This stance ends if you move into a different type of terrain.</p>"
        },
        "featType": {
            "value": "archetype"
        },
        "level": {
            "value": 6
        },
        "location": "",
        "prerequisites": {
            "value": [
                {
                    "value": "Geomancer Dedication"
                },
                {
                    "value": "expert in Nature"
                }
            ]
        },
        "rules": [],
        "source": {
            "value": ""
        },
        "traits": {
            "custom": "",
            "rarity": "common",
            "value": [
                "archetype",
                "stance"
            ]
        }
    },
    "img": "systems/pf2ettw/icons/features/feats/feats.webp",
    "name": "Rough Terrain Stance",
    "type": "feat"
}
