{
    "_id": "Ux0DSklFlIlcvnhO",
    "data": {
        "actionCategory": {
            "value": ""
        },
        "actionType": {
            "value": "passive"
        },
        "actions": {
            "value": null
        },
        "description": {
            "value": "<p>The power of your faith suffuses your ki. When you select this feat, choose chaos, evil, good, or law. Your choice must match one of your deity's alignment components.</p>\n<p>When you cast the <em>@Compendium[pf2ettw.spells-srd.Ki Strike]{Ki Strike}</em> focus spell and damage a creature whose alignment is opposite your chosen alignment, you can choose for the <em>ki strike</em> damage to be of the chosen type.</p>\n<p>Additionally, you can substitute the damage from <em>@Compendium[pf2ettw.spells-srd.Ki Blast]{Ki Blast}</em> (or other ki spells that deal force damage, at the GM's discretion) with damage of your chosen alignment.</p>"
        },
        "featType": {
            "value": "class"
        },
        "level": {
            "value": 4
        },
        "location": "",
        "prerequisites": {
            "value": [
                {
                    "value": "Ki Strike"
                },
                {
                    "value": "you follow a deity"
                }
            ]
        },
        "rules": [
            {
                "choices": [
                    {
                        "label": "pf2ettw.TraitChaotic",
                        "value": "chaos"
                    },
                    {
                        "label": "pf2ettw.TraitEvil",
                        "value": "evil"
                    },
                    {
                        "label": "pf2ettw.TraitGood",
                        "value": "good"
                    },
                    {
                        "label": "pf2ettw.TraitLawful",
                        "value": "law"
                    }
                ],
                "flag": "sacredKi",
                "key": "ChoiceSet",
                "prompt": "Choose your aligned damage"
            },
            {
                "domain": "all",
                "key": "RollOption",
                "option": "sacred-ki:{item|flags.pf2ettw.rulesSelections.sacredKi}"
            }
        ],
        "source": {
            "value": "Pathfinder Lost Omens: Gods & Magic"
        },
        "traits": {
            "custom": "",
            "rarity": "common",
            "value": [
                "monk"
            ]
        }
    },
    "img": "systems/pf2ettw/icons/features/feats/feats.webp",
    "name": "Sacred Ki",
    "type": "feat"
}
