{
    "_id": "6KiB0SLYB1p8Th5U",
    "data": {
        "actionCategory": {
            "value": ""
        },
        "actionType": {
            "value": "action"
        },
        "actions": {
            "value": 1
        },
        "description": {
            "value": "<p>You bring the magical wavelengths of your spell into sync with the ones produced by your own body. If the next action you take is to @Compendium[pf2ettw.actionspf2ettw.Cast a Spell]{Cast a Spell} with an area, you aren't affected by the spell even if you are within the area.</p>"
        },
        "featType": {
            "value": "class"
        },
        "level": {
            "value": 8
        },
        "prerequisites": {
            "value": []
        },
        "rules": [],
        "source": {
            "value": "Pathfinder Advanced Player's Guide"
        },
        "traits": {
            "custom": "",
            "rarity": "common",
            "value": [
                "concentrate",
                "metamagic",
                "sorcerer"
            ]
        }
    },
    "img": "systems/pf2ettw/icons/features/feats/feats.webp",
    "name": "Safeguarded Spell",
    "type": "feat"
}
