{
    "_id": "tBg3FZST3nX5TfLf",
    "data": {
        "actionCategory": {
            "value": ""
        },
        "actionType": {
            "value": "passive"
        },
        "actions": {
            "value": null
        },
        "description": {
            "value": "<p>You've girded your soul against outside interference. You gain a +2 status bonus to saving throws against death effects, possession effects, and effects that attempt to manipulate or steal your soul. You can't be transformed into an undead by any means. While your spiral is glowing, your allies in the light of the spiral gain this benefit as well.</p>\n<p>@Compendium[pf2ettw.feat-effects.Effect: Safeguard Soul]{Effect: Safeguard Soul}</p>"
        },
        "featType": {
            "value": "archetype"
        },
        "level": {
            "value": 8
        },
        "location": null,
        "prerequisites": {
            "value": [
                {
                    "value": "Soul Warden Dedication"
                }
            ]
        },
        "rules": [
            {
                "key": "FlatModifier",
                "predicate": {
                    "any": [
                        "death",
                        "possession",
                        "manipulate-soul"
                    ]
                },
                "selector": "saving-throw",
                "type": "status",
                "value": 2
            },
            {
                "domain": "saving-throw",
                "key": "RollOption",
                "label": "pf2ettw.SpecificRule.SoulWarden.SafeguardSoul.Label",
                "option": "manipulate-soul",
                "toggleable": true
            },
            {
                "key": "ActiveEffectLike",
                "mode": "add",
                "path": "data.custom.soulWarden.featCount",
                "value": 1
            }
        ],
        "source": {
            "value": "Pathfinder Book of the Dead"
        },
        "traits": {
            "custom": "",
            "rarity": "common",
            "value": [
                "abjuration",
                "archetype",
                "divine"
            ]
        }
    },
    "img": "systems/pf2ettw/icons/default-icons/feats.webp",
    "name": "Safeguard Soul",
    "type": "feat"
}
