{
    "_id": "gvYNFwMlqu3cTtC3",
    "data": {
        "actionCategory": {
            "value": ""
        },
        "actionType": {
            "value": "passive"
        },
        "actions": {
            "value": null
        },
        "description": {
            "value": "<p><em>Your claws are further developed and well suited to ascending even the sheerest surfaces.</em></p>\n<hr />\n<p>You gain a climb speed of 20 feet, and gain the @Compendium[pf2ettw.feats-srd.Combat Climber]{Combat Climber} feat.</p>\n<p><span id=\"docs-internal-guid-dd3e69fe-7fff-d9fc-956b-a2b4e2bc77fe\">If you already have Combat Climber, or gain it from another source, your climb speed increases to match your land speed.</span></p>"
        },
        "featType": {
            "value": "vampire"
        },
        "level": {
            "value": 5
        },
        "location": "",
        "prerequisites": {
            "value": []
        },
        "rules": [
            {
                "key": "GrantItem",
                "uuid": "Compendium.pf2ettw.feats-srd.Combat Climber"
            }
        ],
        "source": {
            "value": ""
        },
        "traits": {
            "custom": "",
            "rarity": "common",
            "value": [
                "beast",
                "vampire"
            ]
        }
    },
    "img": "systems/pf2ettw/icons/features/feats/feats.webp",
    "name": "Scaling Talons",
    "type": "feat"
}
