{
    "_id": "z2z3UTayfUhcGazv",
    "data": {
        "actionCategory": {
            "value": ""
        },
        "actionType": {
            "value": "passive"
        },
        "actions": {
            "value": null
        },
        "description": {
            "value": "<p>Glorious, storied scars cover and protect much of your body. Your DC on flat checks to end @Compendium[pf2ettw.conditionitems.Persistent Damage]{Persistent Bleed Damage} is reduced from 15 to 10, or from 10 to 5 after receiving especially appropriate assistance.</p>"
        },
        "featType": {
            "value": "ancestry"
        },
        "level": {
            "value": 5
        },
        "location": "",
        "prerequisites": {
            "value": []
        },
        "rules": [],
        "source": {
            "value": "Pathfinder Lost Omens: Ancestry Guide"
        },
        "traits": {
            "custom": "",
            "rarity": "common",
            "value": [
                "orc"
            ]
        }
    },
    "img": "systems/pf2ettw/icons/features/feats/feats.webp",
    "name": "Scar-Thick Skin",
    "type": "feat"
}
