{
    "_id": "pTbjfxGyUQ4RDBMx",
    "data": {
        "actionCategory": {
            "value": ""
        },
        "actionType": {
            "value": "passive"
        },
        "actions": {
            "value": null
        },
        "description": {
            "value": "<p><em>You can detect the smell of blood upon the air at great distances.</em></p>\n<hr />\n<p dir=\"ltr\">You gain scent (imprecise) 30 feet. This range increases to 100 feet for spilled blood and open wounds. In addition, you gain a +2 circumstance bonus to Perception checks whenever you're trying to locate an <span id=\"docs-internal-guid-b9e24354-7fff-7056-ca3e-fb10f39e6cc0\">@Compendium[pf2ettw.conditionitems.Undetected]{Undetected} </span>creature that is within the range of your scent.</p>\n<p><br /><br /></p>"
        },
        "featType": {
            "value": "vampire"
        },
        "level": {
            "value": 1
        },
        "location": "",
        "prerequisites": {
            "value": []
        },
        "rules": [
            {
                "acuity": "imprecise",
                "key": "Sense",
                "range": 30,
                "selector": "scent"
            },
            {
                "acuity": "imprecise",
                "force": false,
                "key": "Sense",
                "label": "Bloodscent",
                "range": 100,
                "selector": "bloodscent"
            },
            {
                "key": "FlatModifier",
                "predicate": {
                    "all": [
                        "blood"
                    ]
                },
                "selector": "perception",
                "type": "circumstance",
                "value": 2
            }
        ],
        "source": {
            "value": ""
        },
        "traits": {
            "custom": "",
            "rarity": {
                "value": "common"
            },
            "value": [
                "beast",
                "vampire"
            ]
        }
    },
    "img": "systems/pf2ettw/icons/features/feats/feats.webp",
    "name": "Scent of Blood",
    "type": "feat"
}
