{
    "_id": "6CE1nVGxt192AUGk",
    "data": {
        "actionCategory": {
            "value": ""
        },
        "actionType": {
            "value": "action"
        },
        "actions": {
            "value": 2
        },
        "description": {
            "value": "<p>You meander around unpredictably, and then ambush your opponents without warning.</p>\n<p>Choose one enemy. Stride, @Compendium[pf2ettw.actionspf2ettw.Feint]{Feint} against that opponent, and then make a Strike against that foe. For your Feint, you can attempt a Stealth check instead of the Deception check that's usually required, because you use the terrain around you to catch your foe off-guard.</p>"
        },
        "featType": {
            "value": "archetype"
        },
        "level": {
            "value": 4
        },
        "prerequisites": {
            "value": [
                {
                    "value": "Scout Dedication"
                }
            ]
        },
        "rules": [],
        "source": {
            "value": "Pathfinder Advanced Player's Guide"
        },
        "traits": {
            "custom": "",
            "rarity": "common",
            "value": [
                "archetype",
                "flourish"
            ]
        }
    },
    "img": "systems/pf2ettw/icons/features/feats/feats.webp",
    "name": "Scout's Charge",
    "type": "feat"
}
