{
    "_id": "HpAUTAzEAK7mGsJ8",
    "data": {
        "actionCategory": {
            "value": ""
        },
        "actionType": {
            "value": "passive"
        },
        "actions": {
            "value": null
        },
        "description": {
            "value": "<p><strong>Access</strong> You are from Dongun Hold or Alkenstar.</p>\n<hr />\n<p>Your family's traditions of defending against Geb's undead have granted you a sixth sense for detecting spirits, haunts, and other restless dead, no matter their form or the strength of their presence. You gain a +2 circumstance bonus to Perception checks to @Compendium[pf2ettw.actionspf2ettw.Sense Motive]{Sense Motive} when trying to determine if a creature is possessed or under the influence of an effect that would make them controlled, a +2 circumstance bonus to Perception checks made to see through disguises worn by undead, and a +2 circumstance bonus when using the @Compendium[pf2ettw.actionspf2ettw.Seek]{Seek} action to find @Compendium[pf2ettw.conditionitems.Hidden]{Hidden} or undetected haunts or undead within 30 feet of you.</p>\n<p>If you aren't using the Seek action or searching, the GM automatically rolls a secret check for you to notice haunts or undead within 30 feet anyway. This check doesn't gain the usual +2 circumstance bonus, and instead takes a -2 circumstance penalty.</p>"
        },
        "featType": {
            "value": "ancestry"
        },
        "level": {
            "value": 13
        },
        "location": null,
        "prerequisites": {
            "value": []
        },
        "rules": [
            {
                "key": "FlatModifier",
                "predicate": {
                    "all": [
                        "action:sense-motive",
                        "target:trait:possessed"
                    ]
                },
                "selector": "perception",
                "slug": "gaze-find-possessed",
                "type": "circumstance",
                "value": 2
            },
            {
                "key": "FlatModifier",
                "predicate": {
                    "all": [
                        "target:trait:undead",
                        "target:disguised"
                    ]
                },
                "selector": "perception",
                "slug": "gaze-undead-disguise",
                "type": "circumstance",
                "value": 2
            },
            {
                "key": "FlatModifier",
                "predicate": {
                    "all": [
                        "action:seek"
                    ],
                    "any": [
                        "haunt",
                        "target:trait:undead"
                    ]
                },
                "selector": "perception",
                "slug": "gaze-seek-undead-haunt",
                "type": "circumstance",
                "value": 2
            }
        ],
        "source": {
            "value": ""
        },
        "traits": {
            "custom": "",
            "rarity": "uncommon",
            "value": [
                "dwarf"
            ]
        }
    },
    "img": "systems/pf2ettw/icons/default-icons/feats.webp",
    "name": "Scrutinizing Gaze",
    "type": "feat"
}
