{
    "_id": "bbpFExz1RXCkOhnb",
    "data": {
        "actionCategory": {
            "value": ""
        },
        "actionType": {
            "value": "passive"
        },
        "actions": {
            "value": null
        },
        "description": {
            "value": "<p>You can read the presence of ki in your area. You gain imprecise lifesense out to a range of 30 feet.</p>"
        },
        "featType": {
            "value": "class"
        },
        "level": {
            "value": 12
        },
        "location": "",
        "prerequisites": {
            "value": [
                {
                    "value": "ki spells"
                }
            ]
        },
        "rules": [
            {
                "acuity": "imprecise",
                "key": "Sense",
                "label": "pf2ettw.SensesLifesense",
                "range": 30,
                "selector": "lifesense"
            }
        ],
        "source": {
            "value": "Pathfinder #167: Ready? Fight!"
        },
        "traits": {
            "custom": "",
            "rarity": "uncommon",
            "value": [
                "monk"
            ]
        }
    },
    "img": "systems/pf2ettw/icons/default-icons/feats.webp",
    "name": "Sense Ki",
    "type": "feat"
}
