{
    "_id": "EnpbhZr94ZyZI4hb",
    "data": {
        "actionCategory": {
            "value": ""
        },
        "actionType": {
            "value": "passive"
        },
        "actions": {
            "value": null
        },
        "description": {
            "value": "<p><span id=\"docs-internal-guid-a95d0e18-7fff-688b-9370-15b9afa61101\">You sense the presence of unnatural entities as a queasy or foreboding feeling. These entities include aberrations, extraplanar creatures, and undead.</span></p>\n<p><span id=\"docs-internal-guid-a95d0e18-7fff-688b-9370-15b9afa61101\">When in the presence of such a creature with a powerful or overwhelming aura (see @Compendium[pf2ettw.spells-srd.Detect Nature]{Detect Nature})</span>, you eventually detect the aura, though you might not do so instantly, and you can't pinpoint the location. This acts as a vague sense, similar to humans' sense of smell.</p>\n<p>Such a creature using a disguise or otherwise trying to hide its presence attempts a Deception check against your Perception DC to hide its aura from you. If the creature succeeds at its Deception check, it is then temporarily immune to your Sense Evil for 1 day.</p>"
        },
        "featType": {
            "value": "class"
        },
        "level": {
            "value": 8
        },
        "location": "",
        "prerequisites": {
            "value": []
        },
        "rules": [
            {
                "acuity": "vague",
                "key": "Sense",
                "label": "Sense Evil",
                "selector": "sense-evil"
            }
        ],
        "source": {
            "value": "Pathfinder Core Rulebook"
        },
        "traits": {
            "custom": "",
            "rarity": "common",
            "value": [
                "champion"
            ]
        }
    },
    "img": "systems/pf2ettw/icons/features/feats/feats.webp",
    "name": "Sense Evil",
    "type": "feat"
}
