{
    "_id": "8foxmfC6FFT3oYpV",
    "data": {
        "actionCategory": {
            "value": ""
        },
        "actionType": {
            "value": "passive"
        },
        "actions": {
            "value": null
        },
        "description": {
            "value": "<p>You have trained carefully to maximize the protective qualities of your armor.</p>\n<p>You become trained in light armor and medium armor. If you already were trained in light armor and medium armor, you gain training in heavy armor as well.</p>\n<p>Whenever you gain a class feature that grants you expert or greater proficiency in any type of armor (but not unarmored defense), you also gain that proficiency in the armor types granted to you by this feat. If you are at least 13th level and you have a class feature that grants you expert proficiency in unarmored defense, you also become an expert in the armor types granted to you by this feat.</p>\n<p><strong>Special</strong> You can't select another dedication feat until you have gained two other feats from the sentinel archetype.</p>"
        },
        "featType": {
            "value": "archetype"
        },
        "level": {
            "value": 2
        },
        "prerequisites": {
            "value": []
        },
        "rules": [],
        "source": {
            "value": "Pathfinder Advanced Player's Guide"
        },
        "traits": {
            "custom": "",
            "rarity": "common",
            "value": [
                "archetype",
                "dedication"
            ]
        }
    },
    "img": "systems/pf2ettw/icons/features/feats/feats.webp",
    "name": "Sentinel Dedication",
    "type": "feat"
}
