{
    "_id": "wnrlBkwVr8BSVAZt",
    "data": {
        "actionCategory": {
            "value": "offensive"
        },
        "actionType": {
            "value": "action"
        },
        "actions": {
            "value": 1
        },
        "description": {
            "value": "<p><strong>Requirements</strong> You have at least one undead minion that you permanently control.</p>\n<hr />\n<p>You repurpose the negative energy that flows through your minions at a moment's notice. Instantly destroy one undead minion within 60 feet that is permanently under your control. If your next action is to cast a necromancy spell from a spell slot, you don't expend the slot. The spell's level must be half the destroyed minion's level or lower and the spell can't have a duration.</p>\n<p><strong>Special</strong> This feat has the trait matching your spellcasting tradition.</p>"
        },
        "featType": {
            "value": "class"
        },
        "level": {
            "value": 14
        },
        "location": null,
        "prerequisites": {
            "value": [
                {
                    "value": "ability to permanently create or control undead"
                },
                {
                    "value": "cleric with a negative font, oracle of bones, or necromancer wizard"
                }
            ]
        },
        "rules": [],
        "source": {
            "value": "Pathfinder Book of the Dead"
        },
        "traits": {
            "custom": "",
            "rarity": "uncommon",
            "value": [
                "cleric",
                "concentrate",
                "metamagic",
                "necromancy",
                "oracle",
                "wizard"
            ]
        }
    },
    "img": "systems/pf2ettw/icons/default-icons/feats.webp",
    "name": "Sepulchral Sublimation",
    "type": "feat"
}
