{
    "_id": "QygsOzswFQEYONO3",
    "data": {
        "actionCategory": {
            "value": ""
        },
        "actionType": {
            "value": "passive"
        },
        "actions": {
            "value": null
        },
        "description": {
            "value": "<p>Your lineage shows the signs of velstrac tampering, including some curious quirk bequeathed by those shadowy surgeons of flesh and souls. Your flesh heals cleanly and quickly—all the better for you to serve as a subject for their ghastly art. You gain the @Compendium[pf2ettw.feats-srd.Fast Recovery]{Fast Recovery} feat, even if you don't meet the prerequisites.</p>"
        },
        "featType": {
            "value": "ancestry"
        },
        "level": {
            "value": 1
        },
        "location": "",
        "onlyLevel1": true,
        "prerequisites": {
            "value": []
        },
        "rules": [
            {
                "key": "GrantItem",
                "uuid": "Compendium.pf2ettw.feats-srd.Fast Recovery"
            }
        ],
        "source": {
            "value": "Pathfinder Lost Omens: Ancestry Guide"
        },
        "traits": {
            "custom": "",
            "rarity": "common",
            "value": [
                "lineage",
                "tiefling"
            ]
        }
    },
    "img": "systems/pf2ettw/icons/features/feats/feats.webp",
    "name": "Shackleborn",
    "type": "feat"
}
