{
    "_id": "mLrhiLMGimRWQOFX",
    "data": {
        "actionCategory": {
            "value": ""
        },
        "actionType": {
            "value": "passive"
        },
        "actions": {
            "value": null
        },
        "description": {
            "value": "<p id=\"docs-internal-guid-d6a54b5e-7fff-455c-9164-0c46341fd301\" dir=\"ltr\"><em>You can stride through darkness to shadow your enemies’ footsteps.</em></p>\n<hr />\n<p dir=\"ltr\">You teleport up to half your speed to a clear space you can see that is adjacent to a creature. This movement does not trigger reactions.</p>\n<p dir=\"ltr\">If both you and the creature are in dim light or darkness, you can instead move up to your full speed.</p>\n<p dir=\"ltr\">Shadow step is silent.</p>"
        },
        "featType": {
            "value": "vampire"
        },
        "level": {
            "value": 7
        },
        "location": "",
        "prerequisites": {
            "value": [
                {
                    "value": "1 Shadow Feat"
                }
            ]
        },
        "rules": [],
        "source": {
            "value": ""
        },
        "traits": {
            "custom": "",
            "rarity": "common",
            "value": [
                "move",
                "shadow",
                "teleportation",
                "vampire"
            ]
        }
    },
    "img": "systems/pf2ettw/icons/features/feats/feats.webp",
    "name": "Shadow Step",
    "type": "feat"
}
