{
    "_id": "auv1lss6LxM0q3gz",
    "data": {
        "actionCategory": {
            "value": ""
        },
        "actionType": {
            "value": "action"
        },
        "actions": {
            "value": 1
        },
        "description": {
            "value": "<p>You concentrate on your rage, overcoming fear and fighting back sickness. Reduce your frightened condition value by 1, and attempt a Fortitude save to recover from the sickened condition as if you had spent an action retching; you reduce your sickened condition value by 1 on a failure (but not on a critical failure), by 2 on a success, or by 3 on a critical success.</p>"
        },
        "featType": {
            "value": "class"
        },
        "level": {
            "value": 2
        },
        "location": "",
        "prerequisites": {
            "value": []
        },
        "rules": [],
        "source": {
            "value": "Pathfinder Core Rulebook"
        },
        "traits": {
            "custom": "",
            "rarity": "common",
            "value": [
                "barbarian",
                "concentrate",
                "rage"
            ]
        }
    },
    "img": "systems/pf2ettw/icons/features/feats/feats.webp",
    "name": "Shake it Off",
    "type": "feat"
}
