{
    "_id": "RzElsoBGTjKWjPgY",
    "data": {
        "actionCategory": {
            "value": ""
        },
        "actionType": {
            "value": "passive"
        },
        "actions": {
            "value": null
        },
        "description": {
            "value": "<p><strong>Requirements</strong> You're standing on ground composed of earth, stone, or a similar material.</p>\n<hr />\n<p>You spend 10 minutes communing with spirits of earth and stone, requesting shelter. At the end of this time, the earth rises and opens, forming a small cave or earthen mound 20 feet in diameter and 10 feet high. This cave has the structure trait and the same restrictions as structures created by magic items. The cave has a single entrance and provides shelter from the elements.</p>\n<p>The cave remains for 12 hours or until you spend 10 minutes coaxing the earth to close.</p>"
        },
        "featType": {
            "value": "class"
        },
        "level": {
            "value": 4
        },
        "location": "",
        "prerequisites": {
            "value": [
                {
                    "value": "stone order"
                }
            ]
        },
        "rules": [],
        "source": {
            "value": ""
        },
        "traits": {
            "custom": "",
            "rarity": "common",
            "value": [
                "conjuration",
                "druid",
                "earth",
                "exploration",
                "primal"
            ]
        }
    },
    "img": "systems/pf2ettw/icons/features/feats/feats.webp",
    "name": "Sheltering Cave",
    "type": "feat"
}
