{
    "_id": "tdtCwmYoBMKzfhEp",
    "data": {
        "actionCategory": {
            "value": ""
        },
        "actionType": {
            "value": "passive"
        },
        "actions": {
            "value": null
        },
        "description": {
            "value": "<p>You've sworn an oath to put the undead to rest. Add the following tenet to your champion's code after the other tenets: \"You must end the existence of undead you encounter as long as you have a reasonable chance of success.\"</p>\n<p>Your @Compendium[pf2ettw.actionspf2ettw.Glimpse of Redemption]{Glimpse of Redemption's} resistance against damage from an undead is 7 + your level.</p>\n<p>You don't consider undead to be legitimate authorities, even in nations ruled by undead.</p>\n<p>In the event that you encounter a subject of your oath which you are convinced poses no threat to the tenets of your pantheon, deity, or conviction, you do not have to banish, kill or otherwise oppose it.</p>"
        },
        "featType": {
            "value": "class"
        },
        "level": {
            "value": 2
        },
        "location": "",
        "prerequisites": {
            "value": [
                {
                    "value": "redeemer cause"
                }
            ]
        },
        "rules": [],
        "source": {
            "value": "Pathfinder Core Rulebook"
        },
        "traits": {
            "custom": "",
            "rarity": "common",
            "value": [
                "champion",
                "oath"
            ]
        }
    },
    "img": "systems/pf2ettw/icons/features/feats/feats.webp",
    "name": "Shining Oath (Redeemer)",
    "type": "feat"
}
