{
    "_id": "6lqnDXroSV931ZFj",
    "data": {
        "actionCategory": {
            "value": "defensive"
        },
        "actionType": {
            "value": "reaction"
        },
        "actions": {
            "value": null
        },
        "description": {
            "value": "<p id=\"docs-internal-guid-1ca277b2-7fff-d112-5619-3061597a56d0\" dir=\"ltr\"><em>Your affinity for shadows allows you to wear them as a shroud and twist them to deceive your foes.</em></p>\n<hr />\n<p dir=\"ltr\"><span id=\"docs-internal-guid-8338ce9c-7fff-c33d-8a2a-586dd58b7175\">You become trained in Deception</span>. If you were already trained in Deception, you become trained in another skill of your choice.</p>\n<p dir=\"ltr\">You gain the @Compendium[pf2ettw.feats-srd.Lengthy Diversion]{Lengthy Diversion} skill feat as a bonus feat. In addition, you gain the reaction below.</p>\n<hr />\n<p id=\"docs-internal-guid-1aae54ce-7fff-98cc-51f0-d059e6763ccf\" dir=\"ltr\"><strong>Trigger</strong> A creature attempts a flat check to target you while you're @Compendium[pf2ettw.conditionitems.Concealed]{Concealed} or @Compendium[pf2ettw.conditionitems.Hidden]{Hidden} due to dim light or darkness.</p>\n<hr />\n<p dir=\"ltr\">You draw shadows close to create a shroud. Increase the DC of the flat check by 2 for that check.</p>"
        },
        "featType": {
            "value": "vampire"
        },
        "level": {
            "value": 1
        },
        "location": "",
        "prerequisites": {
            "value": []
        },
        "rules": [
            {
                "key": "ActiveEffectLike",
                "mode": "upgrade",
                "path": "data.skills.dec.rank",
                "value": 1
            },
            {
                "key": "GrantItem",
                "uuid": "Compendium.pf2ettw.feats-srd.Lengthy Diversion"
            }
        ],
        "source": {
            "value": ""
        },
        "traits": {
            "custom": "",
            "rarity": {
                "value": "common"
            },
            "value": [
                "illusion",
                "shadow",
                "vampire"
            ]
        }
    },
    "img": "systems/pf2ettw/icons/default-icons/feats.webp",
    "name": "Shrouded",
    "type": "feat"
}
