{
    "_id": "IG1aXdWV60ptd2rt",
    "data": {
        "actionCategory": {
            "value": ""
        },
        "actionType": {
            "value": "passive"
        },
        "actions": {
            "value": null
        },
        "description": {
            "value": "<p id=\"docs-internal-guid-aefbd25b-7fff-fdc4-c893-6df6acbd3774\" dir=\"ltr\"><em>Each death releases energy which can be used to aid the living.</em></p>\n<hr />\n<p dir=\"ltr\">Whenever a creature within 30 feet of you dies, you may regain Hit Points equal to half your level (rounded up).</p>"
        },
        "featType": {
            "value": "vampire"
        },
        "level": {
            "value": 1
        },
        "location": "",
        "prerequisites": {
            "value": []
        },
        "rules": [],
        "source": {
            "value": ""
        },
        "traits": {
            "custom": "",
            "rarity": {
                "value": "common"
            },
            "value": [
                "bloodmage",
                "vampire"
            ]
        }
    },
    "img": "systems/pf2ettw/icons/default-icons/feats.webp",
    "name": "Siphon Spirit",
    "type": "feat"
}
