{
    "_id": "rHBmZi95n0pcQqxs",
    "data": {
        "actionCategory": {
            "value": ""
        },
        "actionType": {
            "value": "passive"
        },
        "actions": {
            "value": null
        },
        "description": {
            "value": "<p>You gain the ability to summon your own skeletal minions. You learn the <em>@Compendium[pf2ettw.spells-srd.Create Undead]{Create Undead}</em> rituals to create three types of undead for which you meet the prerequisites. These undead must have the skeleton trait or be other skeletal undead the GM agrees to. You can't teach these rituals to anyone else, and you can't participate in either ritual while allowing someone else to serve as the primary caster unless they also know the ritual.</p>\n<p>You gain a +2 circumstance bonus to Religion checks for create undead rituals. You can also perform the ritual without the aid of a secondary caster; in this case, you attempt the secondary check normally performed by that caster.</p>"
        },
        "featType": {
            "value": "ancestry"
        },
        "level": {
            "value": 13
        },
        "location": null,
        "prerequisites": {
            "value": [
                {
                    "value": "expert in Religion"
                }
            ]
        },
        "rules": [
            {
                "key": "FlatModifier",
                "predicate": {
                    "all": [
                        "ritual:create-undead"
                    ]
                },
                "selector": "religion",
                "type": "circumstance",
                "value": 2
            }
        ],
        "source": {
            "value": "Pathfinder Book of the Dead"
        },
        "traits": {
            "custom": "",
            "rarity": "uncommon",
            "value": [
                "skeleton"
            ]
        }
    },
    "img": "systems/pf2ettw/icons/default-icons/feats.webp",
    "name": "Skeleton Commander",
    "type": "feat"
}
