{
    "_id": "HIyuVIh2XSDz3h2j",
    "data": {
        "actionCategory": {
            "value": ""
        },
        "actionType": {
            "value": "action"
        },
        "actions": {
            "value": 1
        },
        "description": {
            "value": "<p>You can activate the magic of a scroll with a cursory read as you draw it from your belt. You @Compendium[pf2ettw.actionspf2ettw.Interact]{Interact} to draw forth a scroll, then use @Compendium[pf2ettw.feats-srd.Trick Magic Item]{Trick Magic Item} on the scroll.</p>"
        },
        "featType": {
            "value": "archetype"
        },
        "level": {
            "value": 8
        },
        "prerequisites": {
            "value": [
                {
                    "value": "Scroll Trickster Dedication"
                }
            ]
        },
        "rules": [],
        "source": {
            "value": "Pathfinder Advanced Player's Guide"
        },
        "traits": {
            "custom": "",
            "rarity": "common",
            "value": [
                "archetype"
            ]
        }
    },
    "img": "systems/pf2ettw/icons/features/feats/feats.webp",
    "name": "Skim Scroll",
    "type": "feat"
}
