{
    "_id": "wPHZhgKzNw4VcCFt",
    "data": {
        "actionCategory": {
            "value": ""
        },
        "actionType": {
            "value": "passive"
        },
        "actions": {
            "value": null
        },
        "description": {
            "value": "<p>You can scoot swiftly across the ground. You can @Compendium[pf2ettw.actionspf2ettw.Crawl]{Crawl} up to half your Speed.</p>"
        },
        "featType": {
            "value": "general"
        },
        "level": {
            "value": 3
        },
        "prerequisites": {
            "value": [
                {
                    "value": "Dexterity 16"
                },
                {
                    "value": "Fleet"
                }
            ]
        },
        "rules": [],
        "source": {
            "value": "Pathfinder Advanced Player's Guide"
        },
        "traits": {
            "custom": "",
            "rarity": "common",
            "value": [
                "general"
            ]
        }
    },
    "img": "systems/pf2ettw/icons/features/feats/feats.webp",
    "name": "Skitter",
    "type": "feat"
}
