{
    "_id": "UjEeHamC2C8JfgJz",
    "data": {
        "actionCategory": {
            "value": ""
        },
        "actionType": {
            "value": "action"
        },
        "actions": {
            "value": 1
        },
        "description": {
            "value": "<p><strong>Requirements</strong> You are unarmored</p>\n<hr />\n<p>You enter a stance perfected by past champions of the Challenge of Sky and Heaven, allowing you to make jagged strikes like flashes of lightning through the sky. The only Strikes you can make are skyward slash unarmed attacks. These unarmed attacks deal 1d10 slashing damage; are in the brawling group; and have the nonlethal, unarmed, and versatile P traits.</p>\n<p>While in Sky and Heaven Stance, you gain resistance 2 to electricity and resistance 2 to sonic damage. These resistances increase to 5 at 12th level and to 8 at 18th level.</p>\n<p>@Compendium[pf2ettw.feat-effects.Stance: Sky and Heaven Stance]{Stance: Sky and Heaven Stance}</p>"
        },
        "featType": {
            "value": "archetype"
        },
        "level": {
            "value": 6
        },
        "location": "",
        "prerequisites": {
            "value": []
        },
        "rules": [],
        "source": {
            "value": "Pathfinder #158: Sixty Feet Under"
        },
        "traits": {
            "custom": "",
            "rarity": "common",
            "selected": {
                "archetype": "Archetype",
                "stance": "Stance"
            },
            "value": [
                "archetype",
                "stance"
            ]
        }
    },
    "img": "systems/pf2ettw/icons/features/feats/feats.webp",
    "name": "Sky and Heaven Stance",
    "type": "feat"
}
