{
    "_id": "WDid62NmmC6NiTE6",
    "data": {
        "actionCategory": {
            "value": "offensive"
        },
        "actionType": {
            "value": "action"
        },
        "actions": {
            "value": 2
        },
        "description": {
            "value": "<p><strong>Requirements</strong> You're wielding a loaded firearm and are wearing or holding a dose of black powder. You load an extra dose of powder.</p>\n<hr />\n<p>into your shot, causing it to belch a cloud of smoke. You make a Strike with your firearm and create a cloud of smoke in a @Template[type:emanation|distance:20] centered on your location. Creatures are @Compendium[pf2ettw.conditionitems.Concealed]{Concealed} while within the smoke, and creatures outside the area are concealed to creatures within the smoke. The smoke dissipates at the start of your next turn. If your Strike is a critical failure, your firearm misfires.</p>"
        },
        "featType": {
            "value": "class"
        },
        "level": {
            "value": 8
        },
        "location": "",
        "prerequisites": {
            "value": []
        },
        "rules": [],
        "source": {
            "value": ""
        },
        "traits": {
            "custom": "",
            "rarity": "common",
            "value": [
                "gunslinger"
            ]
        }
    },
    "img": "systems/pf2ettw/icons/default-icons/feats.webp",
    "name": "Smoke Curtain",
    "type": "feat"
}
