{
    "_id": "eMmdBpbMrpIuGowo",
    "data": {
        "actionCategory": {
            "value": ""
        },
        "actionType": {
            "value": "passive"
        },
        "actions": {
            "value": null
        },
        "description": {
            "value": "<p>You are adept at the time-honored kobold art of trap making. You gain the trained proficiency in Crafting. If you were already trained in Crafting, you instead become trained in a skill of your choice. You gain access to all uncommon kobold snares.</p>\n<p>You gain the @Compendium[pf2ettw.feats-srd.Snare Crafting]{Snare Crafting} feat, though when choosing your formulas for that feat, you can also choose from uncommon kobold snares, as well as common snares.</p>"
        },
        "featType": {
            "value": "ancestry"
        },
        "level": {
            "value": 1
        },
        "location": null,
        "prerequisites": {
            "value": [
                {
                    "value": "trained in Crafting"
                }
            ]
        },
        "rules": [
            {
                "key": "GrantItem",
                "uuid": "Compendium.pf2ettw.feats-srd.Snare Crafting"
            },
            {
                "key": "ActiveEffectLike",
                "mode": "upgrade",
                "path": "data.skills.cra.rank",
                "value": 1
            }
        ],
        "source": {
            "value": "Pathfinder Advanced Player's Guide"
        },
        "traits": {
            "custom": "",
            "rarity": "common",
            "value": [
                "kobold"
            ]
        }
    },
    "img": "systems/pf2ettw/icons/features/feats/feats.webp",
    "name": "Snare Setter",
    "type": "feat"
}
