{
    "_id": "QIXHd4nE2aVUCT3i",
    "data": {
        "actionCategory": {
            "value": ""
        },
        "actionType": {
            "value": "action"
        },
        "actions": {
            "value": 1
        },
        "description": {
            "value": "<p id=\"docs-internal-guid-d4981f02-7fff-eeb1-f76d-9f2cecc85cc6\" dir=\"ltr\"><em>You draw upon your connection to death to strike directly at your target’s spirit.</em></p>\n<hr />\n<p id=\"docs-internal-guid-d4981f02-7fff-eeb1-f76d-9f2cecc85cc6\" dir=\"ltr\"><strong>Frequency</strong> Once per minute</p>\n<hr />\n<p dir=\"ltr\">Make a weapon or unarmed @Compendium[pf2ettw.actionspf2ettw.Strike]{Strike} against a living or undead target.</p>\n<p dir=\"ltr\">The target is @Compendium[pf2ettw.conditionitems.Flat-Footed]{Flat-Footed} against the strike, and does not gain any circumstance bonuses to their AC against the strike. The strike ignores the @Compendium[pf2ettw.conditionitems.Concealed]{Concealed} or @Compendium[pf2ettw.conditionitems.Hidden]{Hidden} conditions. The strike deals negative damage and gains the death trait. If the attacks deals damage after resistances and immunities, any regeneration the target has is deactivated until the end of the target’s next turn.</p>"
        },
        "featType": {
            "value": "vampire"
        },
        "level": {
            "value": 11
        },
        "location": "",
        "prerequisites": {
            "value": []
        },
        "rules": [],
        "source": {
            "value": ""
        },
        "traits": {
            "custom": "",
            "rarity": "common",
            "value": [
                "nocturnus",
                "vampire"
            ]
        }
    },
    "img": "systems/pf2ettw/icons/features/feats/feats.webp",
    "name": "Soul Strike",
    "type": "feat"
}
