{
    "_id": "riEcVuMhwcaNSZGj",
    "data": {
        "actionCategory": {
            "value": ""
        },
        "actionType": {
            "value": "passive"
        },
        "actions": {
            "value": null
        },
        "description": {
            "value": "<p id=\"docs-internal-guid-8cbe23a4-7fff-d460-667d-ca3d093c7439\" dir=\"ltr\"><em>Your mind is inviolable, your will inexorable.</em></p>\n<hr />\n<p dir=\"ltr\">Whenever you make a Will save, you can roll twice and use the better result.</p>\n<p dir=\"ltr\"><span id=\"docs-internal-guid-21ad54d7-7fff-c8d7-2e01-298352538036\">Additionally, at the start of each of your turns you may attempt a Will save against each effect you are under with any of the following traits: Charm, Emotion, Fear, Mental, Possession, Sleep or Telepathy. The DC for this save is the DC of the spell or ability that applied it, or determined by the GM otherwise; if you succeed, the effect on you ends. This does not end this effect on any other creature or alter any effects it has on the environment.</span></p>"
        },
        "featType": {
            "value": "vampire"
        },
        "level": {
            "value": 19
        },
        "location": "",
        "prerequisites": {
            "value": [
                {
                    "value": "3 Presence Feats"
                }
            ]
        },
        "rules": [
            {
                "key": "Note",
                "selector": "will",
                "text": "<p class='compact-text'><strong>{item|name}</strong> Whenever you make a Will save, you can roll twice and use the better result.</p>"
            }
        ],
        "source": {
            "value": ""
        },
        "traits": {
            "custom": "",
            "rarity": "common",
            "value": [
                "presence",
                "vampire"
            ]
        }
    },
    "img": "systems/pf2ettw/icons/features/feats/feats.webp",
    "name": "Sovereign Will",
    "type": "feat"
}
