{
    "_id": "9DECwTTiVpHJc4B6",
    "data": {
        "actionCategory": {
            "value": ""
        },
        "actionType": {
            "value": "passive"
        },
        "actions": {
            "value": null
        },
        "description": {
            "value": "<p>You've trained your mammoth or other megafauna companion to perform in unusual or extreme situations, granting it abilities far beyond others of its kind. Your megafauna gains your choice of the bully, racer, tracker, or wrecker specialization.</p>\n<p><strong>Special</strong> You can select this feat up to three times. Each time, add a different specialization of the ones listed above to your megafauna companion. Your megafauna can't have more than three specializations.</p>"
        },
        "featType": {
            "value": "archetype"
        },
        "level": {
            "value": 14
        },
        "location": null,
        "maxTakable": 3,
        "prerequisites": {
            "value": [
                {
                    "value": "Mammoth Lord Dedication"
                }
            ]
        },
        "rules": [],
        "source": {
            "value": "Pathfinder #177: Burning Tundra"
        },
        "traits": {
            "custom": "",
            "rarity": "common",
            "value": [
                "archetype"
            ]
        }
    },
    "img": "systems/pf2ettw/icons/features/feats/feats.webp",
    "name": "Specialized Megafauna Companion",
    "type": "feat"
}
