{
    "_id": "vPa7Cjc9EwHvHqeQ",
    "data": {
        "actionCategory": {
            "value": ""
        },
        "actionType": {
            "value": "passive"
        },
        "actions": {
            "value": null
        },
        "description": {
            "value": "<p id=\"docs-internal-guid-9fa55909-7fff-8430-ca94-8e3ade01c167\" dir=\"ltr\">Your nimble or savage animal companion becomes cunning enough to become specialized. Your kindred spirit gains one specialization of your choice.</p>\n<p dir=\"ltr\">Your companion also gains access to the Bloodhunter specialization.</p>\n<p dir=\"ltr\"><strong>Special</strong> You can select this feat more than once. Each time, add a different specialization to your kindred spirit. Your nimble or savage companion can have up to three specializations.</p>\n<hr />\n<p dir=\"ltr\"><strong>Bloodhunter</strong></p>\n<p id=\"docs-internal-guid-940a0310-7fff-a8e1-9229-84f9c0dfca82\" dir=\"ltr\"><em>Your companion is a true hunter of men and beasts.</em></p>\n<p dir=\"ltr\">Its proficiency ranks for unarmoured defense and<a href=\"https://2e.aonprd.com/Skills.aspx?ID=7\"> </a>barding increase to expert, its Strength and Agility modifiers increase by 1, and its additional damage with unarmed attacks further increases from 4 to 6 or from 6 to 9.</p>\n<p dir=\"ltr\">The companion has the Bloodhunt ability.</p>\n<hr />\n<p dir=\"ltr\"><strong>Bloodhunt (1 action)</strong></p>\n<p dir=\"ltr\"><strong>Target:</strong> A bloodied creatre within reach.</p>\n<p dir=\"ltr\"><span id=\"docs-internal-guid-9db0fa01-7fff-b120-7202-d39672c829aa\">The midnight beast makes a @Compendium[pf2ettw.actionspf2ettw.Strike]{Strike} against the target creature. If it hits, instead of dealing damage normally, the target creature instead becomes @Compendium[pf2ettw.conditionitems.Drained]{Drained 1}, or increases their Drained level by 1 if they were already Drained.</span></p>"
        },
        "featType": {
            "value": "vampire"
        },
        "level": {
            "value": 15
        },
        "location": "",
        "prerequisites": {
            "value": [
                {
                    "value": "Incredible Kindred Spirit"
                }
            ]
        },
        "rules": [],
        "source": {
            "value": ""
        },
        "traits": {
            "custom": "",
            "rarity": "common",
            "value": [
                "nocturnus",
                "vampire"
            ]
        }
    },
    "img": "systems/pf2ettw/icons/features/feats/feats.webp",
    "name": "Specialised Kindred Spirit",
    "type": "feat"
}
