{
    "_id": "cHar4xaApxxT6YeQ",
    "data": {
        "actionCategory": {
            "value": ""
        },
        "actionType": {
            "value": "passive"
        },
        "actions": {
            "value": null
        },
        "description": {
            "value": "<p id=\"docs-internal-guid-8c25099b-7fff-7afb-ae89-2e7d8fe2b4d9\" dir=\"ltr\"><em>As blood can infuse magic, magic can infuse blood. You can siphon the power from spells directed against you to recharge your own abilities.</em></p>\n<hr />\n<p dir=\"ltr\">Whenever you successfully save against or are missed by a hostile spell, you may regain hit points equal to the level of the spell.</p>\n<p dir=\"ltr\">In addition, whenever you critically save against or are critically missed by a hostile spell, you may either regain an expended spell slot of at least two levels lower than the spell (to a minimum of 1) or reduce your @Compendium[pf2ettw.conditionitems.Thirst]{Thirst} level by one.</p>"
        },
        "featType": {
            "value": "vampire"
        },
        "level": {
            "value": 9
        },
        "location": "",
        "prerequisites": {
            "value": []
        },
        "rules": [],
        "source": {
            "value": ""
        },
        "traits": {
            "custom": "",
            "rarity": {
                "value": "common"
            },
            "value": [
                "bloodmage",
                "vampire"
            ]
        }
    },
    "img": "systems/pf2ettw/icons/features/feats/feats.webp",
    "name": "Spelleater",
    "type": "feat"
}
