{
    "_id": "52cygjzHfSD0YhEA",
    "data": {
        "actionCategory": {
            "value": ""
        },
        "actionType": {
            "value": "passive"
        },
        "actions": {
            "value": null
        },
        "description": {
            "value": "<p>You've studied ways of overcoming the innate magical resistance that dragons, otherworldly beings, and certain other powerful creatures have. Any creature that has a status bonus to saving throws against magic reduces that bonus by 1 against your spells.</p>"
        },
        "featType": {
            "value": "class"
        },
        "level": {
            "value": 6
        },
        "prerequisites": {
            "value": []
        },
        "rules": [],
        "source": {
            "value": "Pathfinder Core Rulebook"
        },
        "traits": {
            "custom": "",
            "rarity": "common",
            "value": [
                "wizard"
            ]
        }
    },
    "img": "systems/pf2ettw/icons/features/feats/feats.webp",
    "name": "Spell Penetration",
    "type": "feat"
}
