{
    "_id": "03mVGvudDLyGEpTZ",
    "data": {
        "actionCategory": {
            "value": "defensive"
        },
        "actionType": {
            "value": "action"
        },
        "actions": {
            "value": 1
        },
        "description": {
            "value": "<p><strong>Cost</strong> 1 spirit wisp or spirit remnant from your spirit dwelling</p>\n<p><strong>Requirements</strong> You are holding your spirit dwelling.</p>\n<hr />\n<p>You purify a spirit by absolving it of its sins and regrets. This cathartic experience restores your Hit Points or those of an adjacent ally. If you expend a spirit wisp, the target recovers 1d4 Hit Points per level you have. If you expend a spirit remnant, the target recovers 1d6 Hit Points per level of the incorporeal undead or haunt from which you gained the remnant.</p>"
        },
        "featType": {
            "value": "archetype"
        },
        "level": {
            "value": 6
        },
        "location": null,
        "prerequisites": {
            "value": [
                {
                    "value": "Exorcist Dedication"
                }
            ]
        },
        "rules": [],
        "source": {
            "value": "Pathfinder Book of the Dead"
        },
        "traits": {
            "custom": "",
            "rarity": "common",
            "value": [
                "archetype",
                "healing",
                "necromancy",
                "positive"
            ]
        }
    },
    "img": "systems/pf2ettw/icons/default-icons/feats.webp",
    "name": "Spirit's Absolution",
    "type": "feat"
}
