{
    "_id": "FlsAYAGEiZg1gg7D",
    "data": {
        "actionCategory": {
            "value": ""
        },
        "actionType": {
            "value": "action"
        },
        "actions": {
            "value": 2
        },
        "description": {
            "value": "<p>You channel disruptive power that severs a foe's spiritual connection to their heretical magic. Make a melee Strike. If the attack hits, any time the target attempts to cast a divine or occult spell, the spell is disrupted unless they succeed at a DC 5 flat check (DC 7 on a critical hit); if the target is also @Compendium[pf2ettw.conditionitems.Stupefied]{Stupefied}, it must attempt the harder of the two flat checks (but not both). This effect lasts for 1 minute.</p>"
        },
        "featType": {
            "value": "bonus"
        },
        "level": {
            "value": 0
        },
        "location": "",
        "prerequisites": {
            "value": [
                {
                    "value": "Order of the Pyre"
                }
            ]
        },
        "rules": [],
        "source": {
            "value": ""
        },
        "traits": {
            "custom": "",
            "rarity": "common",
            "value": []
        }
    },
    "img": "systems/pf2ettw/icons/features/feats/feats.webp",
    "name": "Spiritual Disruption",
    "type": "feat"
}
