{
    "_id": "KpF7RenGBXIMMGPX",
    "data": {
        "actionCategory": {
            "value": ""
        },
        "actionType": {
            "value": "action"
        },
        "actions": {
            "value": 1
        },
        "description": {
            "value": "<p>You siphon some of the power from an offensive hex you cast to direct it at a second target as well. If the next action you use is to @Compendium[pf2ettw.actionspf2ettw.Cast a Spell]{Cast a Spell} to cast a harmful hex with a single target, reduce its level by 2 (making it 2 levels lower than the maximum spell level you can cast). If you do, you can select a second target for that hex to affect.</p>"
        },
        "featType": {
            "value": "class"
        },
        "level": {
            "value": 18
        },
        "prerequisites": {
            "value": []
        },
        "rules": [],
        "source": {
            "value": "Pathfinder Advanced Player's Guide"
        },
        "traits": {
            "custom": "",
            "rarity": "common",
            "value": [
                "concentrate",
                "metamagic",
                "witch"
            ]
        }
    },
    "img": "systems/pf2ettw/icons/features/feats/feats.webp",
    "name": "Split Hex",
    "type": "feat"
}
