{
    "_id": "x31hmCxzJk0m0onR",
    "data": {
        "actionCategory": {
            "value": ""
        },
        "actionType": {
            "value": "passive"
        },
        "actions": {
            "value": null
        },
        "description": {
            "value": "<p>You can fling a portion of your magic at foes. You gain a ranged unarmed attack in the sling weapon group with a maximum range of 20 feet that deals [[/r 1d4]] damage. (No ability modifier is added to the damage roll.) The damage type and name of the unarmed attack depends on your heritage, described below; most sprite heritages not presented in this book also use luminous spark. Like other unarmed attacks, you can improve this attack with @Compendium[pf2ettw.equipment-srd.Handwraps of Mighty Blows]{Handwraps of Mighty Blows}.</p>\n<hr />\n<p><strong>Draxie</strong> euphoric spark (mental)</p>\n<p><strong>Firefly Sprite</strong> luminous spark (fire)</p>\n<p><strong>Grig</strong> dissonant note (sonic)</p>\n<p><strong>Melixie</strong> sting shot (poison)</p>\n<p><strong>Nyktera</strong> ultrasonic pulse (sonic)</p>\n<p><strong>Pixie</strong> pixie dust (mental)</p>"
        },
        "featType": {
            "value": "ancestry"
        },
        "level": {
            "value": 1
        },
        "location": "",
        "prerequisites": {
            "value": []
        },
        "rules": [
            {
                "category": "unarmed",
                "damage": {
                    "base": {
                        "damageType": "mental",
                        "dice": 1,
                        "die": "d4"
                    }
                },
                "group": "sling",
                "key": "Strike",
                "label": "Euphoric Spark",
                "range": 20,
                "traits": [
                    "range-20",
                    "unarmed"
                ]
            }
        ],
        "source": {
            "value": "Pathfinder Lost Omens: Ancestry Guide"
        },
        "traits": {
            "custom": "",
            "rarity": "common",
            "value": [
                "sprite"
            ]
        }
    },
    "img": "systems/pf2ettw/icons/features/feats/feats.webp",
    "name": "Sprite's Spark (Draxie)",
    "type": "feat"
}
