{
    "_id": "dPmJ91qawZW2U8K3",
    "data": {
        "actionCategory": {
            "value": ""
        },
        "actionType": {
            "value": "action"
        },
        "actions": {
            "value": 1
        },
        "description": {
            "value": "<p><strong>Archetype</strong> @Compendium[pf2ettw.archetypes.Staff Acrobat]{Staff Acrobat}</p>\n<p><strong>Requirements</strong> You are wielding your staff.</p>\n<hr />\n<p>You sweep your foes away with your staff. Roll an Athletics check to @Compendium[pf2ettw.actionspf2ettw.Shove]{Shove} or @Compendium[pf2ettw.actionspf2ettw.Trip]{Trip}, and compare the result to the appropriate DCs of up to two foes, each of whom must be within your reach and no more than 5 feet apart.</p>"
        },
        "featType": {
            "value": "archetype"
        },
        "level": {
            "value": 6
        },
        "prerequisites": {
            "value": [
                {
                    "value": "Staff Acrobat Dedication"
                }
            ]
        },
        "rules": [],
        "source": {
            "value": "Pathfinder #151: The Show Must Go On"
        },
        "traits": {
            "custom": "",
            "rarity": "uncommon",
            "value": [
                "archetype",
                "flourish"
            ]
        }
    },
    "img": "systems/pf2ettw/icons/features/feats/feats.webp",
    "name": "Staff Sweep",
    "type": "feat"
}
