{
    "_id": "LoeoiYOpxSaEkWKv",
    "data": {
        "actionCategory": {
            "value": ""
        },
        "actionType": {
            "value": "passive"
        },
        "actions": {
            "value": null
        },
        "description": {
            "value": "<p>When you @Compendium[pf2ettw.actionspf2ettw.High Jump]{High Jump}, @Compendium[pf2ettw.actionspf2ettw.Leap]{Leap}, or @Compendium[pf2ettw.actionspf2ettw.Long Jump]{Long Jump} while wielding your staff, you gain a +2 circumstance bonus to any Athletics check required and add 5 feet to the distance you can Leap vertically and horizontally. You can @Compendium[pf2ettw.actionspf2ettw.Shove]{Shove} and @Compendium[pf2ettw.actionspf2ettw.Trip]{Trip} even if you don't have a free hand, provided you are wielding your staff. Finally, when you roll a success on a check to @Compendium[pf2ettw.actionspf2ettw.Balance]{Balance} while wielding your staff, you get a critical success instead.</p>\n<p><strong>Special</strong> You cannot select another dedication feat until you have gained two other feats from the staff acrobat archetype.</p>"
        },
        "featType": {
            "value": "archetype"
        },
        "level": {
            "value": 2
        },
        "prerequisites": {
            "value": [
                {
                    "value": "Dexterity 16"
                },
                {
                    "value": "trained in Acrobatics"
                },
                {
                    "value": "trained in Athletics"
                },
                {
                    "value": "trained with at least one of the following weapons: staff, bo staff, halfling sling staff, or any weapon in the spear or polearm group (referred to in this archetype as \"your staff\")"
                }
            ]
        },
        "rules": [],
        "source": {
            "value": "Pathfinder #151: The Show Must Go On"
        },
        "traits": {
            "custom": "",
            "rarity": "uncommon",
            "value": [
                "archetype",
                "dedication"
            ]
        }
    },
    "img": "systems/pf2ettw/icons/features/feats/feats.webp",
    "name": "Staff Acrobat Dedication",
    "type": "feat"
}
