{
    "_id": "fngPLUD4Sltho2kn",
    "data": {
        "actionCategory": {
            "value": "offensive"
        },
        "actionType": {
            "value": "action"
        },
        "actions": {
            "value": 1
        },
        "description": {
            "value": "<p>You've learned how to fire at enemies to slow them down, allowing innocents and fellow knights alike time to escape. Make a ranged Strike with a weapon in the bow weapon group. On a hit, the target takes a -5-foot circumstance penalty to its Speed until the end of its turn, or a -10-foot circumstance penalty on a critical hit.</p>"
        },
        "featType": {
            "value": "archetype"
        },
        "level": {
            "value": 6
        },
        "location": null,
        "prerequisites": {
            "value": [
                {
                    "value": "Archer Dedication"
                }
            ]
        },
        "rules": [],
        "source": {
            "value": "Pathfinder Lost Omens: Knights of Lastwall"
        },
        "traits": {
            "custom": "",
            "rarity": "uncommon",
            "value": [
                "archetype"
            ]
        }
    },
    "img": "systems/pf2ettw/icons/default-icons/feats.webp",
    "name": "Staggering Fire",
    "type": "feat"
}
