{
    "_id": "FoJd0oiEQ9mF5KS9",
    "data": {
        "actionCategory": {
            "value": ""
        },
        "actionType": {
            "value": "passive"
        },
        "actions": {
            "value": null
        },
        "description": {
            "value": "<p>Confident in your technique, you don't easily lose your concentration when you Cast a Spell.</p>\n<p>If a reaction would disrupt your spellcasting action, attempt a @Check[type:flat|dc:15] check. If you succeed, your action isn't disrupted.</p>"
        },
        "featType": {
            "value": "class"
        },
        "level": {
            "value": 4
        },
        "location": "",
        "prerequisites": {
            "value": []
        },
        "rules": [],
        "source": {
            "value": ""
        },
        "traits": {
            "custom": "",
            "rarity": "common",
            "value": [
                "magus"
            ]
        }
    },
    "img": "systems/pf2ettw/icons/features/feats/feats.webp",
    "name": "Steady Spellcasting (Magus)",
    "type": "feat"
}
