{
    "_id": "QEOe9AhQzdqIx1ei",
    "data": {
        "actionCategory": {
            "value": ""
        },
        "actionType": {
            "value": "passive"
        },
        "actions": {
            "value": null
        },
        "description": {
            "value": "<p>The earth has taught you how to remain unyielding and firm. If you roll a success on an Acrobatics check made to @Compendium[pf2ettw.actionspf2ettw.Balance]{Balance} on uneven ground composed of earth or rock, you get a critical success instead.</p>\n<p>As long as you remain on the ground, you gain a +2 circumstance bonus to your Fortitude or Reflex DC against attempts to Shove or Trip you. This bonus also applies to saving throws against spells or effects that would attempt to knock you prone. If you're a rock dwarf, this bonus increases to +3.</p>"
        },
        "featType": {
            "value": "class"
        },
        "level": {
            "value": 1
        },
        "location": "",
        "prerequisites": {
            "value": [
                {
                    "value": "stone order"
                }
            ]
        },
        "rules": [],
        "source": {
            "value": ""
        },
        "traits": {
            "custom": "",
            "rarity": "common",
            "value": [
                "druid"
            ]
        }
    },
    "img": "systems/pf2ettw/icons/features/feats/feats.webp",
    "name": "Steadying Stone",
    "type": "feat"
}
