{
    "_id": "FZuQPFnQ5UkBWLU9",
    "data": {
        "actionCategory": {
            "value": ""
        },
        "actionType": {
            "value": "passive"
        },
        "actions": {
            "value": null
        },
        "description": {
            "value": "<p>Your connection to the earth makes natural uneven surfaces less of a hindrance for you. You can ignore difficult terrain caused by rubble and uneven ground made of stone and earth. In addition, when you use the Acrobatics skill to Balance on narrow surfaces or uneven ground made of stone and earth, you aren't @Compendium[pf2ettw.conditionitems.Flat-Footed]{Flat-Footed}, and when you roll a success at one of these Acrobatics checks, you get a critical success instead.</p>"
        },
        "featType": {
            "value": "ancestry"
        },
        "level": {
            "value": 1
        },
        "location": "",
        "prerequisites": {
            "value": []
        },
        "rules": [],
        "source": {
            "value": "Pathfinder Lost Omens: Ancestry Guide"
        },
        "traits": {
            "custom": "",
            "rarity": "common",
            "value": [
                "oread"
            ]
        }
    },
    "img": "systems/pf2ettw/icons/features/feats/feats.webp",
    "name": "Steady On Stone",
    "type": "feat"
}
