{
    "_id": "Vy1zkZARD7WNjFNg",
    "data": {
        "actionCategory": {
            "value": ""
        },
        "actionType": {
            "value": "passive"
        },
        "actions": {
            "value": null
        },
        "description": {
            "value": "<p id=\"docs-internal-guid-d833961f-7fff-4b83-beb6-efeacd6c180e\" dir=\"ltr\"><em>The power within your limbs outstrips that of mortals, enabling you to wield weapons in a way no normal human could.</em></p>\n<hr />\n<p dir=\"ltr\">All weapons that you’re wielding gain the following traits:</p>\n<ul>\n<li dir=\"ltr\">@Compendium[pf2ettw.equipment-effects.Effect: Parry]{Parry}, if in the sword group;</li>\n<li dir=\"ltr\">Scale, if in the flail group;</li>\n<li dir=\"ltr\">Backswing, if wielded in two hands;</li>\n<li dir=\"ltr\">Thrown 10ft, if it does not have the Thrown trait.</li>\n</ul>\n<p><span id=\"docs-internal-guid-c68cbfdf-7fff-5b7e-1947-632fdb0515a8\">You may choose to attack with any shield boss or shield spikes attached to a shield you are wielding as though they had the agile trait - if you do, reduce their damage die by one step for that attack.</span></p>\n<p dir=\"ltr\">Additionally, you can reduce the reload value of crossbows you’re wielding by 1, to a minimum of 0, but if you do, they can't benefit from any increases to their weaopn die size (the action cost of special reload actions used on crossbows you’re wielding are also reduced by 1 in this way where appropriate - @Compendium[pf2ettw.feats-srd.Running Reload]{Running Reload} does not become a free action to stride).</p>\n<p dir=\"ltr\">Weapons which gain Thrown as a result of this ability cannot return to the hand when thrown, even if an ability would normally allow thrown weapons to do so, or if they are enchanted with the returning property rune, and cannot be used to grapple when thrown.</p>"
        },
        "featType": {
            "value": "vampire"
        },
        "level": {
            "value": 7
        },
        "location": "",
        "prerequisites": {
            "value": []
        },
        "rules": [],
        "source": {
            "value": ""
        },
        "traits": {
            "custom": "",
            "rarity": "common",
            "value": [
                "vampire",
                "warrior"
            ]
        }
    },
    "img": "systems/pf2ettw/icons/features/feats/feats.webp",
    "name": "Steel Sinews",
    "type": "feat"
}
