{
    "_id": "QShgLWlfKYJO750P",
    "data": {
        "actionCategory": {
            "value": ""
        },
        "actionType": {
            "value": "passive"
        },
        "actions": {
            "value": null
        },
        "description": {
            "value": "<p>You can use @Compendium[pf2ettw.actionspf2ettw.Treat Wounds]{Treat Wounds} to restore Hit Points to undead creatures, not just living ones. The techniques you use to do so vary, but all require sutures, bandages, and other tools included in healer's tools. Some conditions that might raise the DC of treating undead's wounds differ from that of living creatures. For instance, the GM might increase the DC if the undead being treated is in a church of Pharasma or the wounds were caused by powerful positive energy.</p>"
        },
        "featType": {
            "value": "skill"
        },
        "level": {
            "value": 1
        },
        "location": null,
        "prerequisites": {
            "value": [
                {
                    "value": "trained in Medicine"
                }
            ]
        },
        "rules": [],
        "source": {
            "value": "Pathfinder Book of the Dead"
        },
        "traits": {
            "custom": "",
            "rarity": "common",
            "value": [
                "general",
                "skill"
            ]
        }
    },
    "img": "systems/pf2ettw/icons/default-icons/feats.webp",
    "name": "Stitch Flesh",
    "type": "feat"
}
