{
    "_id": "dj0aOPPcDOqmptpX",
    "data": {
        "actionCategory": {
            "value": ""
        },
        "actionType": {
            "value": "action"
        },
        "actions": {
            "value": null
        },
        "description": {
            "value": "<p>Your mask remembers the stories of Shifting Frog, Storyteller of the Past and Future. You can cast <em>@Compendium[pf2ettw.spells-srd.Foresight]{Foresight}</em> once per day as an innate spell, either arcane if you have Wizard Dedication or primal if you have Druid Dedication, but the duration is 10 minutes instead of 1 hour. Immediately after you Cast a non-cantrip Spell that targets only a single foe, you can Recall Knowledge about that foe.</p>"
        },
        "featType": {
            "value": "archetype"
        },
        "level": {
            "value": 20
        },
        "location": "",
        "prerequisites": {
            "value": [
                {
                    "value": "Druid Dedication or Wizard Dedication"
                }
            ]
        },
        "rarity": {
            "value": "common"
        },
        "rules": [],
        "source": {
            "value": "Pathfinder #174: Shadows of the Ancients"
        },
        "traits": {
            "custom": "",
            "rarity": "rare",
            "value": [
                "rare",
                "archetype",
                "druid",
                "wizard"
            ]
        },
        "usage": {
            "value": ""
        }
    },
    "img": "systems/pf2ettw/icons/features/feats/feats.webp",
    "name": "Storyteller's Mask",
    "type": "feat"
}
