{
    "_id": "lMA3F9SGzGV79P5C",
    "data": {
        "actionCategory": {
            "value": "offensive"
        },
        "actionType": {
            "value": "action"
        },
        "actions": {
            "value": 1
        },
        "description": {
            "value": "<p><strong>Requirements</strong> You have a creature @Compendium[pf2ettw.conditionitems.Grabbed]{Grabbed} or @Compendium[pf2ettw.conditionitems.Restrained]{Restrained}.</p>\n<hr />\n<p>You twist and squeeze the breath out of your foe. Make an unarmed melee Strike against the creature you have grabbed or restrained. On a success, you gain a circumstance bonus to damage equal to the number of weapon damage dice and the target can barely speak until the start of your next turn or until it Escapes, whichever comes first. While it can barely speak, the target can't vocalize above a hoarse whisper, and it must succeed at a @Check[type:flat|dc:10|showDC:owner] check or lose any action that requires speech, For an action requiring speech that is also a manipulate action, like Casting a Spell with somatic and verbal components, the target just rolls a single @Check[type:flat|dc:10|showDC:owner] check, rather than an additional @Check[type:flat|dc:5|showDC:owner] check for being grabbed.</p>"
        },
        "featType": {
            "value": "archetype"
        },
        "level": {
            "value": 8
        },
        "location": "",
        "prerequisites": {
            "value": [
                {
                    "value": "Wrestler Dedication"
                }
            ]
        },
        "rules": [],
        "source": {
            "value": ""
        },
        "traits": {
            "custom": "",
            "rarity": "common",
            "value": [
                "archetype"
            ]
        }
    },
    "img": "systems/pf2ettw/icons/default-icons/feats.webp",
    "name": "Strangle",
    "type": "feat"
}
