{
    "_id": "Ar010vuaGo6Hf5B9",
    "data": {
        "actionCategory": {
            "value": ""
        },
        "actionType": {
            "value": "passive"
        },
        "actions": {
            "value": null
        },
        "description": {
            "value": "<p id=\"docs-internal-guid-c7a22a49-7fff-1b3a-97c7-9b57a30170d4\" dir=\"ltr\"><em>They’ll never see you coming...</em></p>\n<hr />\n<p dir=\"ltr\">You gain the @Compendium[pf2ettw.classfeatures.Sneak Attack]{Sneak Attack} class feature, except you deal 1d6 precision damage regardless of your level.</p>\n<p dir=\"ltr\">If you already have the sneak attack feature, add this damage to the amount you would otherwise deal.</p>"
        },
        "featType": {
            "value": "vampire"
        },
        "level": {
            "value": 11
        },
        "location": "",
        "prerequisites": {
            "value": []
        },
        "rules": [
            {
                "key": "GrantItem",
                "uuid": "Compendium.pf2ettw.classfeatures.Sneak Attack"
            }
        ],
        "source": {
            "value": ""
        },
        "traits": {
            "custom": "",
            "rarity": {
                "value": "common"
            },
            "value": [
                "shadow",
                "vampire"
            ]
        }
    },
    "img": "systems/pf2ettw/icons/features/feats/feats.webp",
    "name": "Strike from the Shadows",
    "type": "feat"
}
