{
    "_id": "TNpoEG0cUEAuSju7",
    "data": {
        "actionCategory": {
            "value": ""
        },
        "actionType": {
            "value": "passive"
        },
        "actions": {
            "value": null
        },
        "description": {
            "value": "<p><strong>Access</strong> The following class feat is available to Knights of Lastwall.</p>\n<hr />\n<p>You can unleash burning sunlight from your sword or spear.</p>\n<p>You gain the <em>@Compendium[pf2ettw.spells-srd.Sun Blade]{Sun Blade}</em> devotion spell. Increase the number of Focus Points in your focus pool by 1.</p>"
        },
        "featType": {
            "value": "class"
        },
        "level": {
            "value": 4
        },
        "location": "",
        "prerequisites": {
            "value": []
        },
        "rules": [
            {
                "key": "ActiveEffectLike",
                "mode": "add",
                "path": "data.resources.focus.max",
                "value": 1
            }
        ],
        "source": {
            "value": "Pathfinder Lost Omens: Character Guide"
        },
        "traits": {
            "custom": "",
            "rarity": "uncommon",
            "value": [
                "champion"
            ]
        }
    },
    "img": "systems/pf2ettw/icons/features/feats/feats.webp",
    "name": "Sun Blade",
    "type": "feat"
}
