{
    "_id": "Rr7GdUjXhGhV04Pe",
    "data": {
        "actionCategory": {
            "value": ""
        },
        "actionType": {
            "value": "passive"
        },
        "actions": {
            "value": null
        },
        "description": {
            "value": "<p>The elven magic in your blood manifests as a force you can use to become more appealing or alluring. You can cast 1st-level <em>@Compendium[pf2ettw.spells-srd.Charm]{Charm}</em> as an arcane innate spell once per day.</p>"
        },
        "featType": {
            "value": "ancestry"
        },
        "level": {
            "value": 5
        },
        "location": null,
        "prerequisites": {
            "value": []
        },
        "rules": [],
        "source": {
            "value": "Pathfinder Core Rulebook"
        },
        "traits": {
            "custom": "",
            "rarity": "common",
            "value": [
                "half-elf"
            ]
        }
    },
    "img": "systems/pf2ettw/icons/features/feats/feats.webp",
    "name": "Supernatural Charm",
    "type": "feat"
}
