{
    "_id": "9yko78REsaw7i2gr",
    "data": {
        "actionCategory": {
            "value": "offensive"
        },
        "actionType": {
            "value": "action"
        },
        "actions": {
            "value": 1
        },
        "description": {
            "value": "<p><strong>Requirements</strong> You have a creature @Compendium[pf2ettw.conditionitems.Grabbed]{Grabbed} or @Compendium[pf2ettw.conditionitems.Restrained]{Restrained}.</p>\n<hr />\n<p>Flexing your entire body, you heave your opponent over your head and slam them into the ground. Make an unarmed melee Strike against the creature you have grabbed or restrained; on a success, the target lands @Compendium[pf2ettw.conditionitems.Prone]{Prone}, and on a critical success, the target lands prone and takes an additional [[/r {2d6}[bludgeoning]]]{2d6 bludgeoning damage}. Regardless of whether the Strike is successful, you immediately release your hold on the target.</p>"
        },
        "featType": {
            "value": "archetype"
        },
        "level": {
            "value": 4
        },
        "location": "",
        "prerequisites": {
            "value": [
                {
                    "value": "Wrestler Dedication"
                }
            ]
        },
        "rules": [],
        "source": {
            "value": ""
        },
        "traits": {
            "custom": "",
            "rarity": "common",
            "value": [
                "archetype"
            ]
        }
    },
    "img": "systems/pf2ettw/icons/default-icons/feats.webp",
    "name": "Suplex",
    "type": "feat"
}
