{
    "_id": "n7LTwKUSATLaQ9FD",
    "data": {
        "actionCategory": {
            "value": ""
        },
        "actionType": {
            "value": "passive"
        },
        "actions": {
            "value": null
        },
        "description": {
            "value": "<p>You gain a +2 circumstance bonus to saving throws against unnatural weather events or environmental hazards occurring in blighted or otherwise unnaturally marred regions. If you roll a success on a saving throw against such an effect, you get a critical success instead; if you roll a critical failure, you get a failure instead. This does not apply to unnatural events created or directed by active effects, such as spells that create anomalous weather or hazardous areas.</p>"
        },
        "featType": {
            "value": "archetype"
        },
        "level": {
            "value": 8
        },
        "location": "",
        "prerequisites": {
            "value": [
                {
                    "value": "Knight Reclaimant Dedication "
                }
            ]
        },
        "rules": [
            {
                "key": "FlatModifier",
                "label": "vs. unnatural weather or in blighted land (Survivor of Desolation)",
                "predicate": {
                    "any": [
                        "unnatural-weather",
                        "blighted-land"
                    ]
                },
                "selector": "saving-throw",
                "type": "circumstance",
                "value": 2
            }
        ],
        "source": {
            "value": "Pathfinder Lost Omens: Character Guide"
        },
        "traits": {
            "custom": "",
            "rarity": "common",
            "value": [
                "archetype"
            ]
        }
    },
    "img": "systems/pf2ettw/icons/features/feats/feats.webp",
    "name": "Survivor of Desolation",
    "type": "feat"
}
