{
    "_id": "phFRWFgeHdBzio2V",
    "data": {
        "actionCategory": {
            "value": "defensive"
        },
        "actionType": {
            "value": "action"
        },
        "actions": {
            "value": 1
        },
        "description": {
            "value": "<p><strong>Frequency</strong> once per day</p>\n<hr />\n<p>You crumble to pieces, becoming composed of the very terrain to which you're bound, with the effects of the gaseous form spell, or you reconstitute into your normal form. The substance you're formed of depends upon your bound terrain, and the action gains the corresponding trait or traits.</p>\n<p><strong>Arctic</strong> Snow (water)</p>\n<p><strong>Desert</strong> Sand (earth)</p>\n<p><strong>Mountain</strong> Cloud (water)</p>\n<p><strong>Swamp</strong> Mud (earth, water)</p>"
        },
        "featType": {
            "value": "archetype"
        },
        "level": {
            "value": 10
        },
        "location": null,
        "prerequisites": {
            "value": [
                {
                    "value": "Mummy Dedication"
                }
            ]
        },
        "rules": [],
        "source": {
            "value": "Pathfinder Book of the Dead"
        },
        "traits": {
            "custom": "",
            "rarity": "common",
            "value": [
                "archetype",
                "concentrate",
                "divine",
                "transmutation"
            ]
        }
    },
    "img": "systems/pf2ettw/icons/default-icons/feats.webp",
    "name": "Terrain Form",
    "type": "feat"
}
