{
    "_id": "6PCNYExygF5890Fl",
    "data": {
        "actionCategory": {
            "value": ""
        },
        "actionType": {
            "value": "action"
        },
        "actions": {
            "value": null
        },
        "description": {
            "value": "<p>Your mask grants you the toughness of Elephant, the Conjured Chronicle. Increase your maximum number of Hit Points by 20. Immediately after you Cast a non-cantrip Spell that targets only you, you gain resistance 10 to all physical damage until the start of your next turn.</p>"
        },
        "featType": {
            "value": "archetype"
        },
        "level": {
            "value": 20
        },
        "location": "",
        "prerequisites": {
            "value": [
                {
                    "value": "Druid Dedication or Wizard Dedication"
                }
            ]
        },
        "rarity": {
            "value": "common"
        },
        "rules": [
            {
                "key": "FlatModifier",
                "selector": "hp",
                "value": 20
            }
        ],
        "source": {
            "value": "Pathfinder #174: Shadows of the Ancients"
        },
        "traits": {
            "custom": "",
            "rarity": "rare",
            "value": [
                "rare",
                "archetype",
                "druid",
                "wizard"
            ]
        },
        "usage": {
            "value": ""
        }
    },
    "img": "systems/pf2ettw/icons/features/feats/feats.webp",
    "name": "Thick Hide Mask",
    "type": "feat"
}
