{
    "_id": "TRC4DgVq07cZO65B",
    "data": {
        "actionCategory": {
            "value": ""
        },
        "actionType": {
            "value": "passive"
        },
        "actions": {
            "value": null
        },
        "description": {
            "value": "<p>When your seedpods strike a felling blow, they burst into viciously thorny vines. When you critically succeed at a seedpod Strike, vines twist and stab your foe, dealing [[/r {1d4}[persistent,piercing]]] @Compendium[pf2ettw.conditionitems.Persistent Damage]{Persistent Piercing Damage}.</p>"
        },
        "featType": {
            "value": "ancestry"
        },
        "level": {
            "value": 9
        },
        "location": null,
        "prerequisites": {
            "value": [
                {
                    "value": "Seedpod"
                }
            ]
        },
        "rules": [
            {
                "key": "Note",
                "outcome": [
                    "criticalSuccess"
                ],
                "selector": "seedpod-damage",
                "text": "@Localize[pf2ettw.SpecificRule.Leshy.ThornedSeedpod.Note]",
                "title": "{item|name}"
            }
        ],
        "source": {
            "value": "Pathfinder Lost Omens: Ancestry Guide"
        },
        "traits": {
            "custom": "",
            "rarity": "common",
            "value": [
                "leshy"
            ]
        }
    },
    "img": "systems/pf2ettw/icons/features/feats/feats.webp",
    "name": "Thorned Seedpod",
    "type": "feat"
}
