{
    "_id": "VCjAlOvjNvFJOsG5",
    "data": {
        "actionCategory": {
            "value": ""
        },
        "actionType": {
            "value": "action"
        },
        "actions": {
            "value": 1
        },
        "description": {
            "value": "<p><strong>Requirements</strong> You are unarmored</p>\n<hr />\n<p>You enter the stance of a tiger and can make tiger claw attacks. These deal 1d8 slashing damage; are in the brawling group; and have the agile, finesse, nonlethal, and unarmed traits.</p>\n<p>On a critical success with your tiger claws, if you deal damage, the target takes @Localize[pf2ettw.PersistentDamage.Bleed1d4.success].</p>\n<p>As long as your Speed is at least 20 feet while in Tiger Stance, you can Step 10 feet.</p>\n<p>@Compendium[pf2ettw.feat-effects.Stance: Tiger Stance]{Stance: Tiger Stance}</p>"
        },
        "featType": {
            "value": "class"
        },
        "level": {
            "value": 1
        },
        "location": "",
        "prerequisites": {
            "value": []
        },
        "rules": [],
        "source": {
            "value": "Pathfinder Core Rulebook"
        },
        "traits": {
            "custom": "",
            "rarity": "common",
            "value": [
                "monk",
                "stance"
            ]
        }
    },
    "img": "systems/pf2ettw/icons/features/feats/feats.webp",
    "name": "Tiger Stance",
    "type": "feat"
}
