{
    "_id": "50CRpoP5XS1MVbu8",
    "data": {
        "actionCategory": {
            "value": ""
        },
        "actionType": {
            "value": "passive"
        },
        "actions": {
            "value": null
        },
        "description": {
            "value": "<p>You have learned how to use your sling to fell enormous creatures. When you hit on an attack with a sling against a Large or larger creature, increase the size of the weapon damage die by one step.</p>"
        },
        "featType": {
            "value": "ancestry"
        },
        "level": {
            "value": 1
        },
        "location": null,
        "prerequisites": {
            "value": []
        },
        "rules": [
            {
                "key": "DamageDice",
                "override": {
                    "upgrade": true
                },
                "predicate": {
                    "any": [
                        "target:size:large",
                        "target:size:huge",
                        "target:size:gargantuan"
                    ]
                },
                "selector": "sling-weapon-group-damage"
            }
        ],
        "source": {
            "value": "Pathfinder Core Rulebook"
        },
        "traits": {
            "custom": "",
            "rarity": "common",
            "value": [
                "halfling"
            ]
        }
    },
    "img": "systems/pf2ettw/icons/features/feats/feats.webp",
    "name": "Titan Slinger",
    "type": "feat"
}
