{
    "_id": "lVDyDpZgqMrC8Wmh",
    "data": {
        "actionCategory": {
            "value": ""
        },
        "actionType": {
            "value": "passive"
        },
        "actions": {
            "value": null
        },
        "description": {
            "value": "<p id=\"docs-internal-guid-4c1d7e0b-7fff-e678-b349-5d49d9f7eaf4\" dir=\"ltr\"><em>Why limit yourself to just one?</em></p>\n<hr />\n<p dir=\"ltr\">When you cast Darkblade, you may manifest up to two weapons, providing you have sufficient free hands to hold them.</p>"
        },
        "featType": {
            "value": "bonus"
        },
        "level": {
            "value": 6
        },
        "location": "",
        "prerequisites": {
            "value": [
                {
                    "value": "Darkblade Dedication"
                }
            ]
        },
        "rules": [],
        "source": {
            "value": ""
        },
        "traits": {
            "custom": "",
            "rarity": {
                "value": "common"
            },
            "value": [
                "archetype"
            ]
        }
    },
    "img": "systems/pf2ettw/icons/default-icons/feats.webp",
    "name": "Twin Blades",
    "type": "feat"
}
