{
    "_id": "GJIAecRq1bD2r8O0",
    "data": {
        "actionCategory": {
            "value": ""
        },
        "actionType": {
            "value": "reaction"
        },
        "actions": {
            "value": null
        },
        "description": {
            "value": "<p><strong>Trigger</strong> A creature within your reach critically fails a Strike against you</p>\n<p><strong>Requirements</strong> You are benefiting from @Compendium[pf2ettw.feats-srd.Twin Parry]{Twin Parry}</p>\n<hr />\n<p>A clever parry with one weapon leaves your opponent open to an attack with the other weapon. Make a melee Strike or use a @Compendium[pf2ettw.actionspf2ettw.Disarm]{Disarm} action against the triggering opponent.</p>"
        },
        "featType": {
            "value": "class"
        },
        "level": {
            "value": 10
        },
        "prerequisites": {
            "value": []
        },
        "rules": [],
        "source": {
            "value": "Pathfinder Core Rulebook"
        },
        "traits": {
            "custom": "",
            "rarity": "common",
            "value": [
                "fighter",
                "ranger"
            ]
        }
    },
    "img": "systems/pf2ettw/icons/features/feats/feats.webp",
    "name": "Twin Riposte",
    "type": "feat"
}
