{
    "_id": "Jv24QkykqdPB7brL",
    "data": {
        "actionCategory": {
            "value": ""
        },
        "actionType": {
            "value": "passive"
        },
        "actions": {
            "value": null
        },
        "description": {
            "value": "<p>You and your megafauna companion are bound together; as long as you live, it's much harder for your companion to die. If your megafauna companion gains the dying condition, it automatically succeeds at the recovery check to stabilize at 0 Hit Points on its turn. Additionally, your megafauna companion only dies at dying 5 rather than dying 4. Finally, the first time each day your megafauna companion would reach dying 5 and die, as long as you're still alive, your companion's dying value decreases to 0 instead.</p>"
        },
        "featType": {
            "value": "archetype"
        },
        "level": {
            "value": 10
        },
        "location": null,
        "prerequisites": {
            "value": [
                {
                    "value": "Mammoth Lord Dedication"
                }
            ]
        },
        "rules": [],
        "source": {
            "value": "Pathfinder #177: Burning Tundra"
        },
        "traits": {
            "custom": "",
            "rarity": "common",
            "value": [
                "archetype",
                "necromancy",
                "primal"
            ]
        }
    },
    "img": "systems/pf2ettw/icons/features/feats/feats.webp",
    "name": "Unbreakable Bond",
    "type": "feat"
}
