{
    "_id": "pPA2YF6Dal0PClWA",
    "data": {
        "actionCategory": {
            "value": ""
        },
        "actionType": {
            "value": "passive"
        },
        "actions": {
            "value": null
        },
        "description": {
            "value": "<p>Your training has prepared you to recognize most undead on sight. You become trained in two Lore skills, each about a specific type of undead, or become an expert if you were already trained. You gain the @Compendium[pf2ettw.actionspf2ettw.Slayer's Identification]{Slayer's Identification} free action.</p>\n<p><strong>Special</strong> You can't select another dedication feat until you have gained two other feats from the undead slayer archetype.</p>"
        },
        "featType": {
            "value": "archetype"
        },
        "level": {
            "value": 2
        },
        "location": null,
        "prerequisites": {
            "value": [
                {
                    "value": "trained in Religion"
                }
            ]
        },
        "rules": [
            {
                "key": "GrantItem",
                "uuid": "Compendium.pf2ettw.actionspf2ettw.Slayer's Identification"
            }
        ],
        "source": {
            "value": "Pathfinder Book of the Dead"
        },
        "traits": {
            "custom": "",
            "rarity": "common",
            "value": [
                "archetype",
                "dedication"
            ]
        }
    },
    "img": "systems/pf2ettw/icons/default-icons/feats.webp",
    "name": "Undead Slayer Dedication",
    "type": "feat"
}
