{
    "_id": "ZOJsLNziWQ7Ri3x9",
    "data": {
        "actionCategory": {
            "value": ""
        },
        "actionType": {
            "value": "passive"
        },
        "actions": {
            "value": null
        },
        "description": {
            "value": "<p>Your knowledge of your own not-quite-living anatomy, combined with your experience in combat, helps you take down undead foes with ease. Against undead creatures, you gain a circumstance bonus to damage with weapons and unarmed attacks equal to the number of weapon damage dice for the Strike. This bonus increases to double the number of weapon damage dice if your target has the vampire trait.</p>"
        },
        "featType": {
            "value": "ancestry"
        },
        "level": {
            "value": 5
        },
        "location": null,
        "prerequisites": {
            "value": []
        },
        "rules": [
            {
                "key": "FlatModifier",
                "predicate": {
                    "all": [
                        "target:trait:undead"
                    ],
                    "not": [
                        "target:trait:vampire"
                    ]
                },
                "selector": "strike-damage",
                "slug": "undead-slayer",
                "type": "circumstance",
                "value": "1+@weapon.data.data.runes.striking"
            },
            {
                "key": "FlatModifier",
                "predicate": {
                    "all": [
                        "target:trait:vampire"
                    ]
                },
                "selector": "strike-damage",
                "slug": "undead-slayer-vampire",
                "type": "circumstance",
                "value": "(1+@weapon.data.data.runes.striking)*2"
            }
        ],
        "source": {
            "value": "Pathfinder Advanced Player's Guide"
        },
        "traits": {
            "custom": "",
            "rarity": "common",
            "value": [
                "dhampir"
            ]
        }
    },
    "img": "systems/pf2ettw/icons/features/feats/feats.webp",
    "name": "Undead Slayer",
    "type": "feat"
}
