{
    "_id": "39RJF47FLYr5gZ8p",
    "data": {
        "actionCategory": {
            "value": ""
        },
        "actionType": {
            "value": "action"
        },
        "actions": {
            "value": 1
        },
        "description": {
            "value": "<p><strong>Requirements</strong> You are riding your mount and wielding a</p>\n<p>jousting weapon.</p>\n<hr />\n<p>You attempt to knock an opponent off their mount. Make a melee Strike against a mounted opponent. If your attack hits, attempt an Athletics check against the opponent's Fortitude DC. If you succeed, the foe is knocked off its mount into a space of its choice adjacent to its mount. If you critically succeed, it lands @Compendium[pf2ettw.conditionitems.Prone]{Prone}.</p>"
        },
        "featType": {
            "value": "archetype"
        },
        "level": {
            "value": 10
        },
        "prerequisites": {
            "value": [
                {
                    "value": "Cavalier Dedication"
                }
            ]
        },
        "rules": [],
        "source": {
            "value": "Pathfinder Advanced Player's Guide"
        },
        "traits": {
            "custom": "",
            "rarity": "common",
            "value": [
                "archetype"
            ]
        }
    },
    "img": "systems/pf2ettw/icons/features/feats/feats.webp",
    "name": "Unseat",
    "type": "feat"
}
