{
    "_id": "I5hzE0XT2BsjatS3",
    "data": {
        "actionCategory": {
            "value": ""
        },
        "actionType": {
            "value": "passive"
        },
        "actions": {
            "value": null
        },
        "description": {
            "value": "<p>You're a newly risen vampire. You gain the undead and vampire traits and the basic undead benefits, and your undead hunger is for the blood of the living. Your incisors elongate; you gain a fangs unarmed attack that deals 1d6 piercing damage. They're in the brawling group and have the grapple and unarmed traits. You gain @Compendium[pf2ettw.ancestryfeatures.Revulsion]{Revulsion} and @Compendium[pf2ettw.ancestryfeatures.Sunlight]{Sunlight} vulnerabilities detailed on and the @Compendium[pf2ettw.actionspf2ettw.Drink Blood]{Drink Blood} ability.</p>"
        },
        "featType": {
            "value": "archetype"
        },
        "level": {
            "value": 2
        },
        "location": null,
        "prerequisites": {
            "value": [
                {
                    "value": "You were a killed by a vampire drinking your blood."
                }
            ]
        },
        "rules": [
            {
                "category": "unarmed",
                "damage": {
                    "base": {
                        "damageType": "piercing",
                        "dice": 1,
                        "die": "d6"
                    }
                },
                "group": "brawling",
                "img": "systems/pf2ettw/icons/unarmed-attacks/fangs.webp",
                "key": "Strike",
                "label": "pf2ettw.BattleForm.Attack.Fangs",
                "range": null,
                "slug": "fangs",
                "traits": [
                    "unarmed",
                    "grapple"
                ]
            },
            {
                "add": [
                    "undead"
                ],
                "key": "ActorTraits"
            },
            {
                "add": [
                    "vampire"
                ],
                "key": "ActorTraits"
            },
            {
                "key": "GrantItem",
                "uuid": "Compendium.pf2ettw.ancestryfeatures.Basic Undead Benefits"
            },
            {
                "key": "GrantItem",
                "uuid": "Compendium.pf2ettw.ancestryfeatures.Revulsion"
            },
            {
                "key": "GrantItem",
                "uuid": "Compendium.pf2ettw.ancestryfeatures.Sunlight"
            },
            {
                "key": "GrantItem",
                "uuid": "Compendium.pf2ettw.actionspf2ettw.Drink Blood"
            }
        ],
        "source": {
            "value": "Pathfinder Book of the Dead"
        },
        "traits": {
            "custom": "",
            "rarity": "rare",
            "value": [
                "archetype",
                "dedication"
            ]
        }
    },
    "img": "systems/pf2ettw/icons/default-icons/feats.webp",
    "name": "Vampire Dedication",
    "type": "feat"
}
