{
    "_id": "fcSzCdQ9y800BdOv",
    "data": {
        "actionCategory": {
            "value": ""
        },
        "actionType": {
            "value": "passive"
        },
        "actions": {
            "value": null
        },
        "description": {
            "value": "<p>You know there's so much more to sensation than whips and chains—but whips and chains also have their place. You can cast <em>@Compendium[pf2ettw.spells-srd.Telekinetic Maneuver]{Telekinetic Maneuver}</em> and <em>@Compendium[pf2ettw.spells-srd.Web]{Web}</em> once per day each as 2nd-level divine innate spells; in both cases, the spells manifest shadowy chains rather than their usual visual signifiers.</p>"
        },
        "featType": {
            "value": "ancestry"
        },
        "level": {
            "value": 9
        },
        "location": "",
        "prerequisites": {
            "value": [
                {
                    "value": "Shackleborn"
                }
            ]
        },
        "rules": [],
        "source": {
            "value": "Pathfinder Lost Omens: Ancestry Guide"
        },
        "traits": {
            "custom": "",
            "rarity": "common",
            "value": [
                "tiefling"
            ]
        }
    },
    "img": "systems/pf2ettw/icons/features/feats/feats.webp",
    "name": "Velstrac Magic",
    "type": "feat"
}
