{
    "_id": "uqIiSDbv80TbRwTQ",
    "data": {
        "actionCategory": {
            "value": ""
        },
        "actionType": {
            "value": "passive"
        },
        "actions": {
            "value": null
        },
        "description": {
            "value": "<p>You have two identities, each with its own name, alignment, and abilities. Your social identity is an upstanding member of society, while your vigilante identity is a skilled and cunning warrior. Neither of these identities is a false front; you really are both of these people, and as such, your two identities can be at most one alignment step from each other (for instance, you could be neutral in one identity and neutral evil in the other, but not chaotic evil in the other).</p>\n<p>If someone attempts to discern your other identity, they must use a @Compendium[pf2ettw.actionspf2ettw.Seek]{Seek} action to attempt a Perception check against your Deception DC, as if you were using the @Compendium[pf2ettw.actionspf2ettw.Impersonate]{Impersonate} action. Your Deception DC against such attempts is 20 + your proficiency modifier instead of the normal DC. Unlike with Impersonate, you don't have to attempt a Deception check to @Compendium[pf2ettw.actionspf2ettw.Interact]{Interact} with someone to conceal your other identity - a check happens only if someone else specifically tries to uncover your other identity.</p>\n<p>Changing from one identity to the other takes 1 minute and must be done out of sight from other creatures. As this process involves both physical changes such as clothing and makeup along with an altered state of mind, other effects that change your appearance don't reduce the time required to change identities.</p>\n<p>Your two identities are completely distinct. You have your current identity's alignment for effects that rely on alignment, though you are eligible for abilities that require a certain alignment (such as a cleric's deity) only if both of your identities qualify. Checks to @Compendium[pf2ettw.actionspf2ettw.Recall Knowledge (Lore)]{Recall Knowledge} about one of your identities don't reveal information about the other unless the person attempting the check knows both identities are the same person. Effects that detect you based on your identity, such as the <em>@Compendium[pf2ettw.spells-srd.Detect Nature]{Detect Nature}</em> spell, work only if you are currently in the identity the effect is trying to detect; otherwise, the effect fails as if the target didn't exist.</p>\n<p>To maintain the separation between your identities, some of your abilities have one of two traits: social or vigilante. You can use social feats only while in your social identity. Your class feats and vigilante feats are associated with your vigilante identity, and using them while in your social identity risks exposing you as a vigilante. This means that if you were particularly meek or inconspicuous before you took this feat, your identity could be at greater risk of exposure. If your identity is exposed to the public, you lose the benefits of Vigilante Dedication to disguising yourself, but you can otherwise use both social and vigilante abilities in either identity unless they rely on your identity being a secret. You can use feats that don't have either trait regardless of your current identity.</p>\n<p><strong>Special</strong> You can't select another dedication feat until you have gained two other feats from the vigilante archetype.</p>"
        },
        "featType": {
            "value": "archetype"
        },
        "level": {
            "value": 2
        },
        "location": "",
        "prerequisites": {
            "value": [
                {
                    "value": "trained in Deception"
                }
            ]
        },
        "rules": [],
        "source": {
            "value": "Pathfinder Advanced Player's Guide"
        },
        "traits": {
            "custom": "",
            "rarity": "uncommon",
            "value": [
                "archetype",
                "dedication"
            ]
        }
    },
    "img": "systems/pf2ettw/icons/features/feats/feats.webp",
    "name": "Vigilante Dedication",
    "type": "feat"
}
