{
    "_id": "D2tyUKQiDSq3JO1Z",
    "data": {
        "actionCategory": {
            "value": ""
        },
        "actionType": {
            "value": "passive"
        },
        "actions": {
            "value": null
        },
        "description": {
            "value": "<p>Your physique is robust and can withstand blood loss startlingly well. Whenever you would gain the @Compendium[pf2ettw.conditionitems.Drained]{Drained} condition, you can attempt a @Check[type:flat|dc:17]. On a success, you don't gain the drained condition.</p>"
        },
        "featType": {
            "value": "ancestry"
        },
        "level": {
            "value": 1
        },
        "location": null,
        "prerequisites": {
            "value": []
        },
        "rules": [],
        "source": {
            "value": "Pathfinder Lost Omens: Character Guide"
        },
        "traits": {
            "custom": "",
            "rarity": "common",
            "value": [
                "hobgoblin"
            ]
        }
    },
    "img": "systems/pf2ettw/icons/features/feats/feats.webp",
    "name": "Vigorous Health",
    "type": "feat"
}
