{
    "_id": "zhIaJewomiJTkKFV",
    "data": {
        "actionCategory": {
            "value": ""
        },
        "actionType": {
            "value": "passive"
        },
        "actions": {
            "value": null
        },
        "description": {
            "value": "<p>You have exceptional talent with one type of performance. You gain a +1 circumstance bonus when playing a wind instrument. If you are a master in Performance, this bonus increases to +2.</p>\n<hr />\n<p><strong>Example performances</strong> Bagpipe, flute, recorder, trumpet</p>\n<p>If it's unclear whether the specialty applies, the GM decides.</p>"
        },
        "featType": {
            "value": "skill"
        },
        "level": {
            "value": 1
        },
        "location": "",
        "prerequisites": {
            "value": [
                {
                    "value": "trained in Performance"
                }
            ]
        },
        "rules": [
            {
                "key": "FlatModifier",
                "predicate": {
                    "all": [
                        "action:perform:winds"
                    ]
                },
                "selector": "performance",
                "type": "circumstance",
                "value": {
                    "brackets": [
                        {
                            "end": 4,
                            "start": 3,
                            "value": 2
                        },
                        {
                            "end": 2,
                            "start": 1,
                            "value": 1
                        }
                    ],
                    "field": "actor|data.skills.prf.rank"
                }
            }
        ],
        "source": {
            "value": ""
        },
        "traits": {
            "custom": "",
            "rarity": "common",
            "value": [
                "general",
                "skill"
            ]
        }
    },
    "img": "systems/pf2ettw/icons/features/feats/feats.webp",
    "name": "Virtuosic Performer (Winds)",
    "type": "feat"
}
