{
    "_id": "LUpKXsljSEHXHLRm",
    "data": {
        "actionCategory": {
            "value": ""
        },
        "actionType": {
            "value": "passive"
        },
        "actions": {
            "value": null
        },
        "description": {
            "value": "<p><em>Your studies of anatomy have a sharp edge.</em></p>\n<hr />\n<p>You gain the sneak attack class feature, dealing 1d6 damage. You don't increase the number of dice as you gain levels. Additionally, you gain the risky surgery skill feat.</p>"
        },
        "featType": {
            "value": "class"
        },
        "level": {
            "value": 2
        },
        "location": null,
        "prerequisites": {
            "value": []
        },
        "rules": [
            {
                "category": "precision",
                "diceNumber": 1,
                "dieSize": "d6",
                "key": "DamageDice",
                "predicate": {
                    "all": [
                        "class:alchemist",
                        "target:condition:flat-footed",
                        {
                            "or": [
                                "weapon:trait:finesse",
                                "weapon:trait:agile",
                                {
                                    "and": [
                                        "weapon:ranged",
                                        {
                                            "not": "weapon:thrown"
                                        }
                                    ]
                                }
                            ]
                        }
                    ]
                },
                "selector": "strike-damage"
            },
            {
                "key": "GrantItem",
                "uuid": "Compendium.pf2ettw.feats-srd.Risky Surgery"
            }
        ],
        "source": {
            "value": ""
        },
        "traits": {
            "custom": "",
            "rarity": "common",
            "value": [
                "alchemist"
            ]
        }
    },
    "img": "systems/pf2ettw/icons/default-icons/feats.webp",
    "name": "Vivisectionist",
    "type": "feat"
}
