{
    "_id": "5VkVWZq7ZqH6RaAW",
    "data": {
        "actionCategory": {
            "value": ""
        },
        "actionType": {
            "value": "passive"
        },
        "actions": {
            "value": null
        },
        "description": {
            "value": "<p>You hear and understand the words of creatures you share the darkness with. You can ask questions of, receive answers from, and use Diplomacy with bats, rats, and wolves. You also gain a +1 circumstance bonus to @Compendium[pf2ettw.actionspf2ettw.Make an Impression]{Make an Impression} on such animals.</p>"
        },
        "featType": {
            "value": "ancestry"
        },
        "level": {
            "value": 1
        },
        "location": null,
        "prerequisites": {
            "value": []
        },
        "rules": [
            {
                "key": "FlatModifier",
                "predicate": {
                    "all": [
                        "action:make-an-impression",
                        "target:vampire-friend"
                    ]
                },
                "selector": "diplomacy",
                "type": "circumstance",
                "value": 1
            }
        ],
        "source": {
            "value": "Pathfinder Advanced Player's Guide"
        },
        "traits": {
            "custom": "",
            "rarity": "common",
            "value": [
                "dhampir"
            ]
        }
    },
    "img": "systems/pf2ettw/icons/features/feats/feats.webp",
    "name": "Voice Of The Night",
    "type": "feat"
}
