{
    "_id": "9Orkgjgfx8AILuqD",
    "data": {
        "actionCategory": {
            "value": ""
        },
        "actionType": {
            "value": "passive"
        },
        "actions": {
            "value": null
        },
        "description": {
            "value": "<p>You're particularly good at solving mazes and navigating twists and turns. You gain the trained proficiency rank in Survival. If you would automatically become trained in Survival (from your background or class, for example), you become trained in another skill of your choice. When you @Compendium[pf2ettw.actionspf2ettw.Sense Direction]{Sense Direction} or attempt a roll against a <em>@Compendium[pf2ettw.spells-srd.Maze]{Maze}</em> spell, you get a result one degree of success better than you rolled. You don't take a penalty to @Compendium[pf2ettw.actionspf2ettw.Sense Direction]{Sense Direction} when you lack a compass.</p>"
        },
        "featType": {
            "value": "ancestry"
        },
        "level": {
            "value": 1
        },
        "prerequisites": {
            "value": []
        },
        "rules": [],
        "source": {
            "value": "Pathfinder Advanced Player's Guide"
        },
        "traits": {
            "custom": "",
            "rarity": "common",
            "value": [
                "ratfolk"
            ]
        }
    },
    "img": "systems/pf2ettw/icons/features/feats/feats.webp",
    "name": "Warren Navigator",
    "type": "feat"
}
