{
    "_id": "nU8W1QoA9hl3h6nR",
    "data": {
        "actionCategory": {
            "value": ""
        },
        "actionType": {
            "value": "reaction"
        },
        "actions": {
            "value": null
        },
        "description": {
            "value": "<p><strong>Trigger</strong> An ally you can see succeeds or critically succeeds at a Strength- or Dexterity-based skill check, using a skill in which you are untrained.</p>\n<hr />\n<p>Pathfinder agents serve as members of diverse teams with complementary skill sets. You are practiced at following the example of a more skilled ally to accomplish a wide variety of tasks. For the next minute you can add your level as a proficiency bonus to the observed skill check, even though you are untrained. This does not allow you to attempt trained actions using that skill unless you would otherwise be able to do so.</p>"
        },
        "featType": {
            "value": "archetype"
        },
        "level": {
            "value": 4
        },
        "prerequisites": {
            "value": [
                {
                    "value": "Pathfinder Agent Dedication"
                }
            ]
        },
        "rules": [],
        "source": {
            "value": "Pathfinder Lost Omens: Pathfinder Society Guide"
        },
        "traits": {
            "custom": "",
            "rarity": "common",
            "value": [
                "archetype"
            ]
        }
    },
    "img": "systems/pf2ettw/icons/features/feats/feats.webp",
    "name": "Watch and Learn",
    "type": "feat"
}
