{
    "_id": "UyMQ1X8KLSZvm7AT",
    "data": {
        "actionCategory": {
            "value": ""
        },
        "actionType": {
            "value": "passive"
        },
        "actions": {
            "value": null
        },
        "description": {
            "value": "<p>You can use the unusual resonance of your wayfinder to grant it additional effects. Choose one cantrip from the arcane, divine, occult, or primal list. You can activate your wayfinder to cast that cantrip at will. As normal, this cantrip is heightened to a spell level equal to half your level rounded up. Additionally, you can Activate your wayfinder with a Single Action (envision) activation to transform it into a nondescript pin or brooch to hide your affiliation with the Pathfinder Society. This transformation lasts for 1 hour.</p>"
        },
        "featType": {
            "value": "archetype"
        },
        "level": {
            "value": 4
        },
        "location": "",
        "prerequisites": {
            "value": [
                {
                    "value": "Pathfinder Agent Dedication"
                }
            ]
        },
        "rules": [],
        "source": {
            "value": "Pathfinder Lost Omens: World Guide"
        },
        "traits": {
            "custom": "",
            "rarity": "common",
            "value": [
                "archetype"
            ]
        }
    },
    "img": "systems/pf2ettw/icons/features/feats/feats.webp",
    "name": "Wayfinder Resonance Tinkerer",
    "type": "feat"
}
