{
    "_id": "OjUfwxMcM91CHLHP",
    "data": {
        "actionCategory": {
            "value": "offensive"
        },
        "actionType": {
            "value": "action"
        },
        "actions": {
            "value": 1
        },
        "description": {
            "value": "<p>Your detachable limbs offer flexibility. You Interact to remove your arm and wield it in the other one, increasing your reach by 5 feet for any one-handed weapon held in that arm. If your next action is a Strike with that weapon, creatures that were outside your reach that you can now hit are @Compendium[pf2ettw.conditionitems.Flat-Footed]{Flat-Footed} against your first attack. You don't have a free hand while holding the arm. You can Interact to reattach the arm while holding it.</p>"
        },
        "featType": {
            "value": "ancestry"
        },
        "level": {
            "value": 5
        },
        "location": null,
        "prerequisites": {
            "value": []
        },
        "rules": [],
        "source": {
            "value": "Pathfinder Book of the Dead"
        },
        "traits": {
            "custom": "",
            "rarity": "common",
            "value": [
                "skeleton"
            ]
        }
    },
    "img": "systems/pf2ettw/icons/default-icons/feats.webp",
    "name": "Well-Armed",
    "type": "feat"
}
