{
    "_id": "af2fSePLvqMNNp0r",
    "data": {
        "actionCategory": {
            "value": ""
        },
        "actionType": {
            "value": "passive"
        },
        "actions": {
            "value": null
        },
        "description": {
            "value": "<p><strong>Access</strong> Mualijae ethnicity</p>\n<hr />\n<p>You have learned to access the old magic of wild places. Choose one cantrip from the primal spell list. You can cast this cantrip as an innate primal spell at will. A cantrip is heightened to a spell level equal to half your level rounded up.</p>"
        },
        "featType": {
            "value": "ancestry"
        },
        "level": {
            "value": 1
        },
        "location": "",
        "prerequisites": {
            "value": []
        },
        "rules": [],
        "source": {
            "value": "Pathfinder Lost Omens: Character Guide"
        },
        "traits": {
            "custom": "",
            "rarity": "uncommon",
            "value": [
                "elf"
            ]
        }
    },
    "img": "systems/pf2ettw/icons/features/feats/feats.webp",
    "name": "Wildborn Magic",
    "type": "feat"
}
