{
    "_id": "zZ1V8GGcLpDufg0n",
    "data": {
        "actionCategory": {
            "value": "interaction"
        },
        "actionType": {
            "value": "action"
        },
        "actions": {
            "value": 2
        },
        "description": {
            "value": "<p id=\"docs-internal-guid-d3203666-7fff-2e11-5241-f21a6ee85573\" dir=\"ltr\"><strong>Frequency</strong> Once per day</p>\n<hr />\n<p>With effort, you can call forth wings from your back.</p>\n<p>These vary in form depending on the vampire, ranging from barbed, batlike wings, to darkly feathered pinions, to more ethereal constructs of swirling shadow. These wings remain for 10 minutes.</p>\n<p>You gain a fly Speed equal to your Land Speed while you've manifested your wings.</p>"
        },
        "featType": {
            "value": "vampire"
        },
        "level": {
            "value": 9
        },
        "location": "",
        "prerequisites": {
            "value": []
        },
        "rules": [],
        "source": {
            "value": ""
        },
        "traits": {
            "custom": "",
            "rarity": {
                "value": "common"
            },
            "value": [
                "nocturnus",
                "transmutation",
                "vampire"
            ]
        }
    },
    "img": "systems/pf2ettw/icons/features/feats/feats.webp",
    "name": "Wings of Night",
    "type": "feat"
}
