{
    "_id": "yWASKzumwmv4TgSe",
    "data": {
        "actionCategory": {
            "value": ""
        },
        "actionType": {
            "value": "passive"
        },
        "actions": {
            "value": null
        },
        "description": {
            "value": "<p><strong>Minor Boon (Single Use)</strong> Calistria smiles on the riskiest deceptions. Once, when you roll a failure on a check to @Compendium[pf2ettw.actionspf2ettw.Lie]{Lie}, you get a critical success instead. Calistria typically grants this boon for an extremely consequential lie.</p>"
        },
        "featType": {
            "value": "deityboon"
        },
        "level": {
            "value": 0
        },
        "prerequisites": {
            "value": []
        },
        "rules": [],
        "source": {
            "value": ""
        },
        "traits": {
            "custom": "",
            "rarity": "common",
            "value": []
        }
    },
    "img": "systems/pf2ettw/icons/deity/Calistria.webp",
    "name": "Calistria - Minor Boon",
    "type": "feat"
}
