{
    "_id": "mcVlGufQ8rQRe61Y",
    "data": {
        "actionCategory": {
            "value": ""
        },
        "actionType": {
            "value": "passive"
        },
        "actions": {
            "value": null
        },
        "description": {
            "value": "<p><strong>Major Boon</strong> Desna bestows you with a swirling cloud of lights that forms a pair of wondrous butterfly wings. These wings grant you a @Compendium[pf2ettw.actionspf2ettw.Fly]{Fly} Speed of 40 feet and shine dim light to a range of 20 feet.</p>"
        },
        "featType": {
            "value": "deityboon"
        },
        "level": {
            "value": 0
        },
        "prerequisites": {
            "value": []
        },
        "rules": [],
        "source": {
            "value": ""
        },
        "traits": {
            "custom": "",
            "rarity": "common",
            "value": []
        }
    },
    "img": "systems/pf2ettw/icons/deity/Desna.webp",
    "name": "Desna - Major Boon",
    "type": "feat"
}
