{
    "_id": "nFrCY6tT2B8uxaO3",
    "data": {
        "actionCategory": {
            "value": ""
        },
        "actionType": {
            "value": "passive"
        },
        "actions": {
            "value": null
        },
        "description": {
            "value": "<p><strong>Major Boon</strong> You become a friend to the land. You can cast <em>@Compendium[pf2ettw.spells-srd.Speak with Plants]{Speak with Plants}</em> as a divine innate spell.</p>\n<p>When you are in a healthy natural environment, the land sustains you without need for food or drink.</p>\n<p>You can cast the <em>@Compendium[pf2ettw.spells-srd.Commune with Nature]{Commune with Nature}</em> ritual without any secondary casters or secondary checks.</p>"
        },
        "featType": {
            "value": "deityboon"
        },
        "level": {
            "value": 0
        },
        "prerequisites": {
            "value": []
        },
        "rules": [],
        "source": {
            "value": ""
        },
        "traits": {
            "custom": "",
            "rarity": "common",
            "value": []
        }
    },
    "img": "systems/pf2ettw/icons/deity/Erastil.webp",
    "name": "Erastil - Major Boon",
    "type": "feat"
}
