{
    "_id": "vfQ7TsScMBTNiznn",
    "data": {
        "actionCategory": {
            "value": ""
        },
        "actionType": {
            "value": "passive"
        },
        "actions": {
            "value": null
        },
        "description": {
            "value": "<p><strong>Major Boon</strong> Gozreh has blessed you with their wind in your stride. You gain a +30-foot status bonus to your Speeds, and you gain a @Compendium[pf2ettw.actionspf2ettw.Fly]{Fly} Speed equal to your land Speed.</p>"
        },
        "featType": {
            "value": "deityboon"
        },
        "level": {
            "value": 0
        },
        "prerequisites": {
            "value": []
        },
        "rules": [],
        "source": {
            "value": ""
        },
        "traits": {
            "custom": "",
            "rarity": "common",
            "value": []
        }
    },
    "img": "systems/pf2ettw/icons/deity/Gozreh.webp",
    "name": "Gozreh - Major Boon",
    "type": "feat"
}
