{
    "_id": "kCCrjskDIbG0e74O",
    "data": {
        "actionCategory": {
            "value": ""
        },
        "actionType": {
            "value": "passive"
        },
        "actions": {
            "value": null
        },
        "description": {
            "value": "<p>You can temporarily ascend to a greater form. You can cast 8th-level <em>@Compendium[pf2ettw.spells-srd.Righteous Might]{Righteous Might}</em> once per day as an occult innate spell. When you do, your form appears unremarkable, rather than clad in powerful armaments.</p>"
        },
        "featType": {
            "value": "deityboon"
        },
        "level": {
            "value": 0
        },
        "prerequisites": {
            "value": []
        },
        "rules": [],
        "source": {
            "value": ""
        },
        "traits": {
            "custom": "",
            "rarity": "common",
            "value": []
        }
    },
    "img": "systems/pf2ettw/icons/deity/Irori.webp",
    "name": "Irori - Major Boon",
    "type": "feat"
}
