{
    "_id": "e9bdt8UH7ZvpRrLz",
    "data": {
        "actionCategory": {
            "value": ""
        },
        "actionType": {
            "value": "passive"
        },
        "actions": {
            "value": null
        },
        "description": {
            "value": "<p><strong>Minor Boon (Single-Use)</strong> Your healing hands are blessed with a warm flame.</p>\n<p>Once, when you heal another creature, instead of healing it for the normal amount, you heal the creature to full Hit Points, no matter how much damage it has taken.</p>\n<p>Sarenrae typically grants this boon in extremely consequential circumstances.</p>"
        },
        "featType": {
            "value": "deityboon"
        },
        "level": {
            "value": 0
        },
        "prerequisites": {
            "value": []
        },
        "rules": [],
        "source": {
            "value": ""
        },
        "traits": {
            "custom": "",
            "rarity": "common",
            "value": []
        }
    },
    "img": "systems/pf2ettw/icons/deity/Sarenrae.webp",
    "name": "Sarenrae - Minor Boon",
    "type": "feat"
}
