{
    "_id": "TQEqWqc7BYiadUdY",
    "data": {
        "additionalLanguages": {
            "count": 0,
            "custom": "",
            "value": [
                "draconic",
                "elven",
                "gnoll",
                "iruxi",
                "orcish",
                "sylvan"
            ]
        },
        "boosts": {
            "0": {
                "value": [
                    "dex"
                ]
            },
            "1": {
                "value": [
                    "wis"
                ]
            },
            "2": {
                "value": [
                    "str",
                    "dex",
                    "con",
                    "int",
                    "wis",
                    "cha"
                ]
            }
        },
        "description": {
            "value": "<p><em>Anadi people are reclusive, sapient spiders who hail from the jungles of southern Garund. Though they act in many ways like natural-born shapeshifters, their twin forms actually stem from carefully developed magic.</em></p>\n<hr />\n<p>As a communal and peaceful people, anadi ancestors endeavored to establish trade with the neighbors of ttheir homeland. However, these anadi soon learned that most others found their appearance to be extremely objectionable. Wishing to avoid conflict, ancient anadi retreated into isolation until they could find a solution. The answer came when their greatest scholars innovated a fusion of transmutation and illusion magic that allowed them to assume a humanoid form. The technique was developed, perfected, and eventually taught to the overwhelming majority of anadi.</p>\n<p>Early efforts with their new approach to diplomacy have yielded much better results, though sporadic contact means that some outsiders whisper false legends about anadi, such as claims that they are humans who transform into monstrous spiders at moonrise. Even contemporary explorers have reported anadi as human-spider hybrids. The anadi people of the current day strive to slowly but surely create a world where they no longer need to hide their true nature.</p>\n<h2>You Might...</h2>\n<ul>\n<li>Only reveal your true form to people who have earned your trust.</li>\n<li>Openly express sympathy for misrepresented and unfairly stigmatized cultures.</li>\n<li>Provide for those you hold dear and defend them from danger without hesitation.</li>\n</ul>\n<h2>Others Probably...</h2>\n<ul>\n<li>Appreciate your willingness to seek nonviolent solutions to complicated problems.</li>\n<li>Have a strong reaction to seeing your natural form.</li>\n<li>Assume you have an affinity for druidic magic, given your ability to transform.</li>\n</ul>\n<h2>Physical Description</h2>\n<p>Anadi in their true form resemble human-sized spiders with a variety of colorations. Some tones look simple or muted while other remain striking and vibrant, with most patterns inherited from an anadi's parentage. A typical anadi measures five feet in length from their front legs to their rear legs when standing comfortably.</p>\n<p>All anadi possesses the ability to transform into a human guise. This form can resemble any human ethnicity, but it's usually one that blends in with the region of an anadi's hatching. Anadi reach physical maturity after 13 years, going through multiple phases of molting along the way. A typical anadi lives to be about 80 years old.</p>\n<h2>Society</h2>\n<p>Anadi live in a communal society, sharing peaceful lives farming mushrooms or weaving warm blankets. Their culture places great value on cooperation and mutual respect. Due to this cultural upbringing, anadi often have issues facing severe conflict and often come off to other ancestries as very shy. Their history of dealing with arachnophobia in other peoples-which anadi understand is often instinctual and very difficult to control-likewise means that anadi do their best to be accommodating and comforting, even in situations that aren't necessarily fair to them.</p>\n<h2>Alignment and Religion</h2>\n<p>The cooperative nature of anadi society and their dislike of violence means many anadi lean toward good alignments. They're more often neutral than chaotic or lawful, though the latter aren't unheard of.</p>\n<p>Legends say Grandmother Spider rescued anadi people from servitude and brought them to Golarion, becoming their patron deity in the process. Her values of mutual care and playful trickery interweave into anadi culture, and even those who don't worship her tell tales of her adventures.</p>\n<h2>Names</h2>\n<p>Anadi names are given by the members of the web marriage that raised them. Each parent contributes a single syllable, usually the first, from their own name. Older anadi who feel their identity has settled often take on or are given a phrase-title to honor them as well. Anadi who live among human populations rarely take a cover name, but some might adopt one if their given name strongly contrasts the norm in the local culture.</p>\n<h3>Sample Names</h3>\n<p>Altava, Anavachti, Strings-On-The-River Inkeelah, Kerialnamu, Maracha, Leaves-Shelter-Her-Feet Naiala, Orvasa, Reloana, Rivuken, Velachamon</p>\n<h2 style=\"border-bottom: 1px solid var(--color-underline-header);\">Anadi Mechanics</h2>\n<p><strong>Hit Points</strong> 8</p>\n<p><strong>Size</strong> Medium</p>\n<p><strong>Speed</strong> 25 feet</p>\n<p><strong>Ability Boosts</strong> Dexterity, Wisdom, Free</p>\n<p><strong>Ability Flaw</strong> Constitution</p>\n<p><strong>Languages</strong> Anadi, Mwangi</p>\n<p><strong>Additional Languages</strong> equal to your Intelligence modifier (if positive). Choose from Draconic, Elven, Gnoll, Iruxi, Orcish, Sylvan, and any other languages to which you have access (such as the languages prevalent in your region).</p>\n<p><strong>Fangs</strong> You were born with a natural means for hunting and self-defense. You gain a fangs unarmed attack that deals 1d6 piercing damage. Your fangs are in the brawling group and have the finesse and unarmed traits.</p>\n<p><strong>Change Shape</strong>(anadi, arcane, concentrate, polymorph, transmutation)<strong></strong> You change into your human or spider shape. Each shape has a specific, persistent appearance. In your human shape, you can’t use unarmed attacks granted by your ancestry. You aren’t flat footed when climbing in your spider shape. However, in your spider shape you can’t use weapons, shields, or other held items of any sort, and you are limited in what actions you can take that have the manipulate trait. The only manipulate actions you can take are to Cast a Spell with somatic components, weave silk or webbing, or simple Interact actions such as opening an unlocked door. Your spider legs can't perform actions that require fingers or significant manual dexterity, including any action that would require a check to accomplish. The GM might determine other manipulate actions are appropriate for your spider legs.</p>"
        },
        "flaws": {
            "0": {
                "value": [
                    "con"
                ]
            }
        },
        "hp": 8,
        "items": {
            "cfaem": {
                "id": "R6rcqRsBR0KIho5n",
                "img": "systems/pf2ettw/icons/default-icons/feat.svg",
                "level": 1,
                "name": "Change Shape (Anadi)",
                "pack": "pf2ettw.ancestryfeatures"
            },
            "ctbld": {
                "id": "dCp517IUFJk8JvQc",
                "img": "systems/pf2ettw/icons/default-icons/feat.svg",
                "level": 0,
                "name": "Fangs",
                "pack": "pf2ettw.ancestryfeatures"
            }
        },
        "languages": {
            "custom": "",
            "value": [
                "anadi",
                "mwangi"
            ]
        },
        "reach": 5,
        "rules": [],
        "size": "med",
        "source": {
            "value": "Pathfinder Lost Omens: The Mwangi Expanse"
        },
        "speed": 25,
        "traits": {
            "custom": "",
            "rarity": "rare",
            "value": [
                "anadi",
                "humanoid"
            ]
        },
        "vision": "normal"
    },
    "img": "systems/pf2ettw/icons/default-icons/alternatives/ancestries/anadi.svg",
    "name": "Anadi",
    "type": "ancestry"
}
