{
    "_id": "vxbQ1Yw4qwgjTzqo",
    "data": {
        "additionalLanguages": {
            "count": 0,
            "custom": "",
            "value": [
                "draconic",
                "elven",
                "iruxi",
                "necril",
                "orcish",
                "sylvan"
            ]
        },
        "boosts": {
            "0": {
                "value": [
                    "str"
                ]
            },
            "1": {
                "value": [
                    "int"
                ]
            },
            "2": {
                "value": [
                    "str",
                    "dex",
                    "con",
                    "int",
                    "wis",
                    "cha"
                ]
            }
        },
        "description": {
            "value": "<p><em>Powerfully-built humanoids that resemble hyenas, gnolls are cunning warriors and hunters. Their frightening visage and efficient tactics have given them an ill-starred reputation.</em></p>\n<hr />\n<p>In lands to the east, such as Katapesh, gnolls have earned themselves well-deserved reputations as brutal slavers and demon-worshippers. Even in the Mwangi Expanse, many outsiders believe that gnolls are witches, cannibals, and worse. The truth is more complex.</p>\n<p>Mwangi gnolls, known to themselves as “kholo,” are eminently practical and pragmatic hunters and raiders. To gnolls, honor is just another word for pointless risk. Any loss of a gnoll affects not just the individual, but their packmates and kin as well. Wasting time on anything but victory, whether it's mercy or cruelty, is seen as little shy of immoral. Gnolls see effectiveness as a cardinal virtue and believe that the best fight is one that never gives the opponent a chance to strike back. Mwangi gnolls are masters of ambushes, tactical feints, and psychological warfare-none of which endears them to their neighbors.</p>\n<p>Equally misunderstood is the gnoll practice of ancestor worship and endocannibalism. Gnolls consume their dead as a sign of reverence, holding a grand feast and transforming the bones of the fallen into art or weapons. Gnolls extend this honor to respected foes, hoping to bring their enemy's cunning or strength into the clan. While it's a sign of admiration, not everyone sees it that way.</p>\n<h2>You Might...</h2>\n<ul>\n<li>Always try to work smarter, not harder.</li>\n<li>Be very physically demonstrative—often hugging, punching, or licking your friends.</li>\n<li>Keep a bone from a favorite relative to ask for advice.</li>\n</ul>\n<h2>Others Probably...</h2>\n<ul>\n<li>Are intimidated by your size, teeth, and eerie laugh.</li>\n<li>Assume that you are dishonorable or worse.</li>\n<li>Respect the brutal efficiency of your hunting style.</li>\n</ul>\n<h2>Physical Description</h2>\n<p>Gnolls are large, hyena-like humanoids with short muzzles, sharp teeth, and large and expressive round ears. Their bodies are covered in shaggy fur, rougher on the back and softer and lighter on the stomach and throat, usually in an off-white, tan, or brown shade-spots and stripes are both common. Gnolls typically stand between six and seven feet tall. Women are usually about a head taller than men, and correspondingly stronger. Gnolls are considered adults at fifteen, and live about 60 years on average, though some can reach a hundred or more in good health.</p>\n<h2>Society</h2>\n<p>Kholo generally live in clans of 10 to 20 interrelated family groups, containing between 100 to 200 gnolls. They are ruled by a council of female gnolls, typically selected from the oldest members of each family. This council of elders selects one of their number as a Chief Elder, who is essentially the first among equals and sets the agenda. The council is advised by the clan's bonekeeper and storyteller, as well as one or more younger gnolls who lead hunting and raiding packs.</p>\n<p>Bonekeepers focus on tending to the wishes of gnoll ancestors and gods-they take their name from the ancestral bones that festoon their clothing and homes. Storytellers serve as teachers and sages, and are expected to have an encyclopedic knowledge of clan history, regional lore, and anything else relevant to the clan. They usually speak several languages.</p>\n<p>Kholo women typically work as hunters, warriors, and leaders, while men become artisans, caretakers, and gatherers. However, adherence to gender roles varies from clan to clan. Members of either gender can become bonekeepers or storytellers, and these positions often routes to authority for male gnolls.</p>\n<h2>Alignment and Religion</h2>\n<p>Mwangi gnolls have an unsentimental, matter-of-fact approach to life, and prioritize results over methods. They are usually loyal and generous to their people and ruthless toward outsiders-gnolls are typically chaotic neutral but can skew good or evil depending on who they view as “their people.”</p>\n<p>Gnolls appeal to their ancestors on a day-to-day basis, invoking their kin to bless cubs, ward off disease, or grant luck on hunts. Gnolls call upon the gods on special occasions or in times of great crisis. Most kholo give homage to Calistria and Shelyn as the Elder and Younger Sisters, twin goddesses of power and beauty. Nethys, the Brother, is the patron of bonekeepers, and Lamashtu, while a popular deity in other gnoll societies, is propitiated as the Old Mother, a goddess called upon only as a very last resort, and otherwise begged to stay away.</p>\n<h2>Names</h2>\n<p>Newborn kholo are given a root name, typically that of a bone, plant, or animal (though never Hyena, as this is considered narcissistic and arrogant). As a gnoll reaches certain milestones in life, they add descriptors to their name. Root names are often passed down through families, while descriptors are chosen to fit the gnoll's personality, usually in raucous ceremonies.</p>\n<h3>Sample Names</h3>\n<p>Baobab, Jackal, Onyx Elephant in Shadows, Red Thorn, Unbent Iron Reed, White Acacia, Wistful Tooth, Woodpecker</p>\n<h2 style=\"border-bottom: 1px solid var(--color-underline-header);\">Gnoll Mechanics</h2>\n<p><strong>Hit Points</strong> 8</p>\n<p><strong>Size</strong> Medium</p>\n<p><strong>Speed</strong> 25 feet</p>\n<p><strong>Ability Boosts</strong> Strength, Intelligence, Free</p>\n<p><strong>Ability Flaw</strong> Wisdom</p>\n<p><strong>Languages</strong> Common, Gnoll</p>\n<p><strong>Additional Languages</strong> equal to your Intelligence modifier (if positive). Choose from Draconic, Elven, Iruxi, Necril, Orcish, Sylvan, and any other languages to which you have access (such as the languages prevalent in your region).</p>\n<p><strong>Senses</strong> Low-Light Vision</p>\n<p><strong>Bite</strong> Your sharp teeth and powerful jaws are fearsome weapons. You have a jaws unarmed attack that deals 1d6 piercing damage. Your jaws are in the brawling group.</p>"
        },
        "flaws": {
            "0": {
                "value": [
                    "wis"
                ]
            }
        },
        "hp": 8,
        "items": {
            "r9df5": {
                "id": "jatezR4bENwhC6GL",
                "img": "systems/pf2ettw/icons/default-icons/feat.svg",
                "level": 1,
                "name": "Bite",
                "pack": "pf2ettw.ancestryfeatures"
            }
        },
        "languages": {
            "custom": "",
            "value": [
                "common",
                "gnoll"
            ]
        },
        "reach": 5,
        "rules": [],
        "size": "med",
        "source": {
            "value": "Pathfinder Lost Omens: The Mwangi Expanse"
        },
        "speed": 25,
        "traits": {
            "custom": "",
            "rarity": "uncommon",
            "value": [
                "gnoll",
                "humanoid"
            ]
        },
        "vision": "lowLightVision"
    },
    "img": "systems/pf2ettw/icons/default-icons/alternatives/ancestries/gnoll.svg",
    "name": "Gnoll",
    "type": "ancestry"
}
