{
    "_id": "sILRkGTwoBywy0BU",
    "data": {
        "description": {
            "value": "<p>Granted by <em>@Compendium[pf2ettw.spells-srd.Gaseous Form]{Gaseous Form}</em></p>"
        },
        "duration": {
            "expiry": "turn-start",
            "sustained": false,
            "unit": "minutes",
            "value": 5
        },
        "level": {
            "value": 4
        },
        "rules": [
            {
                "key": "Resistance",
                "type": "physical",
                "value": 8
            },
            {
                "key": "Immunity",
                "type": "precision"
            },
            {
                "key": "BaseSpeed",
                "selector": "fly",
                "value": 10
            }
        ],
        "source": {
            "value": ""
        },
        "start": {
            "initiative": null,
            "value": 0
        },
        "target": null,
        "tokenIcon": {
            "show": true
        },
        "traits": {
            "custom": "",
            "rarity": "common",
            "value": []
        }
    },
    "img": "systems/pf2ettw/icons/spells/gaseous-form.webp",
    "name": "Spell Effect: Gaseous Form",
    "type": "effect"
}
