{
    "_id": "FD9Ce5pqcZYstcMI",
    "data": {
        "badge": null,
        "description": {
            "value": "<p>Granted by <em>@Compendium[pf2ettw.spells-srd.Blessing of Defiance]{Blessing of Defiance}</em></p>\n<p>Choose one saving throw: Fortitude, Reflex, or Will. The target gets a +4 status bonus to that saving throw for 1 round. If you choose Fortitude, the target gains resistance 15 to poison. If you choose Reflex, the target gains a +15-foot status bonus to its Speeds. If you choose Will, the target gains resistance 15 to mental damage.</p>"
        },
        "duration": {
            "expiry": "turn-start",
            "sustained": false,
            "unit": "rounds",
            "value": 1
        },
        "level": {
            "value": 5
        },
        "rules": [
            {
                "choices": [
                    {
                        "label": "pf2ettw.SavesFortitude",
                        "value": "fortitude"
                    },
                    {
                        "label": "pf2ettw.SavesReflex",
                        "value": "reflex"
                    },
                    {
                        "label": "pf2ettw.SavesWill",
                        "value": "will"
                    }
                ],
                "flag": "blessingOfDefiance",
                "key": "ChoiceSet",
                "prompt": "Choose one saving throw"
            },
            {
                "key": "FlatModifier",
                "selector": "{item|flags.pf2ettw.rulesSelections.blessingOfDefiance}",
                "type": "status",
                "value": 4
            }
        ],
        "source": {
            "value": "Pathfinder Secrets of Magic"
        },
        "start": {
            "initiative": null,
            "value": 0
        },
        "target": null,
        "tokenIcon": {
            "show": true
        },
        "traits": {
            "custom": "",
            "rarity": "common",
            "value": []
        }
    },
    "img": "systems/pf2ettw/icons/spells/blessing-of-defiance.webp",
    "name": "Spell Effect: Blessing of Defiance",
    "type": "effect"
}
