{
    "_id": "4VOZP2ArmS12nvz8",
    "data": {
        "description": {
            "value": "<p>The creature takes a -2 status penalty to attack rolls against creatures other than you.</p>"
        },
        "duration": {
            "expiry": "turn-end",
            "sustained": false,
            "unit": "minutes",
            "value": 1
        },
        "level": {
            "value": 1
        },
        "rules": [
            {
                "key": "FlatModifier",
                "predicate": {
                    "not": [
                        "target:drawIre"
                    ]
                },
                "selector": "attack",
                "type": "status",
                "value": -2
            }
        ],
        "source": {
            "value": ""
        },
        "start": {
            "initiative": null,
            "value": 0
        },
        "target": null,
        "tokenIcon": {
            "show": true
        },
        "traits": {
            "custom": "",
            "rarity": "common",
            "value": []
        }
    },
    "img": "systems/pf2ettw/icons/spells/draw-ire.webp",
    "name": "Spell Effect: Draw Ire (Critical Failure)",
    "type": "effect"
}
