{
    "_id": "rEsgDhunQ5Yx8KZx",
    "data": {
        "description": {
            "value": "<p>Granted by casting <em>@Compendium[pf2ettw.spells-srd.Monstrosity Form]{Monstrosity Form}</em></p>\n<p>You transform into the shape of a legendary monster, assuming a Huge battle form. You must have enough space to expand into or the spell is lost. While in this form, you gain the animal trait. You can Dismiss the spell.</p>\n<p>You gain the following statistics and abilities regardless of which battle form you choose:</p>\n<ul>\n<li>AC = 20 + your level. Ignore your armor's check penalty and Speed reduction.</li>\n<li>20 temporary Hit Points.</li>\n<li>Darkvision.</li>\n<li>One or more unarmed melee attacks specific to the battle form you choose, which are the only attacks you can use. You're trained with them. Your attack modifier is +28, and you use the listed damage. These attacks are Strength based (for the purpose of the @Compendium[pf2ettw.conditionitems.Enfeebled]{Enfeebled} condition, for example). If your unarmed attack modifier is higher, you can use it instead.</li>\n<li>Athletics modifier of +30, unless your own modifier is higher.</li>\n</ul>\n<p>You also gain specific abilities based on the type of monster you choose:</p>\n<ul>\n<li><strong>Purple Worm</strong>\n<ul>\n<li>Speed 40 feet, burrow Speed 30 feet, swim Speed 20 feet;</li>\n<li><strong>Melee</strong> <span class=\"pf2-icon\">1</span> jaws (reach 10 feet), <strong>Damage</strong> 2d12+20 piercing;</li>\n<li><strong>Melee</strong> <span class=\"pf2-icon\">1</span> stinger (agile, reach 10 feet), <strong>Damage</strong> 2d8+15 piercing plus @Localize[pf2ettw.PersistentDamage.Poison2d6.success];</li>\n<li><strong>Melee</strong> <span class=\"pf2-icon\">1</span> body (reach 10 feet) <strong>Damage</strong> 2d8+20 bludgeoning;</li>\n<li><strong>Inexorable</strong> You automatically recover from the @Compendium[pf2ettw.conditionitems.Paralyzed]{Paralyzed}, @Compendium[pf2ettw.conditionitems.Slowed]{Slowed}, and @Compendium[pf2ettw.conditionitems.Stunned]{Stunned} conditions at the end of each of your turns. You're also immune to being @Compendium[pf2ettw.conditionitems.Immobilized]{Immobilized} and ignore difficult terrain and greater difficult terrain.</li>\n</ul>\n</li>\n</ul>\n<hr />\n<p><strong>Heightened (9th)</strong> You instead gain AC = 22 + your level, 25 temporary HP, attack modifier +31, increase damage by one damage die, and Athletics +33.</p>"
        },
        "duration": {
            "expiry": "turn-start",
            "sustained": false,
            "unit": "minutes",
            "value": 1
        },
        "level": {
            "value": 8
        },
        "rules": [
            {
                "key": "BattleForm",
                "overrides": {
                    "senses": {
                        "darkvision": {}
                    },
                    "speeds": {
                        "burrow": 30,
                        "land": 40,
                        "swim": 20
                    },
                    "strikes": {
                        "body": {
                            "ability": "str",
                            "category": "unarmed",
                            "damage": {
                                "damageType": "bludgeoning",
                                "dice": 2,
                                "die": "d8",
                                "modifier": 20
                            },
                            "group": "brawling",
                            "traits": [
                                "unarmed",
                                "reach-10"
                            ]
                        },
                        "jaws": {
                            "ability": "str",
                            "category": "unarmed",
                            "damage": {
                                "damageType": "piercing",
                                "dice": 2,
                                "die": "d12",
                                "modifier": 20
                            },
                            "group": "brawling",
                            "traits": [
                                "unarmed",
                                "reach-10"
                            ]
                        },
                        "stinger": {
                            "ability": "str",
                            "category": "unarmed",
                            "damage": {
                                "damageType": "piercing",
                                "dice": 2,
                                "die": "d8",
                                "modifier": 15
                            },
                            "group": "brawling",
                            "traits": [
                                "unarmed",
                                "reach-10",
                                "agile"
                            ]
                        }
                    },
                    "traits": [
                        "animal"
                    ]
                },
                "value": {
                    "brackets": [
                        {
                            "end": 8,
                            "start": 8,
                            "value": {
                                "armorClass": {
                                    "modifier": "20 + @actor.level"
                                },
                                "size": "huge",
                                "skills": {
                                    "ath": {
                                        "modifier": 30
                                    }
                                },
                                "strikes": {
                                    "body": {
                                        "modifier": 28
                                    },
                                    "jaws": {
                                        "modifier": 28
                                    },
                                    "stinger": {
                                        "modifier": 28
                                    }
                                },
                                "tempHP": 20
                            }
                        },
                        {
                            "start": 9,
                            "value": {
                                "armorClass": {
                                    "modifier": "22 + @actor.level"
                                },
                                "size": "huge",
                                "skills": {
                                    "ath": {
                                        "modifier": 33
                                    }
                                },
                                "strikes": {
                                    "body": {
                                        "damage": {
                                            "dice": 3
                                        },
                                        "modifier": 31,
                                        "traits": [
                                            "unarmed",
                                            "reach-10"
                                        ]
                                    },
                                    "jaws": {
                                        "damage": {
                                            "dice": 3
                                        },
                                        "modifier": 31,
                                        "traits": [
                                            "unarmed",
                                            "reach-10"
                                        ]
                                    },
                                    "stinger": {
                                        "damage": {
                                            "dice": 3
                                        },
                                        "modifier": 31,
                                        "traits": [
                                            "unarmed",
                                            "reach-10",
                                            "agile"
                                        ]
                                    }
                                },
                                "tempHP": 25
                            }
                        }
                    ],
                    "field": "item|data.level.value"
                }
            },
            {
                "key": "Note",
                "predicate": {
                    "all": [
                        "weapon:trait:agile"
                    ]
                },
                "selector": "strike-damage",
                "text": "<p class='compact-text'> Add @Localize[pf2ettw.PersistentDamage.Poison2d6.success].<br> <strong>Heightened (9th)</strong> Add @Localize[pf2ettw.PersistentDamage.Poison3d6.success].</p>"
            },
            {
                "key": "ActiveEffectLike",
                "mode": "override",
                "path": "flags.pf2ettw.disableABP",
                "value": true
            }
        ],
        "source": {
            "value": ""
        },
        "start": {
            "initiative": null,
            "value": 0
        },
        "target": null,
        "tokenIcon": {
            "show": true
        },
        "traits": {
            "custom": "",
            "rarity": "common",
            "value": []
        }
    },
    "img": "systems/pf2ettw/icons/spells/monstrosity-form.webp",
    "name": "Spell Effect: Monstrosity Form (Purple Worm)",
    "type": "effect"
}
