{
    "_id": "LMzFBnOEPzDGzHg4",
    "data": {
        "description": {
            "value": "<p>Granted by <em>@Compendium[pf2ettw.spells-srd.Unusual Anatomy]{Unusual Anatomy}</em></p>"
        },
        "duration": {
            "expiry": "turn-start",
            "sustained": false,
            "unit": "minutes",
            "value": 1
        },
        "level": {
            "value": 5
        },
        "rules": [
            {
                "key": "Sense",
                "label": "pf2ettw.SensesDarkvision",
                "selector": "darkvision"
            }
        ],
        "source": {
            "value": ""
        },
        "start": {
            "initiative": null,
            "value": 0
        },
        "target": null,
        "tokenIcon": {
            "show": true
        },
        "traits": {
            "custom": "",
            "rarity": "common",
            "value": []
        }
    },
    "img": "systems/pf2ettw/icons/spells/unusual-anatomy.webp",
    "name": "Spell Effect: Unusual Anatomy",
    "type": "effect"
}
