{
    "_id": "6Ev2ytJZfr2t33iy",
    "data": {
        "badge": null,
        "description": {
            "value": "<p>You flood your eidolon with power, creating a temporary evolution in your eidolon's capabilities. Choose one of the following effects:</p>\n<ul>\n<li>Your eidolon gains @Compendium[pf2ettw.ancestryfeatures.Low-Light Vision]{Low-Light Vision} and @Compendium[pf2ettw.ancestryfeatures.Darkvision]{Darkvision}.</li>\n</ul>"
        },
        "duration": {
            "expiry": "turn-start",
            "sustained": false,
            "unit": "minutes",
            "value": 1
        },
        "level": {
            "value": 1
        },
        "rules": [
            {
                "key": "Sense",
                "label": "pf2ettw.SensesLowLightVision",
                "selector": "lowLightVision"
            },
            {
                "key": "Sense",
                "label": "pf2ettw.SensesDarkvision",
                "selector": "darkvision"
            }
        ],
        "source": {
            "value": "Pathfinder Secrets of Magic"
        },
        "start": {
            "initiative": null,
            "value": 0
        },
        "target": null,
        "tokenIcon": {
            "show": true
        },
        "traits": {
            "custom": "",
            "rarity": "common",
            "value": []
        }
    },
    "img": "systems/pf2ettw/icons/spells/evolution-surge.webp",
    "name": "Spell Effect: Evolution Surge (Sight)",
    "type": "effect"
}
