{
    "_id": "0q2716S34XL1y9Hh",
    "data": {
        "description": {
            "value": "<p>The target gains darkvision.</p>"
        },
        "duration": {
            "expiry": "turn-start",
            "sustained": false,
            "unit": "hours",
            "value": 1
        },
        "level": {
            "value": 2
        },
        "rules": [
            {
                "key": "Sense",
                "label": "pf2ettw.SensesDarkvision",
                "selector": "darkvision"
            }
        ],
        "source": {
            "value": ""
        },
        "start": {
            "initiative": null,
            "value": 0
        },
        "target": null,
        "tokenIcon": {
            "show": true
        },
        "traits": {
            "custom": "",
            "rarity": "common",
            "value": []
        }
    },
    "img": "systems/pf2ettw/icons/spells/rapid-adaptation.webp",
    "name": "Spell Effect: Rapid Adaptation (Underground)",
    "type": "effect"
}
