{
    "_id": "JNi3nnXPWv7tsbTO",
    "data": {
        "badge": null,
        "description": {
            "value": "<p>Granted by @Compendium[pf2ettw.spells-srd.Circle of Protection]{Circle of Protection}</p>"
        },
        "duration": {
            "expiry": "turn-start",
            "sustained": false,
            "unit": "minutes",
            "value": 1
        },
        "level": {
            "value": 1
        },
        "rules": [
            {
                "key": "RollOption",
                "domain": "all",
                "label": "Defending vs. Circle of Protection Target",
                "option": "circle-of-protection",
                "toggleable": true
            },
            {
                "key": "FlatModifier",
                "label": "Defending vs. Circle of Protection Target",
                "slug":"circle-of-protection-ac-modifier",
                "predicate": {
                    "all": [
                        "circle-of-protection"
                    ]
                },
                "selector": "ac",
                "type": "status",
                "value": 1
            },
            {
                "key": "FlatModifier",
                "label": "Defending vs. Circle of Protection Target",
                "slug":"circle-of-protection-save-modifier",
                "predicate": {
                    "all": [
                        "circle-of-protection"
                    ]
                },
                "selector": "saving-throw",
                "type": "status",
                "value": 1
            },
            {
                "key": "RollOption",
                "domain": "all",
                "label": "Defending vs. CoP Target Control Effect or Summons",
                "option": "circle-of-protection-extra",
                "toggleable": true
            },
            {
                "key": "FlatModifier",
                "label": "Defending vs. CoP Target Control Effect or Summons",
                "slug":"circle-of-protection-extra-ac-modifier",
                "predicate": {
                    "all": [
                        "circle-of-protection-extra"
                    ]
                },
                "selector": "ac",
                "type": "status",
                "value": 3
            },
            {
                "key": "FlatModifier",
                "label": "Defending vs. CoP Target Control Effect or Summons",
                "slug":"circle-of-protection-extra-save-modifier",
                "predicate": {
                    "all": [
                        "circle-of-protection-extra"
                    ]
                },
                "selector": "saving-throw",
                "type": "status",
                "value": 3
            }
        ],
        "source": {
            "value": ""
        },
        "start": {
            "initiative": null,
            "value": 0
        },
        "target": null,
        "tokenIcon": {
            "show": true
        },
        "traits": {
            "custom": "",
            "rarity": "common",
            "value": []
        }
    },
    "effects": [],
    "flags": {},
    "img": "systems/pf2ettw/icons/spells/circle-of-protection.webp",
    "name": "Spell Effect: Circle of Protection",
    "type": "effect"
}
