{
    "_id": "iXIuypH0KXbIWWh9",
    "data": {
        "badge": null,
        "description": {
            "value": "<p>Granted by @Compendium[pf2ettw.spells-srd.Sun's Fury]{Sun's Fury}</p>"
        },
        "duration": {
            "expiry": "turn-start",
            "sustained": false,
            "unit": "minutes",
            "value": 1
        },
        "level": {
            "value": 1
        },
        "rules": [
            {
                "key": "RollOption",
                "domain": "damage-roll",
                "label": "Sun's Fury",
                "option": "suns-fury"
            },
            {
                "damageType": "radiant",
                "key": "FlatModifier",
                "label": "Sun's Fury",
                "predicate": {
                    "all": [
                        "suns-fury"
                    ]
                },
                "selector": "damage",
                "value": 1
            },
            {
                "damageType": "fire",
                "diceNumber": 1,
                "dieSize": "d4",
                "key": "DamageDice",
                "label": "Sun's Fury",
                "predicate": {
                    "all": [
                        "suns-fury"
                    ]
                },
                "selector": "damage"
            }
        ],
        "source": {
            "value": ""
        },
        "start": {
            "initiative": null,
            "value": 0
        },
        "target": null,
        "tokenIcon": {
            "show": true
        },
        "traits": {
            "custom": "",
            "rarity": "common",
            "value": []
        }
    },
    "effects": [],
    "flags": {},
    "img": "systems/pf2ettw/icons/spells/suns-fury.webp",
    "name": "Spell Effect: Sun's Fury",
    "type": "effect"
}
