{
    "_id": "tNjimcyUwn8afeH6",
    "data": {
        "badge": null,
        "description": {
            "value": "<p>Granted by <em>@Compendium[pf2ettw.spells-srd.Gravity Weapon]{Gravity Weapon}</em> .</p>"
        },
        "duration": {
            "expiry": "turn-start",
            "sustained": false,
            "unit": "minutes",
            "value": 1
        },
        "level": {
            "value": 1
        },
        "rules": [
            {
                "domain": "damage-roll",
                "key": "RollOption",
                "label": "First weapon strike this round",
                "option": "gravity-weapon",
                "toggleable": true
            },
            {
                "key": "FlatModifier",
                "predicate": {
                    "all": [
                        "gravity-weapon"
                    ],
                    "not": [
                        "weapon:category:unarmed"
                    ]
                },
                "selector": "strike-damage",
                "slug": "gravity-weapon",
                "type": "status",
                "value": "(1 + @weapon.data.data.runes.striking) * 2"
            }
        ],
        "source": {
            "value": ""
        },
        "start": {
            "initiative": null,
            "value": 0
        },
        "target": null,
        "tokenIcon": {
            "show": true
        },
        "traits": {
            "custom": "",
            "rarity": "common",
            "value": []
        }
    },
    "img": "systems/pf2ettw/icons/spells/gravity-weapon.webp",
    "name": "Spell Effect: Gravity Weapon",
    "type": "effect"
}
