{
    "_id": "J60rN48XzBGHmR6m",
    "data": {
        "description": {
            "value": "<p>Drawing upon the deepest wells of magic in an elemental plane, you transform into a spectacular elemental. You can choose between an air elemental, earth elemental, fire elemental, or water elemental. Your battle form is Gargantuan, and you must have enough space to expand into or the spell is lost. While in this form, you gain the elemental trait and the trait for the element you choose. You can Dismiss the spell.</p>\n<p>You gain the following statistics and abilities regardless of which battle form you choose:</p>\n<ul>\n<li>AC = 25 + your level. Ignore your armor's check penalty and Speed reduction.</li>\n<li>30 temporary Hit Points.</li>\n<li>Darkvision.</li>\n<li>One or more attacks specific to the battle form you choose, which are the only attacks you can use. You're trained with them. Your attack modifier is +34, and you use the listed damage. These attacks are Dexterity based if you choose an air or fire elemental, or Strength based if you choose an earth or water elemental. (This distinction doesn't change the statistics, but matters for the enfeebled and clumsy conditions, for example). If your unarmed attack modifier is higher, you can use it instead.</li>\n<li>Acrobatics modifier of +36 for air or fire elemental or Athletics modifier of +36 for earth or water elemental, unless your own modifier is higher.</li>\n</ul>\n<p>You also gain specific abilities based on the type of elemental you choose:</p>\n<ul>\n<li><strong>Air Elemental</strong> fly Speed 80 feet;\n<ul>\n<li><strong>High Winds</strong> (air, aura) 30 feet. Air within the emanation is difficult terrain for flying creatures that don't have the air trait;</li>\n<li><strong>Swiftness</strong> Your movement doesn't trigger reactions;</li>\n<li><strong>Melee</strong> <span class=\"pf2-icon\">1</span> gust (reach 25 feet), <strong>Damage</strong> 3d12+11 bludgeoning plus Push 10 feet;</li>\n<li><strong>Ranged</strong> <span class=\"pf2-icon\">1</span> lightning lash (range increment 80 feet), <strong>Damage</strong> 3d12+4 electricity.</li>\n</ul>\n</li>\n</ul>"
        },
        "duration": {
            "expiry": "turn-start",
            "sustained": false,
            "unit": "minutes",
            "value": 1
        },
        "level": {
            "value": 1
        },
        "rules": [
            {
                "hasHands": true,
                "key": "BattleForm",
                "overrides": {
                    "armorClass": {
                        "modifier": "25 + @actor.level"
                    },
                    "senses": {
                        "darkvision": {}
                    },
                    "size": "grg",
                    "skills": {
                        "acr": {
                            "modifier": 23
                        }
                    },
                    "speeds": {
                        "fly": 80
                    },
                    "strikes": {
                        "gust": {
                            "ability": "dex",
                            "category": "unarmed",
                            "damage": {
                                "damageType": "bludgeoning",
                                "dice": 3,
                                "die": "d12",
                                "modifier": 11
                            },
                            "group": "brawling",
                            "modifier": 34,
                            "traits": [
                                "unarmed",
                                "reach-25"
                            ]
                        },
                        "lightning-lash": {
                            "ability": "dex",
                            "category": "unarmed",
                            "damage": {
                                "damageType": "electricity",
                                "dice": 3,
                                "die": "d12",
                                "modifier": 4
                            },
                            "group": "brawling",
                            "modifier": 34,
                            "traits": [
                                "range-increment-80"
                            ]
                        }
                    },
                    "tempHP": 30,
                    "traits": [
                        "elemental",
                        "air"
                    ]
                }
            },
            {
                "key": "Note",
                "selector": "gust-damage",
                "text": "Plus @Compendium[pf2ettw.bestiary-ability-glossary-srd.Push]{Push} 10 feet",
                "title": "Elemental Embodiment (Air)"
            }
        ],
        "source": {
            "value": ""
        },
        "start": {
            "initiative": null,
            "value": 0
        },
        "target": null,
        "tokenIcon": {
            "show": true
        },
        "traits": {
            "custom": "",
            "rarity": "common",
            "value": []
        }
    },
    "img": "systems/pf2ettw/icons/spells/element-embodied.webp",
    "name": "Spell Effect: Element Embodied (Air)",
    "type": "effect"
}
