{
    "_id": "0OC945wcZ4H4akLz",
    "data": {
        "badge": null,
        "description": {
            "value": "<p>Your eidolon gains a +4 status bonus to Deception checks to Impersonate you and can add its level to such checks even if it's untrained.</p>"
        },
        "duration": {
            "expiry": "turn-start",
            "sustained": false,
            "unit": "minutes",
            "value": 10
        },
        "level": {
            "value": 1
        },
        "rules": [
            {
                "key": "FlatModifier",
                "label": "summoners-visage-status",
                "predicate": {
                    "all": [
                        "impersonatingSummoner"
                    ]
                },
                "selector": "deception",
                "type": "status",
                "value": 4
            },
            {
                "key": "FlatModifier",
                "label": "summoners-visage-proficiency",
                "predicate": {
                    "all": [
                        "impersonatingSummoner"
                    ]
                },
                "selector": "deception",
                "type": "proficiency",
                "value": "@actor.level"
            },
            {
                "domain": "all",
                "key": "RollOption",
                "label": "Impersonate Master (Summoner's Visage)",
                "option": "impersonatingSummoner",
                "toggleable": true
            }
        ],
        "source": {
            "value": ""
        },
        "start": {
            "initiative": null,
            "value": 0
        },
        "target": null,
        "tokenIcon": {
            "show": true
        },
        "traits": {
            "custom": "",
            "rarity": "common",
            "value": []
        }
    },
    "img": "systems/pf2ettw/icons/spells/summoners-visage.webp",
    "name": "Spell Effect: Summoner's Visage",
    "type": "effect"
}
