{
    "_id": "cTBYHfiXDOA09G4b",
    "data": {
        "description": {
            "value": "<p>Granted by <em>@Compendium[pf2ettw.spells-srd.Traveler's Transit]{Traveler's Transit}</em>.</p>\n<p>You gain a fly speed equal to your land speed.</p>"
        },
        "duration": {
            "expiry": "turn-start",
            "sustained": false,
            "unit": "minutes",
            "value": 1
        },
        "level": {
            "value": 5
        },
        "rules": [
            {
                "key": "BaseSpeed",
                "selector": "fly",
                "value": "@actor.attributes.speed.value"
            }
        ],
        "source": {
            "value": ""
        },
        "start": {
            "initiative": null,
            "value": 0
        },
        "target": null,
        "tokenIcon": {
            "show": true
        },
        "traits": {
            "custom": "",
            "rarity": "common",
            "value": []
        }
    },
    "img": "systems/pf2ettw/icons/spells/travelers-transit.webp",
    "name": "Spell Effect: Traveler's Transit (Fly)",
    "type": "effect"
}
