{
    "_id": "jj0P4eGVpmdwZjlA",
    "data": {
        "badge": null,
        "description": {
            "value": "<p>Granted by @Compendium[pf2ettw.spells-srd.Instant Armor]{Instant Armor}</p>"
        },
        "duration": {
            "expiry": "turn-start",
            "sustained": false,
            "unit": "minutes",
            "value": 10
        },
        "level": {
            "value": 2
        },
        "rules": [
            {
                "key": "GrantItem",
                "uuid": "Compendium.pf2ettw.actionspf2ettw.Armor Up!"
            }
        ],
        "source": {
            "value": ""
        },
        "start": {
            "initiative": null,
            "value": 0
        },
        "target": null,
        "tokenIcon": {
            "show": true
        },
        "traits": {
            "custom": "",
            "rarity": "common",
            "value": []
        }
    },
    "img": "systems/pf2ettw/icons/spells/instant-armor.webp",
    "name": "Spell Effect: Instant Armor",
    "type": "effect"
}
