{
    "_id": "iS1YM9i9XLki04Eq",
    "data": {
        "badge": null,
        "description": {
            "value": "<p>Granted by <em>@Compendium[pf2ettw.spells-srd.Divine Vessel]{Divine Vessel}</em></p>\n<p>You accept otherworldly energies into your body; while you are still recognizably yourself, you gain the features of one of your deity's servitors. Choose radiant or void, dependent on your deity (or either if you do not have a deity). This spell gains the radiant or void trait.</p>\n<p>If you were Medium or smaller, you become Large, as the effects of <em>@Compendium[pf2ettw.spells-srd.Enlarge]{Enlarge}</em>. You must have space to expand into, or the spell is lost. You also gain the following benefits.</p>\n<ul>\n<li>40 temporary Hit Points.</li>\n<li>A fly Speed equal to your Speed.</li>\n<li>Weakness 5 to radiant and void.</li>\n<li>A +1 status bonus to saves against spells.</li>\n<li>Darkvision.</li>\n<li>Your unarmed attacks and weapons deal 1 additional void damage.</li>\n<li>Two unarmed melee attacks, chosen from:\n<ul>\n<li>Fist attacks deal 2d8 damage.</li>\n<li>Bite unarmed attack that deals 2d10 piercing damage.</li>\n<li>Claws unarmed attack that deals 2d8 slashing damage and has the agile and finesse traits.</li>\n</ul>\n</li>\n</ul>"
        },
        "duration": {
            "expiry": "turn-start",
            "sustained": false,
            "unit": "minutes",
            "value": 1
        },
        "level": {
            "value": 1
        },
        "rules": [
            {
                "key": "TempHP",
                "value": 40
            },
            {
                "key": "Sense",
                "label": "pf2ettw.SensesDarkvision",
                "selector": "darkvision"
            },
            {
                "damageType": "void",
                "key": "FlatModifier",
                "label": "Divine Vessel",
                "selector": "damage",
                "value": 1
            },
            {
                "key": "BaseSpeed",
                "selector": "fly",
                "value": "@actor.attributes.speed.value"
            },
            {
                "category": "unarmed",
                "damage": {
                    "base": {
                        "damageType": "piercing",
                        "dice": 2,
                        "die": "d10"
                    }
                },
                "key": "Strike",
                "label": "Bite",
                "range": null,
                "traits": [
                    "unarmed"
                ]
            },
            {
                "category": "unarmed",
                "damage": {
                    "base": {
                        "damageType": "bludgeoning",
                        "dice": 2,
                        "die": "d8"
                    }
                },
                "group": "brawling",
                "key": "Strike",
                "label": "Fist",
                "range": null,
                "traits": [
                    "agile",
                    "finesse",
                    "unarmed",
                    "nonlethal"
                ]
            },
            {
                "category": "unarmed",
                "damage": {
                    "base": {
                        "damageType": "slashing",
                        "dice": 2,
                        "die": "d8"
                    }
                },
                "key": "Strike",
                "label": "Claws",
                "range": null,
                "traits": [
                    "agile",
                    "finesse",
                    "unarmed"
                ]
            },
            {
                "key": "Weakness",
                "type": "radiant",
                "value": 5
            },
            {
                "key": "Weakness",
                "type": "void",
                "value": 5
            },
            {
                "key": "CreatureSize",
                "value": "large"
            }
        ],
        "source": {
            "value": ""
        },
        "start": {
            "initiative": null,
            "value": 0
        },
        "target": null,
        "tokenIcon": {
            "show": true
        },
        "traits": {
            "custom": "",
            "rarity": {
                "value": "common"
            },
            "value": []
        }
    },
    "effects": [],
    "flags": {},
    "img": "systems/pf2ettw/icons/spells/divine-vessel.webp",
    "name": "Spell Effect: Divine Vessel (Void)",
    "type": "effect"
}
