{
    "_id": "con2Hzt47JjpuUej",
    "data": {
        "badge": null,
        "description": {
            "value": "<p>Granted by @Compendium[pf2ettw.spells-srd.Resist Energy]{Resist Energy}</p>\n<p>A shield of elemental energy protects a creature against one type of energy damage. Choose acid, cold, electricity, fire, or sonic damage. The target and its gear gain resistance 5 against the damage type you chose.</p>\n<hr />\n<p><strong>Heightened (4th)</strong> The resistance increases to 10.</p>\n<p><strong>Heightened (7th)</strong> The resistance increases to 15.</p>"
        },
        "duration": {
            "expiry": "turn-start",
            "sustained": false,
            "unit": "minutes",
            "value": 10
        },
        "level": {
            "value": 1
        },
        "rules": [
            {
                "choices": [
                    {
                        "label": "pf2ettw.TraitAcid",
                        "value": "acid"
                    },
                    {
                        "label": "pf2ettw.TraitCold",
                        "value": "cold"
                    },
                    {
                        "label": "pf2ettw.TraitElectricity",
                        "value": "electricity"
                    },
                    {
                        "label": "pf2ettw.TraitFire",
                        "value": "fire"
                    },
                    {
                        "label": "pf2ettw.TraitSonic",
                        "value": "sonic"
                    }
                ],
                "flag": "resistEnergyType",
                "key": "ChoiceSet",
                "prompt": "Choose Energy Type"
            },
            {
                "key": "Resistance",
                "type": "{item|flags.pf2ettw.rulesSelections.resistEnergyType}",
                "value": {
                    "brackets": [
                        {
                            "end": 3,
                            "start": 2,
                            "value": 5
                        },
                        {
                            "end": 6,
                            "start": 4,
                            "value": 10
                        },
                        {
                            "start": 7,
                            "value": 15
                        }
                    ],
                    "field": "item|data.level.value"
                }
            }
        ],
        "source": {
            "value": ""
        },
        "start": {
            "initiative": null,
            "value": 0
        },
        "target": null,
        "tokenIcon": {
            "show": false
        },
        "traits": {
            "custom": "",
            "rarity": "common",
            "value": []
        }
    },
    "img": "systems/pf2ettw/icons/spells/resist-energy.webp",
    "name": "Spell Effect: Resist Energy",
    "type": "effect"
}
