{
    "_id": "4Lo2qb5PmavSsLNk",
    "data": {
        "description": {
            "value": "<p>Granted by <em>@Compendium[pf2ettw.spells-srd.Energy Aegis]{Energy Aegis}</em></p>"
        },
        "duration": {
            "expiry": "turn-start",
            "sustained": false,
            "unit": "hours",
            "value": 24
        },
        "level": {
            "value": 7
        },
        "rules": [
            {
                "key": "Resistance",
                "type": "acid",
                "value": "5 + 5*floor((@item.level -7)/2)"
            },
            {
                "key": "Resistance",
                "type": "cold",
                "value": "5 + 5*floor((@item.level -7)/2)"
            },
            {
                "key": "Resistance",
                "type": "electricity",
                "value": "5 + 5*floor((@item.level -7)/2)"
            },
            {
                "key": "Resistance",
                "type": "fire",
                "value": "5*floor((@item.level -5)/2)"
            },
            {
                "key": "Resistance",
                "type": "force",
                "value": "5*floor((@item.level -5)/2)"
            },
            {
                "key": "Resistance",
                "type": "negative",
                "value": "5*floor((@item.level -5)/2)"
            },
            {
                "key": "Resistance",
                "type": "positive",
                "value": "5*floor((@item.level -5)/2)"
            },
            {
                "key": "Resistance",
                "type": "sonic",
                "value": "5*floor((@item.level -5)/2)"
            }
        ],
        "source": {
            "value": "Pathfinder Core Rulebook"
        },
        "start": {
            "initiative": null,
            "value": 0
        },
        "target": null,
        "tokenIcon": {
            "show": true
        },
        "traits": {
            "custom": "",
            "rarity": "common",
            "value": []
        }
    },
    "img": "systems/pf2ettw/icons/spells/energy-aegis.webp",
    "name": "Spell Effect: Energy Aegis",
    "type": "effect"
}
