{
    "_id": "Z6R8YjgX8Jvt9Ds4",
    "data": {
        "abilities": {
            "cha": {
                "mod": 10
            },
            "con": {
                "mod": 9
            },
            "dex": {
                "mod": 7
            },
            "int": {
                "mod": 6
            },
            "str": {
                "mod": 11
            },
            "wis": {
                "mod": 8
            }
        },
        "attributes": {
            "ac": {
                "details": "",
                "value": 50
            },
            "allSaves": {
                "value": "+1 status to all saves vs. magic"
            },
            "hp": {
                "details": "regeneration 20 (deactivated by evil)",
                "max": 400,
                "temp": 0,
                "value": 400
            },
            "initiative": {
                "ability": "perception"
            },
            "perception": {
                "value": 41
            },
            "speed": {
                "otherSpeeds": [
                    {
                        "type": "fly",
                        "value": "60"
                    }
                ],
                "value": "35"
            }
        },
        "details": {
            "alignment": {
                "value": "CE"
            },
            "blurb": "",
            "creatureType": "Celestial",
            "level": {
                "value": 23
            },
            "privateNotes": "",
            "publicNotes": "",
            "source": {
                "value": "Pathfinder #162: Ruins of the Radiant Siege"
            }
        },
        "resources": {
            "focus": {
                "max": 1,
                "value": 1
            }
        },
        "saves": {
            "fortitude": {
                "saveDetail": "",
                "value": 40
            },
            "reflex": {
                "saveDetail": "",
                "value": 36
            },
            "will": {
                "saveDetail": "",
                "value": 41
            }
        },
        "traits": {
            "attitude": {
                "value": "hostile"
            },
            "ci": [],
            "di": {
                "custom": "",
                "value": []
            },
            "dr": [],
            "dv": [
                {
                    "type": "good",
                    "value": 20
                }
            ],
            "languages": {
                "custom": "Tongues",
                "selected": [],
                "value": [
                    "celestial",
                    "draconic",
                    "infernal"
                ]
            },
            "rarity": "unique",
            "senses": {
                "value": "darkvision, true seeing"
            },
            "size": {
                "value": "lg"
            },
            "traits": {
                "custom": "",
                "value": [
                    "angel",
                    "celestial"
                ]
            }
        }
    },
    "img": "systems/pf2ettw/icons/default-icons/npc.svg",
    "items": [
        {
            "_id": "xzuxIMk5QK7iPQ9j",
            "data": {
                "autoHeightenLevel": {
                    "value": null
                },
                "description": {
                    "value": ""
                },
                "displayLevels": {},
                "prepared": {
                    "flexible": false,
                    "value": "innate"
                },
                "proficiency": {
                    "value": 0
                },
                "rules": [],
                "showSlotlessLevels": {
                    "value": true
                },
                "showUnpreparedSpells": {
                    "value": false
                },
                "slots": {
                    "slot0": {
                        "max": 0,
                        "prepared": [],
                        "value": 0
                    },
                    "slot1": {
                        "max": 0,
                        "prepared": [],
                        "value": 0
                    },
                    "slot10": {
                        "max": 0,
                        "prepared": [],
                        "value": 0
                    },
                    "slot11": {
                        "max": 0,
                        "prepared": [],
                        "value": 0
                    },
                    "slot2": {
                        "max": 0,
                        "prepared": [],
                        "value": 0
                    },
                    "slot3": {
                        "max": 0,
                        "prepared": [],
                        "value": 0
                    },
                    "slot4": {
                        "max": 0,
                        "prepared": [],
                        "value": 0
                    },
                    "slot5": {
                        "max": 0,
                        "prepared": [],
                        "value": 0
                    },
                    "slot6": {
                        "max": 0,
                        "prepared": [],
                        "value": 0
                    },
                    "slot7": {
                        "max": 0,
                        "prepared": [],
                        "value": 0
                    },
                    "slot8": {
                        "max": 0,
                        "prepared": [],
                        "value": 0
                    },
                    "slot9": {
                        "max": 0,
                        "prepared": [],
                        "value": 0
                    }
                },
                "slug": null,
                "source": {
                    "value": ""
                },
                "spelldc": {
                    "dc": 47,
                    "item": 0,
                    "mod": 0,
                    "value": 39
                },
                "tradition": {
                    "value": "divine"
                },
                "traits": {
                    "custom": "",
                    "rarity": "common",
                    "value": []
                }
            },
            "img": "systems/pf2ettw/icons/default-icons/spellcastingEntry.svg",
            "name": "Divine Innate Spells",
            "sort": 100000,
            "type": "spellcastingEntry"
        },
        {
            "_id": "vZtaB34wNbypeMD6",
            "data": {
                "ability": {
                    "value": ""
                },
                "area": {
                    "areaType": "",
                    "value": ""
                },
                "areasize": {
                    "value": ""
                },
                "category": {
                    "value": "spell"
                },
                "components": {
                    "focus": false,
                    "material": false,
                    "somatic": true,
                    "verbal": true
                },
                "cost": {
                    "value": ""
                },
                "damage": {
                    "value": {
                        "0": {
                            "applyMod": true,
                            "type": {
                                "categories": [],
                                "value": "force"
                            },
                            "value": "4d10"
                        }
                    }
                },
                "description": {
                    "value": "<p>An immense weapon of force appears, hovering in the air above the target. The weapon has the ghostly visual appearance of your deity's favored weapon. Name war or peace when you cast this spell.</p>\n<p>If you name \"war,\" mentally choose one creature. This must be a creature both you and the target can see. The target instinctively knows which creature this is. At the end of each of the target's turns, if the target did not use a hostile action against the creature you chose during that turn, the weapon Strikes the target.</p>\n<p>If you name \"peace,\" mentally choose up to five allies. The target instinctively knows who those allies are. The weapon Strikes the target each time the target uses a hostile action against you or one of your allies. The weapon Strikes only once per action, even if the action targets multiple allies (such as for a <em>@Compendium[pf2ettw.spells-srd.Fireball]{Fireball}</em> or a Whirlwind Strike).</p>\n<p>Strikes with the weapon are melee weapon attacks, but they use your spell attack modifier. Regardless of its appearance, the weapon deals force damage equal to 4d10 plus your spellcasting ability modifier. The weapon takes a multiple attack penalty, which increases throughout the target's turn, but its penalty is separate from yours.</p>\n<p>When the weapon Strikes, you can deal damage of the normal damage type of the weapon instead of force damage (or any of the available damage types, for a versatile weapon). No other statistics or attributes of the weapon apply, and even a ranged weapon attacks adjacent creatures only. A weapon of judgment is a weapon for the purposes of triggers, resistances, and so forth.</p>\n<p>The weapon doesn't take up space, grant flanking, or have any other attributes a creature would. The weapon can't make any attack other than its Strike, and feats or spells that affect weapons do not apply to this weapon.</p>\n<hr />\n<p><strong>Heightened (10th)</strong> The force damage increases by 1d10.</p>"
                },
                "duration": {
                    "value": "1 minute"
                },
                "hasCounteractCheck": {
                    "value": false
                },
                "heightening": {
                    "damage": {
                        "0": "1d10"
                    },
                    "interval": 1,
                    "type": "interval"
                },
                "level": {
                    "value": 10
                },
                "location": {
                    "value": "xzuxIMk5QK7iPQ9j"
                },
                "materials": {
                    "value": "You have a deity."
                },
                "prepared": {
                    "value": ""
                },
                "primarycheck": {
                    "value": ""
                },
                "range": {
                    "value": "100 feet"
                },
                "rules": [],
                "save": {
                    "basic": "",
                    "value": ""
                },
                "school": {
                    "value": "evocation"
                },
                "secondarycasters": {
                    "value": ""
                },
                "secondarycheck": {
                    "value": ""
                },
                "slug": "weapon-of-judgement",
                "source": {
                    "value": ""
                },
                "spellType": {
                    "value": "attack"
                },
                "sustained": {
                    "value": false
                },
                "target": {
                    "value": "1 creature"
                },
                "time": {
                    "value": "2"
                },
                "traditions": {
                    "value": [
                        "divine"
                    ]
                },
                "traits": {
                    "custom": "",
                    "rarity": "common",
                    "value": [
                        "force"
                    ]
                }
            },
            "flags": {
                "core": {
                    "sourceId": "Compendium.pf2ettw.spells-srd.ZqmP9gijBmK7y8Xy"
                }
            },
            "img": "systems/pf2ettw/icons/spells/weapon-of-judgement.webp",
            "name": "Weapon of Judgement",
            "sort": 200000,
            "type": "spell"
        },
        {
            "_id": "tO1yxFaweGRZ73Mc",
            "data": {
                "ability": {
                    "value": ""
                },
                "area": {
                    "areaType": "",
                    "value": ""
                },
                "areasize": {
                    "value": "60-foot burst"
                },
                "category": {
                    "value": "spell"
                },
                "components": {
                    "focus": false,
                    "material": false,
                    "somatic": true,
                    "verbal": true
                },
                "cost": {
                    "value": ""
                },
                "damage": {
                    "value": {
                        "0": {
                            "type": {
                                "categories": [],
                                "value": "bludgeoning"
                            },
                            "value": "11d6"
                        }
                    }
                },
                "description": {
                    "value": "<p>You shake the ground, topple creatures into fissures, and collapse structures. The GM might add additional effects in certain areas. Cliffs might collapse, causing creatures to fall, or a lake might drain as fissures open up below its surface, leaving a morass of quicksand.</p>\n<ul>\n<li><strong>Shaking Ground</strong> The ground is difficult terrain, and creatures on it take a -2 circumstance penalty to attack rolls, AC, and skill checks.</li>\n<li><strong>Fissures</strong> Each creature on the ground must attempt a Reflex save at the start of its turn to keep its footing and avoid falling into 40-foot-deep fissures that open beneath it. The fissures are permanent, and their sides require successful DC 15 Athletics to Climb.</li>\n<li><strong>Collapse</strong> Structures and ceilings might collapse. The GM rolls a flat check for each (DC 16 for a sturdy structure, DC 14 for an average structure and most natural formations, DC 9 for a shoddy structure, all adjusted higher or lower as the GM sees fit). A collapse deals 11d6 bludgeoning damage; each creature caught in a collapse must attempt a Reflex save to avoid it.</li>\n</ul>\n<hr />\n<p><strong>Critical Success</strong> The creature takes half the collapse damage.</p>\n<p><strong>Success</strong> The creature takes half the collapse damage and falls @Compendium[pf2ettw.conditionitems.Prone]{Prone}.</p>\n<p><strong>Failure</strong> The creature takes the full collapse damage and falls Prone.</p>\n<p><strong>Critical Failure</strong> The creature takes the full collapse damage and falls into a fissure.</p>\n<hr />\n<p><strong>Heightened (10th)</strong> You create a massive earthquake that can devastate a settlement. The range increases to half a mile and the area to a quarter-mile burst.</p>"
                },
                "duration": {
                    "value": "1 round"
                },
                "hasCounteractCheck": {
                    "value": false
                },
                "level": {
                    "value": 9
                },
                "location": {
                    "value": "xzuxIMk5QK7iPQ9j"
                },
                "materials": {
                    "value": ""
                },
                "prepared": {
                    "value": ""
                },
                "primarycheck": {
                    "value": ""
                },
                "range": {
                    "value": "500 feet"
                },
                "rules": [],
                "save": {
                    "basic": "",
                    "value": "reflex"
                },
                "school": {
                    "value": "evocation"
                },
                "secondarycasters": {
                    "value": ""
                },
                "secondarycheck": {
                    "value": ""
                },
                "slug": "earthquake",
                "source": {
                    "value": ""
                },
                "spellType": {
                    "value": "utility"
                },
                "sustained": {
                    "value": false
                },
                "target": {
                    "value": ""
                },
                "time": {
                    "value": "2"
                },
                "traditions": {
                    "value": [
                        "arcane",
                        "primal"
                    ]
                },
                "traits": {
                    "custom": "",
                    "rarity": "common",
                    "value": [
                        "earth"
                    ]
                }
            },
            "flags": {
                "core": {
                    "sourceId": "Compendium.pf2ettw.spells-srd.x7SPrsRxGb2Vy2nu"
                }
            },
            "img": "systems/pf2ettw/icons/spells/earthquake.webp",
            "name": "Earthquake",
            "sort": 300000,
            "type": "spell"
        },
        {
            "_id": "qmnryfjDMpQVb3tB",
            "data": {
                "ability": {
                    "value": ""
                },
                "area": {
                    "areaType": "",
                    "value": ""
                },
                "areasize": {
                    "value": ""
                },
                "category": {
                    "value": "spell"
                },
                "components": {
                    "focus": false,
                    "material": true,
                    "somatic": true,
                    "verbal": true
                },
                "cost": {
                    "value": ""
                },
                "damage": {
                    "value": {}
                },
                "description": {
                    "value": "<p>You protect the target with a powerful, long-lasting energy barrier. The target gains resistance 10 to acid, cold, electricity, fire, force, negative, positive, and sonic damage.</p>\n<hr />\n<p><strong>Heightened (9th)</strong> The resistances increase to 10.</p>"
                },
                "duration": {
                    "value": "24 hours"
                },
                "hasCounteractCheck": {
                    "value": false
                },
                "level": {
                    "value": 9
                },
                "location": {
                    "value": "xzuxIMk5QK7iPQ9j"
                },
                "materials": {
                    "value": ""
                },
                "prepared": {
                    "value": ""
                },
                "primarycheck": {
                    "value": ""
                },
                "range": {
                    "value": "touch"
                },
                "rules": [],
                "save": {
                    "basic": "",
                    "value": ""
                },
                "school": {
                    "value": "abjuration"
                },
                "secondarycasters": {
                    "value": ""
                },
                "secondarycheck": {
                    "value": ""
                },
                "slug": "energy-aegis",
                "source": {
                    "value": ""
                },
                "spellType": {
                    "value": "utility"
                },
                "sustained": {
                    "value": false
                },
                "target": {
                    "value": "1 creature"
                },
                "time": {
                    "value": "1 minute"
                },
                "traditions": {
                    "value": [
                        "arcane",
                        "divine",
                        "occult",
                        "primal"
                    ]
                },
                "traits": {
                    "custom": "",
                    "rarity": "common",
                    "value": []
                }
            },
            "flags": {
                "core": {
                    "sourceId": "Compendium.pf2ettw.spells-srd.m2xFMNyQiUKQDRaj"
                }
            },
            "img": "systems/pf2ettw/icons/spells/energy-aegis.webp",
            "name": "Energy Aegis",
            "sort": 400000,
            "type": "spell"
        },
        {
            "_id": "bovYkUDBFpQJPd5c",
            "data": {
                "ability": {
                    "value": ""
                },
                "area": {
                    "areaType": "",
                    "value": ""
                },
                "category": {
                    "value": "spell"
                },
                "components": {
                    "focus": false,
                    "material": false,
                    "somatic": false,
                    "verbal": true
                },
                "cost": {
                    "value": ""
                },
                "damage": {
                    "value": {}
                },
                "description": {
                    "value": "<p>Shield-sized shards of multicolored light manifest in the air around you, each rotating quickly to intercept attacks.</p>\n<p>Melee attacks against you impact a randomly colored shard, subjecting the attacker to a random effect from <em>@Compendium[pf2ettw.spells-srd.Prismatic Spray]{Prismatic Spray}</em>, with a saving throw of the type indicated in that spell.</p>\n<p>The shards automatically block physical ranged attacks the size of a spear or smaller, such as arrows, bolts, and javelins. You gain a +2 circumstance bonus to your AC against attacks with larger ranged weapons.</p>\n<p>Any spell that targets you requires the caster to succeed at a counteract check against your spell DC, or it fails to affect you.</p>\n<p>@Compendium[pf2ettw.spell-effects.Spell Effect: Prismatic Shield]{Spell Effect: Prismatic Shield}</p>"
                },
                "duration": {
                    "value": "until the start of your next turn"
                },
                "hasCounteractCheck": {
                    "value": false
                },
                "level": {
                    "value": 9
                },
                "location": {
                    "value": "xzuxIMk5QK7iPQ9j"
                },
                "materials": {
                    "value": ""
                },
                "prepared": {
                    "value": ""
                },
                "range": {
                    "value": ""
                },
                "rules": [],
                "save": {
                    "basic": "",
                    "value": ""
                },
                "school": {
                    "value": "abjuration"
                },
                "slug": "prismatic-shield",
                "source": {
                    "value": "Pathfinder #162: Ruins of the Radiant Siege"
                },
                "spellType": {
                    "value": "utility"
                },
                "sustained": {
                    "value": false
                },
                "target": {
                    "value": ""
                },
                "time": {
                    "value": "1"
                },
                "traditions": {
                    "custom": "",
                    "value": [
                        "arcane",
                        "occult"
                    ]
                },
                "traits": {
                    "custom": "",
                    "rarity": "rare",
                    "value": [
                        "light"
                    ]
                }
            },
            "flags": {
                "core": {
                    "sourceId": "Compendium.pf2ettw.spells-srd.AlCFTjSBaCHuRHBv"
                }
            },
            "img": "systems/pf2ettw/icons/spells/prismatic-shield.webp",
            "name": "Prismatic Shield",
            "sort": 500000,
            "type": "spell"
        },
        {
            "_id": "W4aFkqUbbSmws98X",
            "data": {
                "ability": {
                    "value": ""
                },
                "area": {
                    "areaType": "",
                    "value": null
                },
                "areasize": {
                    "value": ""
                },
                "category": {
                    "value": "spell"
                },
                "components": {
                    "focus": false,
                    "material": false,
                    "somatic": true,
                    "verbal": true
                },
                "cost": {
                    "value": ""
                },
                "damage": {
                    "value": {}
                },
                "description": {
                    "value": "<p>You create a seven-layered sphere to protect an area. This multicolored sphere functions like a <em>@Compendium[pf2ettw.spells-srd.Prismatic Wall]{Prismatic Wall}</em> but is shaped in a 10-foot burst centered on a corner of your space. You must form the sphere in an unbroken open space so its edges don't pass through any creatures or objects, or the spell is lost.</p>"
                },
                "duration": {
                    "value": "1 hour"
                },
                "hasCounteractCheck": {
                    "value": false
                },
                "level": {
                    "value": 9
                },
                "location": {
                    "value": "xzuxIMk5QK7iPQ9j"
                },
                "materials": {
                    "value": ""
                },
                "prepared": {
                    "value": ""
                },
                "primarycheck": {
                    "value": ""
                },
                "range": {
                    "value": "10 feet"
                },
                "rules": [],
                "save": {
                    "basic": "",
                    "value": ""
                },
                "school": {
                    "value": "abjuration"
                },
                "secondarycasters": {
                    "value": ""
                },
                "secondarycheck": {
                    "value": ""
                },
                "slug": "prismatic-sphere",
                "source": {
                    "value": ""
                },
                "spellType": {
                    "value": "utility"
                },
                "sustained": {
                    "value": false
                },
                "target": {
                    "value": ""
                },
                "time": {
                    "value": "2"
                },
                "traditions": {
                    "value": [
                        "arcane",
                        "occult"
                    ]
                },
                "traits": {
                    "custom": "",
                    "rarity": "common",
                    "value": [
                        "light"
                    ]
                }
            },
            "flags": {
                "core": {
                    "sourceId": "Compendium.pf2ettw.spells-srd.PngDCmU0MXZkbu0v"
                }
            },
            "img": "systems/pf2ettw/icons/spells/prismatic-sphere.webp",
            "name": "Prismatic Sphere",
            "sort": 600000,
            "type": "spell"
        },
        {
            "_id": "X21LtW7OJHAOf7yC",
            "data": {
                "ability": {
                    "value": ""
                },
                "area": {
                    "areaType": "",
                    "value": null
                },
                "areasize": {
                    "value": ""
                },
                "category": {
                    "value": "spell"
                },
                "components": {
                    "focus": false,
                    "material": false,
                    "somatic": false,
                    "verbal": true
                },
                "cost": {
                    "value": ""
                },
                "damage": {
                    "value": {}
                },
                "description": {
                    "value": "<p>You stun the target with an arcane word of power. Once targeted, the target is then temporarily immune for 10 minutes.</p>\n<p>The effect of the spell depends on the target's level.</p>\n<ul>\n<li><strong>13th or Lower</strong> The target is @Compendium[pf2ettw.conditionitems.Stunned]{Stunned} for [[/br 1d6 #rounds]]{1d6 rounds}.</li>\n<li><strong>14th-15th</strong> The target is Stunned for 1 round.</li>\n<li><strong>16th or Higher</strong> The target is @Compendium[pf2ettw.conditionitems.Stunned]{Stunned 1}.</li>\n</ul>\n<hr />\n<p><strong>Heightened (+1)</strong> The levels at which each outcome applies increase by 2.</p>"
                },
                "duration": {
                    "value": "varies"
                },
                "hasCounteractCheck": {
                    "value": false
                },
                "level": {
                    "value": 8
                },
                "location": {
                    "value": "xzuxIMk5QK7iPQ9j"
                },
                "materials": {
                    "value": ""
                },
                "prepared": {
                    "value": ""
                },
                "primarycheck": {
                    "value": ""
                },
                "range": {
                    "value": "30 feet"
                },
                "rules": [],
                "save": {
                    "basic": "",
                    "value": ""
                },
                "school": {
                    "value": "enchantment"
                },
                "secondarycasters": {
                    "value": ""
                },
                "secondarycheck": {
                    "value": ""
                },
                "slug": "power-word-stun",
                "source": {
                    "value": ""
                },
                "spellType": {
                    "value": "utility"
                },
                "sustained": {
                    "value": false
                },
                "target": {
                    "value": "1 creature"
                },
                "time": {
                    "value": "1"
                },
                "traditions": {
                    "value": [
                        "arcane"
                    ]
                },
                "traits": {
                    "custom": "",
                    "rarity": "uncommon",
                    "value": [
                        "auditory",
                        "mental"
                    ]
                }
            },
            "flags": {
                "core": {
                    "sourceId": "Compendium.pf2ettw.spells-srd.7PJSqUeKxTqOVrPk"
                }
            },
            "img": "systems/pf2ettw/icons/spells/power-word-stun.webp",
            "name": "Power Word Stun",
            "sort": 700000,
            "type": "spell"
        },
        {
            "_id": "7HvfOWkvVdH9smTn",
            "data": {
                "ability": {
                    "value": ""
                },
                "area": {
                    "areaType": "",
                    "value": null
                },
                "areasize": {
                    "value": ""
                },
                "category": {
                    "value": "spell"
                },
                "components": {
                    "focus": false,
                    "material": false,
                    "somatic": true,
                    "verbal": true
                },
                "cost": {
                    "value": ""
                },
                "damage": {
                    "value": {}
                },
                "description": {
                    "value": "<p>You curse the target, sapping its spirit and leaving a contagious trap in its essence. The target must attempt a Will save. Any creature that casts a divine or occult spell on the target while it's affected is targeted by spiritual epidemic and must also attempt a Will save. The curse continues to spread in this way.</p>\n<hr />\n<p><strong>Critical Success</strong> The target is unaffected.</p>\n<p><strong>Success</strong> The target is @Compendium[pf2ettw.conditionitems.Enfeebled]{Enfeebled 2} and @Compendium[pf2ettw.conditionitems.Stupefied]{Stupefied 2} for 1 round.</p>\n<p><strong>Failure</strong> The target is @Compendium[pf2ettw.conditionitems.Enfeebled]{Enfeebled 2} and @Compendium[pf2ettw.conditionitems.Stupefied]{Stupefied 2} for 1 minute and @Compendium[pf2ettw.conditionitems.Enfeebled]{Enfeebled 1} and @Compendium[pf2ettw.conditionitems.Stupefied]{Stupefied 1} permanently.</p>\n<p><strong>Critical Failure</strong> The target is @Compendium[pf2ettw.conditionitems.Enfeebled]{Enfeebled 2} and @Compendium[pf2ettw.conditionitems.Stupefied]{Stupefied 3} for 1 minute and @Compendium[pf2ettw.conditionitems.Enfeebled]{Enfeebled 2} and @Compendium[pf2ettw.conditionitems.Stupefied]{Stupefied 2} permanently.</p>"
                },
                "duration": {
                    "value": "varies"
                },
                "hasCounteractCheck": {
                    "value": false
                },
                "level": {
                    "value": 8
                },
                "location": {
                    "value": "xzuxIMk5QK7iPQ9j"
                },
                "materials": {
                    "value": ""
                },
                "prepared": {
                    "value": ""
                },
                "primarycheck": {
                    "value": ""
                },
                "range": {
                    "value": "120 feet"
                },
                "rules": [],
                "save": {
                    "basic": "",
                    "value": "will"
                },
                "school": {
                    "value": "necromancy"
                },
                "secondarycasters": {
                    "value": ""
                },
                "secondarycheck": {
                    "value": ""
                },
                "slug": "spiritual-epidemic",
                "source": {
                    "value": ""
                },
                "spellType": {
                    "value": "save"
                },
                "sustained": {
                    "value": false
                },
                "target": {
                    "value": "1 creature"
                },
                "time": {
                    "value": "2"
                },
                "traditions": {
                    "value": [
                        "divine",
                        "occult"
                    ]
                },
                "traits": {
                    "custom": "",
                    "rarity": "common",
                    "value": [
                        "curse"
                    ]
                }
            },
            "flags": {
                "core": {
                    "sourceId": "Compendium.pf2ettw.spells-srd.MS60WhVifb45qORJ"
                }
            },
            "img": "systems/pf2ettw/icons/spells/spiritual-epidemic.webp",
            "name": "Spiritual Epidemic",
            "sort": 800000,
            "type": "spell"
        },
        {
            "_id": "luKtZLoAZM1CrxOL",
            "data": {
                "ability": {
                    "value": ""
                },
                "area": {
                    "areaType": "",
                    "value": ""
                },
                "areasize": {
                    "value": ""
                },
                "category": {
                    "value": "spell"
                },
                "components": {
                    "focus": false,
                    "material": true,
                    "somatic": true,
                    "verbal": true
                },
                "cost": {
                    "value": ""
                },
                "damage": {
                    "value": {
                        "0": {
                            "type": {
                                "categories": [],
                                "value": "force"
                            },
                            "value": "8d8"
                        }
                    }
                },
                "description": {
                    "value": "<p>Blades of force form a churning wall. The wall is a straight line 20 feet high, 120 feet long, and 2 inches thick, and it provides cover. The wall deals 8d8 force damage to each creature that's in the wall's space when it is created, that attempts to pass through the wall, or that ends its turn inside the wall. A basic Reflex save reduces the damage. A creature that succeeds at this save when the wall is created is pushed to the nearest space on the side of its choice. Creatures trying to move through the wall fail to do so if they critically fail the save, ending their movement adjacent to the wall.</p>\n<hr />\n<p><strong>Heightened (+1)</strong> The damage increases by 1d8.</p>"
                },
                "duration": {
                    "value": "1 minute"
                },
                "hasCounteractCheck": {
                    "value": false
                },
                "heightening": {
                    "damage": {
                        "0": "1d8"
                    },
                    "interval": 1,
                    "type": "interval"
                },
                "level": {
                    "value": 7
                },
                "location": {
                    "value": "xzuxIMk5QK7iPQ9j"
                },
                "materials": {
                    "value": ""
                },
                "prepared": {
                    "value": ""
                },
                "primarycheck": {
                    "value": ""
                },
                "range": {
                    "value": "120 feet"
                },
                "rules": [],
                "save": {
                    "basic": "basic",
                    "value": "reflex"
                },
                "school": {
                    "value": "evocation"
                },
                "secondarycasters": {
                    "value": ""
                },
                "secondarycheck": {
                    "value": ""
                },
                "slug": "blade-barrier",
                "source": {
                    "value": ""
                },
                "spellType": {
                    "value": "utility"
                },
                "sustained": {
                    "value": false
                },
                "target": {
                    "value": ""
                },
                "time": {
                    "value": "3"
                },
                "traditions": {
                    "value": [
                        "divine"
                    ]
                },
                "traits": {
                    "custom": "",
                    "rarity": "common",
                    "value": [
                        "force"
                    ]
                }
            },
            "flags": {
                "core": {
                    "sourceId": "Compendium.pf2ettw.spells-srd.peCF6VArm8urfwxZ"
                }
            },
            "img": "systems/pf2ettw/icons/spells/blade-barrier.webp",
            "name": "Blade Barrier",
            "sort": 900000,
            "type": "spell"
        },
        {
            "_id": "4C7CFkhUaTzr7SKU",
            "data": {
                "ability": {
                    "value": ""
                },
                "area": {
                    "areaType": "",
                    "value": ""
                },
                "areasize": {
                    "value": ""
                },
                "category": {
                    "value": "spell"
                },
                "components": {
                    "focus": false,
                    "material": false,
                    "somatic": true,
                    "verbal": true
                },
                "cost": {
                    "value": ""
                },
                "damage": {
                    "value": {}
                },
                "description": {
                    "value": "<p>You unravel the magic behind a spell or effect. Attempt a counteract check against the target. If you successfully counteract a magic item, the item becomes a mundane item of its type for 10 minutes. This doesn't change the item's non-magical properties. If the target is an artifact or similar item, you automatically fail.</p>"
                },
                "duration": {
                    "value": ""
                },
                "hasCounteractCheck": {
                    "value": true
                },
                "level": {
                    "value": 7
                },
                "location": {
                    "value": "xzuxIMk5QK7iPQ9j"
                },
                "materials": {
                    "value": ""
                },
                "prepared": {
                    "value": ""
                },
                "primarycheck": {
                    "value": ""
                },
                "range": {
                    "value": "120 feet"
                },
                "rules": [],
                "save": {
                    "basic": "",
                    "value": ""
                },
                "school": {
                    "value": "abjuration"
                },
                "secondarycasters": {
                    "value": ""
                },
                "secondarycheck": {
                    "value": ""
                },
                "slug": "dispel-magic",
                "source": {
                    "value": ""
                },
                "spellType": {
                    "value": "utility"
                },
                "sustained": {
                    "value": false
                },
                "target": {
                    "value": "1 spell effect or unattended magic item"
                },
                "time": {
                    "value": "2"
                },
                "traditions": {
                    "value": [
                        "arcane",
                        "divine",
                        "occult",
                        "primal"
                    ]
                },
                "traits": {
                    "custom": "",
                    "rarity": "common",
                    "value": []
                }
            },
            "flags": {
                "core": {
                    "sourceId": "Compendium.pf2ettw.spells-srd.9HpwDN4MYQJnW0LG"
                }
            },
            "img": "systems/pf2ettw/icons/spells/dispel-magic.webp",
            "name": "Dispel Magic (At Will)",
            "sort": 1000000,
            "type": "spell"
        },
        {
            "_id": "URiFpGSpCrb5b7TH",
            "data": {
                "ability": {
                    "value": ""
                },
                "area": {
                    "areaType": "",
                    "value": ""
                },
                "areasize": {
                    "value": "varies"
                },
                "category": {
                    "value": "spell"
                },
                "components": {
                    "focus": false,
                    "material": false,
                    "somatic": false,
                    "verbal": false
                },
                "cost": {
                    "value": ""
                },
                "damage": {
                    "value": {
                        "0": {
                            "type": {
                                "categories": [],
                                "value": "positive"
                            },
                            "value": "7d8"
                        }
                    }
                },
                "description": {
                    "value": "<p>You channel positive energy to heal the living or damage the undead. If the target is a willing living creature, you restore 7d8 Hit Points. If the target is undead, you deal that amount of positive damage to it, and it gets a basic Fortitude save. The number of actions you spend when Casting this Spell determines its targets, range, area, and other parameters.</p>\n<hr />\n<p><strong>1 Action</strong> (somatic) The spell has a range of touch.</p>\n<p><strong>2 Actions</strong> (somatic, verbal) The spell has a range of 30 feet. If you're healing a living creature, increase the Hit Points restored by 8.</p>\n<p><strong>3 Actions</strong> (material, somatic, verbal) You disperse positive energy in a 30-foot emanation. This targets all living and undead creatures in the burst.</p>\n<hr />\n<p><strong>Heightened (+1)</strong> The amount of healing or damage increases by 1d8, and the extra healing for the 2-action version increases by 8.</p>"
                },
                "duration": {
                    "value": ""
                },
                "hasCounteractCheck": {
                    "value": false
                },
                "heightening": {
                    "damage": {
                        "0": "1d8"
                    },
                    "interval": 1,
                    "type": "interval"
                },
                "level": {
                    "value": 7
                },
                "location": {
                    "value": "xzuxIMk5QK7iPQ9j"
                },
                "materials": {
                    "value": ""
                },
                "prepared": {
                    "value": ""
                },
                "primarycheck": {
                    "value": ""
                },
                "range": {
                    "value": "varies"
                },
                "rules": [],
                "save": {
                    "basic": "",
                    "value": ""
                },
                "school": {
                    "value": "necromancy"
                },
                "secondarycasters": {
                    "value": ""
                },
                "secondarycheck": {
                    "value": ""
                },
                "slug": "heal",
                "source": {
                    "value": ""
                },
                "spellType": {
                    "value": "heal"
                },
                "sustained": {
                    "value": false
                },
                "target": {
                    "value": "1 willing living creature or 1 undead"
                },
                "time": {
                    "value": "1 to 3"
                },
                "traditions": {
                    "custom": "",
                    "value": [
                        "divine",
                        "primal"
                    ]
                },
                "traits": {
                    "custom": "",
                    "rarity": "common",
                    "value": [
                        "healing",
                        "positive"
                    ]
                }
            },
            "flags": {
                "core": {
                    "sourceId": "Compendium.pf2ettw.spells-srd.rfZpqmj0AIIdkVIs"
                }
            },
            "img": "systems/pf2ettw/icons/spells/heal.webp",
            "name": "Heal",
            "sort": 1100000,
            "type": "spell"
        },
        {
            "_id": "WQTHEu7733ExGLgU",
            "data": {
                "ability": {
                    "value": ""
                },
                "area": {
                    "areaType": "emanation",
                    "value": "30"
                },
                "areasize": {
                    "value": "30-foot emanation"
                },
                "category": {
                    "value": "spell"
                },
                "components": {
                    "focus": false,
                    "material": false,
                    "somatic": true,
                    "verbal": true
                },
                "cost": {
                    "value": ""
                },
                "damage": {
                    "value": {}
                },
                "description": {
                    "value": "<p>Your eyes glow as you sense aligned auras. Choose chaotic, evil, good, or lawful. You detect auras of that alignment. You receive no information beyond presence or absence. You can choose not to detect creatures or effects you're aware have that alignment.</p>\n<p>Only creatures of 6th level or higher-unless divine spellcasters, undead, or beings from the Outer Sphere-have alignment auras.</p>\n<hr />\n<p><strong>Heightened (2nd)</strong> You learn each aura's location and strength.</p>"
                },
                "duration": {
                    "value": ""
                },
                "hasCounteractCheck": {
                    "value": false
                },
                "level": {
                    "value": 5
                },
                "location": {
                    "value": "xzuxIMk5QK7iPQ9j"
                },
                "materials": {
                    "value": ""
                },
                "prepared": {
                    "value": ""
                },
                "primarycheck": {
                    "value": ""
                },
                "range": {
                    "value": ""
                },
                "rules": [],
                "save": {
                    "basic": "",
                    "value": ""
                },
                "school": {
                    "value": "divination"
                },
                "secondarycasters": {
                    "value": ""
                },
                "secondarycheck": {
                    "value": ""
                },
                "slug": "detect-alignment",
                "source": {
                    "value": ""
                },
                "spellType": {
                    "value": "utility"
                },
                "sustained": {
                    "value": false
                },
                "target": {
                    "value": ""
                },
                "time": {
                    "value": "2"
                },
                "traditions": {
                    "value": [
                        "divine",
                        "occult"
                    ]
                },
                "traits": {
                    "custom": "",
                    "rarity": "uncommon",
                    "value": [
                        "detection"
                    ]
                }
            },
            "flags": {
                "core": {
                    "sourceId": "Compendium.pf2ettw.spells-srd.QnTtGCAvdWRU4spv"
                }
            },
            "img": "systems/pf2ettw/icons/spells/detect-alignment.webp",
            "name": "Detect Alignment (Constant)",
            "sort": 1200000,
            "type": "spell"
        },
        {
            "_id": "mFFY1IVFVsXFDBCg",
            "data": {
                "ability": {
                    "value": ""
                },
                "area": {
                    "areaType": "",
                    "value": ""
                },
                "areasize": {
                    "value": ""
                },
                "category": {
                    "value": "spell"
                },
                "components": {
                    "focus": false,
                    "material": false,
                    "somatic": true,
                    "verbal": true
                },
                "cost": {
                    "value": ""
                },
                "damage": {
                    "value": {}
                },
                "description": {
                    "value": "<p>The target can understand all words regardless of language and also speak the languages of other creatures. When in a mixed group of creatures, each time the target speaks, it can choose a creature and speak in a language that creature understands, even if the target doesn't know what language that is.</p>\n<hr />\n<p><strong>Heightened (7th)</strong> The duration is 8 hours.</p>"
                },
                "duration": {
                    "value": "1 hour"
                },
                "hasCounteractCheck": {
                    "value": false
                },
                "level": {
                    "value": 5
                },
                "location": {
                    "value": "xzuxIMk5QK7iPQ9j"
                },
                "materials": {
                    "value": ""
                },
                "prepared": {
                    "value": ""
                },
                "primarycheck": {
                    "value": ""
                },
                "range": {
                    "value": "touch"
                },
                "rules": [],
                "save": {
                    "basic": "",
                    "value": ""
                },
                "school": {
                    "value": "divination"
                },
                "secondarycasters": {
                    "value": ""
                },
                "secondarycheck": {
                    "value": ""
                },
                "slug": "tongues",
                "source": {
                    "value": ""
                },
                "spellType": {
                    "value": "utility"
                },
                "sustained": {
                    "value": false
                },
                "target": {
                    "value": "1 creature"
                },
                "time": {
                    "value": "2"
                },
                "traditions": {
                    "value": [
                        "arcane",
                        "divine",
                        "occult"
                    ]
                },
                "traits": {
                    "custom": "",
                    "rarity": "uncommon",
                    "value": []
                }
            },
            "flags": {
                "core": {
                    "sourceId": "Compendium.pf2ettw.spells-srd.SwUiVavHKMWG7t5K"
                }
            },
            "img": "systems/pf2ettw/icons/spells/tongues.webp",
            "name": "Tongues (Constant)",
            "sort": 1300000,
            "type": "spell"
        },
        {
            "_id": "wACHliwpU57yeD9j",
            "data": {
                "ability": {
                    "value": ""
                },
                "area": {
                    "areaType": "",
                    "value": ""
                },
                "areasize": {
                    "value": ""
                },
                "category": {
                    "value": "spell"
                },
                "components": {
                    "focus": false,
                    "material": false,
                    "somatic": true,
                    "verbal": true
                },
                "cost": {
                    "value": ""
                },
                "damage": {
                    "value": {}
                },
                "description": {
                    "value": "<p>You see things within 60 feet as they actually are. The GM rolls a secret counteract check against any illusion or transmutation in the area, but only for the purpose of determining whether you see through it (for instance, if the check succeeds against a polymorph spell, you can see the creature's true form, but you don't end the polymorph spell).</p>"
                },
                "duration": {
                    "value": "10 minutes"
                },
                "hasCounteractCheck": {
                    "value": true
                },
                "level": {
                    "value": 5
                },
                "location": {
                    "value": "xzuxIMk5QK7iPQ9j"
                },
                "materials": {
                    "value": ""
                },
                "prepared": {
                    "value": ""
                },
                "primarycheck": {
                    "value": ""
                },
                "range": {
                    "value": ""
                },
                "rules": [],
                "save": {
                    "basic": "",
                    "value": ""
                },
                "school": {
                    "value": "divination"
                },
                "secondarycasters": {
                    "value": ""
                },
                "secondarycheck": {
                    "value": ""
                },
                "slug": "true-seeing",
                "source": {
                    "value": ""
                },
                "spellType": {
                    "value": "utility"
                },
                "sustained": {
                    "value": false
                },
                "target": {
                    "value": ""
                },
                "time": {
                    "value": "2"
                },
                "traditions": {
                    "value": [
                        "arcane",
                        "divine",
                        "occult",
                        "primal"
                    ]
                },
                "traits": {
                    "custom": "",
                    "rarity": "common",
                    "value": [
                        "revelation"
                    ]
                }
            },
            "flags": {
                "core": {
                    "sourceId": "Compendium.pf2ettw.spells-srd.uqlxMQQeSGWEVjki"
                }
            },
            "img": "systems/pf2ettw/icons/spells/true-seeing.webp",
            "name": "True Seeing (Constant)",
            "sort": 1400000,
            "type": "spell"
        },
        {
            "_id": "3AnmcIzCnPYcis7x",
            "data": {
                "ability": {
                    "value": ""
                },
                "area": {
                    "areaType": "",
                    "value": ""
                },
                "areasize": {
                    "value": ""
                },
                "category": {
                    "value": "spell"
                },
                "components": {
                    "focus": false,
                    "material": false,
                    "somatic": true,
                    "verbal": true
                },
                "cost": {
                    "value": ""
                },
                "damage": {
                    "value": {}
                },
                "description": {
                    "value": "<p>Falsehoods ring in your ears like discordant notes. You gain a +4 status bonus to Perception checks when someone Lies.</p>"
                },
                "duration": {
                    "value": "10 minutes"
                },
                "hasCounteractCheck": {
                    "value": false
                },
                "level": {
                    "value": 4
                },
                "location": {
                    "value": "xzuxIMk5QK7iPQ9j"
                },
                "materials": {
                    "value": ""
                },
                "prepared": {
                    "value": ""
                },
                "primarycheck": {
                    "value": ""
                },
                "range": {
                    "value": ""
                },
                "rules": [],
                "save": {
                    "basic": "",
                    "value": ""
                },
                "school": {
                    "value": "divination"
                },
                "secondarycasters": {
                    "value": ""
                },
                "secondarycheck": {
                    "value": ""
                },
                "slug": "discern-lies",
                "source": {
                    "value": ""
                },
                "spellType": {
                    "value": "utility"
                },
                "sustained": {
                    "value": false
                },
                "target": {
                    "value": ""
                },
                "time": {
                    "value": "2"
                },
                "traditions": {
                    "value": [
                        "arcane",
                        "divine",
                        "occult"
                    ]
                },
                "traits": {
                    "custom": "",
                    "rarity": "uncommon",
                    "value": [
                        "mental",
                        "revelation"
                    ]
                }
            },
            "flags": {
                "core": {
                    "sourceId": "Compendium.pf2ettw.spells-srd.uNsliWpl8Q1JdFcM"
                }
            },
            "img": "systems/pf2ettw/icons/spells/discern-lies.webp",
            "name": "Discern Lies (At Will)",
            "sort": 1500000,
            "type": "spell"
        },
        {
            "_id": "IMUPwDL0xKzelqlk",
            "data": {
                "ability": {
                    "value": ""
                },
                "area": {
                    "areaType": "",
                    "value": ""
                },
                "areasize": {
                    "value": ""
                },
                "category": {
                    "value": "spell"
                },
                "components": {
                    "focus": false,
                    "material": true,
                    "somatic": true,
                    "verbal": false
                },
                "cost": {
                    "value": ""
                },
                "damage": {
                    "value": {}
                },
                "description": {
                    "value": "<p>Cloaked in illusion, the target becomes @Compendium[pf2ettw.conditionitems.Invisible]{Invisible}. This makes it @Compendium[pf2ettw.conditionitems.Undetected]{Undetected} to all creatures, though the creatures can attempt to find the target, making it @Compendium[pf2ettw.conditionitems.Hidden]{Hidden} to them instead. If the target uses a hostile action, the spell ends after that hostile action is completed.</p>\n<hr />\n<p><strong>Heightened (4th)</strong> The spell lasts 1 minute, but it doesn't end if the target uses a hostile action.</p>"
                },
                "duration": {
                    "value": "10 minutes"
                },
                "hasCounteractCheck": {
                    "value": false
                },
                "level": {
                    "value": 2
                },
                "location": {
                    "value": "xzuxIMk5QK7iPQ9j"
                },
                "materials": {
                    "value": ""
                },
                "prepared": {
                    "value": ""
                },
                "primarycheck": {
                    "value": ""
                },
                "range": {
                    "value": "self"
                },
                "rules": [],
                "save": {
                    "basic": "",
                    "value": ""
                },
                "school": {
                    "value": "illusion"
                },
                "secondarycasters": {
                    "value": ""
                },
                "secondarycheck": {
                    "value": ""
                },
                "slug": "invisibility",
                "source": {
                    "value": ""
                },
                "spellType": {
                    "value": "utility"
                },
                "sustained": {
                    "value": false
                },
                "target": {
                    "value": "self"
                },
                "time": {
                    "value": "2"
                },
                "traditions": {
                    "value": [
                        "arcane",
                        "occult"
                    ]
                },
                "traits": {
                    "custom": "",
                    "rarity": "common",
                    "value": []
                }
            },
            "flags": {
                "core": {
                    "sourceId": "Compendium.pf2ettw.spells-srd.XXqE1eY3w3z6xJCB"
                }
            },
            "img": "systems/pf2ettw/icons/spells/invisibility.webp",
            "name": "Invisibility (At Will) (Self Only)",
            "sort": 1600000,
            "type": "spell"
        },
        {
            "_id": "1nmJaLkny6iKSyVq",
            "data": {
                "ability": {
                    "value": ""
                },
                "area": {
                    "areaType": "",
                    "value": ""
                },
                "areasize": {
                    "value": ""
                },
                "category": {
                    "value": "spell"
                },
                "components": {
                    "focus": false,
                    "material": false,
                    "somatic": true,
                    "verbal": true
                },
                "cost": {
                    "value": ""
                },
                "damage": {
                    "value": {}
                },
                "description": {
                    "value": "<p>The object glows, casting bright light in a 20-foot radius (and dim light for the next 20 feet) like a torch. If you cast this spell again on a second object, the light spell on the first object ends.</p>\n<hr />\n<p><strong>Heightened (4th)</strong> The object sheds bright light in a 60-foot radius (and dim light for the next 60 feet).</p>"
                },
                "duration": {
                    "value": "until the next time you make your daily preparations"
                },
                "hasCounteractCheck": {
                    "value": false
                },
                "level": {
                    "value": 1
                },
                "location": {
                    "value": "xzuxIMk5QK7iPQ9j"
                },
                "materials": {
                    "value": ""
                },
                "prepared": {
                    "value": ""
                },
                "primarycheck": {
                    "value": ""
                },
                "range": {
                    "value": "touch"
                },
                "rules": [],
                "save": {
                    "basic": "",
                    "value": ""
                },
                "school": {
                    "value": "evocation"
                },
                "secondarycasters": {
                    "value": ""
                },
                "secondarycheck": {
                    "value": ""
                },
                "slug": "light",
                "source": {
                    "value": ""
                },
                "spellType": {
                    "value": "utility"
                },
                "sustained": {
                    "value": false
                },
                "target": {
                    "value": "1 object of 1 Bulk or less, either unattended or possessed by you or a willing ally"
                },
                "time": {
                    "value": "2"
                },
                "traditions": {
                    "custom": "",
                    "value": [
                        "arcane",
                        "divine",
                        "occult",
                        "primal"
                    ]
                },
                "traits": {
                    "custom": "",
                    "rarity": "common",
                    "value": [
                        "light",
                        "cantrip"
                    ]
                }
            },
            "flags": {
                "core": {
                    "sourceId": "Compendium.pf2ettw.spells-srd.WBmvzNDfpwka3qT4"
                }
            },
            "img": "systems/pf2ettw/icons/spells/light.webp",
            "name": "Light",
            "sort": 1700000,
            "type": "spell"
        },
        {
            "_id": "YkiuloNIynm9Dv8Z",
            "data": {
                "MAP": {
                    "value": ""
                },
                "baseItem": "greatsword",
                "bonus": {
                    "value": 0
                },
                "bonusDamage": {
                    "value": 0
                },
                "category": "martial",
                "containerId": null,
                "damage": {
                    "damageType": "slashing",
                    "dice": 1,
                    "die": "d12",
                    "value": ""
                },
                "description": {
                    "value": "<p>This immense two‑handed sword is nearly as tall as its wielder. Its lower blade is often somewhat dulled to allow it to be gripped for extra leverage in close‑quarter fights.</p>"
                },
                "equipped": {
                    "carryType": "worn",
                    "handsHeld": 0,
                    "invested": null
                },
                "equippedBulk": {
                    "value": ""
                },
                "group": "sword",
                "hardness": 0,
                "hp": {
                    "brokenThreshold": 0,
                    "max": 0,
                    "value": 0
                },
                "level": {
                    "value": 19
                },
                "negateBulk": {
                    "value": "0"
                },
                "potencyRune": {
                    "value": 3
                },
                "preciousMaterial": {
                    "value": null
                },
                "preciousMaterialGrade": {
                    "value": null
                },
                "price": {
                    "value": {
                        "gp": 40000
                    }
                },
                "property1": {
                    "critDamage": "",
                    "critDamageType": "",
                    "critDice": null,
                    "critDie": "",
                    "criticalConditionType": "",
                    "criticalConditionValue": null,
                    "damageType": "",
                    "dice": null,
                    "die": "",
                    "strikeConditionType": "",
                    "strikeConditionValue": null,
                    "value": ""
                },
                "propertyRune1": {
                    "value": null
                },
                "propertyRune2": {
                    "value": null
                },
                "propertyRune3": {
                    "value": null
                },
                "propertyRune4": {
                    "value": null
                },
                "quantity": 1,
                "range": null,
                "reload": {
                    "value": ""
                },
                "rules": [],
                "size": "lg",
                "slug": "greatsword",
                "source": {
                    "value": ""
                },
                "specific": {
                    "value": false
                },
                "splashDamage": {
                    "value": 0
                },
                "stackGroup": null,
                "strikingRune": {
                    "value": "majorStriking"
                },
                "traits": {
                    "custom": "",
                    "rarity": "common",
                    "value": [
                        "versatile-p"
                    ]
                },
                "usage": {
                    "value": "held-in-two-hands"
                },
                "weight": {
                    "value": "2"
                }
            },
            "flags": {
                "core": {
                    "sourceId": "Compendium.pf2ettw.equipment-srd.UX71GkWBL9g41VwM"
                }
            },
            "img": "systems/pf2ettw/icons/equipment/weapons/greatsword.webp",
            "name": "+3 Major Striking Greatsword (Large)",
            "sort": 1800000,
            "type": "weapon"
        },
        {
            "_id": "ED7Sb3O9SLxFnTRr",
            "data": {
                "attack": {
                    "value": ""
                },
                "attackEffects": {
                    "value": []
                },
                "bonus": {
                    "value": 42
                },
                "damageRolls": {
                    "0": {
                        "damage": "4d12+21",
                        "damageType": "slashing"
                    },
                    "1": {
                        "damage": "1d6",
                        "damageType": "evil"
                    }
                },
                "description": {
                    "value": ""
                },
                "rules": [],
                "slug": null,
                "source": {
                    "value": ""
                },
                "traits": {
                    "custom": "",
                    "rarity": "common",
                    "value": [
                        "evil",
                        "magical",
                        "reach-10",
                        "versatile-p"
                    ]
                },
                "weaponType": {
                    "value": "melee"
                }
            },
            "img": "systems/pf2ettw/icons/default-icons/melee.svg",
            "name": "Unholy Greatsword",
            "sort": 1900000,
            "type": "melee"
        },
        {
            "_id": "8RQS62riVfrsiZjr",
            "data": {
                "attack": {
                    "value": ""
                },
                "attackEffects": {
                    "custom": "",
                    "value": []
                },
                "bonus": {
                    "value": 40
                },
                "damageRolls": {
                    "hz0libicqvtlaxhlaroa2": {
                        "damage": "6d6+15",
                        "damageType": "fire"
                    },
                    "qsoz0i42osij9qd4pybv49": {
                        "damage": "2d6",
                        "damageType": "evil"
                    }
                },
                "description": {
                    "value": ""
                },
                "rules": [
                    {
                        "key": "Note",
                        "outcome": [
                            "criticalSuccess"
                        ],
                        "selector": "{item|_id}-damage",
                        "text": "The creature hit by a critical hit from radiant ray is @Compendium[pf2ettw.conditionitems.Dazzled]{Dazzled} for 1 round.",
                        "title": "{item|name}"
                    }
                ],
                "slug": null,
                "source": {
                    "value": ""
                },
                "traits": {
                    "custom": "",
                    "rarity": "common",
                    "value": [
                        "evil",
                        "magical",
                        "range-increment-60"
                    ]
                },
                "weaponType": {
                    "value": "ranged"
                }
            },
            "img": "systems/pf2ettw/icons/default-icons/melee.svg",
            "name": "Radiant Ray",
            "sort": 2000000,
            "type": "melee"
        },
        {
            "_id": "7UsBYA3xYXL2TFT2",
            "data": {
                "actionCategory": {
                    "value": "interaction"
                },
                "actionType": {
                    "value": "passive"
                },
                "actions": {
                    "value": null
                },
                "description": {
                    "value": "<p>@Localize[pf2ettw.NPC.Abilities.Glossary.Darkvision]</p>"
                },
                "requirements": {
                    "value": ""
                },
                "rules": [],
                "slug": "darkvision",
                "source": {
                    "value": "Pathfinder Bestiary"
                },
                "traits": {
                    "custom": "",
                    "rarity": "common",
                    "value": []
                },
                "trigger": {
                    "value": ""
                },
                "weapon": {
                    "value": ""
                }
            },
            "flags": {
                "core": {
                    "sourceId": "Compendium.pf2ettw.bestiary-ability-glossary-srd.qCCLZhnp2HhP3Ex6"
                }
            },
            "img": "systems/pf2ettw/icons/actions/Passive.webp",
            "name": "Darkvision",
            "sort": 2100000,
            "type": "action"
        },
        {
            "_id": "dcDZ5fYx6PsHPo4t",
            "data": {
                "actionCategory": {
                    "value": "interaction"
                },
                "actionType": {
                    "value": "passive"
                },
                "actions": {
                    "value": null
                },
                "description": {
                    "value": "<p>@Localize[pf2ettw.NPC.Abilities.Glossary.AtWillSpells]</p>"
                },
                "requirements": {
                    "value": ""
                },
                "rules": [],
                "slug": "at-will-spells",
                "source": {
                    "value": "Pathfinder Bestiary"
                },
                "traits": {
                    "custom": "",
                    "rarity": "common",
                    "value": []
                },
                "trigger": {
                    "value": ""
                },
                "weapon": {
                    "value": ""
                }
            },
            "flags": {
                "core": {
                    "sourceId": "Compendium.pf2ettw.bestiary-ability-glossary-srd.2YRDYVnC1eljaXKK"
                }
            },
            "img": "systems/pf2ettw/icons/actions/Passive.webp",
            "name": "At-Will Spells",
            "sort": 2200000,
            "type": "action"
        },
        {
            "_id": "7iz6trwOzT3IfpHj",
            "data": {
                "actionCategory": {
                    "value": "interaction"
                },
                "actionType": {
                    "value": "passive"
                },
                "actions": {
                    "value": null
                },
                "description": {
                    "value": "<p>@Localize[pf2ettw.NPC.Abilities.Glossary.ConstantSpells]</p>"
                },
                "requirements": {
                    "value": ""
                },
                "rules": [],
                "slug": "constant-spells",
                "source": {
                    "value": "Pathfinder Bestiary"
                },
                "traits": {
                    "custom": "",
                    "rarity": "common",
                    "value": []
                },
                "trigger": {
                    "value": ""
                },
                "weapon": {
                    "value": ""
                }
            },
            "flags": {
                "core": {
                    "sourceId": "Compendium.pf2ettw.bestiary-ability-glossary-srd.kakyXBG5WA8c6Zfd"
                }
            },
            "img": "systems/pf2ettw/icons/actions/Passive.webp",
            "name": "Constant Spells",
            "sort": 2300000,
            "type": "action"
        },
        {
            "_id": "jZQm4Bhn7fdp3YRx",
            "data": {
                "actionCategory": {
                    "value": "defensive"
                },
                "actionType": {
                    "value": "passive"
                },
                "actions": {
                    "value": null
                },
                "description": {
                    "value": ""
                },
                "requirements": {
                    "value": ""
                },
                "rules": [
                    {
                        "key": "FlatModifier",
                        "predicate": {
                            "any": [
                                "magical",
                                "arcane",
                                "primal",
                                "occult",
                                "divine"
                            ]
                        },
                        "selector": "saving-throw",
                        "type": "status",
                        "value": 1
                    }
                ],
                "slug": null,
                "source": {
                    "value": ""
                },
                "traits": {
                    "custom": "",
                    "rarity": "common",
                    "value": []
                },
                "trigger": {
                    "value": ""
                },
                "weapon": {
                    "value": ""
                }
            },
            "img": "systems/pf2ettw/icons/actions/Passive.webp",
            "name": "+1 Status Bonus on Saves vs Magic",
            "sort": 2400000,
            "type": "action"
        },
        {
            "_id": "xkC8ZjLdXCpQeb8J",
            "data": {
                "actionCategory": {
                    "value": "defensive"
                },
                "actionType": {
                    "value": "passive"
                },
                "actions": {
                    "value": null
                },
                "description": {
                    "value": "<p>@Localize[pf2ettw.NPC.Abilities.Glossary.Regeneration]</p>"
                },
                "requirements": {
                    "value": ""
                },
                "rules": [],
                "slug": "regeneration",
                "source": {
                    "value": "Pathfinder Bestiary"
                },
                "traits": {
                    "custom": "",
                    "rarity": "common",
                    "value": []
                },
                "trigger": {
                    "value": ""
                },
                "weapon": {
                    "value": ""
                }
            },
            "flags": {
                "core": {
                    "sourceId": "Compendium.pf2ettw.bestiary-ability-glossary-srd.lR9R5Vld8Eu2Dha5"
                }
            },
            "img": "systems/pf2ettw/icons/actions/Passive.webp",
            "name": "Regeneration 20",
            "sort": 2500000,
            "type": "action"
        },
        {
            "_id": "AIJka2Zew5I1e7Lo",
            "data": {
                "actionCategory": {
                    "value": "defensive"
                },
                "actionType": {
                    "value": "reaction"
                },
                "actions": {
                    "value": null
                },
                "description": {
                    "value": "<p>@Localize[pf2ettw.NPC.Abilities.Glossary.AttackOfOpportunity]</p>"
                },
                "requirements": {
                    "value": ""
                },
                "rules": [],
                "slug": "attack-of-opportunity",
                "source": {
                    "value": "Pathfinder Bestiary"
                },
                "traits": {
                    "custom": "",
                    "rarity": "common",
                    "value": []
                },
                "trigger": {
                    "value": ""
                },
                "weapon": {
                    "value": ""
                }
            },
            "flags": {
                "core": {
                    "sourceId": "Compendium.pf2ettw.bestiary-ability-glossary-srd.hFtNbo1LKYCoDy2O"
                }
            },
            "img": "systems/pf2ettw/icons/actions/Reaction.webp",
            "name": "Attack of Opportunity",
            "sort": 2600000,
            "type": "action"
        },
        {
            "_id": "B8N51wc1bGZzdZ7d",
            "data": {
                "actionCategory": {
                    "value": "defensive"
                },
                "actionType": {
                    "value": "passive"
                },
                "actions": {
                    "value": null
                },
                "description": {
                    "value": "<p>@Template[type:emanation|distance:60]{60 feet} @Compendium[pf2ettw.bestiary-ability-glossary-srd.Aura]{Aura}</p>\n<p>When a creature ends its turn in the aura, it must attempt a @Check[type:fortitude|dc:45] save. If the creature fails, it is @Compendium[pf2ettw.conditionitems.Drained]{Drained 1} and @Compendium[pf2ettw.conditionitems.Sickened]{Sickened 1} (@Compendium[pf2ettw.conditionitems.Drained]{Drained 2} and @Compendium[pf2ettw.conditionitems.Sickened]{Sickened 2} on a critical failure).</p>\n<p>Avsheros can deactivate or activate this aura using a single action, which has the concentrate trait.</p>\n<p>No matter the result of the save, a creature can't be affected by Avsheros's hateful gaze again for 1 minute.</p>"
                },
                "requirements": {
                    "value": ""
                },
                "rules": [],
                "slug": null,
                "source": {
                    "value": ""
                },
                "traits": {
                    "custom": "",
                    "rarity": "common",
                    "value": [
                        "aura",
                        "divine",
                        "necromancy",
                        "visual"
                    ]
                },
                "trigger": {
                    "value": ""
                },
                "weapon": {
                    "value": ""
                }
            },
            "img": "systems/pf2ettw/icons/actions/Passive.webp",
            "name": "Hateful Gaze",
            "sort": 2700000,
            "type": "action"
        },
        {
            "_id": "WaEIc7jlHfXb63gH",
            "data": {
                "actionCategory": {
                    "value": "offensive"
                },
                "actionType": {
                    "value": "passive"
                },
                "actions": {
                    "value": null
                },
                "description": {
                    "value": "<p>Any weapon gains the effects of an @Compendium[pf2ettw.equipment-srd.Unholy]{Unholy} property rune while Avsheros wields it.</p>"
                },
                "requirements": {
                    "value": ""
                },
                "rules": [],
                "slug": null,
                "source": {
                    "value": ""
                },
                "traits": {
                    "custom": "",
                    "rarity": "common",
                    "value": [
                        "divination",
                        "evocation"
                    ]
                },
                "trigger": {
                    "value": ""
                },
                "weapon": {
                    "value": ""
                }
            },
            "img": "systems/pf2ettw/icons/actions/Passive.webp",
            "name": "Blasphemous Arms",
            "sort": 2800000,
            "type": "action"
        },
        {
            "_id": "AkqOlXLB6K0JLoqz",
            "data": {
                "actionCategory": {
                    "value": "offensive"
                },
                "actionType": {
                    "value": "action"
                },
                "actions": {
                    "value": 2
                },
                "description": {
                    "value": "<p>Avsheros lets out an agonized wail that invokes grief and a feeling of betrayal in those who hear it.</p>\n<p>All creatures within 120 feet must succeed at a @Check[type:will|dc:47] save or become @Compendium[pf2ettw.conditionitems.Frightened]{Frightened 2}. A creature frightened in this way can't willingly accept aid of any kind from an ally until the frightened condition is removed.</p>\n<p>On a successful save, the creature is immune to Avsheros's Wail of the Betrayed for 24 hours.</p>"
                },
                "requirements": {
                    "value": ""
                },
                "rules": [],
                "slug": null,
                "source": {
                    "value": ""
                },
                "traits": {
                    "custom": "",
                    "rarity": "common",
                    "value": [
                        "auditory",
                        "fear",
                        "mental"
                    ]
                },
                "trigger": {
                    "value": ""
                },
                "weapon": {
                    "value": ""
                }
            },
            "img": "systems/pf2ettw/icons/actions/TwoActions.webp",
            "name": "Wail of the Betrayed",
            "sort": 2900000,
            "type": "action"
        },
        {
            "_id": "BC4ipmpDwp3kT9He",
            "data": {
                "description": {
                    "value": ""
                },
                "mod": {
                    "value": 44
                },
                "proficient": {
                    "value": 0
                },
                "rules": [],
                "slug": null,
                "source": {
                    "value": ""
                },
                "traits": {
                    "custom": "",
                    "rarity": "common",
                    "value": []
                }
            },
            "img": "systems/pf2ettw/icons/default-icons/lore.svg",
            "name": "Athletics",
            "sort": 3000000,
            "type": "lore"
        },
        {
            "_id": "9BLjUK7MunVti6KO",
            "data": {
                "description": {
                    "value": ""
                },
                "mod": {
                    "value": 43
                },
                "proficient": {
                    "value": 0
                },
                "rules": [],
                "slug": null,
                "source": {
                    "value": ""
                },
                "traits": {
                    "custom": "",
                    "rarity": "common",
                    "value": []
                }
            },
            "img": "systems/pf2ettw/icons/default-icons/lore.svg",
            "name": "Intimidation",
            "sort": 3100000,
            "type": "lore"
        },
        {
            "_id": "y44BjptmN8n3p7i3",
            "data": {
                "description": {
                    "value": ""
                },
                "mod": {
                    "value": 41
                },
                "proficient": {
                    "value": 0
                },
                "rules": [],
                "slug": null,
                "source": {
                    "value": ""
                },
                "traits": {
                    "custom": "",
                    "rarity": "common",
                    "value": []
                }
            },
            "img": "systems/pf2ettw/icons/default-icons/lore.svg",
            "name": "Religion",
            "sort": 3200000,
            "type": "lore"
        }
    ],
    "name": "Avsheros the Betrayer",
    "token": {
        "disposition": -1,
        "height": 2,
        "img": "systems/pf2ettw/icons/default-icons/npc.svg",
        "name": "Avsheros the Betrayer",
        "width": 2
    },
    "type": "npc"
}
