{
    "_id": "Wb4Md6byPhBWe56J",
    "data": {
        "abilities": {
            "cha": {
                "mod": 0
            },
            "con": {
                "mod": 2
            },
            "dex": {
                "mod": 4
            },
            "int": {
                "mod": -3
            },
            "str": {
                "mod": 1
            },
            "wis": {
                "mod": 3
            }
        },
        "attributes": {
            "ac": {
                "details": "",
                "value": 17
            },
            "allSaves": {
                "value": ""
            },
            "hp": {
                "details": "",
                "max": 20,
                "temp": 0,
                "value": 20
            },
            "initiative": {
                "ability": "perception"
            },
            "perception": {
                "value": 9
            },
            "speed": {
                "otherSpeeds": [
                    {
                        "type": "burrow",
                        "value": "10"
                    }
                ],
                "value": "20"
            }
        },
        "details": {
            "alignment": {
                "value": "N"
            },
            "blurb": "",
            "creatureType": "",
            "level": {
                "value": 2
            },
            "privateNotes": "",
            "publicNotes": "",
            "source": {
                "value": "Pathfinder #157: Devil at the Dreaming Palace"
            }
        },
        "resources": {},
        "saves": {
            "fortitude": {
                "saveDetail": "",
                "value": 10
            },
            "reflex": {
                "saveDetail": "",
                "value": 12
            },
            "will": {
                "saveDetail": "",
                "value": 7
            }
        },
        "traits": {
            "attitude": {
                "value": "hostile"
            },
            "ci": [],
            "di": {
                "custom": "",
                "value": [
                    "precision",
                    "swarm-mind"
                ]
            },
            "dr": [
                {
                    "type": "piercing",
                    "value": 6
                },
                {
                    "type": "slashing",
                    "value": 6
                }
            ],
            "dv": [
                {
                    "type": "area-damage",
                    "value": 3
                },
                {
                    "type": "splash-damage",
                    "value": 3
                }
            ],
            "languages": {
                "custom": "",
                "selected": [],
                "value": []
            },
            "rarity": "common",
            "senses": {
                "value": "tremorsense (precise) 40 feet"
            },
            "size": {
                "value": "lg"
            },
            "traits": {
                "custom": "",
                "value": [
                    "aberration",
                    "earth",
                    "swarm"
                ]
            }
        }
    },
    "img": "systems/pf2ettw/icons/default-icons/npc.svg",
    "items": [
        {
            "_id": "26ZZztmP0cFmWp6x",
            "data": {
                "actionCategory": {
                    "value": "interaction"
                },
                "actionType": {
                    "value": "passive"
                },
                "actions": {
                    "value": null
                },
                "description": {
                    "value": "<p>The cobbleswarm's tremorsense is a precise sense out to 40 feet and an imprecise sense out to 80 feet. The cobbleswarm can't sense anything beyond the range of its tremorsense.</p>\n<hr />\n<p>@Localize[pf2ettw.NPC.Abilities.Glossary.Tremorsense]</p>"
                },
                "requirements": {
                    "value": ""
                },
                "rules": [],
                "slug": null,
                "source": {
                    "value": ""
                },
                "traits": {
                    "custom": "",
                    "rarity": "common",
                    "value": []
                },
                "trigger": {
                    "value": ""
                },
                "weapon": {
                    "value": ""
                }
            },
            "img": "systems/pf2ettw/icons/actions/Passive.webp",
            "name": "Precise Tremorsense 40 feet",
            "sort": 100000,
            "type": "action"
        },
        {
            "_id": "TLLEMhBLZebrCg2V",
            "data": {
                "actionCategory": {
                    "value": "interaction"
                },
                "actionType": {
                    "value": "passive"
                },
                "actions": {
                    "value": null
                },
                "description": {
                    "value": "<p>The cobbleswarm's space is difficult terrain.</p>"
                },
                "requirements": {
                    "value": ""
                },
                "rules": [],
                "slug": null,
                "source": {
                    "value": ""
                },
                "traits": {
                    "custom": "",
                    "rarity": "common",
                    "value": []
                },
                "trigger": {
                    "value": ""
                },
                "weapon": {
                    "value": ""
                }
            },
            "img": "systems/pf2ettw/icons/actions/Passive.webp",
            "name": "Clutching Cobbles",
            "sort": 200000,
            "type": "action"
        },
        {
            "_id": "TBb2TTPl5fRKJQJU",
            "data": {
                "actionCategory": {
                    "value": "offensive"
                },
                "actionType": {
                    "value": "action"
                },
                "actions": {
                    "value": 2
                },
                "description": {
                    "value": "<p>The cobbleswarm attempts an Athletics check and compares the result to the Fortitude DC of all creatures in its space.</p>\n<hr />\n<p><strong>Critical Success</strong> The creature falls @Compendium[pf2ettw.conditionitems.Prone]{Prone} and takes [[/r {1d6}[bludgeoning]]]{1d6 bludgeoning damage}, and is @Compendium[pf2ettw.conditionitems.Restrained]{Restrained} by the cobbleswarm until the end of the cobbleswarm's next turn.</p>\n<p><strong>Success</strong> The creature falls prone, and is @Compendium[pf2ettw.conditionitems.Grabbed]{Grabbed} by the cobbleswarm until the creature until the end of the cobbleswarm's next turn.</p>"
                },
                "requirements": {
                    "value": ""
                },
                "rules": [],
                "slug": null,
                "source": {
                    "value": ""
                },
                "traits": {
                    "custom": "",
                    "rarity": "common",
                    "value": [
                        "attack"
                    ]
                },
                "trigger": {
                    "value": ""
                },
                "weapon": {
                    "value": ""
                }
            },
            "img": "systems/pf2ettw/icons/actions/TwoActions.webp",
            "name": "Grasping Bites",
            "sort": 300000,
            "type": "action"
        },
        {
            "_id": "S00gbcUTroHxccVJ",
            "data": {
                "actionCategory": {
                    "value": "offensive"
                },
                "actionType": {
                    "value": "action"
                },
                "actions": {
                    "value": 1
                },
                "description": {
                    "value": "<p>Each enemy in the cobbleswarm's space takes [[/r {2d4}[bludgeoning]]]{2d4 bludgeoning damage} (@Check[type:reflex|dc:17|basic:true] save).</p>"
                },
                "requirements": {
                    "value": ""
                },
                "rules": [],
                "slug": null,
                "source": {
                    "value": ""
                },
                "traits": {
                    "custom": "",
                    "rarity": "common",
                    "value": []
                },
                "trigger": {
                    "value": ""
                },
                "weapon": {
                    "value": ""
                }
            },
            "img": "systems/pf2ettw/icons/actions/OneAction.webp",
            "name": "Pummeling Assault",
            "sort": 400000,
            "type": "action"
        },
        {
            "_id": "2Y5qtOiekEFFI1nE",
            "data": {
                "description": {
                    "value": ""
                },
                "mod": {
                    "value": 10
                },
                "proficient": {
                    "value": 0
                },
                "rules": [],
                "slug": null,
                "source": {
                    "value": ""
                },
                "traits": {
                    "custom": "",
                    "rarity": "common",
                    "value": []
                }
            },
            "img": "systems/pf2ettw/icons/default-icons/lore.svg",
            "name": "Athletics",
            "sort": 500000,
            "type": "lore"
        },
        {
            "_id": "VAYGMDNlHcE0Qapd",
            "data": {
                "description": {
                    "value": ""
                },
                "mod": {
                    "value": 13
                },
                "proficient": {
                    "value": 0
                },
                "rules": [],
                "slug": null,
                "source": {
                    "value": ""
                },
                "traits": {
                    "custom": "",
                    "rarity": "common",
                    "value": []
                }
            },
            "img": "systems/pf2ettw/icons/default-icons/lore.svg",
            "name": "Stealth",
            "sort": 600000,
            "type": "lore"
        }
    ],
    "name": "Cobbleswarm (AoE)",
    "token": {
        "disposition": -1,
        "height": 2,
        "img": "systems/pf2ettw/icons/default-icons/npc.svg",
        "name": "Cobbleswarm (AoE)",
        "width": 2
    },
    "type": "npc"
}
