{
    "_id": "7FJ3SQuHOUcGjm1x",
    "data": {
        "attributes": {
            "ac": {
                "value": 33
            },
            "hardness": 0,
            "hasHealth": true,
            "hp": {
                "details": "",
                "max": 180,
                "temp": 0,
                "tempmax": 0,
                "value": 180
            },
            "stealth": {
                "details": "<p>(master)</p>",
                "value": 31
            }
        },
        "creatureType": "",
        "details": {
            "description": "<p>A vat of thick glass stands 10 feet high and is filled with green slime and fist-sized eyeballs.</p>",
            "disable": "<p>DC 38 Thievery (master) or DC 34 Crafting (expert) to acidify the slime inside the tank, destroying the eyeballs</p>",
            "isComplex": true,
            "level": {
                "value": 15
            },
            "reset": "",
            "routine": "<p>(3 actions) Each round, the vat uses all three of its actions to shoot random eye rays at any living creatures (except Ixusoth) in range.</p>"
        },
        "saves": {
            "fortitude": {
                "saveDetail": "",
                "value": 29
            },
            "reflex": {
                "saveDetail": "",
                "value": 26
            },
            "will": {
                "saveDetail": "",
                "value": 0
            }
        },
        "source": {
            "value": "Pathfinder #161: Belly of the Black Whale"
        },
        "statusEffects": [],
        "traits": {
            "ci": [],
            "di": {
                "custom": "",
                "selected": {},
                "value": [
                    "critical-hits",
                    "object-immunities",
                    "precision"
                ]
            },
            "dr": [],
            "dv": [],
            "rarity": "common",
            "size": {
                "value": "med"
            },
            "traits": {
                "custom": "",
                "value": [
                    "magical"
                ]
            }
        }
    },
    "img": "systems/pf2ettw/icons/default-icons/hazard.svg",
    "items": [
        {
            "_id": "0TIsrEfH3mfhYqMB",
            "data": {
                "actionCategory": {
                    "value": "offensive"
                },
                "actionType": {
                    "value": "reaction"
                },
                "actions": {
                    "value": null
                },
                "description": {
                    "value": "<p><strong>Trigger</strong> Three or more living creatures remain within 20 feet of the trap for 1 round</p>\n<hr />\n<p><strong>Effect</strong> The trap rolls initiative.</p>"
                },
                "requirements": {
                    "value": ""
                },
                "rules": [],
                "slug": null,
                "source": {
                    "value": ""
                },
                "traits": {
                    "custom": "",
                    "rarity": "common",
                    "value": [
                        "emotion",
                        "enchantment",
                        "mental"
                    ]
                },
                "trigger": {
                    "value": ""
                },
                "weapon": {
                    "value": ""
                }
            },
            "img": "systems/pf2ettw/icons/actions/Reaction.webp",
            "name": "Eye-Opener",
            "sort": 100000,
            "type": "action"
        },
        {
            "_id": "3TDeHZ2NkeZhRp86",
            "data": {
                "attack": {
                    "value": ""
                },
                "attackEffects": {
                    "custom": "target is subjected to a crushing despair spell",
                    "value": []
                },
                "bonus": {
                    "value": 28
                },
                "damageRolls": {},
                "description": {
                    "value": ""
                },
                "rules": [],
                "slug": null,
                "source": {
                    "value": ""
                },
                "traits": {
                    "custom": "",
                    "rarity": "common",
                    "value": [
                        "emotion",
                        "enchantment",
                        "mental",
                        "range-increment-100"
                    ]
                },
                "weaponType": {
                    "value": "ranged"
                }
            },
            "img": "systems/pf2ettw/icons/default-icons/melee.svg",
            "name": "despair ray",
            "sort": 200000,
            "type": "melee"
        },
        {
            "_id": "qUO8L9YDXGIF28f3",
            "data": {
                "attack": {
                    "value": ""
                },
                "attackEffects": {
                    "custom": "target is subjected to a feeblemind spell (DC 36)",
                    "value": []
                },
                "bonus": {
                    "value": 28
                },
                "damageRolls": {},
                "description": {
                    "value": ""
                },
                "rules": [],
                "slug": null,
                "source": {
                    "value": ""
                },
                "traits": {
                    "custom": "",
                    "rarity": "common",
                    "value": []
                },
                "weaponType": {
                    "value": "ranged"
                }
            },
            "img": "systems/pf2ettw/icons/default-icons/melee.svg",
            "name": "feeblemind ray",
            "sort": 300000,
            "type": "melee"
        },
        {
            "_id": "LCKRgv7IeeWygjY3",
            "data": {
                "attack": {
                    "value": ""
                },
                "attackEffects": {
                    "custom": "target is subjected to a spirit blast spell (DC 36)",
                    "value": []
                },
                "bonus": {
                    "value": 28
                },
                "damageRolls": {},
                "description": {
                    "value": ""
                },
                "rules": [],
                "slug": null,
                "source": {
                    "value": ""
                },
                "traits": {
                    "custom": "",
                    "rarity": "common",
                    "value": [
                        "range-increment-100"
                    ]
                },
                "weaponType": {
                    "value": "ranged"
                }
            },
            "img": "systems/pf2ettw/icons/default-icons/melee.svg",
            "name": "spirit blast ray",
            "sort": 400000,
            "type": "melee"
        },
        {
            "_id": "Quf28S7PJstH1L0b",
            "data": {
                "actionCategory": {
                    "value": "offensive"
                },
                "actionType": {
                    "value": "reaction"
                },
                "actions": {
                    "value": null
                },
                "description": {
                    "value": "<p><strong>Trigger</strong> The tank reaches its Broken Threshold</p>\n<hr />\n<p><strong>Effect</strong> The glass shatters, spilling eyeballs onto the floor in a 15-foot radius and casting <i>grease</i>(DC 33) on the affected area. The eyeball tank is permanently destroyed and can't be reset.<strong>Reset</strong> The trap can be reset by adding 100 new eyeballs to the tank and allowing them to grow in the slime for 1 week.</p>"
                },
                "requirements": {
                    "value": ""
                },
                "rules": [],
                "slug": null,
                "source": {
                    "value": ""
                },
                "traits": {
                    "custom": "",
                    "rarity": "common",
                    "value": []
                },
                "trigger": {
                    "value": ""
                },
                "weapon": {
                    "value": ""
                }
            },
            "img": "systems/pf2ettw/icons/actions/Reaction.webp",
            "name": "Spill Eyeballs",
            "sort": 500000,
            "type": "action"
        }
    ],
    "name": "Eyeball Tank",
    "token": {
        "disposition": 0,
        "height": 1,
        "img": "systems/pf2ettw/icons/default-icons/hazard.svg",
        "name": "Eyeball Tank",
        "width": 1
    },
    "type": "hazard"
}
