{
    "_id": "QHcBauLnHzfwkDBK",
    "data": {
        "attributes": {
            "ac": {
                "value": 10
            },
            "hardness": 0,
            "hasHealth": false,
            "hp": {
                "details": "",
                "max": 0,
                "temp": 0,
                "tempmax": 0,
                "value": 0
            },
            "stealth": {
                "details": "<p>(trained)</p>",
                "value": 12
            }
        },
        "creatureType": "",
        "details": {
            "description": "<p>An invisible cloud of magical sensors detects living creatures in the room and summons fire elementals to slay the creatures.</p>",
            "disable": "<p>DC 22 Acrobatics (trained) to approach without triggering the trap, followed by DC 22 Thievery (trained) to erase the rune or <em>@Compendium[pf2ettw.spells-srd.Dispel Magic]{Dispel Magic}</em> (3rd level; counteract DC 20) to counteract the rune</p>",
            "isComplex": true,
            "level": {
                "value": 5
            },
            "reset": "<p>The trap resets each day at dawn.</p>",
            "routine": ""
        },
        "saves": {
            "fortitude": {
                "saveDetail": "",
                "value": 0
            },
            "reflex": {
                "saveDetail": "",
                "value": 0
            },
            "will": {
                "saveDetail": "",
                "value": 0
            }
        },
        "source": {
            "value": "Pathfinder #157: Devil at the Dreaming Palace"
        },
        "statusEffects": [],
        "traits": {
            "ci": [],
            "di": {
                "custom": "",
                "selected": {},
                "value": []
            },
            "dr": [],
            "dv": [],
            "rarity": "common",
            "size": {
                "value": "med"
            },
            "traits": {
                "custom": "",
                "value": [
                    "magical",
                    "trap"
                ]
            }
        }
    },
    "img": "systems/pf2ettw/icons/default-icons/hazard.svg",
    "items": [
        {
            "_id": "oXzm9KqLtbgKvm14",
            "data": {
                "actionCategory": {
                    "value": ""
                },
                "actionType": {
                    "value": "reaction"
                },
                "actions": {
                    "value": null
                },
                "description": {
                    "value": "<p><strong>Trigger</strong> A living creature enters the room</p>\n<hr />\n<p><strong>Effect</strong> Two rounds after a creature enters the room, the room's door slams shut and locks (two <span data-pf2-action=\"pickALock\" data-pf2-dc=\"20\" data-pf2-glyph=\"D\" data-pf2-show-dc=\"gm\">Thievery</span> checks to pick), and two @Compendium[pf2ettw.pathfinder-bestiary.Cinder Rat]{Cinder Rat} fire elementals emerge from the floor.</p>\n<p>The elementals roll initiative and remain for [[/br 3d6 #rounds]]{3d6 rounds}, after which the spell ends and the creatures disappear. The elementals also disappear if someone disables the trap before the duration expires.</p>\n<p>The summoned elementals can use 3 actions each round and can use reactions, unlike most summoned creatures.</p>"
                },
                "requirements": {
                    "value": ""
                },
                "rules": [],
                "slug": null,
                "source": {
                    "value": ""
                },
                "traits": {
                    "custom": "",
                    "rarity": "common",
                    "value": [
                        "arcane",
                        "conjuration",
                        "summon"
                    ]
                },
                "trigger": {
                    "value": ""
                },
                "weapon": {
                    "value": ""
                }
            },
            "img": "systems/pf2ettw/icons/actions/Reaction.webp",
            "name": "Summon Elementals",
            "sort": 100000,
            "type": "action"
        }
    ],
    "name": "Summoning Rune (Cinder Rat)",
    "token": {
        "disposition": 0,
        "height": 1,
        "img": "systems/pf2ettw/icons/default-icons/hazard.svg",
        "name": "Summoning Rune (Cinder Rat)",
        "width": 1
    },
    "type": "hazard"
}
