{
    "_id": "EDLftLWLBefTFDtu",
    "author": "jrcW3hyxC9Zvmq50",
    "command": "game.pf2ettw.actions.bonMot({ event: event });",
    "img": "icons/svg/dice-target.svg",
    "name": "Bon Mot: Diplomacy",
    "permission": {
        "default": 1
    },
    "scope": "global",
    "type": "script"
}
