{
    "_id": "1JpYPlIkjyseE9JU",
    "actorIds": [],
    "author": "j8qxwRz5RJ4kkzp9",
    "command": "game.pf2ettw.actions.createADiversion({ event: event, variant: 'trick' });",
    "img": "icons/svg/dice-target.svg",
    "name": "Create a Diversion - Trick: Deception",
    "permission": {
        "default": 1
    },
    "scope": "global",
    "type": "script"
}
