{
    "_id": "ooiO59Ch2QaebOmc",
    "actorIds": [],
    "author": "j8qxwRz5RJ4kkzp9",
    "command": "game.pf2ettw.actions.disarm({ event: event });",
    "img": "icons/svg/dice-target.svg",
    "name": "Disarm: Athletics",
    "permission": {
        "default": 1
    },
    "scope": "global",
    "type": "script"
}
