{
    "_id": "aQUIvTbBjKslfzme",
    "author": "kCs9WS3P5fUcwwPy",
    "command": "game.pf2ettw.actions.disconcertdip({ event: event });",
    "flags": {},
    "img": "icons/svg/dice-target.svg",
    "name": "Disconcert: Diplomacy",
    "permission": {
        "default": 0
    },
    "scope": "global",
    "type": "script"
}
