{
    "_id": "UKHPveLpG7hUs4D0",
    "actorIds": [],
    "author": "j8qxwRz5RJ4kkzp9",
    "command": "game.pf2ettw.actions.squeeze({ event: event });",
    "img": "icons/svg/dice-target.svg",
    "name": "Squeeze: Acrobatics",
    "permission": {
        "default": 1
    },
    "scope": "global",
    "type": "script"
}
