{
    "_id": "m4iM5r3TfvQs5Y2n",
    "author": "j8qxwRz5RJ4kkzp9",
    "command": "game.pf2ettw.actions.treatDisease({ event: event });",
    "img": "icons/svg/dice-target.svg",
    "name": "Treat Disease: Medicine",
    "permission": {
        "default": 1
    },
    "scope": "global",
    "type": "script"
}
