{
    "_id": "7zqvzpR9gvHPUDqC",
    "author": "NhGg2K0c82rUuECi",
    "command": "game.pf2ettw.actions.whirlingThrow({ event: event });",
    "img": "icons/svg/dice-target.svg",
    "name": "Whirling Throw: Athletics",
    "permission": {
        "default": 1
    },
    "scope": "global",
    "type": "script"
}
