{
    "_id": "3JLW5vPshsJf3nCY",
    "data": {
        "actionCategory": {
            "value": ""
        },
        "actionType": {
            "value": "passive"
        },
        "actions": {
            "value": null
        },
        "description": {
            "value": "<p>You've learned a powerful new technique of your chosen way. You gain the advanced deed ability of the way you chose at 1st level.</p>"
        },
        "featType": {
            "value": "classfeature"
        },
        "level": {
            "value": 9
        },
        "location": "",
        "prerequisites": {
            "value": []
        },
        "rules": [
            {
                "key": "GrantItem",
                "predicate": {
                    "all": [
                        "feature:way-of-the-drifter"
                    ]
                },
                "uuid": "Compendium.pf2ettw.actionspf2ettw.Finish The Job"
            },
            {
                "key": "GrantItem",
                "predicate": {
                    "all": [
                        "feature:way-of-the-pistolero"
                    ]
                },
                "uuid": "Compendium.pf2ettw.actionspf2ettw.Pistolero's Retort"
            },
            {
                "key": "GrantItem",
                "predicate": {
                    "all": [
                        "feature:way-of-the-sniper"
                    ]
                },
                "uuid": "Compendium.pf2ettw.actionspf2ettw.Vital Shot"
            },
            {
                "key": "GrantItem",
                "predicate": {
                    "all": [
                        "feature:way-of-the-spellshot"
                    ]
                },
                "uuid": "Compendium.pf2ettw.actionspf2ettw.Recall Ammunition"
            },
            {
                "key": "GrantItem",
                "predicate": {
                    "all": [
                        "feature:way-of-the-vanguard"
                    ]
                },
                "uuid": "Compendium.pf2ettw.actionspf2ettw.Spinning Crush"
            }
        ],
        "source": {
            "value": ""
        },
        "traits": {
            "custom": "",
            "rarity": "common",
            "value": [
                "gunslinger"
            ]
        }
    },
    "img": "systems/pf2ettw/icons/features/classes/advanced-deed.webp",
    "name": "Advanced Deed",
    "type": "feat"
}
