{
    "_id": "S6WW4Yyg4XonXGHD",
    "data": {
        "actionCategory": {
            "value": ""
        },
        "actionType": {
            "value": "passive"
        },
        "actions": {
            "value": null
        },
        "description": {
            "value": "<p>Through dedicated study and practice, you can harness arcane power to cast spells. You can cast arcane spells using the @Compendium[pf2ettw.actionspf2ettw.Cast a Spell]{Cast a Spell} activity, and you can supply material, somatic, and verbal components when casting spells.</p>\n<p>At 1st level, you can prepare up to two 1st-level spells and five cantrips each morning from the spells in your spellbook, plus one extra cantrip and spell of your chosen school of each level you can cast if you are a specialist wizard. Prepared spells remain available to you until you cast them or until you prepare your spells again. The number of spells you can prepare is called your spell slots.</p>\n<p>As you increase in level as a wizard, your number of spell slots and the highest level of spells you can cast from spell slots increase.</p>"
        },
        "featType": {
            "value": "classfeature"
        },
        "level": {
            "value": 1
        },
        "location": "",
        "prerequisites": {
            "value": []
        },
        "rules": [
            {
                "key": "GrantItem",
                "uuid": "Compendium.pf2ettw.actionspf2ettw.Cast a Spell"
            }
        ],
        "source": {
            "value": "Pathfinder Core Rulebook"
        },
        "traits": {
            "custom": "",
            "rarity": "common",
            "selected": {},
            "value": [
                "wizard"
            ]
        }
    },
    "img": "systems/pf2ettw/icons/features/classes/archwizards-spellcraft.webp",
    "name": "Arcane Spellcasting (Wizard)",
    "type": "feat"
}
