{
    "_id": "5Wxjghw7lHuCxjZz",
    "data": {
        "actionCategory": {
            "value": ""
        },
        "actionType": {
            "value": "passive"
        },
        "actions": {
            "value": null
        },
        "description": {
            "value": "<p>One of your ancestors was inspired by a nymph, or perhaps was a nymph themself, and now the beauty of nature lives in you.</p>\n<p><strong>Spell List</strong> primal</p>\n<p><strong>Bloodline Skills</strong> Diplomacy, Nature</p>\n<p><strong>Granted Spells</strong> cantrip: <em>@Compendium[pf2ettw.spells-srd.Tanglefoot]{Tanglefoot}</em>; 1st: <em>@Compendium[pf2ettw.spells-srd.Charm]{Charm}</em>; 2nd: <em>@Compendium[pf2ettw.spells-srd.Calm Emotions]{Calm Emotions}</em>; 3rd: <em>@Compendium[pf2ettw.spells-srd.Animal Vision]{Animal Vision}</em>; 4th: <em>@Compendium[pf2ettw.spells-srd.Vital Beacon]{Vital Beacon}</em>; 5th: <em>@Compendium[pf2ettw.spells-srd.Crushing Despair]{Crushing Despair}</em>; 6th: <em>@Compendium[pf2ettw.spells-srd.Repulsion]{Repulsion}</em>; 7th: <em>@Compendium[pf2ettw.spells-srd.Unfettered Pack]{Unfettered Pack}</em>; 8th: <em>@Compendium[pf2ettw.spells-srd.Moment of Renewal]{Moment of Renewal}</em>; 9th: <em>@Compendium[pf2ettw.spells-srd.Overwhelming Presence]{Overwhelming Presence}</em></p>\n<p><strong>Bloodline Spells</strong> initial: <em>@Compendium[pf2ettw.spells-srd.Nymph's Token]{Nymph's Token}</em>; advanced: <em>@Compendium[pf2ettw.spells-srd.Blinding Beauty]{Blinding Beauty}</em>; greater: <em>@Compendium[pf2ettw.spells-srd.Establish Ward]{Establish Ward}</em></p>\n<p><strong>Blood Magic</strong> Nymph grace accentuates your movements and distracts your foes, either granting you a +1 status bonus to Diplomacy checks for 1 round or imposing a -1 status penalty on one target's Will saves for 1 round.</p>\n<p>@Compendium[pf2ettw.feature-effects.Effect: Nymph Blood Magic (Self)]{Effect: Nymph Blood Magic (Self)}, @Compendium[pf2ettw.feature-effects.Effect: Nymph Blood Magic (Target)]{Effect: Nymph Blood Magic (Target)}</p>"
        },
        "featType": {
            "value": "classfeature"
        },
        "level": {
            "value": 1
        },
        "location": "",
        "prerequisites": {
            "value": []
        },
        "rules": [
            {
                "key": "ActiveEffectLike",
                "mode": "upgrade",
                "path": "data.resources.focus.max",
                "predicate": {
                    "all": [
                        "class:sorcerer"
                    ]
                },
                "priority": 10,
                "value": 1
            },
            {
                "key": "ActiveEffectLike",
                "mode": "upgrade",
                "path": "data.skills.dip.rank",
                "value": 1
            },
            {
                "key": "ActiveEffectLike",
                "mode": "upgrade",
                "path": "data.skills.nat.rank",
                "value": 1
            },
            {
                "key": "ActiveEffectLike",
                "mode": "override",
                "path": "data.proficiencies.aliases.sorcerer",
                "priority": 39,
                "value": "primal"
            }
        ],
        "source": {
            "value": ""
        },
        "traits": {
            "custom": "",
            "rarity": "common",
            "value": [
                "sorcerer"
            ]
        }
    },
    "img": "systems/pf2ettw/icons/features/classes/nymph.webp",
    "name": "Bloodline: Nymph",
    "type": "feat"
}
