{
    "_id": "lgo65ldX7WkXC8Ir",
    "data": {
        "actionCategory": {
            "value": ""
        },
        "actionType": {
            "value": "passive"
        },
        "actions": {
            "value": null
        },
        "description": {
            "value": "<p>You can play out a battle in your head, using brains rather than brawn to execute an attack.</p>\n<p>You gain the @Compendium[pf2ettw.actionspf2ettw.Devise a Stratagem]{Devise a Stratagem} action.</p>"
        },
        "featType": {
            "value": "classfeature"
        },
        "level": {
            "value": 1
        },
        "location": "",
        "prerequisites": {
            "value": []
        },
        "rules": [
            {
                "domain": "all",
                "key": "RollOption",
                "option": "devise-a-stratagem",
                "toggleable": true
            },
            {
                "ability": "int",
                "key": "FlatModifier",
                "predicate": {
                    "all": [
                        "class:investigator",
                        "devise-a-stratagem",
                        {
                            "or": [
                                "weapon:trait:finesse",
                                "weapon:trait:agile",
                                {
                                    "and": [
                                        "weapon:ranged",
                                        {
                                            "not": "weapon:trait:thrown"
                                        }
                                    ]
                                }
                            ]
                        }
                    ]
                },
                "selector": "attack-roll",
                "type": "ability"
            },
            {
                "key": "GrantItem",
                "uuid": "Compendium.pf2ettw.actionspf2ettw.Devise a Stratagem"
            }
        ],
        "source": {
            "value": ""
        },
        "traits": {
            "custom": "",
            "rarity": "common",
            "value": [
                "investigator"
            ]
        }
    },
    "img": "systems/pf2ettw/icons/features/classes/devise-a-stratagem.webp",
    "name": "Devise a Stratagem",
    "type": "feat"
}
