{
    "_id": "3XK573A7GH1rrLgO",
    "data": {
        "actionCategory": {
            "value": ""
        },
        "actionType": {
            "value": "passive"
        },
        "actions": {
            "value": null
        },
        "description": {
            "value": "<p>Your @Compendium[pf2ettw.classfeatures.Champion's Reaction]{Champion's Reaction} improves. See your cause for details.</p>"
        },
        "featType": {
            "value": "classfeature"
        },
        "level": {
            "value": 9
        },
        "location": "",
        "prerequisites": {
            "value": []
        },
        "rules": [],
        "source": {
            "value": ""
        },
        "traits": {
            "custom": "",
            "rarity": "common",
            "value": [
                "champion"
            ]
        }
    },
    "img": "systems/pf2ettw/icons/default-icons/feat.svg",
    "name": "Divine Smite",
    "type": "feat"
}
