{
    "_id": "pUkUC8HHom2DmYzz",
    "data": {
        "actionCategory": {
            "value": ""
        },
        "actionType": {
            "value": "passive"
        },
        "actions": {
            "value": null
        },
        "description": {
            "value": "<p>You're a spellcaster that's specialized in harnessing the four elements. Though you might feel a stronger kinship for one element over the others, you're capable of shaping all of them. Due to your specialization in elemental magic, you have a smaller, more focused spell list than other spellcasters, though your magic is drawn from multiple traditions. If you choose this class archetype, you must select the @Compendium[pf2ettw.feats-srd.Elementalist Dedication]{Elementalist Dedication} as your 2nd-level class feat.</p>\n<p><strong>Prerequisites</strong> You must have a spellcasting class feature that chooses spells from the arcane or primal spell list.</p>\n<p><strong>Elementalist Adjustments</strong> Replace your spell list with the elemental spell list. Your actual magical tradition is unchanged, but you choose your spells from the elemental list instead.</p>\n<p>If you're a sorcerer with the elemental bloodline, you can replace your initial bloodline spell with an initial elemental focus spell, and your advanced bloodline spell with an advanced elemental focus spell. The initial and advanced elemental focus spells you select must have the same trait as your elemental bloodline.</p>\n<p><strong>Druid Elementalist Adjustments</strong> If you're a druid of the storm order, you can choose to replace your starting order spell, <em>@Compendium[pf2ettw.spells-srd.Tempest Surge]{Tempest Surge}</em>, with <em>@Compendium[pf2ettw.spells-srd.Updraft]{Updraft}</em>.</p>\n<p><strong>Wizard Elementalist Adjustments</strong> If you're a wizard with an arcane school, instead of specializing in a school of magic, you specialize in one of the four elements: air, earth, fire, or water. Any benefits your arcane school would grant you that are associated with a selected spell school, you instead apply to your selected element. For example, if you select air as your element, you can prepare only spells that have the air trait in your extra arcane school slots, you can prepare an extra air cantrip, and you add an extra air spell from the elemental spell list to your spellbook. Additionally, in place of your arcane school spell, you learn the initial elemental focus spell of your selected element from the elemental focus spells. In all other ways, your arcane school functions as written in the Core Rulebook. If you later select the Advanced School Spell wizard feat, instead of gaining the listed school spell, you gain the advanced elemental focus spell of your selected element from the advanced elemental focus spells.</p>\n<p><strong>Additional Feats</strong> 4th @Compendium[pf2ettw.feats-srd.Familiar]{Familiar}, 6th @Compendium[pf2ettw.feats-srd.Enhanced Familiar]{Enhanced Familiar}, 8th @Compendium[pf2ettw.feats-srd.Current Spell]{Current Spell}, @Compendium[pf2ettw.feats-srd.Water Step]{Water Step}.</p>\n<hr />\n<h3>Elementalist Focus Spells</h3>\n<ul>\n<li><em>@Compendium[pf2ettw.spells-srd.Combustion]{Combustion}</em>,</li>\n<li><em>@Compendium[pf2ettw.spells-srd.Crushing Ground]{Crushing Ground}</em>,</li>\n<li><em>@Compendium[pf2ettw.spells-srd.Powerful Inhalation]{Powerful Inhalation}</em>,</li>\n<li><em>@Compendium[pf2ettw.spells-srd.Pulverizing Cascade]{Pulverizing Cascade}</em>,</li>\n<li><em>@Compendium[pf2ettw.spells-srd.Rising Surf]{Rising Surf}</em>,</li>\n<li><em>@Compendium[pf2ettw.spells-srd.Stone Lance]{Stone Lance}</em>,</li>\n<li><em>Updraft,</em></li>\n<li><em>@Compendium[pf2ettw.spells-srd.Wildfire]{Wildfire}</em></li>\n</ul>\n<hr />\n<h3>Elemental Spell List</h3>\n<ul>\n<li><strong>Cantrips</strong> <em>@Compendium[pf2ettw.spells-srd.Dancing Lights]{Dancing Lights}</em>, <em>@Compendium[pf2ettw.spells-srd.Detect Magic]{Detect Magic}</em>, <em>@Compendium[pf2ettw.spells-srd.Gale Blast]{Gale Blast}</em>, <em>@Compendium[pf2ettw.spells-srd.Healing Plaster]{Healing Plaster}</em>, <em>@Compendium[pf2ettw.spells-srd.Light]{Light}</em>, <em>@Compendium[pf2ettw.spells-srd.Mage Hand]{Mage Hand}</em>, <em>@Compendium[pf2ettw.spells-srd.Prestidigitation]{Prestidigitation}</em>, <em>@Compendium[pf2ettw.spells-srd.Produce Flame]{Produce Flame}</em>, <em>@Compendium[pf2ettw.spells-srd.Read Aura]{Read Aura}</em>, <em>@Compendium[pf2ettw.spells-srd.Scatter Scree]{Scatter Scree}</em>, <em>@Compendium[pf2ettw.spells-srd.Shield]{Shield}</em>, <em>@Compendium[pf2ettw.spells-srd.Sigil]{Sigil}</em>, <em>@Compendium[pf2ettw.spells-srd.Spout]{Spout}</em></li>\n<li><strong>1st</strong> <em>@Compendium[pf2ettw.spells-srd.Air Bubble]{Air Bubble}</em>, <em>@Compendium[pf2ettw.spells-srd.Breadcrumbs]{Breadcrumbs}</em>, <em>@Compendium[pf2ettw.spells-srd.Burning Hands]{Burning Hands}</em>, <em>@Compendium[pf2ettw.spells-srd.Create Water]{Create Water}</em>, <em>@Compendium[pf2ettw.spells-srd.Feather Fall]{Feather Fall}</em>, <em>@Compendium[pf2ettw.spells-srd.Gust of Wind]{Gust of Wind}</em>, <em>@Compendium[pf2ettw.spells-srd.Hydraulic Push]{Hydraulic Push}</em>, <em>@Compendium[pf2ettw.spells-srd.Mage Armor]{Mage Armor}</em>, <em>@Compendium[pf2ettw.spells-srd.Magic Stone]{Magic Stone}</em>, <em>@Compendium[pf2ettw.spells-srd.Magic Weapon]{Magic Weapon}</em>, <em>@Compendium[pf2ettw.spells-srd.Mending]{Mending}</em>, <em>@Compendium[pf2ettw.spells-srd.Mud Pit]{Mud Pit}</em>, <em>@Compendium[pf2ettw.spells-srd.Pet Cache]{Pet Cache}</em>, <em>@Compendium[pf2ettw.spells-srd.Pummeling Rubble]{Pummeling Rubble}</em>, <em>@Compendium[pf2ettw.spells-srd.Shattering Gem]{Shattering Gem}</em>, <em>@Compendium[pf2ettw.spells-srd.Shockwave]{Shockwave}</em>, <em>@Compendium[pf2ettw.spells-srd.Snowball]{Snowball}</em>, <em>@Compendium[pf2ettw.spells-srd.Ventriloquism]{Ventriloquism}</em></li>\n<li><strong>2nd</strong> <em>@Compendium[pf2ettw.spells-srd.Ash Cloud]{Ash Cloud}</em>, <em>@Compendium[pf2ettw.spells-srd.Blistering Invective]{Blistering Invective}</em>, <em>@Compendium[pf2ettw.spells-srd.Continual Flame]{Continual Flame}</em>, <em>@Compendium[pf2ettw.spells-srd.Darkvision]{Darkvision}</em>, <em>@Compendium[pf2ettw.spells-srd.Dispel Magic]{Dispel Magic}</em>, <em>@Compendium[pf2ettw.spells-srd.Elemental Zone]{Elemental Zone}</em>, <em>@Compendium[pf2ettw.spells-srd.Endure Elements]{Endure Elements}</em>, <em>@Compendium[pf2ettw.spells-srd.Expeditious Excavation]{Expeditious Excavation}</em>, <em>@Compendium[pf2ettw.spells-srd.Faerie Fire]{Faerie Fire}</em>, <em>@Compendium[pf2ettw.spells-srd.Final Sacrifice]{Final Sacrifice}</em>, <em>@Compendium[pf2ettw.spells-srd.Flame Wisp]{Flame Wisp}</em>, <em>@Compendium[pf2ettw.spells-srd.Flaming Sphere]{Flaming Sphere}</em>, <em>@Compendium[pf2ettw.spells-srd.Gentle Repose]{Gentle Repose}</em>, <em>@Compendium[pf2ettw.spells-srd.Heat Metal]{Heat Metal}</em>, <em>@Compendium[pf2ettw.spells-srd.Ignite Fireworks]{Ignite Fireworks}</em>, <em>@Compendium[pf2ettw.spells-srd.Obscuring Mist]{Obscuring Mist}</em>, <em>@Compendium[pf2ettw.spells-srd.Quench]{Quench}</em>, <em>@Compendium[pf2ettw.spells-srd.Resist Energy]{Resist Energy}</em>, <em>@Compendium[pf2ettw.spells-srd.Scorching Ray]{Scorching Ray}</em>, <em>@Compendium[pf2ettw.spells-srd.Summon Elemental]{Summon Elemental}</em>, <em>@Compendium[pf2ettw.spells-srd.Water Breathing]{Water Breathing}</em>, <em>@Compendium[pf2ettw.spells-srd.Water Walk]{Water Walk}</em></li>\n<li><strong>3rd</strong> <em>@Compendium[pf2ettw.spells-srd.Aqueous Orb]{Aqueous Orb}</em>, <em>@Compendium[pf2ettw.spells-srd.Blazing Dive]{Blazing Dive}</em>, <em>@Compendium[pf2ettw.spells-srd.Crashing Wave]{Crashing Wave}</em>, <em>@Compendium[pf2ettw.spells-srd.Cup of Dust]{Cup of Dust}</em>, <em>@Compendium[pf2ettw.spells-srd.Earthbind]{Earthbind}</em>, <em>@Compendium[pf2ettw.spells-srd.Elemental Absorption]{Elemental Absorption}</em>, <em>@Compendium[pf2ettw.spells-srd.Feet to Fins]{Feet to Fins}</em>, <em>@Compendium[pf2ettw.spells-srd.Fireball]{Fireball}</em>, <em>@Compendium[pf2ettw.spells-srd.Glyph of Warding]{Glyph of Warding}</em>, <em>@Compendium[pf2ettw.spells-srd.Levitate]{Levitate}</em>, <em>@Compendium[pf2ettw.spells-srd.Meld into Stone]{Meld into Stone}</em>, <em>@Compendium[pf2ettw.spells-srd.Safe Passage]{Safe Passage}</em>, <em>@Compendium[pf2ettw.spells-srd.Searing Light]{Searing Light}</em>, <em>@Compendium[pf2ettw.spells-srd.Shifting Sand]{Shifting Sand}</em>, <em>@Compendium[pf2ettw.spells-srd.Wall of Water]{Wall of Water}</em>, <em>@Compendium[pf2ettw.spells-srd.Wall of Wind]{Wall of Wind}</em></li>\n<li><strong>4th</strong> <em>@Compendium[pf2ettw.spells-srd.Air Walk]{Air Walk}</em>, <em>@Compendium[pf2ettw.spells-srd.Elemental Gift]{Elemental Gift}</em>, <em>@Compendium[pf2ettw.spells-srd.Fire Shield]{Fire Shield}</em>, <em>@Compendium[pf2ettw.spells-srd.Fly]{Fly}</em>, <em>@Compendium[pf2ettw.spells-srd.Gaseous Form]{Gaseous Form}</em>, <em>@Compendium[pf2ettw.spells-srd.Holy Cascade]{Holy Cascade}</em>, <em>@Compendium[pf2ettw.spells-srd.Hydraulic Torrent]{Hydraulic Torrent}</em>, <em>@Compendium[pf2ettw.spells-srd.Petal Storm]{Petal Storm}</em>, <em>@Compendium[pf2ettw.spells-srd.Shape Stone]{Shape Stone}</em>, <em>@Compendium[pf2ettw.spells-srd.Solid Fog]{Solid Fog}</em>, <em>@Compendium[pf2ettw.spells-srd.Soothing Spring]{Soothing Spring}</em>, <em>@Compendium[pf2ettw.spells-srd.Spell Immunity]{Spell Immunity}</em>, <em>@Compendium[pf2ettw.spells-srd.Spike Stones]{Spike Stones}</em>, <em>@Compendium[pf2ettw.spells-srd.Stoneskin]{Stoneskin}</em>, <em>@Compendium[pf2ettw.spells-srd.Wall of Fire]{Wall of Fire}</em></li>\n<li><strong>5th</strong> <em>@Compendium[pf2ettw.spells-srd.Banishment]{Banishment}</em>, <em>@Compendium[pf2ettw.spells-srd.Blazing Fissure]{Blazing Fissure}</em>, <em>@Compendium[pf2ettw.spells-srd.Control Water]{Control Water}</em>, <em>@Compendium[pf2ettw.spells-srd.Elemental Form]{Elemental Form}</em>, <em>@Compendium[pf2ettw.spells-srd.Flame Strike]{Flame Strike}</em>, <em>@Compendium[pf2ettw.spells-srd.Flammable Fumes]{Flammable Fumes}</em>, <em>@Compendium[pf2ettw.spells-srd.Flowing Strike]{Flowing Strike}</em>, <em>@Compendium[pf2ettw.spells-srd.Geyser]{Geyser}</em>, <em>@Compendium[pf2ettw.spells-srd.Mantle of the Frozen Heart]{Mantle of the Frozen Heart}</em>, <em>@Compendium[pf2ettw.spells-srd.Mantle of the Magma Heart]{Mantle of the Magma Heart}</em>, <em>@Compendium[pf2ettw.spells-srd.Mariner's Curse]{Mariner's Curse}</em>, <em>@Compendium[pf2ettw.spells-srd.Passwall]{Passwall}</em>, <em>@Compendium[pf2ettw.spells-srd.Summon Giant]{Summon Giant}</em>, <em>@Compendium[pf2ettw.spells-srd.Temporary Glyph]{Temporary Glyph}</em>, <em>@Compendium[pf2ettw.spells-srd.Transmute Rock And Mud]{Transmute Rock And Mud}</em>, <em>@Compendium[pf2ettw.spells-srd.Wall of Ice]{Wall of Ice}</em>, <em>@Compendium[pf2ettw.spells-srd.Wall of Stone]{Wall of Stone}</em></li>\n<li><strong>6th</strong> <em>@Compendium[pf2ettw.spells-srd.Elemental Confluence]{Elemental Confluence}</em>, <em>@Compendium[pf2ettw.spells-srd.Fire Seeds]{Fire Seeds}</em>, <em>@Compendium[pf2ettw.spells-srd.Flame Vortex]{Flame Vortex}</em>, <em>@Compendium[pf2ettw.spells-srd.Flesh to Stone]{Flesh to Stone}</em>, <em>@Compendium[pf2ettw.spells-srd.Scintillating Safeguard]{Scintillating Safeguard}</em>, <em>@Compendium[pf2ettw.spells-srd.Stone Tell]{Stone Tell}</em>, <em>@Compendium[pf2ettw.spells-srd.Stone to Flesh]{Stone to Flesh}</em>, <em>@Compendium[pf2ettw.spells-srd.Teleport]{Teleport}</em>, <em>@Compendium[pf2ettw.spells-srd.True Seeing]{True Seeing}</em></li>\n<li><strong>7th</strong> <em>@Compendium[pf2ettw.spells-srd.Dimensional Lock]{Dimensional Lock}</em>, <em>@Compendium[pf2ettw.spells-srd.Energy Aegis]{Energy Aegis}</em>, <em>@Compendium[pf2ettw.spells-srd.Fiery Body]{Fiery Body}</em>, <em>@Compendium[pf2ettw.spells-srd.Frigid Flurry]{Frigid Flurry}</em>, <em>@Compendium[pf2ettw.spells-srd.Plane Shift]{Plane Shift}</em>, <em>@Compendium[pf2ettw.spells-srd.Sunburst]{Sunburst}</em>, <em>@Compendium[pf2ettw.spells-srd.Unfettered Pack]{Unfettered Pack}</em>, <em>@Compendium[pf2ettw.spells-srd.Volcanic Eruption]{Volcanic Eruption}</em></li>\n<li><strong>8th</strong> <em>@Compendium[pf2ettw.spells-srd.Boil Blood]{Boil Blood}</em>, <em>@Compendium[pf2ettw.spells-srd.Burning Blossoms]{Burning Blossoms}</em>, <em>@Compendium[pf2ettw.spells-srd.Earthquake]{Earthquake}</em>, <em>@Compendium[pf2ettw.spells-srd.Horrid Wilting]{Horrid Wilting}</em>, <em>@Compendium[pf2ettw.spells-srd.Punishing Winds]{Punishing Winds}</em>, <em>@Compendium[pf2ettw.spells-srd.Whirlwind]{Whirlwind}</em>, <em>@Compendium[pf2ettw.spells-srd.Wind Walk]{Wind Walk}</em></li>\n<li><strong>9th</strong> <em>@Compendium[pf2ettw.spells-srd.Meteor Swarm]{Meteor Swarm}</em>, <em>@Compendium[pf2ettw.spells-srd.Storm of Vengeance]{Storm of Vengeance}</em></li>\n<li><strong>10th</strong> <em>@Compendium[pf2ettw.spells-srd.Cataclysm]{Cataclysm}</em>, <em>@Compendium[pf2ettw.spells-srd.Element Embodied]{Element Embodied}</em>, <em>@Compendium[pf2ettw.spells-srd.Gate]{Gate}</em>, <em>@Compendium[pf2ettw.spells-srd.Indestructibility]{Indestructibility}</em>, <em>@Compendium[pf2ettw.spells-srd.Nullify]{Nullify}</em>, <em>@Compendium[pf2ettw.spells-srd.Remake]{Remake}</em></li>\n</ul>"
        },
        "featType": {
            "value": "classfeature"
        },
        "level": {
            "value": 1
        },
        "location": "",
        "prerequisites": {
            "value": [
                {
                    "value": "You must have a spellcasting class feature that chooses spells from the arcane or primal spell list"
                }
            ]
        },
        "rules": [],
        "source": {
            "value": ""
        },
        "traits": {
            "custom": "",
            "rarity": "common",
            "value": []
        }
    },
    "img": "systems/pf2ettw/icons/default-icons/feat.svg",
    "name": "Elemental Magic",
    "type": "feat"
}
