{
    "_id": "g3mNzNphtVxyR9Xr",
    "data": {
        "actionCategory": {
            "value": ""
        },
        "actionType": {
            "value": "passive"
        },
        "actions": {
            "value": null
        },
        "description": {
            "value": "<p>Everything comes down to data. Calculating statistics, running numbers, and using inductive reasoning allows you to determine the most likely outcome of any scenario, and anything out of place draws your keen attention.</p>\n<p>You are trained in one Intelligence-based skill of your choice. You gain the @Compendium[pf2ettw.feats-srd.That's Odd]{That's Odd} investigator feat, and you gain the @Compendium[pf2ettw.actionspf2ettw.Expeditious Inspection]{Expeditious Inspection} free action.</p>"
        },
        "featType": {
            "value": "classfeature"
        },
        "level": {
            "value": 1
        },
        "location": "",
        "prerequisites": {
            "value": []
        },
        "rules": [
            {
                "key": "GrantItem",
                "uuid": "Compendium.pf2ettw.feats-srd.That's Odd"
            },
            {
                "key": "GrantItem",
                "uuid": "Compendium.pf2ettw.actionspf2ettw.Expeditious Inspection"
            },
            {
                "adjustName": false,
                "choices": [
                    {
                        "label": "pf2ettw.SkillArc",
                        "value": "arc"
                    },
                    {
                        "label": "pf2ettw.SkillCra",
                        "value": "cra"
                    },
                    {
                        "label": "pf2ettw.SkillOcc",
                        "value": "occ"
                    },
                    {
                        "label": "pf2ettw.SkillSoc",
                        "value": "soc"
                    }
                ],
                "flag": "skillChoice",
                "key": "ChoiceSet",
                "prompt": "pf2ettw.SpecificRule.Prompt.Skill"
            },
            {
                "key": "ActiveEffectLike",
                "mode": "upgrade",
                "path": "data.skills.{item|flags.pf2ettw.rulesSelections.skillChoice}.rank",
                "value": 1
            }
        ],
        "source": {
            "value": ""
        },
        "traits": {
            "custom": "",
            "rarity": "common",
            "value": [
                "investigator"
            ]
        }
    },
    "img": "systems/pf2ettw/icons/features/classes/empiricism-methodology.webp",
    "name": "Empiricism Methodology",
    "type": "feat"
}
