{
    "_id": "kmimy4VOaoEOgOiQ",
    "data": {
        "actionCategory": {
            "value": ""
        },
        "actionType": {
            "value": "passive"
        },
        "actions": {
            "value": null
        },
        "description": {
            "value": "<p>Your proficiency rank for Fortitude saves increases to master.</p>\n<p>When you roll a success at a Fortitude save, you get a critical success instead.</p>"
        },
        "featType": {
            "value": "classfeature"
        },
        "level": {
            "value": 15
        },
        "location": "",
        "prerequisites": {
            "value": []
        },
        "rules": [
            {
                "key": "Note",
                "selector": "fortitude",
                "text": "When you roll a success on a Fortitude save, you get a critical success instead.",
                "title": "{item|name}"
            },
            {
                "key": "ActiveEffectLike",
                "mode": "upgrade",
                "path": "data.saves.fortitude.rank",
                "value": 3
            },
            {
                "adjustment": {
                    "success": "one-degree-better"
                },
                "key": "AdjustDegreeOfSuccess",
                "selector": "fortitude",
                "type": "save"
            }
        ],
        "source": {
            "value": ""
        },
        "traits": {
            "custom": "",
            "rarity": "common",
            "value": [
                "cleric"
            ]
        }
    },
    "img": "systems/pf2ettw/icons/features/classes/warpriest.webp",
    "name": "Fifth Doctrine (Warpriest)",
    "type": "feat"
}
