{
    "_id": "fdVLlFI1SyD7QGtu",
    "data": {
        "actionCategory": {
            "value": ""
        },
        "actionType": {
            "value": "passive"
        },
        "actions": {
            "value": null
        },
        "description": {
            "value": "<p>Fire lives at the center of the world, the center of the sun, and the center of civilization. You might revere this elemental force, siphon power from the Elemental Plane of Fire, or venerate a collection of deities such as Asmodeus, Sarenrae, the Tian goddess of disasters and volcanoes Lady Nanbyo, or the elemental lord of fire Ymeri.</p>\n<h3>Curse of Engulfing Flames</h3>\n<p>You see flames and smoke wherever you look. These flames might be imagined, or they might be a preternatural glimpse of the metaphorical fires that empower the entire multiverse-but you always see them. Fires flare noticeably (though not dangerously) in your presence, you occasionally smoke slightly, and your body is almost painfully hot to the touch.</p>"
        },
        "featType": {
            "value": "classfeature"
        },
        "level": {
            "value": 2
        },
        "location": "",
        "prerequisites": {
            "value": []
        },
        "rules": [],
        "source": {
            "value": ""
        },
        "traits": {
            "custom": "",
            "rarity": "common",
            "value": [
                "oracle"
            ]
        }
    },
    "img": "systems/pf2ettw/icons/features/classes/flames-mystery.webp",
    "name": "Flames Mystery (Multiclass)",
    "type": "feat"
}
