{
    "_id": "JuKD6k7nDwfO0Ckv",
    "data": {
        "actionCategory": {
            "value": ""
        },
        "actionType": {
            "value": "passive"
        },
        "actions": {
            "value": null
        },
        "description": {
            "value": "<p>Your rage gives you the raw power and size of a giant. This doesn't necessarily mean you revere giants-you might scoff at them or even aspire to slay them! You could instead seem like a giant to other people due to your exceptional strength or larger-than-life emotions and ego.</p>\n<h2 class=\"title\">Anathema</h2>\n<p>Failing to face a personal challenge of strength is anathema.</p>\n<h2 class=\"title\">Titan Mauler (Instinct Ability)</h2>\n<p>You can use a weapon built for a Large creature if you are Small or Medium (both normally and when raging). If you're not Small or Medium, you can use a weapon built for a creature one size larger than you. You gain access to this larger weapon, of any weapon type otherwise available at character creation. It has the normal Price and Bulk for a weapon of its size. When wielding such a weapon in combat, increase your additional damage from Rage from 2 to 6, but you have the @Compendium[pf2ettw.conditionitems.Clumsy]{Clumsy 1} condition because of the weapon's unwieldy size. You can't remove this clumsy condition or ignore its penalties by any means while wielding the weapon.</p>\n<h2 class=\"title\">Specialization Ability<span style=\"float: right;\">Level 7</span></h2>\n<p>Increase the damage from Rage when using a larger weapon from 6 to 10; if you have greater weapon specialization, increase it from 10 to 18.</p>\n<h2 class=\"title\">Raging Resistance<span style=\"float: right;\">Level 9</span></h2>\n<p>You resist bludgeoning damage and your choice of cold, electricity, or fire, chosen when you gain raging resistance.</p>\n<hr />\n<p><em>Note: You need to manually apply Clumsy 1 when you enter rage. Remember to alter the size of your weapon to ensure your Instinct Ability works correctly.</em></p>"
        },
        "featType": {
            "value": "classfeature"
        },
        "level": {
            "value": 1
        },
        "location": "",
        "prerequisites": {
            "value": []
        },
        "rules": [
            {
                "key": "FlatModifier",
                "label": "pf2ettw.TraitRage",
                "predicate": {
                    "all": [
                        "rage"
                    ],
                    "not": [
                        "barbarian-dedication"
                    ]
                },
                "selector": "ac",
                "value": -1
            },
            {
                "key": "FlatModifier",
                "label": "pf2ettw.TraitRage",
                "predicate": {
                    "all": [
                        "rage",
                        "weapon:oversized"
                    ],
                    "not": [
                        "ranged",
                        "agile",
                        "barbarian-dedication"
                    ]
                },
                "selector": "strike-damage",
                "slug": "oversized-rage",
                "value": {
                    "brackets": [
                        {
                            "end": 6,
                            "value": 6
                        },
                        {
                            "end": 14,
                            "start": 7,
                            "value": 10
                        },
                        {
                            "start": 15,
                            "value": 18
                        }
                    ]
                }
            },
            {
                "key": "FlatModifier",
                "label": "pf2ettw.TraitRage",
                "predicate": {
                    "all": [
                        "rage",
                        "weapon:oversized",
                        "agile"
                    ],
                    "not": [
                        "ranged",
                        "barbarian-dedication"
                    ]
                },
                "selector": "strike-damage",
                "slug": "oversized-rage-agile",
                "value": {
                    "brackets": [
                        {
                            "end": 6,
                            "value": 3
                        },
                        {
                            "end": 14,
                            "start": 7,
                            "value": 5
                        },
                        {
                            "start": 15,
                            "value": 9
                        }
                    ]
                }
            },
            {
                "key": "FlatModifier",
                "label": "pf2ettw.TraitRage",
                "predicate": {
                    "all": [
                        "rage"
                    ],
                    "not": [
                        "agile",
                        "weapon:oversized",
                        "ranged",
                        "barbarian-dedication"
                    ]
                },
                "selector": "strike-damage",
                "slug": "normal-rage",
                "value": 2
            },
            {
                "key": "FlatModifier",
                "label": "pf2ettw.TraitRage",
                "predicate": {
                    "all": [
                        "rage",
                        "agile"
                    ],
                    "not": [
                        "weapon:oversized",
                        "ranged",
                        "barbarian-dedication"
                    ]
                },
                "selector": "strike-damage",
                "slug": "normal-rage-agile",
                "value": 1
            },
            {
                "key": "FlatModifier",
                "label": "pf2ettw.TraitRage",
                "predicate": {
                    "all": [
                        "rage",
                        "weapon:oversized",
                        "instinct-ability"
                    ],
                    "not": [
                        "ranged",
                        "agile"
                    ]
                },
                "selector": "strike-damage",
                "slug": "oversized-rage-dedication",
                "value": 6
            },
            {
                "key": "FlatModifier",
                "label": "pf2ettw.TraitRage",
                "predicate": {
                    "all": [
                        "rage",
                        "weapon:oversized",
                        "agile",
                        "instinct-ability"
                    ],
                    "not": [
                        "ranged"
                    ]
                },
                "selector": "strike-damage",
                "slug": "oversized-rage-dedication-agile",
                "value": 3
            },
            {
                "key": "FlatModifier",
                "label": "pf2ettw.TraitRage",
                "predicate": {
                    "all": [
                        "rage",
                        "instinct-ability"
                    ],
                    "not": [
                        "agile",
                        "weapon:oversized",
                        "ranged"
                    ]
                },
                "selector": "strike-damage",
                "slug": "normal-rage-dedication",
                "value": 2
            },
            {
                "key": "FlatModifier",
                "label": "pf2ettw.TraitRage",
                "predicate": {
                    "all": [
                        "rage",
                        "agile",
                        "instinct-ability"
                    ],
                    "not": [
                        "weapon:oversized",
                        "ranged"
                    ]
                },
                "selector": "strike-damage",
                "slug": "normal-rage-dedication-agile",
                "value": 1
            }
        ],
        "source": {
            "value": ""
        },
        "traits": {
            "custom": "",
            "rarity": "common",
            "value": [
                "barbarian"
            ]
        }
    },
    "img": "systems/pf2ettw/icons/features/classes/giant-instinct.webp",
    "name": "Giant Instinct",
    "type": "feat"
}
