{
    "_id": "mzkkj9LEWjJPBhaq",
    "data": {
        "actionCategory": {
            "value": ""
        },
        "actionType": {
            "value": "passive"
        },
        "actions": {
            "value": null
        },
        "description": {
            "value": "<p>You have trained for countless hours to become a skilled hunter and tracker, gaining an additional benefit when you Hunt Prey depending on the focus of your training. Choose one of the following hunter's edges:</p>\n<ul>\n<li>@Compendium[pf2ettw.classfeatures.Flurry]{Flurry}</li>\n<li>@Compendium[pf2ettw.classfeatures.Outwit]{Outwit}</li>\n<li>@Compendium[pf2ettw.classfeatures.Precision]{Precision}</li>\n</ul>"
        },
        "featType": {
            "value": "classfeature"
        },
        "level": {
            "value": 1
        },
        "location": "",
        "prerequisites": {
            "value": []
        },
        "rules": [
            {
                "adjustName": false,
                "allowedDrops": {
                    "all": [
                        "item:level:1",
                        "item:trait:ranger",
                        "item:type:feature"
                    ],
                    "label": "1st-level Ranger class feature"
                },
                "choices": [
                    {
                        "value": "Compendium.pf2ettw.classfeatures.Flurry"
                    },
                    {
                        "value": "Compendium.pf2ettw.classfeatures.Outwit"
                    },
                    {
                        "value": "Compendium.pf2ettw.classfeatures.Precision"
                    }
                ],
                "key": "ChoiceSet",
                "prompt": "Select a Hunter's Edge."
            },
            {
                "key": "GrantItem",
                "uuid": "{item|flags.pf2ettw.rulesSelections.huntersEdge}"
            }
        ],
        "source": {
            "value": "Pathfinder Core Rulebook"
        },
        "traits": {
            "custom": "",
            "rarity": "common",
            "value": [
                "ranger"
            ]
        }
    },
    "img": "systems/pf2ettw/icons/features/classes/choice-feature.webp",
    "name": "Hunter's Edge",
    "type": "feat"
}
