{
    "_id": "K6hG7nH8yjmbA0Q9",
    "data": {
        "actionCategory": {
            "value": ""
        },
        "actionType": {
            "value": "passive"
        },
        "actions": {
            "value": null
        },
        "description": {
            "value": "<p>As an illusionist, you use magic to create images, figments, and phantasms to baffle your enemies. You understand that perception is reality. You add one 1st-level illusion spell (such as <em>@Compendium[pf2ettw.spells-srd.Illusory Object]{Illusory Object}</em>) to your spellbook. You learn the <em>@Compendium[pf2ettw.spells-srd.Warped Terrain]{Warped Terrain}</em> school spell.</p>"
        },
        "featType": {
            "value": "classfeature"
        },
        "level": {
            "value": 1
        },
        "location": "",
        "prerequisites": {
            "value": []
        },
        "rules": [],
        "source": {
            "value": "Pathfinder Core Rulebook"
        },
        "traits": {
            "custom": "",
            "rarity": "common",
            "value": [
                "wizard"
            ]
        }
    },
    "img": "systems/pf2ettw/icons/features/classes/illusion.webp",
    "name": "Illusion",
    "type": "feat"
}
