{
    "_id": "7Y2XDqr4gRisjiAG",
    "data": {
        "actionCategory": {
            "value": ""
        },
        "actionType": {
            "value": "passive"
        },
        "actions": {
            "value": null
        },
        "description": {
            "value": "<p>You gain the <em>@Compendium[pf2ettw.spells-srd.Restorative Moment]{Restorative Moment}</em> hex, and your familiar learns <em>@Compendium[pf2ettw.spells-srd.Field of Life]{Field of Life}</em>.</p>"
        },
        "featType": {
            "value": "classfeature"
        },
        "level": {
            "value": 10
        },
        "location": "",
        "prerequisites": {
            "value": []
        },
        "rules": [],
        "source": {
            "value": "Pathfinder Advanced Player's Guide"
        },
        "traits": {
            "custom": "",
            "rarity": "common",
            "value": [
                "witch"
            ]
        }
    },
    "img": "systems/pf2ettw/icons/spells/restorative-moment.webp",
    "name": "Lesson of Renewal",
    "type": "feat"
}
