{
    "_id": "PLMmDXJCDdMS0V5C",
    "data": {
        "actionCategory": {
            "value": ""
        },
        "actionType": {
            "value": "passive"
        },
        "actions": {
            "value": null
        },
        "description": {
            "value": "<p>You gain the <em>@Compendium[pf2ettw.spells-srd.Stumbling Curse]{Stumbling Curse}</em> hex, and your familiar learns <em>@Compendium[pf2ettw.spells-srd.Ill Omen]{Ill Omen}</em>.</p>"
        },
        "featType": {
            "value": "classfeature"
        },
        "level": {
            "value": 2
        },
        "location": "",
        "prerequisites": {
            "value": []
        },
        "rules": [],
        "source": {
            "value": "Pathfinder #169: Kindled Magic"
        },
        "traits": {
            "custom": "",
            "rarity": "uncommon",
            "value": [
                "witch"
            ]
        }
    },
    "img": "systems/pf2ettw/icons/spells/daydreamers-curse.webp",
    "name": "Lesson of Calamity",
    "type": "feat"
}
