{
    "_id": "YSxymsAe2Dvq47f2",
    "data": {
        "actionCategory": {
            "value": ""
        },
        "actionType": {
            "value": "passive"
        },
        "actions": {
            "value": null
        },
        "description": {
            "value": "<p>You gain the <em>@Compendium[pf2ettw.spells-srd.Malicious Shadow]{Malicious Shadow}</em> hex, and your familiar learns <em>@Compendium[pf2ettw.spells-srd.Chilling Darkness]{Chilling Darkness}</em>.</p>"
        },
        "featType": {
            "value": "classfeature"
        },
        "level": {
            "value": 6
        },
        "location": "",
        "prerequisites": {
            "value": []
        },
        "rules": [],
        "source": {
            "value": "Pathfinder Advanced Player's Guide"
        },
        "traits": {
            "custom": "",
            "rarity": "common",
            "value": [
                "witch"
            ]
        }
    },
    "img": "systems/pf2ettw/icons/spells/malicious-shadow.webp",
    "name": "Lesson of Shadow",
    "type": "feat"
}
