{
    "_id": "kdzIxHpzeRbdRqQA",
    "data": {
        "actionCategory": {
            "value": ""
        },
        "actionType": {
            "value": "passive"
        },
        "actions": {
            "value": null
        },
        "description": {
            "value": "<p>You summon the fury of a mighty dragon and manifest incredible abilities. Perhaps your culture reveres draconic majesty, or you gained your connection by drinking or bathing in dragon's blood or after watching a marauding wyrm burn your village.</p>\n<h2 class=\"title\">Anathema</h2>\n<p>Anathema do not apply.</p>\n<h2 class=\"title\">Draconic Rage (Instinct Ability)</h2>\n<p>While raging, you can increase the additional damage from Rage from 2 to 4 and change its damage type to match that of your dragon's breath weapon instead of the damage type for your weapon or unarmed attack. If you do this, your Rage action gains the arcane and evocation traits, as well as the trait matching the damage type.</p>\n<h2 class=\"title\">Specialization Ability</h2>\n<p>When you use draconic rage, you increase the additional damage from Rage from 4 to 8. If you have greater weapon specialization, instead increase the damage from Rage when using draconic rage from 8 to 16.</p>\n<h2 class=\"title\">Raging Resistance</h2>\n<p>You resist piercing damage and the damage type of your dragon's breath weapon.</p>"
        },
        "featType": {
            "value": "classfeature"
        },
        "identified": {
            "value": true
        },
        "level": {
            "value": 1
        },
        "location": "",
        "prerequisites": {
            "value": []
        },
        "rules": [
            {
                "key": "FlatModifier",
                "label": "pf2ettw.TraitRage",
                "predicate": {
                    "all": [
                        "rage"
                    ],
                    "not": [
                        "barbarian-dedication"
                    ]
                },
                "selector": "ac",
                "value": -1
            },
            {
                "damageType": "electricity",
                "key": "FlatModifier",
                "label": "pf2ettw.TraitRage",
                "predicate": {
                    "all": [
                        "rage"
                    ],
                    "any": [
                        "battle-form",
                        "attack"
                    ],
                    "not": [
                        "ranged",
                        "agile",
                        "normal-rage",
                        "barbarian-dedication"
                    ]
                },
                "selector": "strike-damage",
                "value": {
                    "brackets": [
                        {
                            "end": 6,
                            "value": 4
                        },
                        {
                            "end": 14,
                            "start": 7,
                            "value": 8
                        },
                        {
                            "start": 15,
                            "value": 16
                        }
                    ]
                }
            },
            {
                "damageType": "electricity",
                "key": "FlatModifier",
                "label": "pf2ettw.TraitRage",
                "predicate": {
                    "all": [
                        "agile",
                        "rage"
                    ],
                    "any": [
                        "battle-form",
                        "attack"
                    ],
                    "not": [
                        "ranged",
                        "normal-rage",
                        "barbarian-dedication"
                    ]
                },
                "selector": "strike-damage",
                "slug": "rage-agile",
                "value": {
                    "brackets": [
                        {
                            "end": 6,
                            "value": 2
                        },
                        {
                            "end": 14,
                            "start": 7,
                            "value": 4
                        },
                        {
                            "start": 15,
                            "value": 8
                        }
                    ]
                }
            },
            {
                "key": "FlatModifier",
                "label": "pf2ettw.TraitRage",
                "predicate": {
                    "all": [
                        "rage",
                        "normal-rage"
                    ],
                    "any": [
                        "battle-form",
                        "attack"
                    ],
                    "not": [
                        "agile",
                        "ranged",
                        "barbarian-dedication"
                    ]
                },
                "selector": "strike-damage",
                "slug": "normal-rage",
                "value": 2
            },
            {
                "key": "FlatModifier",
                "label": "pf2ettw.TraitRage",
                "predicate": {
                    "all": [
                        "rage",
                        "agile",
                        "normal-rage"
                    ],
                    "any": [
                        "battle-form",
                        "attack"
                    ],
                    "not": [
                        "ranged",
                        "barbarian-dedication"
                    ]
                },
                "selector": "strike-damage",
                "slug": "normal-rage-agile",
                "value": 1
            },
            {
                "domain": "damage-roll",
                "key": "RollOption",
                "label": "Deal normal rage damage",
                "option": "normal-rage",
                "toggleable": true
            },
            {
                "damageType": "electricity",
                "key": "FlatModifier",
                "label": "pf2ettw.TraitRage",
                "predicate": {
                    "all": [
                        "rage",
                        "barbarian-dedication",
                        "instinct-ability"
                    ],
                    "any": [
                        "battle-form",
                        "attack"
                    ],
                    "not": [
                        "agile",
                        "ranged",
                        "normal-rage"
                    ]
                },
                "selector": "strike-damage",
                "slug": "dedication-instinct-rage",
                "value": 4
            },
            {
                "damageType": "electricity",
                "key": "FlatModifier",
                "label": "pf2ettw.TraitRage",
                "predicate": {
                    "all": [
                        "rage",
                        "barbarian-dedication",
                        "instinct-ability",
                        "agile"
                    ],
                    "any": [
                        "battle-form",
                        "attack"
                    ],
                    "not": [
                        "ranged",
                        "normal-rage"
                    ]
                },
                "selector": "strike-damage",
                "slug": "dedication-instinct-rage-agile",
                "value": 2
            },
            {
                "key": "FlatModifier",
                "label": "pf2ettw.TraitRage",
                "predicate": {
                    "all": [
                        "rage",
                        "barbarian-dedication",
                        "instinct-ability",
                        "normal-rage"
                    ],
                    "any": [
                        "battle-form",
                        "attack"
                    ],
                    "not": [
                        "agile",
                        "ranged"
                    ]
                },
                "selector": "strike-damage",
                "slug": "dedication-instinct-rage-normal",
                "value": 2
            },
            {
                "key": "FlatModifier",
                "label": "pf2ettw.TraitRage",
                "predicate": {
                    "all": [
                        "rage",
                        "barbarian-dedication",
                        "instinct-ability",
                        "agile",
                        "normal-rage"
                    ],
                    "any": [
                        "battle-form",
                        "attack"
                    ],
                    "not": [
                        "ranged"
                    ]
                },
                "selector": "strike-damage",
                "slug": "dedication-instinct-rage-agile-normal",
                "value": 1
            }
        ],
        "source": {
            "value": ""
        },
        "traits": {
            "custom": "",
            "rarity": "common",
            "value": [
                "barbarian"
            ]
        }
    },
    "img": "systems/pf2ettw/icons/features/classes/dragon-instinct.webp",
    "name": "Line of Poison Dragon Instinct",
    "type": "feat"
}
