{
    "_id": "RyOkmu0W9svavuAB",
    "data": {
        "actionCategory": {
            "value": ""
        },
        "actionType": {
            "value": "passive"
        },
        "actions": {
            "value": null
        },
        "description": {
            "value": "<p>Where others might use sleight of hand or a silver tongue to achieve their objectives, you rely on your intellect to craft intricate schemes. You likely view your operations as a chess game, always planning 10 steps ahead where others might plan three. You might be a detective determined to solve crimes or a spymaster in the service of a powerful family or nation. If you operate outside the law, you might be an aspiring crime lord or information broker, excellent at directing others toward suitable jobs.</p>\n<p>If you successfully identify a creature using @Compendium[pf2ettw.actionspf2ettw.Recall Knowledge (Arcana)]{Recall Knowledge}, that creature is @Compendium[pf2ettw.conditionitems.Flat-Footed]{Flat-Footed} against your attacks until the start of your next turn; if you critically succeed, it's flat-footed against your attacks for 1 minute.</p>\n<p>You're trained in Society and one of the following skills of your choice: Arcana, Nature, Occultism, or Religion. You can choose Intelligence as your key ability score.</p>"
        },
        "featType": {
            "value": "classfeature"
        },
        "level": {
            "value": 1
        },
        "location": "",
        "prerequisites": {
            "value": []
        },
        "rules": [
            {
                "key": "ActiveEffectLike",
                "mode": "upgrade",
                "path": "data.skills.soc.rank",
                "value": 1
            },
            {
                "adjustName": false,
                "choices": [
                    {
                        "label": "pf2ettw.SkillArcana",
                        "value": "data.skills.arc.rank"
                    },
                    {
                        "label": "pf2ettw.SkillNature",
                        "value": "data.skills.nat.rank"
                    },
                    {
                        "label": "pf2ettw.SkillOccultism",
                        "value": "data.skills.occ.rank"
                    },
                    {
                        "label": "pf2ettw.SkillReligion",
                        "value": "data.skills.rel.rank"
                    }
                ],
                "key": "ChoiceSet",
                "prompt": "Select a skill to become trained in"
            },
            {
                "key": "ActiveEffectLike",
                "mode": "upgrade",
                "path": "{item|flags.pf2ettw.rulesSelections.mastermind}",
                "value": 1
            }
        ],
        "source": {
            "value": "Pathfinder Advanced Player's Guide"
        },
        "traits": {
            "custom": "",
            "rarity": "common",
            "value": [
                "rogue"
            ]
        }
    },
    "img": "systems/pf2ettw/icons/features/classes/mastermind.webp",
    "name": "Mastermind",
    "type": "feat"
}
