{
    "_id": "uhHg9BXBiHpL5ndS",
    "data": {
        "actionCategory": {
            "value": ""
        },
        "actionType": {
            "value": "passive"
        },
        "actions": {
            "value": null
        },
        "description": {
            "value": "<p>Your studies have made you savvy in many areas, but one in particular drew your intense interest. Choose a methodology. The methodologies are as follows:</p>\n<ul>\n<li>@Compendium[pf2ettw.classfeatures.Alchemical Sciences Methodology]{Alchemical Sciences Methodology}</li>\n<li>@Compendium[pf2ettw.classfeatures.Empiricism Methodology]{Empiricism Methodology}</li>\n<li>@Compendium[pf2ettw.classfeatures.Forensic Medicine Methodology]{Forensic Medicine Methodology}</li>\n<li>@Compendium[pf2ettw.classfeatures.Interrogation Methodology]{Interrogation Methodology}</li>\n</ul>"
        },
        "featType": {
            "value": "classfeature"
        },
        "level": {
            "value": 1
        },
        "location": "",
        "prerequisites": {
            "value": []
        },
        "rules": [
            {
                "adjustName": false,
                "allowedDrops": {
                    "all": [
                        "item:level:1",
                        "item:trait:investigator",
                        "item:type:feature"
                    ],
                    "label": "level 1 investigator class feature"
                },
                "choices": [
                    {
                        "value": "Compendium.pf2ettw.classfeatures.Alchemical Sciences Methodology"
                    },
                    {
                        "value": "Compendium.pf2ettw.classfeatures.Empiricism Methodology"
                    },
                    {
                        "value": "Compendium.pf2ettw.classfeatures.Forensic Medicine Methodology"
                    },
                    {
                        "value": "Compendium.pf2ettw.classfeatures.Interrogation Methodology"
                    }
                ],
                "flag": "methodologyChoice",
                "key": "ChoiceSet",
                "prompt": "Select a methodology."
            },
            {
                "key": "GrantItem",
                "uuid": "{item|flags.pf2ettw.rulesSelections.methodologyChoice}"
            }
        ],
        "source": {
            "value": ""
        },
        "traits": {
            "custom": "",
            "rarity": "common",
            "value": [
                "investigator"
            ]
        }
    },
    "img": "systems/pf2ettw/icons/features/classes/choice-feature.webp",
    "name": "Methodology",
    "type": "feat"
}
