{
    "_id": "zy0toWeGIeQstbT4",
    "data": {
        "actionCategory": {
            "value": ""
        },
        "actionType": {
            "value": "passive"
        },
        "actions": {
            "value": null
        },
        "description": {
            "value": "<p>Few in Shimmerford or elsewhere would be foolish enough to attempt to draw the Mosquito Witch's attention, but whether you're one of those foolish few or simply someone who attracted the Mosquito Witch's attention unwittingly or unwillingly, she grants you powers over insects and other arthropods.</p>\n<p><strong>Spell List</strong> primal</p>\n<p><strong>Patron Skill</strong> Nature</p>\n<p><strong>Hex Cantrip</strong> <em>@Compendium[pf2ettw.spells-srd.Buzzing Bites]{Buzzing Bites}</em></p>\n<p><strong>Granted Spell</strong> <em>@Compendium[pf2ettw.spells-srd.Pest Form]{Pest Form}</em></p>"
        },
        "featType": {
            "value": "classfeature"
        },
        "level": {
            "value": 1
        },
        "location": "",
        "prerequisites": {
            "value": []
        },
        "rules": [
            {
                "key": "ActiveEffectLike",
                "mode": "upgrade",
                "path": "data.skills.nat.rank",
                "value": 1
            },
            {
                "key": "ActiveEffectLike",
                "mode": "override",
                "path": "data.proficiencies.aliases.witch",
                "priority": 39,
                "value": "primal"
            }
        ],
        "source": {
            "value": "Pathfinder Lost Omens: Monsters of Myth"
        },
        "traits": {
            "custom": "",
            "rarity": "rare",
            "value": [
                "witch"
            ]
        }
    },
    "img": "systems/pf2ettw/icons/spells/nightmare.webp",
    "name": "Mosquito Witch Patron",
    "type": "feat"
}
