{
    "_id": "PRJYLksQEwT39bTl",
    "data": {
        "actionCategory": {
            "value": ""
        },
        "actionType": {
            "value": "passive"
        },
        "actions": {
            "value": null
        },
        "description": {
            "value": "<p>Choose the divine mystery that fuels your mystical power.</p>\n<p>Your mystery might represent a pantheistic devotion to all the deities with power over the subject of your mystery, veneration of a particular ideal, or a conduit to raw divine energy. Whatever its origin and nature, your mystery determines the revelation spells you can cast and the oracular curse that overtakes your body when you do. You learn skills related to that mystery, gain access to a cantrip, and gain a special benefit drawn from the combined divine knowledge and experience of your mystery.</p>\n<hr />\n<ul>\n<li>@Compendium[pf2ettw.classfeatures.Ancestors]{Ancestors}</li>\n<li>@Compendium[pf2ettw.classfeatures.Battle]{Battle}</li>\n<li>@Compendium[pf2ettw.classfeatures.Bones]{Bones}</li>\n<li>@Compendium[pf2ettw.classfeatures.Cosmos]{Cosmos}</li>\n<li>@Compendium[pf2ettw.classfeatures.Flames]{Flames}</li>\n<li>@Compendium[pf2ettw.classfeatures.Life]{Life}</li>\n<li>@Compendium[pf2ettw.classfeatures.Lore]{Lore}</li>\n<li>@Compendium[pf2ettw.classfeatures.Tempest]{Tempest}</li>\n</ul>\n<h3>Reading a Mystery Entry</h3>\n<p>A mystery entry contains the following information, followed by a description of that mystery's curse.</p>\n<p><strong>Mystery Benefit</strong> The mystery benefit is a special ability (or abilities) you gain from your mystery.</p>\n<p><strong>Trained Skill</strong> You become trained in the listed skill. A few mysteries make you trained in more than one skill.</p>\n<p><strong>Granted Cantrip</strong> You automatically add this cantrip to your spell repertoire, in addition to those you gain through divine spellcasting.</p>\n<p><strong>Revelation Spells</strong> You automatically gain your mystery's initial revelation spell at 1st level and can gain more by selecting the @Compendium[pf2ettw.feats-srd.Advanced Revelation]{Advanced Revelation}, @Compendium[pf2ettw.feats-srd.Greater Revelation]{Greater Revelation}, and @Compendium[pf2ettw.feats-srd.Diverse Mystery]{Diverse Mystery} oracle feats.</p>\n<p><strong>Related Domains</strong> These are the cleric domains associated with your mystery. You select one initial domain spell from one of these domains at 1st level, which you can cast as a revelation spell with the cursebound trait.</p>"
        },
        "featType": {
            "value": "classfeature"
        },
        "level": {
            "value": 1
        },
        "location": "",
        "prerequisites": {
            "value": []
        },
        "rules": [
            {
                "adjustName": false,
                "allowedDrops": {
                    "all": [
                        "item:level:1",
                        "item:trait:oracle",
                        "item:type:feature"
                    ],
                    "label": "1st-level Oracle class feature"
                },
                "choices": [
                    {
                        "value": "Compendium.pf2ettw.classfeatures.Ancestors"
                    },
                    {
                        "value": "Compendium.pf2ettw.classfeatures.Battle"
                    },
                    {
                        "value": "Compendium.pf2ettw.classfeatures.Bones"
                    },
                    {
                        "value": "Compendium.pf2ettw.classfeatures.Cosmos"
                    },
                    {
                        "value": "Compendium.pf2ettw.classfeatures.Flames"
                    },
                    {
                        "value": "Compendium.pf2ettw.classfeatures.Life"
                    },
                    {
                        "value": "Compendium.pf2ettw.classfeatures.Lore"
                    },
                    {
                        "value": "Compendium.pf2ettw.classfeatures.Tempest"
                    }
                ],
                "key": "ChoiceSet",
                "prompt": "Choose a mystery."
            },
            {
                "key": "GrantItem",
                "uuid": "{item|flags.pf2ettw.rulesSelections.mystery}"
            }
        ],
        "source": {
            "value": "Pathfinder Advanced Player's Guide"
        },
        "traits": {
            "custom": "",
            "rarity": "common",
            "value": [
                "oracle"
            ]
        }
    },
    "img": "systems/pf2ettw/icons/features/classes/choice-feature.webp",
    "name": "Mystery",
    "type": "feat"
}
