{
    "_id": "KPtF29AaeX2sJW0K",
    "data": {
        "actionCategory": {
            "value": ""
        },
        "actionType": {
            "value": "passive"
        },
        "actions": {
            "value": null
        },
        "description": {
            "value": "<p>You weren't born with the power to cast spells, nor have you spent years in devotion to tomes, deities, or mystical secrets. Your power comes through a potent being that has chosen you as their vessel to carry forth some agenda in the world. This entity is typically mysterious and distant, revealing little of their identity and motivations, and they grant you spells and other magical powers through a familiar, which serves as a conduit for their power.</p>\n<p>A patron might be a deity or demigod, a coven of powerful hags, a fey lord, an archdevil, or a similarly powerful entity, or perhaps multiple such figures workingin tandem. As you gain more of your patron's power, you might learn more about who or what they are-certain combinations of themes and lessons suggest particular patrons or agendas-but patrons empower witches for their own secretive reasons, which they rarely reveal in full.</p>\n<p>At 1st level, choose your patron's theme, which determines your spellcasting tradition, a skill, a special cantrip you gain, and a spell added to your familiar.</p>"
        },
        "featType": {
            "value": "classfeature"
        },
        "level": {
            "value": 1
        },
        "location": "",
        "prerequisites": {
            "value": []
        },
        "rules": [
            {
                "key": "ActiveEffectLike",
                "mode": "upgrade",
                "path": "data.proficiencies.traditions.{actor|data.proficiencies.aliases.witch}.rank",
                "predicate": {
                    "all": [
                        "class:witch"
                    ]
                },
                "value": {
                    "brackets": [
                        {
                            "end": 6,
                            "start": 1,
                            "value": 1
                        },
                        {
                            "end": 14,
                            "start": 7,
                            "value": 2
                        },
                        {
                            "end": 18,
                            "start": 15,
                            "value": 3
                        },
                        {
                            "start": 19,
                            "value": 4
                        }
                    ],
                    "field": "actor|data.details.level.value"
                }
            },
            {
                "adjustName": false,
                "allowedDrops": {
                    "all": [
                        "item:trait:witch",
                        "item:level:1"
                    ],
                    "label": "level 1 Witch feature"
                },
                "choices": [
                    {
                        "value": "Compendium.pf2ettw.classfeatures.Baba Yaga Patron"
                    },
                    {
                        "value": "Compendium.pf2ettw.classfeatures.Curse Patron"
                    },
                    {
                        "value": "Compendium.pf2ettw.classfeatures.Fate Patron"
                    },
                    {
                        "value": "Compendium.pf2ettw.classfeatures.Fervor Patron"
                    },
                    {
                        "value": "Compendium.pf2ettw.classfeatures.Night Patron"
                    },
                    {
                        "value": "Compendium.pf2ettw.classfeatures.Rune Patron"
                    },
                    {
                        "value": "Compendium.pf2ettw.classfeatures.Wild Patron"
                    },
                    {
                        "value": "Compendium.pf2ettw.classfeatures.Winter Patron"
                    },
                    {
                        "value": "Compendium.pf2ettw.classfeatures.Mosquito Witch Patron"
                    }
                ],
                "key": "ChoiceSet",
                "prompt": "Select a Patron."
            },
            {
                "key": "GrantItem",
                "uuid": "{item|flags.pf2ettw.rulesSelections.patron}"
            }
        ],
        "source": {
            "value": "Pathfinder Advanced Player's Guide"
        },
        "traits": {
            "custom": "",
            "rarity": "common",
            "value": [
                "witch"
            ]
        }
    },
    "img": "systems/pf2ettw/icons/features/classes/choice-feature.webp",
    "name": "Patron",
    "type": "feat"
}
