{
    "_id": "JH6um0St37UrjLNG",
    "data": {
        "actionCategory": {
            "value": ""
        },
        "actionType": {
            "value": "passive"
        },
        "actions": {
            "value": null
        },
        "description": {
            "value": "<p>You are constantly inventing, and your skill at crafting is unimpeachable. You gain the @Compendium[pf2ettw.feats-srd.Inventor]{Inventor} skill feat, even if you don't meet its prerequisites.</p>"
        },
        "featType": {
            "value": "classfeature"
        },
        "level": {
            "value": 1
        },
        "location": "",
        "prerequisites": {
            "value": []
        },
        "rules": [
            {
                "key": "GrantItem",
                "uuid": "Compendium.pf2ettw.feats-srd.Inventor"
            }
        ],
        "source": {
            "value": ""
        },
        "traits": {
            "custom": "",
            "rarity": "common",
            "value": [
                "inventor"
            ]
        }
    },
    "img": "systems/pf2ettw/icons/features/classes/peerless-inventor.webp",
    "name": "Peerless Inventor",
    "type": "feat"
}
