{
    "_id": "sPtl05wwTpqFI0lL",
    "data": {
        "actionCategory": {
            "value": ""
        },
        "actionType": {
            "value": "passive"
        },
        "actions": {
            "value": null
        },
        "description": {
            "value": "<p>If you need a specific alchemical item on the fly, you can use your infused reagents to quickly create it with the @Compendium[pf2ettw.actionspf2ettw.Quick Alchemy]{Quick Alchemy} action.</p>"
        },
        "featType": {
            "value": "classfeature"
        },
        "level": {
            "value": 1
        },
        "location": "",
        "prerequisites": {
            "value": []
        },
        "rules": [
            {
                "key": "GrantItem",
                "uuid": "Compendium.pf2ettw.actionspf2ettw.Quick Alchemy"
            }
        ],
        "source": {
            "value": "Pathfinder Core Rulebook"
        },
        "traits": {
            "custom": "",
            "rarity": "common",
            "value": [
                "alchemist"
            ]
        }
    },
    "img": "systems/pf2ettw/icons/features/classes/quick-alchemy.webp",
    "name": "Quick Alchemy",
    "type": "feat"
}
