{
    "_id": "JQAujUXjczVnYDEI",
    "data": {
        "actionCategory": {
            "value": ""
        },
        "actionType": {
            "value": "passive"
        },
        "actions": {
            "value": null
        },
        "description": {
            "value": "<p>You've steeled your mind with resolve. Your proficiency rank for Will saves increases to master. When you roll a success on a Will save, you get a critical success instead.</p>"
        },
        "featType": {
            "value": "classfeature"
        },
        "level": {
            "value": 7
        },
        "location": "",
        "prerequisites": {
            "value": []
        },
        "rules": [
            {
                "key": "Note",
                "selector": "will",
                "text": "When you roll a success on a Will save, you get a critical success instead.",
                "title": "{item|name}"
            },
            {
                "adjustment": {
                    "success": "one-degree-better"
                },
                "key": "AdjustDegreeOfSuccess",
                "selector": "will",
                "type": "save"
            },
            {
                "key": "ActiveEffectLike",
                "mode": "upgrade",
                "path": "data.saves.will.rank",
                "value": 3
            }
        ],
        "source": {
            "value": ""
        },
        "traits": {
            "custom": "",
            "rarity": "common",
            "value": []
        }
    },
    "img": "systems/pf2ettw/icons/features/classes/resolve.webp",
    "name": "Resolve",
    "type": "feat"
}
