{
    "_id": "XZnPwZ0ohlDXlFea",
    "data": {
        "actionCategory": {
            "value": ""
        },
        "actionType": {
            "value": "passive"
        },
        "actions": {
            "value": null
        },
        "description": {
            "value": "<p>You've learned to find perfection in every success.</p>\n<p>Choose a different saving throw than the one you chose for your path to perfection. Your proficiency rank for the chosen saving throw increases to master. If you roll a success with the chosen saving throw, you instead critically succeed.</p>"
        },
        "featType": {
            "value": "classfeature"
        },
        "level": {
            "value": 11
        },
        "location": "",
        "prerequisites": {
            "value": []
        },
        "rules": [
            {
                "key": "Note",
                "selector": "fortitude",
                "text": "When you roll a success on a Fortitude save, you get a critical success instead.",
                "title": "{item|name}"
            },
            {
                "adjustment": {
                    "success": "one-degree-better"
                },
                "key": "AdjustDegreeOfSuccess",
                "selector": "fortitude",
                "type": "save"
            },
            {
                "key": "ActiveEffectLike",
                "mode": "upgrade",
                "path": "data.saves.fortitude.rank",
                "value": 3
            }
        ],
        "source": {
            "value": ""
        },
        "traits": {
            "custom": "",
            "rarity": "common",
            "value": [
                "monk"
            ]
        }
    },
    "img": "systems/pf2ettw/icons/features/classes/second-path-to-perfection.webp",
    "name": "Second Path to Perfection (Fortitude)",
    "type": "feat"
}
