{
    "_id": "eZPfHVz14j42jCnS",
    "data": {
        "actionCategory": {
            "value": ""
        },
        "actionType": {
            "value": "passive"
        },
        "actions": {
            "value": null
        },
        "description": {
            "value": "<p>You and your eidolon steel your mind together against effects that threaten you, each protecting the others' minds from danger. Your and your eidolon's proficiency ranks for Will saves increase to master. When you roll a success on a Will save, you get a critical success instead. When your eidolon rolls a success on a Will save, it gets a critical success instead.</p>"
        },
        "featType": {
            "value": "classfeature"
        },
        "level": {
            "value": 15
        },
        "location": "",
        "prerequisites": {
            "value": []
        },
        "rules": [
            {
                "key": "Note",
                "selector": "will",
                "text": "When you roll a success on a Will save, you get a critical success instead.",
                "title": "{item|name}"
            },
            {
                "adjustment": {
                    "success": "one-degree-better"
                },
                "key": "AdjustDegreeOfSuccess",
                "selector": "will",
                "type": "save"
            },
            {
                "key": "ActiveEffectLike",
                "mode": "upgrade",
                "path": "data.saves.will.rank",
                "value": 3
            }
        ],
        "source": {
            "value": ""
        },
        "traits": {
            "custom": "",
            "rarity": "common",
            "value": [
                "summoner"
            ]
        }
    },
    "img": "systems/pf2ettw/icons/features/classes/resolve.webp",
    "name": "Shared Resolve",
    "type": "feat"
}
