{
    "_id": "Zp81uTBItG1xlH4O",
    "data": {
        "actionCategory": {
            "value": ""
        },
        "actionType": {
            "value": "passive"
        },
        "actions": {
            "value": null
        },
        "description": {
            "value": "<p>You gain expert proficiency with your deity's favored weapon.</p>\n<p>When you critically succeed at an attack roll using that weapon, you apply the weapon's critical specialization effect; use your divine spell DC if necessary.</p>"
        },
        "featType": {
            "value": "classfeature"
        },
        "level": {
            "value": 7
        },
        "location": "",
        "prerequisites": {
            "value": []
        },
        "rules": [
            {
                "key": "ActiveEffectLike",
                "mode": "upgrade",
                "path": "flags.pf2ettw.favoredWeaponRank",
                "value": 2
            },
            {
                "key": "CriticalSpecialization",
                "predicate": {
                    "all": [
                        "weapon:deity-favored"
                    ]
                }
            }
        ],
        "source": {
            "value": ""
        },
        "traits": {
            "custom": "",
            "rarity": "common",
            "value": [
                "cleric"
            ]
        }
    },
    "img": "systems/pf2ettw/icons/features/classes/warpriest.webp",
    "name": "Third Doctrine (Warpriest)",
    "type": "feat"
}
