{
    "_id": "qczCKdg47eAmCOUD",
    "data": {
        "actionCategory": {
            "value": ""
        },
        "actionType": {
            "value": "passive"
        },
        "actions": {
            "value": null
        },
        "description": {
            "value": "<p>Though a universalist lacks the focus of a specialist wizard, they have greater flexibility.</p>\n<p>Instead of specializing narrowly in an arcane school, you can become a universalist wizard-by studying all the schools equally, you devote yourself to understanding the full breadth of the arcane arts. For each level of wizard spell slots you have, you can use Drain Bonded item once per day to recall a spell of that level (instead of using it only once per day in total). You gain an extra wizard class feat, and you add one 1st-level spell of your choice to your spellbook.</p>"
        },
        "featType": {
            "value": "classfeature"
        },
        "level": {
            "value": 1
        },
        "location": "",
        "prerequisites": {
            "value": []
        },
        "rules": [
            {
                "adjustName": false,
                "choices": {
                    "query": "{\"data.featType.value\":\"class\",\"data.level.value\":1,\"data.prerequisites.value\":[],\"data.traits.value\":{\"$elemMatch\":\"wizard\"}}"
                },
                "key": "ChoiceSet"
            },
            {
                "key": "GrantItem",
                "uuid": "{item|flags.pf2ettw.rulesSelections.universalist}"
            }
        ],
        "source": {
            "value": "Pathfinder Core Rulebook"
        },
        "traits": {
            "custom": "",
            "rarity": "common",
            "value": [
                "wizard"
            ]
        }
    },
    "img": "systems/pf2ettw/icons/features/classes/universalist.webp",
    "name": "Universalist",
    "type": "feat"
}
