{
    "_id": "w3HysrCgDs5uFXKX",
    "data": {
        "actionCategory": {
            "value": ""
        },
        "actionType": {
            "value": "passive"
        },
        "actions": {
            "value": null
        },
        "description": {
            "value": "<p>Your relationship with the world around you extends from the physical to the magical. Certain feats grant you warden spells, which are a type of focus spells. It costs 1 Focus Point (FP) to cast a focus spell. When you gain your first warden spell, you also gain a focus pool of 1 FP. You refill your focus pool during your daily preparations, and you regain 1 FP by spending 10 minutes using the Refocus activity to commune with nature.</p>\n<p>Your warden spells are primal spells. When you first gain a warden spell, you become trained in primal spell attacks and spell DCs. Your spellcasting ability is Wisdom.</p>\n<p>Focus spells are automatically heightened to half your level rounded up. Taking feats can give you more focus spells and increase the size of your focus pool, though your focus pool can never hold more than 3 FP. The full rules for focus spells appear here.</p>"
        },
        "featType": {
            "value": "classfeature"
        },
        "level": {
            "value": 1
        },
        "location": "",
        "prerequisites": {
            "value": []
        },
        "rules": [],
        "source": {
            "value": ""
        },
        "traits": {
            "custom": "",
            "rarity": "common",
            "value": [
                "focus",
                "ranger"
            ]
        }
    },
    "img": "systems/pf2ettw/icons/default-icons/mystery-man.svg",
    "name": "Warden Spells",
    "type": "feat"
}
