{
    "_id": "vB0yVFxJVZwalt2g",
    "data": {
        "actionCategory": {
            "value": ""
        },
        "actionType": {
            "value": "passive"
        },
        "actions": {
            "value": null
        },
        "description": {
            "value": "<p>You practice a unique combat style originated by dwarven siege engineers, using heavy weapons with wide attack areas to blast holes through enemy lines, clear an opening for your allies, and defend the conquered territory.</p>\n<p><strong>Slinger's Reload</strong> @Compendium[pf2ettw.actionspf2ettw.Clear a Path]{Clear a Path}</p>\n<p><strong>Deeds</strong> <em>Initial </em>@Compendium[pf2ettw.actionspf2ettw.Living Fortification]{Living Fortification}; <em>Advanced</em> @Compendium[pf2ettw.actionspf2ettw.Spinning Crush]{Spinning Crush}; <em>Greater</em> @Compendium[pf2ettw.actionspf2ettw.Siegebreaker]{Siegebreaker}</p>\n<p><strong>Way Skill</strong> Athletics</p>"
        },
        "featType": {
            "value": "classfeature"
        },
        "level": {
            "value": 1
        },
        "location": "",
        "prerequisites": {
            "value": []
        },
        "rules": [
            {
                "key": "GrantItem",
                "predicate": {
                    "all": [
                        "class:gunslinger"
                    ]
                },
                "uuid": "Compendium.pf2ettw.actionspf2ettw.Clear a Path"
            },
            {
                "key": "GrantItem",
                "predicate": {
                    "all": [
                        "class:gunslinger"
                    ]
                },
                "uuid": "Compendium.pf2ettw.actionspf2ettw.Living Fortification"
            },
            {
                "key": "ActiveEffectLike",
                "mode": "upgrade",
                "path": "data.skills.ath.rank",
                "value": 1
            }
        ],
        "source": {
            "value": ""
        },
        "traits": {
            "custom": "",
            "rarity": "common",
            "value": [
                "gunslinger"
            ]
        }
    },
    "img": "systems/pf2ettw/icons/features/classes/way-of-the-vanguard.webp",
    "name": "Way of the Vanguard",
    "type": "feat"
}
