{
    "_id": "rI9qKyONeMPtajZ8",
    "data": {
        "actionCategory": {
            "value": "interaction"
        },
        "actionType": {
            "value": "passive"
        },
        "actions": {
            "value": null
        },
        "description": {
            "value": "<p><strong>Requirements</strong> Crafting (master), Specialty Crafting (any), or any hired specialist; organized specialists</p>\n<hr />\n<p>Pick a room in Citadel Altaerein to serve as a crafting area for a specific Crafting skill chosen from one of the crafting specialties listed under the @Compendium[pf2ettw.feats-srd.Specialty Crafting]{Specialty Crafting} feat. You can have multiple workshops, each devoted to its own skill. Use of a workshop grants a +1 circumstance bonus to Crafting checks, or a +3 circumstance bonus to Crafting skill checks associated with that workshop's specialty. This upgrade takes 20 days of work to complete and a @Check[type:crafting|dc:25] check.</p>"
        },
        "requirements": {
            "value": ""
        },
        "rules": [],
        "source": {
            "value": "Pathfinder #146: Cult of Cinders"
        },
        "traits": {
            "custom": "",
            "rarity": "common",
            "value": [
                "downtime",
                "manipulate"
            ]
        },
        "trigger": {
            "value": ""
        }
    },
    "img": "systems/pf2ettw/icons/actions/Passive.webp",
    "name": "Build Workshop (Crafting)",
    "type": "action"
}
