{
    "_id": "EUU6zUeCzYm9jIhT",
    "data": {
        "actionCategory": {
            "value": "interaction"
        },
        "actionType": {
            "value": "passive"
        },
        "actions": {
            "value": null
        },
        "description": {
            "value": "<p><strong>Overcome</strong> 3 successes; @Check[type:architecture-lore|dc:33], @Check[type:perception|dc:35], @Check[type:survival|dc:35]</p>\n<hr />\n<p>The PCs identify an efficient route through the manor and reach the holding cells and vaults in the basement-all without opening too many doors, making too much noise, or wasting time searching for secret doors.</p>"
        },
        "requirements": {
            "value": ""
        },
        "rules": [],
        "source": {
            "value": "Pathfinder #149: Against the Scarlet Triad"
        },
        "traits": {
            "custom": "",
            "rarity": "common",
            "value": [
                "exploration"
            ]
        },
        "trigger": {
            "value": ""
        }
    },
    "img": "systems/pf2ettw/icons/actions/Passive.webp",
    "name": "Find the Cells",
    "type": "action"
}
