{
    "_id": "3Pr6Jk6AobttQRqN",
    "data": {
        "actionCategory": {
            "value": "interaction"
        },
        "actionType": {
            "value": "passive"
        },
        "actions": {
            "value": null
        },
        "description": {
            "value": "<p><strong>Overcome</strong> @Check[type:society|dc:34]</p>\n<hr />\n<p>The PC prepares several forgeries that might serve as convincing props during the heist.</p>\n<hr />\n<p><strong>Success</strong> The PC creates convincing documents that grant the PCs 1 Edge Point they can use when presenting proper credentials, work orders, or invitations.</p>\n<p><strong>Failure</strong> The PC creates somewhat unconvincing documents. Inform the PCs the forgeries grant 1 Edge Point. However, when they use that Edge Point, it grants no benefit.</p>\n<p><strong>Critical Failure</strong> As failure, but a PC who uses the Edge Point on a failure gets a critical failure instead.</p>"
        },
        "requirements": {
            "value": ""
        },
        "rules": [],
        "source": {
            "value": "Pathfinder #149: Against the Scarlet Triad"
        },
        "traits": {
            "custom": "",
            "rarity": "common",
            "value": [
                "downtime",
                "secret"
            ]
        },
        "trigger": {
            "value": ""
        }
    },
    "img": "systems/pf2ettw/icons/actions/Passive.webp",
    "name": "Forge Documents",
    "type": "action"
}
