{
    "_id": "BnKNrkcM6F3v0p7s",
    "data": {
        "actionCategory": {
            "value": "interaction"
        },
        "actionType": {
            "value": "passive"
        },
        "actions": {
            "value": null
        },
        "description": {
            "value": "<p>You pack up as many supplies as you can carry and make your way back to Bazal's Basin with food and water. Attempt a @Check[type:athletics|dc:34] check to determine the amount and quality of the food you manage to haul and keep safe from being damaged in the storm. A character who uses powerful magic (such as teleport) to aid in transporting the food automatically achieves a result one category higher than they roll.</p>\n<hr />\n<p><strong>Critical Success</strong> You return with 15 Bulk of supplies.</p>\n<p><strong>Success</strong> You return with 10 Bulk of supplies.</p>\n<p><strong>Failure</strong> Some of the food was damaged in transport, and you return with only 5 Bulk of supplies.</p>\n<p><strong>Critical Failure</strong> All of the supplies you attempted to transport are ruined.</p>"
        },
        "requirements": {
            "value": ""
        },
        "rules": [],
        "source": {
            "value": "Pathfinder #149: Against the Scarlet Triad"
        },
        "traits": {
            "custom": "",
            "rarity": "common",
            "value": [
                "exploration",
                "move"
            ]
        },
        "trigger": {
            "value": ""
        }
    },
    "img": "systems/pf2ettw/icons/actions/Passive.webp",
    "name": "Haul Supplies",
    "type": "action"
}
