{
    "_id": "o6hu1my40jfcLHqD",
    "data": {
        "actionCategory": {
            "value": "interaction"
        },
        "actionType": {
            "value": "passive"
        },
        "actions": {
            "value": null
        },
        "description": {
            "value": "<p>You dedicate a day to planning and hosting a special event, such as a feast, a small festival, or a public performance. Doing so requires an expenditure of 250 gp. Attempt a @Check[type:diplomacy|dc:36], @Check[type:performance|dc:36], @Check[type:society|dc:36], or appropriate Lore check. The result determines the impact of your efforts. You gain a cumulative +1 circumstance bonus to this check (maximum +4) for each additional 250 gp you spend on the event.</p>\n<hr />\n<p><strong>Critical Success</strong> Each PC gains a +2 circumstance bonus to skill checks to perform downtime activities for the next 3 days. Also, reduce the Support Points of two different guilds of your choice by 1.</p>\n<p><strong>Success</strong> Each PC gains a +1 circumstance bonus to skill checks to perform downtime activities the following day. In addition, reduce the Support Points of one guild of your choice by 1.</p>\n<p><strong>Critical Failure</strong> The party is a disaster. Each PC takes a -2 circumstance penalty to skill checks to perform downtime activities the following day.</p>"
        },
        "requirements": {
            "value": ""
        },
        "rules": [],
        "source": {
            "value": "Pathfinder #149: Against the Scarlet Triad"
        },
        "traits": {
            "custom": "",
            "rarity": "common",
            "value": [
                "downtime"
            ]
        },
        "trigger": {
            "value": ""
        }
    },
    "img": "systems/pf2ettw/icons/actions/Passive.webp",
    "name": "Host Event",
    "type": "action"
}
