{
    "_id": "YvSjpOAI9bCDQU5h",
    "data": {
        "actionCategory": {
            "value": "interaction"
        },
        "actionType": {
            "value": "passive"
        },
        "actions": {
            "value": null
        },
        "description": {
            "value": "<p>You help the elven hunters look for signs of animals. Attempt a @Check[type:nature|dc:17] check or @Check[type:perception|dc:17].</p>\n<hr />\n<p><strong>Critical Success</strong> You make an impressive and potentially dangerous find, such as a large pack of particularly healthy (and thus cranky) red river boars or a large waterbuck with razor-sharp horns. You also find signs of animals that are safer to hunt than your impressive and delicious find.</p>\n<p><strong>Success</strong> You discover signs of animals that are safe to hunt.</p>\n<p><strong>Failure</strong> Your efforts have scared away the best game, and the hunting party must set their sights on river turtles and bats.</p>\n<p><strong>Critical Failure</strong> Your efforts have scared away too many animals, leaving the hunting party with a sparse amount of game to catch. The party loses 2 IP.</p>"
        },
        "requirements": {
            "value": ""
        },
        "rules": [],
        "source": {
            "value": "Pathfinder #146: Cult of Cinders"
        },
        "traits": {
            "custom": "",
            "rarity": "common",
            "value": [
                "exploration"
            ]
        },
        "trigger": {
            "value": ""
        }
    },
    "img": "systems/pf2ettw/icons/actions/Passive.webp",
    "name": "Seek the Animals",
    "type": "action"
}
