{
    "_id": "5gahZQXf3UVwATSC",
    "data": {
        "actionCategory": {
            "value": "interaction"
        },
        "actionType": {
            "value": "action"
        },
        "actions": {
            "value": 1
        },
        "description": {
            "value": "<p><strong>Frequency</strong> once every 10 minutes</p>\n<hr />\n<p><strong>Effect</strong> You tell a story, designating one of your allies (but not yourself) as the hero of the story, and one enemy as the villain; both must be within 60 feet. The hero gains a +1 status bonus to attack rolls and saving throws against the villain until the start of your next turn. If you Spin a Tale on your next turn, the story continues for another round, for a maximum of 10 rounds. While the tale continues, minor, crude illusions spring into being in your space; these are arcane illusion effects that have no mechanical impact other than illustrating your tale.</p>\n<p>@Compendium[pf2ettw.feat-effects.Effect: Spin Tale]{Effect: Spin Tale}</p>"
        },
        "requirements": {
            "value": ""
        },
        "rules": [],
        "source": {
            "value": "Pathfinder #170: Spoken on the Song Wind"
        },
        "traits": {
            "custom": "",
            "rarity": "common",
            "value": [
                "auditory",
                "linguistic"
            ]
        },
        "trigger": {
            "value": ""
        }
    },
    "img": "systems/pf2ettw/icons/actions/OneAction.webp",
    "name": "Spin Tale",
    "type": "action"
}
