{
    "_id": "XUNM9eqfhnSaPVov",
    "data": {
        "actionCategory": {
            "value": "interaction"
        },
        "actionType": {
            "value": "passive"
        },
        "actions": {
            "value": null
        },
        "description": {
            "value": "<p><strong>Requirement</strong> PCs noticed the keys while Breaking and Entering.</p>\n<p><strong>Overcome</strong> @Check[type:thievery|dc:35]</p>\n<hr />\n<p>The PC steals a ring of keys that can unlock many of the manor's doors.</p>\n<hr />\n<p><strong>Success</strong> The PCs gain 1 Edge Point usable for opening locks.</p>"
        },
        "requirements": {
            "value": ""
        },
        "rules": [],
        "source": {
            "value": "Pathfinder #149: Against the Scarlet Triad"
        },
        "traits": {
            "custom": "",
            "rarity": "common",
            "value": [
                "exploration"
            ]
        },
        "trigger": {
            "value": ""
        }
    },
    "img": "systems/pf2ettw/icons/actions/Passive.webp",
    "name": "Steal Keys",
    "type": "action"
}
