{
    "_id": "cbviU6AtgD4Cp6fd",
    "data": {
        "attributes": {
            "ac": {
                "value": 0
            },
            "hardness": 0,
            "hasHealth": false,
            "hp": {
                "details": "",
                "max": 0,
                "temp": 0,
                "value": 0
            },
            "stealth": {
                "details": "<p>(master)</p>",
                "value": 24
            }
        },
        "creatureType": "",
        "details": {
            "description": "<p>An @Compendium[pf2ettw.conditionitems.Invisible]{Invisible} rune on the floor summons a @Compendium[pf2ettw.pathfinder-bestiary.Goliath Spider]{Goliath Spider} when disturbed by someone who isn't wearing Norgorber's religious symbol.</p>",
            "disable": "<p>@Check[type:thievery|dc:34|name:Erase the Rune|traits:uncommon,magical,trap,complex] (master) to erase the rune or <em>@Compendium[pf2ettw.spells-srd.Dispel Magic]{Dispel Magic}</em> (6th level; counteract DC 36)</em> to dispel the rune.</p>",
            "isComplex": true,
            "level": {
                "value": 11
            },
            "reset": "<p>The trap resets after 24 hours.</p>",
            "routine": ""
        },
        "saves": {
            "fortitude": {
                "saveDetail": "",
                "value": 0
            },
            "reflex": {
                "saveDetail": "",
                "value": 0
            },
            "will": {
                "saveDetail": "",
                "value": 0
            }
        },
        "source": {
            "value": ""
        },
        "statusEffects": [],
        "traits": {
            "ci": [],
            "di": {
                "custom": "",
                "selected": {},
                "value": []
            },
            "dr": [],
            "dv": [],
            "rarity": "uncommon",
            "size": {
                "value": "med"
            },
            "traits": {
                "custom": "",
                "value": [
                    "magical",
                    "trap"
                ]
            }
        }
    },
    "img": "systems/pf2ettw/icons/default-icons/hazard.svg",
    "items": [
        {
            "_id": "qukoi30nkcrl9vcl",
            "data": {
                "actionCategory": {
                    "value": "offensive"
                },
                "actionType": {
                    "value": "reaction"
                },
                "actions": {
                    "value": null
                },
                "description": {
                    "value": "<p><strong>Trigger</strong> A creature that isn't wearing a religious symbol of Norgorber enters the area above the rune</p><hr />\n<p><strong>Effect</strong> The trap summons a @Compendium[pf2ettw.pathfinder-bestiary.Goliath Spider]{Goliath Spider}. The goliath spider rolls initiative and remains for [[/r 2d6 #rounds]]{2d6 rounds}, after which the spell ends and the spider disappears. The spider also disappears if someone disables the trap before the duration expires. Unlike most summoned creatures, the goliath spider can use 3 actions each round and can use reactions.</p>"
                },
                "requirements": {
                    "value": ""
                },
                "rules": [],
                "slug": null,
                "source": {
                    "value": ""
                },
                "traits": {
                    "custom": "",
                    "rarity": "common",
                    "value": [
                        "conjuration",
                        "divine",
                        "summon"
                    ]
                },
                "trigger": {
                    "value": ""
                }
            },
            "img": "systems/pf2ettw/icons/actions/Reaction.webp",
            "name": "Summon Animal",
            "sort": 0,
            "type": "action"
        }
    ],
    "name": "Spider Summoning Rune",
    "token": {
        "disposition": 0,
        "height": 1,
        "img": "systems/pf2ettw/icons/default-icons/hazard.svg",
        "name": "Spider Summoning Rune",
        "width": 1
    },
    "type": "hazard"
}
