{
    "_id": "g41X4b3q2iDMLRt3",
    "data": {
        "abilities": {
            "cha": {
                "mod": 8
            },
            "con": {
                "mod": 9
            },
            "dex": {
                "mod": 5
            },
            "int": {
                "mod": 5
            },
            "str": {
                "mod": 9
            },
            "wis": {
                "mod": 6
            }
        },
        "attributes": {
            "ac": {
                "details": "",
                "value": 47
            },
            "allSaves": {
                "value": "+1 status to all saves vs. magic"
            },
            "hp": {
                "details": "",
                "max": 500,
                "temp": 0,
                "value": 500
            },
            "initiative": {
                "ability": "perception"
            },
            "perception": {
                "value": 37
            },
            "speed": {
                "otherSpeeds": [
                    {
                        "type": "fly",
                        "value": "180"
                    }
                ],
                "value": "60"
            }
        },
        "details": {
            "alignment": {
                "value": "CE"
            },
            "blurb": "",
            "creatureType": "Dragon, Undead",
            "level": {
                "value": 21
            },
            "privateNotes": "",
            "publicNotes": "<p>The ravener presented here was once an ancient red dragon.</p>",
            "source": {
                "value": "Pathfinder Bestiary 2"
            }
        },
        "resources": {
            "focus": {
                "max": 1,
                "value": 1
            }
        },
        "saves": {
            "fortitude": {
                "saveDetail": "",
                "value": 38
            },
            "reflex": {
                "saveDetail": "",
                "value": 34
            },
            "will": {
                "saveDetail": "",
                "value": 37
            }
        },
        "traits": {
            "attitude": {
                "value": "hostile"
            },
            "ci": [],
            "di": {
                "custom": "",
                "value": [
                    "death-effects",
                    "disease",
                    "fire",
                    "paralyzed",
                    "poison",
                    "sleep"
                ]
            },
            "dr": [],
            "dv": [
                {
                    "label": "Cold",
                    "type": "cold",
                    "value": "20"
                },
                {
                    "label": "Good",
                    "type": "good",
                    "value": "20"
                }
            ],
            "languages": {
                "custom": "",
                "selected": [],
                "value": [
                    "abyssal",
                    "common",
                    "draconic",
                    "dwarven",
                    "jotun",
                    "necril",
                    "orcish"
                ]
            },
            "rarity": "rare",
            "senses": {
                "value": "darkvision, scent (imprecise) 60 feet, smoke vision, soulsense 60 feet"
            },
            "size": {
                "value": "grg"
            },
            "traits": {
                "custom": "",
                "value": [
                    "dragon",
                    "fire",
                    "undead"
                ]
            }
        }
    },
    "img": "systems/pf2ettw/icons/default-icons/npc.svg",
    "items": [
        {
            "_id": "XRAQMcQEssAaMi02",
            "data": {
                "autoHeightenLevel": {
                    "value": null
                },
                "description": {
                    "value": ""
                },
                "displayLevels": {},
                "prepared": {
                    "flexible": false,
                    "value": "innate"
                },
                "proficiency": {
                    "value": 0
                },
                "rules": [],
                "showSlotlessLevels": {
                    "value": true
                },
                "showUnpreparedSpells": {
                    "value": false
                },
                "slots": {
                    "slot0": {
                        "max": 0,
                        "prepared": [],
                        "value": 0
                    },
                    "slot1": {
                        "max": 0,
                        "prepared": [],
                        "value": 0
                    },
                    "slot10": {
                        "max": 0,
                        "prepared": [],
                        "value": 0
                    },
                    "slot11": {
                        "max": 0,
                        "prepared": [],
                        "value": 0
                    },
                    "slot2": {
                        "max": 0,
                        "prepared": [],
                        "value": 0
                    },
                    "slot3": {
                        "max": 0,
                        "prepared": [],
                        "value": 0
                    },
                    "slot4": {
                        "max": 0,
                        "prepared": [],
                        "value": 0
                    },
                    "slot5": {
                        "max": 0,
                        "prepared": [],
                        "value": 0
                    },
                    "slot6": {
                        "max": 0,
                        "prepared": [],
                        "value": 0
                    },
                    "slot7": {
                        "max": 0,
                        "prepared": [],
                        "value": 0
                    },
                    "slot8": {
                        "max": 0,
                        "prepared": [],
                        "value": 0
                    },
                    "slot9": {
                        "max": 0,
                        "prepared": [],
                        "value": 0
                    }
                },
                "slug": null,
                "source": {
                    "value": ""
                },
                "spelldc": {
                    "dc": 44,
                    "item": 0,
                    "mod": 0,
                    "value": 34
                },
                "tradition": {
                    "value": "arcane"
                },
                "traits": {
                    "custom": "",
                    "rarity": "common",
                    "value": []
                }
            },
            "img": "systems/pf2ettw/icons/default-icons/spellcastingEntry.svg",
            "name": "Arcane Innate Spells",
            "sort": 100000,
            "type": "spellcastingEntry"
        },
        {
            "_id": "8gcJAk8CnEreKNfO",
            "data": {
                "ability": {
                    "value": ""
                },
                "area": {
                    "areaType": "",
                    "value": null
                },
                "areasize": {
                    "value": ""
                },
                "category": {
                    "value": "spell"
                },
                "components": {
                    "focus": false,
                    "material": true,
                    "somatic": true,
                    "verbal": true
                },
                "cost": {
                    "value": ""
                },
                "damage": {
                    "value": {
                        "0": {
                            "type": {
                                "categories": [],
                                "value": "fire"
                            },
                            "value": "8d6"
                        }
                    }
                },
                "description": {
                    "value": "<p>You raise a blazing wall that burns creatures passing through it. You create either a 5-foot-thick wall of flame in a straight line up to 60 feet long and 10 feet high, or a 5-foot-thick, 10-foot-radius ring of flame with the same height. The wall stands vertically in either form; if you wish, the wall can be of a shorter length or height. Everything on each side of the wall is @Compendium[pf2ettw.conditionitems.Concealed]{Concealed} from creatures on the opposite side. Any creature that crosses the wall or is occupying the wall's area at the start of its turn takes 4d6 fire damage.</p>\n<hr />\n<p><strong>Heightened (+1)</strong> The fire damage increases by 1d6.</p>"
                },
                "duration": {
                    "value": "1 minute"
                },
                "hasCounteractCheck": {
                    "value": false
                },
                "heightening": {
                    "damage": {
                        "0": "1d6"
                    },
                    "interval": 1,
                    "type": "interval"
                },
                "level": {
                    "value": 8
                },
                "location": {
                    "value": "XRAQMcQEssAaMi02"
                },
                "materials": {
                    "value": ""
                },
                "prepared": {
                    "value": ""
                },
                "primarycheck": {
                    "value": ""
                },
                "range": {
                    "value": "120 feet"
                },
                "rules": [],
                "save": {
                    "basic": "",
                    "value": ""
                },
                "school": {
                    "value": "evocation"
                },
                "secondarycasters": {
                    "value": ""
                },
                "secondarycheck": {
                    "value": ""
                },
                "slug": "wall-of-fire",
                "source": {
                    "value": ""
                },
                "spellType": {
                    "value": "utility"
                },
                "sustained": {
                    "value": false
                },
                "target": {
                    "value": ""
                },
                "time": {
                    "value": "3"
                },
                "traditions": {
                    "value": [
                        "arcane",
                        "primal"
                    ]
                },
                "traits": {
                    "custom": "",
                    "rarity": "common",
                    "value": [
                        "fire"
                    ]
                }
            },
            "flags": {
                "core": {
                    "sourceId": "Compendium.pf2ettw.spells-srd.IarZrgCeaiUqOuRu"
                }
            },
            "img": "systems/pf2ettw/icons/spells/wall-of-fire.webp",
            "name": "Wall of Fire (At Will)",
            "sort": 200000,
            "type": "spell"
        },
        {
            "_id": "7rYfyAQXss9duKBu",
            "data": {
                "ability": {
                    "value": ""
                },
                "area": {
                    "areaType": "",
                    "value": null
                },
                "areasize": {
                    "value": ""
                },
                "category": {
                    "value": "spell"
                },
                "components": {
                    "focus": false,
                    "material": false,
                    "somatic": true,
                    "verbal": true
                },
                "cost": {
                    "value": ""
                },
                "damage": {
                    "value": {}
                },
                "description": {
                    "value": "<p>Your honeyed words are difficult for creatures to resist. You suggest a course of action to the target, which must be phrased in such a way as to seem like a logical course of action to the target and can't be self-destructive or obviously against the target's self-interest. The target must attempt a Will save.</p>\n<hr /><strong>Critical Success</strong> The target is unaffected and knows you tried to control it.\n<p><strong>Success</strong> The target is unaffected and thinks you were talking to them normally, not casting a spell on them.</p>\n<p><strong>Failure</strong> The target immediately follows your suggestion. The spell has a duration of 1 minute, or until the target has completed a finite suggestion or the suggestion becomes self-destructive or has other obvious negative effects.</p>\n<p><strong>Critical Failure</strong> As failure, but the base duration is 1 hour.</p>\n<hr /><strong>Heightened (8th)</strong> You can target up to 10 creatures."
                },
                "duration": {
                    "value": "varies"
                },
                "hasCounteractCheck": {
                    "value": false
                },
                "level": {
                    "value": 4
                },
                "location": {
                    "value": "XRAQMcQEssAaMi02"
                },
                "materials": {
                    "value": ""
                },
                "prepared": {
                    "value": ""
                },
                "primarycheck": {
                    "value": ""
                },
                "range": {
                    "value": "30 feet"
                },
                "rules": [],
                "save": {
                    "basic": "",
                    "value": "will"
                },
                "school": {
                    "value": "enchantment"
                },
                "secondarycasters": {
                    "value": ""
                },
                "secondarycheck": {
                    "value": ""
                },
                "slug": "suggestion",
                "source": {
                    "value": ""
                },
                "spellType": {
                    "value": "save"
                },
                "sustained": {
                    "value": false
                },
                "target": {
                    "value": "1 creature"
                },
                "time": {
                    "value": "2"
                },
                "traditions": {
                    "value": [
                        "arcane",
                        "occult"
                    ]
                },
                "traits": {
                    "custom": "",
                    "rarity": "common",
                    "value": [
                        "incapacitation",
                        "linguistic",
                        "mental"
                    ]
                }
            },
            "flags": {
                "core": {
                    "sourceId": "Compendium.pf2ettw.spells-srd.qwlh6aDgi86U3Q7H"
                }
            },
            "img": "systems/pf2ettw/icons/spells/suggestion.webp",
            "name": "Suggestion (At Will)",
            "sort": 300000,
            "type": "spell"
        },
        {
            "_id": "cl53LLrZpaVbVWIa",
            "data": {
                "ability": {
                    "value": ""
                },
                "area": {
                    "areaType": "emanation",
                    "value": 30
                },
                "areasize": {
                    "value": "30-foot emanation"
                },
                "category": {
                    "value": "spell"
                },
                "components": {
                    "focus": false,
                    "material": false,
                    "somatic": true,
                    "verbal": true
                },
                "cost": {
                    "value": ""
                },
                "damage": {
                    "value": {}
                },
                "description": {
                    "value": "<p>You send out a pulse that registers the presence of magic. You receive no information beyond the presence or absence of magic. You can choose to ignore magic you're fully aware of, such as the magic items and ongoing spells of you and your allies.</p>\n<p>You detect illusion magic only if that magic's effect has a lower level than the level of your detect magic spell. However, items that have an illusion aura but aren't deceptive in appearance (such as an invisibility potion) typically are detected normally.</p>\n<hr />\n<p><strong>Heightened (3rd)</strong> You learn the school of magic for the highest-level effect within range that the spell detects. If multiple effects are equally strong, the GM determines which you learn.</p>\n<p><strong>Heightened (4th)</strong> As 3rd level, but you also pinpoint the source of the highest-level magic. Like for an imprecise sense, you don't learn the exact location, but can narrow down the source to within a 5-foot cube (or the nearest if larger than that).</p>"
                },
                "duration": {
                    "value": ""
                },
                "hasCounteractCheck": {
                    "value": false
                },
                "level": {
                    "value": 1
                },
                "location": {
                    "value": "XRAQMcQEssAaMi02"
                },
                "materials": {
                    "value": ""
                },
                "prepared": {
                    "value": ""
                },
                "primarycheck": {
                    "value": ""
                },
                "range": {
                    "value": ""
                },
                "rules": [],
                "save": {
                    "basic": "",
                    "value": ""
                },
                "school": {
                    "value": "divination"
                },
                "secondarycasters": {
                    "value": ""
                },
                "secondarycheck": {
                    "value": ""
                },
                "slug": "detect-magic",
                "source": {
                    "value": ""
                },
                "spellType": {
                    "value": "utility"
                },
                "sustained": {
                    "value": false
                },
                "target": {
                    "value": ""
                },
                "time": {
                    "value": "2"
                },
                "traditions": {
                    "custom": "",
                    "value": [
                        "arcane",
                        "divine",
                        "occult",
                        "primal"
                    ]
                },
                "traits": {
                    "custom": "",
                    "rarity": "common",
                    "value": [
                        "detection",
                        "cantrip"
                    ]
                }
            },
            "flags": {
                "core": {
                    "sourceId": "Compendium.pf2ettw.spells-srd.gpzpAAAJ1Lza2JVl"
                }
            },
            "img": "systems/pf2ettw/icons/spells/detect-magic.webp",
            "name": "Detect Magic",
            "sort": 400000,
            "type": "spell"
        },
        {
            "_id": "Y2wvaDI6zWT0tn0T",
            "data": {
                "ability": {
                    "value": ""
                },
                "area": {
                    "areaType": "",
                    "value": null
                },
                "areasize": {
                    "value": ""
                },
                "category": {
                    "value": "spell"
                },
                "components": {
                    "focus": false,
                    "material": false,
                    "somatic": true,
                    "verbal": true
                },
                "cost": {
                    "value": ""
                },
                "damage": {
                    "value": {}
                },
                "description": {
                    "value": "<p>You focus on the target object, opening your mind to perceive magical auras. When the casting is complete, you know whether that item is magical, and if it is, you learn the school of magic.</p>\n<p>If the object is illusory, you detect this only if the effect's level is lower than the level of your read aura spell.</p>\n<hr />\n<p><strong>Heightened (3rd)</strong> You can target up to 10 objects.</p>\n<p><strong>Heightened (6th)</strong> You can target any number of objects.</p>"
                },
                "duration": {
                    "value": ""
                },
                "hasCounteractCheck": {
                    "value": false
                },
                "level": {
                    "value": 1
                },
                "location": {
                    "value": "XRAQMcQEssAaMi02"
                },
                "materials": {
                    "value": ""
                },
                "prepared": {
                    "value": ""
                },
                "primarycheck": {
                    "value": ""
                },
                "range": {
                    "value": "30 feet"
                },
                "rules": [],
                "save": {
                    "basic": "",
                    "value": ""
                },
                "school": {
                    "value": "divination"
                },
                "secondarycasters": {
                    "value": ""
                },
                "secondarycheck": {
                    "value": ""
                },
                "slug": "read-aura",
                "source": {
                    "value": ""
                },
                "spellType": {
                    "value": "utility"
                },
                "sustained": {
                    "value": false
                },
                "target": {
                    "value": "1 object"
                },
                "time": {
                    "value": "1 Minute"
                },
                "traditions": {
                    "custom": "",
                    "value": [
                        "arcane",
                        "divine",
                        "occult",
                        "primal"
                    ]
                },
                "traits": {
                    "custom": "",
                    "rarity": "common",
                    "value": [
                        "detection",
                        "cantrip"
                    ]
                }
            },
            "flags": {
                "core": {
                    "sourceId": "Compendium.pf2ettw.spells-srd.OhD2Z6rIGGD5ocZA"
                }
            },
            "img": "systems/pf2ettw/icons/spells/read-aura.webp",
            "name": "Read Aura",
            "sort": 500000,
            "type": "spell"
        },
        {
            "_id": "CTeYc8gFkSPfWH7F",
            "data": {
                "attack": {
                    "value": ""
                },
                "attackEffects": {
                    "value": []
                },
                "bonus": {
                    "value": 39
                },
                "damageRolls": {
                    "0": {
                        "damage": "4d10+17",
                        "damageType": "piercing"
                    },
                    "1": {
                        "damage": "3d6",
                        "damageType": "fire"
                    },
                    "2": {
                        "damage": "2d6",
                        "damageType": "negative"
                    }
                },
                "description": {
                    "value": ""
                },
                "rules": [],
                "slug": null,
                "source": {
                    "value": ""
                },
                "traits": {
                    "custom": "",
                    "rarity": "common",
                    "value": [
                        "fire",
                        "magical",
                        "reach-20"
                    ]
                },
                "weaponType": {
                    "value": "melee"
                }
            },
            "img": "systems/pf2ettw/icons/default-icons/melee.svg",
            "name": "Jaws",
            "sort": 600000,
            "type": "melee"
        },
        {
            "_id": "eBR0R2mRoSAc5xwp",
            "data": {
                "attack": {
                    "value": ""
                },
                "attackEffects": {
                    "value": []
                },
                "bonus": {
                    "value": 39
                },
                "damageRolls": {
                    "0": {
                        "damage": "4d8+17",
                        "damageType": "slashing"
                    },
                    "1": {
                        "damage": "2d6",
                        "damageType": "negative"
                    }
                },
                "description": {
                    "value": ""
                },
                "rules": [],
                "slug": null,
                "source": {
                    "value": ""
                },
                "traits": {
                    "custom": "",
                    "rarity": "common",
                    "value": [
                        "agile",
                        "magical",
                        "reach-15"
                    ]
                },
                "weaponType": {
                    "value": "melee"
                }
            },
            "img": "systems/pf2ettw/icons/default-icons/melee.svg",
            "name": "Claw",
            "sort": 700000,
            "type": "melee"
        },
        {
            "_id": "Oz0PpydQ8KCagat3",
            "data": {
                "attack": {
                    "value": ""
                },
                "attackEffects": {
                    "value": []
                },
                "bonus": {
                    "value": 37
                },
                "damageRolls": {
                    "0": {
                        "damage": "4d10+15",
                        "damageType": "slashing"
                    },
                    "1": {
                        "damage": "2d6",
                        "damageType": "negative"
                    }
                },
                "description": {
                    "value": ""
                },
                "rules": [],
                "slug": null,
                "source": {
                    "value": ""
                },
                "traits": {
                    "custom": "",
                    "rarity": "common",
                    "value": [
                        "magical",
                        "reach-25"
                    ]
                },
                "weaponType": {
                    "value": "melee"
                }
            },
            "img": "systems/pf2ettw/icons/default-icons/melee.svg",
            "name": "Tail",
            "sort": 800000,
            "type": "melee"
        },
        {
            "_id": "Xb5fg9Wf3Iiz5qeu",
            "data": {
                "attack": {
                    "value": ""
                },
                "attackEffects": {
                    "value": []
                },
                "bonus": {
                    "value": 37
                },
                "damageRolls": {
                    "0": {
                        "damage": "3d8+15",
                        "damageType": "slashing"
                    },
                    "1": {
                        "damage": "2d6",
                        "damageType": "negative"
                    }
                },
                "description": {
                    "value": ""
                },
                "rules": [],
                "slug": null,
                "source": {
                    "value": ""
                },
                "traits": {
                    "custom": "",
                    "rarity": "common",
                    "value": [
                        "agile",
                        "magical",
                        "reach-20"
                    ]
                },
                "weaponType": {
                    "value": "melee"
                }
            },
            "img": "systems/pf2ettw/icons/default-icons/melee.svg",
            "name": "Wing",
            "sort": 900000,
            "type": "melee"
        },
        {
            "_id": "K8JEIxdXOOyv0Mm6",
            "data": {
                "actionCategory": {
                    "value": "interaction"
                },
                "actionType": {
                    "value": "passive"
                },
                "actions": {
                    "value": null
                },
                "description": {
                    "value": "<p>@Localize[pf2ettw.NPC.Abilities.Glossary.Darkvision]</p>"
                },
                "requirements": {
                    "value": ""
                },
                "rules": [],
                "slug": "darkvision",
                "source": {
                    "value": "Pathfinder Bestiary"
                },
                "traits": {
                    "custom": "",
                    "rarity": "common",
                    "value": []
                },
                "trigger": {
                    "value": ""
                },
                "weapon": {
                    "value": ""
                }
            },
            "flags": {
                "core": {
                    "sourceId": "Compendium.pf2ettw.bestiary-ability-glossary-srd.qCCLZhnp2HhP3Ex6"
                }
            },
            "img": "systems/pf2ettw/icons/actions/Passive.webp",
            "name": "Darkvision",
            "sort": 1000000,
            "type": "action"
        },
        {
            "_id": "E9aF47rwjTOQ1OTC",
            "data": {
                "actionCategory": {
                    "value": "interaction"
                },
                "actionType": {
                    "value": "passive"
                },
                "actions": {
                    "value": null
                },
                "description": {
                    "value": "<p>@Localize[pf2ettw.NPC.Abilities.Glossary.Scent]</p>"
                },
                "requirements": {
                    "value": ""
                },
                "rules": [],
                "slug": "scent",
                "source": {
                    "value": "Pathfinder Bestiary"
                },
                "traits": {
                    "custom": "",
                    "rarity": "common",
                    "value": []
                },
                "trigger": {
                    "value": ""
                },
                "weapon": {
                    "value": ""
                }
            },
            "flags": {
                "core": {
                    "sourceId": "Compendium.pf2ettw.bestiary-ability-glossary-srd.rqfnQ5VHT5hxm25r"
                }
            },
            "img": "systems/pf2ettw/icons/actions/Passive.webp",
            "name": "Scent",
            "sort": 1100000,
            "type": "action"
        },
        {
            "_id": "HHscPOBzNRjg9IJ5",
            "data": {
                "actionCategory": {
                    "value": "interaction"
                },
                "actionType": {
                    "value": "passive"
                },
                "actions": {
                    "value": null
                },
                "description": {
                    "value": "<p>Smoke doesn't impair an ancient red ravener's vision; it ignores the @Compendium[pf2ettw.conditionitems.Concealed]{Concealed} condition from smoke.</p>"
                },
                "requirements": {
                    "value": ""
                },
                "rules": [],
                "slug": null,
                "source": {
                    "value": ""
                },
                "traits": {
                    "custom": "",
                    "rarity": "common",
                    "value": []
                },
                "trigger": {
                    "value": ""
                },
                "weapon": {
                    "value": ""
                }
            },
            "img": "systems/pf2ettw/icons/actions/Passive.webp",
            "name": "Smoke Vision",
            "sort": 1200000,
            "type": "action"
        },
        {
            "_id": "0dTEwPV9TXqDzFno",
            "data": {
                "actionCategory": {
                    "value": "interaction"
                },
                "actionType": {
                    "value": "passive"
                },
                "actions": {
                    "value": null
                },
                "description": {
                    "value": "<p>A ravener senses the spiritual essence of living and undead creatures within the listed range. Creatures whose material bodies are one unit with their souls, like celestials and fiends, appear brighter to this sense.</p>"
                },
                "requirements": {
                    "value": ""
                },
                "rules": [],
                "slug": null,
                "source": {
                    "value": ""
                },
                "traits": {
                    "custom": "",
                    "rarity": "common",
                    "value": []
                },
                "trigger": {
                    "value": ""
                },
                "weapon": {
                    "value": ""
                }
            },
            "img": "systems/pf2ettw/icons/actions/Passive.webp",
            "name": "Soulsense",
            "sort": 1300000,
            "type": "action"
        },
        {
            "_id": "OBbctD8lNz3bU0yf",
            "data": {
                "actionCategory": {
                    "value": "interaction"
                },
                "actionType": {
                    "value": "passive"
                },
                "actions": {
                    "value": null
                },
                "description": {
                    "value": "<p>@Localize[pf2ettw.NPC.Abilities.Glossary.AtWillSpells]</p>"
                },
                "requirements": {
                    "value": ""
                },
                "rules": [],
                "slug": "at-will-spells",
                "source": {
                    "value": "Pathfinder Bestiary"
                },
                "traits": {
                    "custom": "",
                    "rarity": "common",
                    "value": []
                },
                "trigger": {
                    "value": ""
                },
                "weapon": {
                    "value": ""
                }
            },
            "flags": {
                "core": {
                    "sourceId": "Compendium.pf2ettw.bestiary-ability-glossary-srd.2YRDYVnC1eljaXKK"
                }
            },
            "img": "systems/pf2ettw/icons/actions/Passive.webp",
            "name": "At-Will Spells",
            "sort": 1400000,
            "type": "action"
        },
        {
            "_id": "rCDCEl5KfuYha1bo",
            "data": {
                "actionCategory": {
                    "value": "defensive"
                },
                "actionType": {
                    "value": "reaction"
                },
                "actions": {
                    "value": null
                },
                "description": {
                    "value": "<p>Jaws only.</p>\n<hr />\n<p>@Localize[pf2ettw.NPC.Abilities.Glossary.AttackOfOpportunity]</p>"
                },
                "requirements": {
                    "value": ""
                },
                "rules": [],
                "slug": "attack-of-opportunity",
                "source": {
                    "value": "Pathfinder Bestiary"
                },
                "traits": {
                    "custom": "",
                    "rarity": "common",
                    "value": []
                },
                "trigger": {
                    "value": ""
                },
                "weapon": {
                    "value": ""
                }
            },
            "flags": {
                "core": {
                    "sourceId": "Compendium.pf2ettw.bestiary-ability-glossary-srd.hFtNbo1LKYCoDy2O"
                }
            },
            "img": "systems/pf2ettw/icons/actions/Reaction.webp",
            "name": "Attack of Opportunity",
            "sort": 1500000,
            "type": "action"
        },
        {
            "_id": "gKqI8aZDucHlpC9C",
            "data": {
                "actionCategory": {
                    "value": "defensive"
                },
                "actionType": {
                    "value": "passive"
                },
                "actions": {
                    "value": null
                },
                "description": {
                    "value": "<p>90 feet, DC 42.</p>\n<p>A ravener's frightful presence causes creatures to cower in fear as well. As long as a creature is at least frightened 2 or more as a result of the ravener's frightful presence, it is also immobilized from the fear.</p>"
                },
                "requirements": {
                    "value": ""
                },
                "rules": [],
                "slug": null,
                "source": {
                    "value": ""
                },
                "traits": {
                    "custom": "",
                    "rarity": "common",
                    "value": [
                        "aura",
                        "emotion",
                        "fear",
                        "mental"
                    ]
                },
                "trigger": {
                    "value": ""
                },
                "weapon": {
                    "value": ""
                }
            },
            "img": "systems/pf2ettw/icons/actions/Passive.webp",
            "name": "Cowering Fear",
            "sort": 1600000,
            "type": "action"
        },
        {
            "_id": "Qzr8MBWWm4DE5P8H",
            "data": {
                "actionCategory": {
                    "value": "defensive"
                },
                "actionType": {
                    "value": "free"
                },
                "actions": {
                    "value": null
                },
                "description": {
                    "value": "<p><strong>Trigger</strong> The ravener takes excess damage to their soul ward but still has at least 51 Hit Points in their soul ward</p>\n<hr />\n<p><strong>Effect</strong> The ravener draws deeply into their soul ward, discorporating their body into soul energy in order to escape. They take 50 damage to their soul ward and their physical body vanishes, reappearing [[/r 1d4 #hours]]{1d4 hours} later in a random location within 1 mile from the location where they used Discorporate.</p>"
                },
                "requirements": {
                    "value": ""
                },
                "rules": [],
                "slug": null,
                "source": {
                    "value": ""
                },
                "traits": {
                    "custom": "",
                    "rarity": "common",
                    "value": []
                },
                "trigger": {
                    "value": ""
                },
                "weapon": {
                    "value": ""
                }
            },
            "img": "systems/pf2ettw/icons/actions/FreeAction.webp",
            "name": "Discorporate",
            "sort": 1700000,
            "type": "action"
        },
        {
            "_id": "Smr9bqHYQl1EI48C",
            "data": {
                "actionCategory": {
                    "value": "defensive"
                },
                "actionType": {
                    "value": "passive"
                },
                "actions": {
                    "value": null
                },
                "description": {
                    "value": "<p>10 feet, [[/r {4d6}[fire]]]{4d6 fire damage} (@Check[type:reflex|dc:41|basic:true] save)</p>"
                },
                "requirements": {
                    "value": ""
                },
                "rules": [],
                "slug": null,
                "source": {
                    "value": ""
                },
                "traits": {
                    "custom": "",
                    "rarity": "common",
                    "value": [
                        "arcane",
                        "aura",
                        "evocation",
                        "fire"
                    ]
                },
                "trigger": {
                    "value": ""
                },
                "weapon": {
                    "value": ""
                }
            },
            "img": "systems/pf2ettw/icons/actions/Passive.webp",
            "name": "Dragon Heat",
            "sort": 1800000,
            "type": "action"
        },
        {
            "_id": "d68HrWYDDAvuRFIR",
            "data": {
                "actionCategory": {
                    "value": "defensive"
                },
                "actionType": {
                    "value": "reaction"
                },
                "actions": {
                    "value": null
                },
                "description": {
                    "value": "<p><strong>Trigger</strong> A creature within 100 feet casts a fire spell, or a fire spell otherwise comes into effect from a source within 100 feet</p>\n<hr />\n<p><strong>Effect</strong> The ravener makes all the choices to determine the targets, destination, and other effects of the spell, as though they were the caster.</p>"
                },
                "requirements": {
                    "value": ""
                },
                "rules": [],
                "slug": null,
                "source": {
                    "value": ""
                },
                "traits": {
                    "custom": "",
                    "rarity": "common",
                    "value": [
                        "abjuration",
                        "arcane",
                        "fire"
                    ]
                },
                "trigger": {
                    "value": ""
                },
                "weapon": {
                    "value": ""
                }
            },
            "img": "systems/pf2ettw/icons/actions/Reaction.webp",
            "name": "Redirect Fire",
            "sort": 1900000,
            "type": "action"
        },
        {
            "_id": "kxiMCVyD0e1fsT96",
            "data": {
                "actionCategory": {
                    "value": "defensive"
                },
                "actionType": {
                    "value": "passive"
                },
                "actions": {
                    "value": null
                },
                "description": {
                    "value": "<p>200 HP</p>\n<p>An intangible field of necromantic energy protects a ravener from total destruction. A soul ward has 150 maximum Hit Points, or 200 if the ravener is level 21 or higher. Whenever a ravener would be reduced below 1 Hit Point, all damage in excess of what would reduce them to 1 Hit Point is instead dealt to their soul ward. If this damage reduces the soul ward to fewer than 0 Hit Points, the ravener is destroyed. A soul ward's Hit Points can be restored only via specific ravener abilities such as Consume Soul, ravenous breath, or vicious criticals. A ravener who goes more than a week without successfully using Consume Soul to feed on a dying creature starves, and their soul ward loses [[/r {1d4}[healing]]]{1d4 Hit Points} each day until they feed. If the ravener's soul ward loses all its Hit Points while the ravener still has more than 1 HP, they become a ravener husk.</p>"
                },
                "requirements": {
                    "value": ""
                },
                "rules": [],
                "slug": null,
                "source": {
                    "value": ""
                },
                "traits": {
                    "custom": "",
                    "rarity": "common",
                    "value": []
                },
                "trigger": {
                    "value": ""
                },
                "weapon": {
                    "value": ""
                }
            },
            "img": "systems/pf2ettw/icons/actions/Passive.webp",
            "name": "Soul Ward",
            "sort": 2000000,
            "type": "action"
        },
        {
            "_id": "v8A5DhitrEJIAAL1",
            "data": {
                "actionCategory": {
                    "value": "offensive"
                },
                "actionType": {
                    "value": "free"
                },
                "actions": {
                    "value": null
                },
                "description": {
                    "value": "<p>DC 44</p>\n<p><strong>Trigger</strong> A living creature within 30 feet of the ravener dies</p>\n<hr />\n<p><strong>Effect</strong> The ravener tears the creature's soul from its body with their maw and gulps it down. The dying creature must attempt a Fortitude save with the same DC as the ravener's Breath Weapon.</p>\n<hr />\n<p><strong>Critical Success</strong> The creature is unaffected.</p>\n<p><strong>Success</strong> The ravener tears off a small chunk of the creature's soul. If the victim is restored to life, they are @Compendium[pf2ettw.conditionitems.Drained]{Drained 1} in addition to any other side effects of returning to life. The ravener adds a number of Hit Points to their soul ward equal to half the creature's level.</p>\n<p><strong>Failure</strong> As success, but the creature's soul is ravaged. The creature is @Compendium[pf2ettw.conditionitems.Drained]{Drained 3} and the ravener adds a number of Hit Points to their soul ward equal to the creature's level.</p>\n<p><strong>Critical Failure</strong> As failure, but the ravener devours the entire soul. The victim can't be restored to life as long as the ravener exists except via a 10th-level effect such as miracle or wish, and the ravener adds a number of Hit Points to their soul ward equal to twice the creature's level.</p>"
                },
                "requirements": {
                    "value": ""
                },
                "rules": [],
                "slug": null,
                "source": {
                    "value": ""
                },
                "traits": {
                    "custom": "",
                    "rarity": "common",
                    "value": []
                },
                "trigger": {
                    "value": ""
                },
                "weapon": {
                    "value": ""
                }
            },
            "img": "systems/pf2ettw/icons/actions/FreeAction.webp",
            "name": "Consume Soul",
            "sort": 2100000,
            "type": "action"
        },
        {
            "_id": "RwVJwyaaTesWbfgR",
            "data": {
                "actionCategory": {
                    "value": "offensive"
                },
                "actionType": {
                    "value": "action"
                },
                "actions": {
                    "value": 1
                },
                "description": {
                    "value": "<p>The ravener attempts to take control of a magical fire or a fire spell within 100 feet. If it succeeds at a counteract check (counteract level 10, counteract modifier +34), the original caster loses control of the spell or magical fire, control is transferred to the ravener, and this action counts as the ravener having Sustained the Spell with the action (if applicable). The ravener can choose to end the spell instead of taking control, if they choose.</p>"
                },
                "requirements": {
                    "value": ""
                },
                "rules": [],
                "slug": null,
                "source": {
                    "value": ""
                },
                "traits": {
                    "custom": "",
                    "rarity": "common",
                    "value": [
                        "arcane",
                        "concentrate",
                        "transmutation",
                        "fire"
                    ]
                },
                "trigger": {
                    "value": ""
                },
                "weapon": {
                    "value": ""
                }
            },
            "img": "systems/pf2ettw/icons/actions/OneAction.webp",
            "name": "Manipulate Flames",
            "sort": 2200000,
            "type": "action"
        },
        {
            "_id": "uMVIaXXt18rDrOPn",
            "data": {
                "actionCategory": {
                    "value": "offensive"
                },
                "actionType": {
                    "value": "action"
                },
                "actions": {
                    "value": 2
                },
                "description": {
                    "value": "<p>The ravener breathes a blast of flame that deals [[/r {20d6}[fire]]]{20d6 fire damage} plus [[/r {4d6}[persistent,negative]]] @Compendium[pf2ettw.conditionitems.Persistent Damage]{Persistent Negative Damage} (@Check[type:reflex|dc:44|basic:true] save). A creature that fails its save is also @Compendium[pf2ettw.conditionitems.Drained]{Drained 1} (or @Compendium[pf2ettw.conditionitems.Drained]{Drained 2} on a critical failure). If a creature is drained by the ravener's Ravenous Breath Weapon, the ravener's soul ward gains 5 HP.</p>\n<p>The ravener can't use Breath Weapon again for [[/br 1d4 #rounds]]{1d4 rounds}.</p>"
                },
                "requirements": {
                    "value": ""
                },
                "rules": [],
                "slug": null,
                "source": {
                    "value": ""
                },
                "traits": {
                    "custom": "",
                    "rarity": "common",
                    "value": [
                        "arcane",
                        "evocation",
                        "fire"
                    ]
                },
                "trigger": {
                    "value": ""
                },
                "weapon": {
                    "value": ""
                }
            },
            "img": "systems/pf2ettw/icons/actions/TwoActions.webp",
            "name": "Ravenous Breath Weapon",
            "sort": 2300000,
            "type": "action"
        },
        {
            "_id": "kGZni5n9AHCuIa7c",
            "data": {
                "actionCategory": {
                    "value": "offensive"
                },
                "actionType": {
                    "value": "passive"
                },
                "actions": {
                    "value": null
                },
                "description": {
                    "value": "<p>The ravener treats an attack roll as a critical hit on a roll of 19 or 20, as long as the attack roll was a success. Additionally, whenever the ravener makes a critical hit with one of their Strikes, the target must succeed on a Fortitude save or gain the @Compendium[pf2ettw.conditionitems.Drained]{Drained 1} condition. If the target already has a drained value of greater than 0, their drained value instead increases by 1, to a maximum of drained 4.</p>\n<p>Whenever the ravener applies drain to a creature in this way, their soul ward gains 5 Hit Points.</p>"
                },
                "requirements": {
                    "value": ""
                },
                "rules": [],
                "slug": null,
                "source": {
                    "value": ""
                },
                "traits": {
                    "custom": "",
                    "rarity": "common",
                    "value": []
                },
                "trigger": {
                    "value": ""
                },
                "weapon": {
                    "value": ""
                }
            },
            "img": "systems/pf2ettw/icons/actions/Passive.webp",
            "name": "Vicious Criticals",
            "sort": 2400000,
            "type": "action"
        },
        {
            "_id": "UsvWoGaz9V9piz6f",
            "data": {
                "description": {
                    "value": ""
                },
                "mod": {
                    "value": 32
                },
                "proficient": {
                    "value": 0
                },
                "rules": [],
                "slug": null,
                "source": {
                    "value": ""
                },
                "traits": {
                    "custom": "",
                    "rarity": "common",
                    "value": []
                }
            },
            "img": "systems/pf2ettw/icons/default-icons/lore.svg",
            "name": "Acrobatics",
            "sort": 2500000,
            "type": "lore"
        },
        {
            "_id": "MjG41ptTU99BBYfi",
            "data": {
                "description": {
                    "value": ""
                },
                "mod": {
                    "value": 37
                },
                "proficient": {
                    "value": 0
                },
                "rules": [],
                "slug": null,
                "source": {
                    "value": ""
                },
                "traits": {
                    "custom": "",
                    "rarity": "common",
                    "value": []
                }
            },
            "img": "systems/pf2ettw/icons/default-icons/lore.svg",
            "name": "Arcana",
            "sort": 2600000,
            "type": "lore"
        },
        {
            "_id": "zXgQZaFIA1HU2BrX",
            "data": {
                "description": {
                    "value": ""
                },
                "mod": {
                    "value": 39
                },
                "proficient": {
                    "value": 0
                },
                "rules": [],
                "slug": null,
                "source": {
                    "value": ""
                },
                "traits": {
                    "custom": "",
                    "rarity": "common",
                    "value": []
                }
            },
            "img": "systems/pf2ettw/icons/default-icons/lore.svg",
            "name": "Athletics",
            "sort": 2700000,
            "type": "lore"
        },
        {
            "_id": "VkFCfo3t0JSmzGYt",
            "data": {
                "description": {
                    "value": ""
                },
                "mod": {
                    "value": 38
                },
                "proficient": {
                    "value": 0
                },
                "rules": [],
                "slug": null,
                "source": {
                    "value": ""
                },
                "traits": {
                    "custom": "",
                    "rarity": "common",
                    "value": []
                }
            },
            "img": "systems/pf2ettw/icons/default-icons/lore.svg",
            "name": "Deception",
            "sort": 2800000,
            "type": "lore"
        },
        {
            "_id": "hLRmDjpKPKzfcKaM",
            "data": {
                "description": {
                    "value": ""
                },
                "mod": {
                    "value": 38
                },
                "proficient": {
                    "value": 0
                },
                "rules": [],
                "slug": null,
                "source": {
                    "value": ""
                },
                "traits": {
                    "custom": "",
                    "rarity": "common",
                    "value": []
                }
            },
            "img": "systems/pf2ettw/icons/default-icons/lore.svg",
            "name": "Diplomacy",
            "sort": 2900000,
            "type": "lore"
        },
        {
            "_id": "QpFJATwapNHhXm33",
            "data": {
                "description": {
                    "value": ""
                },
                "mod": {
                    "value": 40
                },
                "proficient": {
                    "value": 0
                },
                "rules": [],
                "slug": null,
                "source": {
                    "value": ""
                },
                "traits": {
                    "custom": "",
                    "rarity": "common",
                    "value": []
                }
            },
            "img": "systems/pf2ettw/icons/default-icons/lore.svg",
            "name": "Intimidation",
            "sort": 3000000,
            "type": "lore"
        },
        {
            "_id": "xcD1BXXKVwKBekbV",
            "data": {
                "description": {
                    "value": ""
                },
                "mod": {
                    "value": 35
                },
                "proficient": {
                    "value": 0
                },
                "rules": [],
                "slug": null,
                "source": {
                    "value": ""
                },
                "traits": {
                    "custom": "",
                    "rarity": "common",
                    "value": []
                }
            },
            "img": "systems/pf2ettw/icons/default-icons/lore.svg",
            "name": "Stealth",
            "sort": 3100000,
            "type": "lore"
        }
    ],
    "name": "Ravener",
    "token": {
        "disposition": -1,
        "height": 4,
        "img": "systems/pf2ettw/icons/default-icons/npc.svg",
        "name": "Ravener",
        "width": 4
    },
    "type": "npc"
}
