{
    "_id": "SY8pvLPqc2EgP9Xj",
    "data": {
        "abilities": {
            "cha": {
                "mod": 4
            },
            "con": {
                "mod": 4
            },
            "dex": {
                "mod": 6
            },
            "int": {
                "mod": -1
            },
            "str": {
                "mod": 0
            },
            "wis": {
                "mod": 4
            }
        },
        "attributes": {
            "ac": {
                "details": "",
                "value": 26
            },
            "allSaves": {
                "value": ""
            },
            "hp": {
                "details": "",
                "max": 80,
                "temp": 0,
                "value": 80
            },
            "initiative": {
                "ability": "perception"
            },
            "perception": {
                "value": 15
            },
            "speed": {
                "otherSpeeds": [
                    {
                        "type": "fly",
                        "value": "60"
                    }
                ],
                "value": "25"
            }
        },
        "details": {
            "alignment": {
                "value": "NE"
            },
            "blurb": "",
            "creatureType": "Fiend",
            "level": {
                "value": 7
            },
            "privateNotes": "",
            "publicNotes": "<p>Only the most desperate or foolhardy conjurers call upon the aid of these strange fiends from the inky swamps of Abaddon.</p>",
            "source": {
                "value": "Pathfinder Bestiary 2"
            }
        },
        "resources": {},
        "saves": {
            "fortitude": {
                "saveDetail": "",
                "value": 13
            },
            "reflex": {
                "saveDetail": "",
                "value": 19
            },
            "will": {
                "saveDetail": "",
                "value": 15
            }
        },
        "traits": {
            "attitude": {
                "value": "hostile"
            },
            "ci": [],
            "di": {
                "custom": "",
                "value": [
                    "critical-hits",
                    "disease",
                    "paralyzed",
                    "poison",
                    "precision",
                    "sleep"
                ]
            },
            "dr": [
                {
                    "label": "Physical",
                    "type": "physical",
                    "value": "10"
                }
            ],
            "dv": [
                {
                    "label": "Good",
                    "type": "good",
                    "value": "10"
                }
            ],
            "languages": {
                "custom": "",
                "selected": [],
                "value": [
                    "daemonic"
                ]
            },
            "rarity": "uncommon",
            "senses": {
                "value": "greater darkvision"
            },
            "size": {
                "value": "med"
            },
            "traits": {
                "custom": "",
                "value": [
                    "fiend"
                ]
            }
        }
    },
    "img": "systems/pf2ettw/icons/default-icons/npc.svg",
    "items": [
        {
            "_id": "zbxStPzCzfkdF5cZ",
            "data": {
                "attack": {
                    "value": ""
                },
                "attackEffects": {
                    "custom": "",
                    "value": [
                        "mind-numbing-touch"
                    ]
                },
                "bonus": {
                    "value": 19
                },
                "damageRolls": {
                    "fzh9wrfb3wm3wyoiy255": {
                        "damage": "2d6+3",
                        "damageType": "slashing"
                    },
                    "fzxgvh9f2tpitbj1n3jx": {
                        "damage": "2d6",
                        "damageType": "negative"
                    }
                },
                "description": {
                    "value": ""
                },
                "rules": [],
                "slug": null,
                "source": {
                    "value": ""
                },
                "traits": {
                    "custom": "",
                    "rarity": "common",
                    "value": [
                        "agile",
                        "finesse"
                    ]
                },
                "weaponType": {
                    "value": "melee"
                }
            },
            "img": "systems/pf2ettw/icons/default-icons/melee.svg",
            "name": "Claw",
            "sort": 100000,
            "type": "melee"
        },
        {
            "_id": "AJ75IwgP2pUKWDa2",
            "data": {
                "actionCategory": {
                    "value": "interaction"
                },
                "actionType": {
                    "value": "passive"
                },
                "actions": {
                    "value": null
                },
                "description": {
                    "value": "<p>@Localize[pf2ettw.NPC.Abilities.Glossary.GreaterDarkvision]</p>"
                },
                "requirements": {
                    "value": ""
                },
                "rules": [],
                "slug": "greater-darkvision",
                "source": {
                    "value": "Pathfinder Bestiary"
                },
                "traits": {
                    "custom": "",
                    "rarity": "common",
                    "value": []
                },
                "trigger": {
                    "value": ""
                },
                "weapon": {
                    "value": ""
                }
            },
            "flags": {
                "core": {
                    "sourceId": "Compendium.pf2ettw.bestiary-ability-glossary-srd.4Ho2xMPEC05aSxzr"
                }
            },
            "img": "systems/pf2ettw/icons/actions/Passive.webp",
            "name": "Greater Darkvision",
            "sort": 200000,
            "type": "action"
        },
        {
            "_id": "Lt5U1QzZ5Wx4rMiJ",
            "data": {
                "actionCategory": {
                    "value": "interaction"
                },
                "actionType": {
                    "value": "passive"
                },
                "actions": {
                    "value": null
                },
                "description": {
                    "value": "<p>A conjured soul eater forms a mental link with its conjurer. While both are on the same plane, the soul eater knows the location of its conjurer per its find target ability. If the soul eater's target dies before the soul eater can drain its soul, or if the soul eater is defeated (but not destroyed) by the target, the soul eater returns to its conjurer and tries to kill them.</p>"
                },
                "requirements": {
                    "value": ""
                },
                "rules": [],
                "slug": null,
                "source": {
                    "value": ""
                },
                "traits": {
                    "custom": "",
                    "rarity": "common",
                    "value": [
                        "detection",
                        "divine",
                        "divination"
                    ]
                },
                "trigger": {
                    "value": ""
                },
                "weapon": {
                    "value": ""
                }
            },
            "img": "systems/pf2ettw/icons/actions/Passive.webp",
            "name": "Caster Link",
            "sort": 300000,
            "type": "action"
        },
        {
            "_id": "YS1pxmdE8Ebmyy23",
            "data": {
                "actionCategory": {
                    "value": "interaction"
                },
                "actionType": {
                    "value": "passive"
                },
                "actions": {
                    "value": null
                },
                "description": {
                    "value": "<p>When a soul eater is conjured to the Material Plane to find a specific creature, it gains the benefits of a 5th-level <em>@Compendium[pf2ettw.spells-srd.Locate]{Locate}</em> spell that isn't blocked by lead or running water. The conjurer must have seen the target and must speak the target's name while conjuring the soul eater in order to grant this ability.</p>"
                },
                "requirements": {
                    "value": ""
                },
                "rules": [],
                "slug": null,
                "source": {
                    "value": ""
                },
                "traits": {
                    "custom": "",
                    "rarity": "common",
                    "value": [
                        "detection",
                        "divine",
                        "divination"
                    ]
                },
                "trigger": {
                    "value": ""
                },
                "weapon": {
                    "value": ""
                }
            },
            "img": "systems/pf2ettw/icons/actions/Passive.webp",
            "name": "Find Target",
            "sort": 400000,
            "type": "action"
        },
        {
            "_id": "lqG3xn6Di5qPS55E",
            "data": {
                "actionCategory": {
                    "value": "offensive"
                },
                "actionType": {
                    "value": "action"
                },
                "actions": {
                    "value": 3
                },
                "description": {
                    "value": "<p><strong>Requirements</strong> The soul eater is adjacent to a @Compendium[pf2ettw.conditionitems.Dying]{Dying} creature</p>\n<hr />\n<p><strong>Effect</strong> The soul eater attempts to devour the dying creature's soul. The creature must attempt a @Check[type:will|dc:25] save. A creature that dies as a result of Drain Soul can't be restored to life except by a spell or ritual of 8th level or higher. If the soul eater that used Drain Soul on a creature is slain within 100 feet of that creature's corpse and the creature has been dead no longer than 1 minute, the creature's soul returns to its body and is restored to life, leaving the creature @Compendium[pf2ettw.conditionitems.Unconscious]{Unconscious} and dying 1 but no longer @Compendium[pf2ettw.conditionitems.Doomed]{Doomed}.</p>\n<hr />\n<p><strong>Critical Success</strong> The creature is unaffected.</p>\n<p><strong>Success</strong> The creature becomes @Compendium[pf2ettw.conditionitems.Doomed]{Doomed 1}, or increases its doomed value by 1 if it was already doomed.</p>\n<p><strong>Failure</strong> As success, but @Compendium[pf2ettw.conditionitems.Doomed]{Doomed 2}.</p>\n<p><strong>Critical Failure</strong> As success, but @Compendium[pf2ettw.conditionitems.Doomed]{Doomed 3}.</p>"
                },
                "requirements": {
                    "value": ""
                },
                "rules": [],
                "slug": null,
                "source": {
                    "value": ""
                },
                "traits": {
                    "custom": "",
                    "rarity": "common",
                    "value": [
                        "death",
                        "divine",
                        "manipulate",
                        "necromancy"
                    ]
                },
                "trigger": {
                    "value": ""
                },
                "weapon": {
                    "value": ""
                }
            },
            "img": "systems/pf2ettw/icons/actions/ThreeActions.webp",
            "name": "Drain Soul",
            "sort": 500000,
            "type": "action"
        },
        {
            "_id": "CwxYoKcoC0dSFuhX",
            "data": {
                "actionCategory": {
                    "value": "offensive"
                },
                "actionType": {
                    "value": "passive"
                },
                "actions": {
                    "value": null
                },
                "description": {
                    "value": "<p>When a soul eater hits a creature with its claw Strike, the creature must succeed at a @Check[type:fortitude|dc:23] save or become @Compendium[pf2ettw.conditionitems.Stupefied]{Stupefied 1} (@Compendium[pf2ettw.conditionitems.Stupefied]{Stupefied 2} on a critical failure).</p>\n<p>Further damage dealt by the soul eater increases the stupefied value by 1 on a failed save, to a maximum of stupefied 4. This condition value decreases by 1 each time the creature gets a full night's rest. As long as the creature is stupefied by a soul eater, rest does not decrease any @Compendium[pf2ettw.conditionitems.Doomed]{Doomed} value that creature might have.</p>"
                },
                "requirements": {
                    "value": ""
                },
                "rules": [],
                "slug": null,
                "source": {
                    "value": ""
                },
                "traits": {
                    "custom": "",
                    "rarity": "common",
                    "value": [
                        "curse",
                        "divine",
                        "necromancy"
                    ]
                },
                "trigger": {
                    "value": ""
                },
                "weapon": {
                    "value": ""
                }
            },
            "img": "systems/pf2ettw/icons/actions/Passive.webp",
            "name": "Mind-Numbing Touch",
            "sort": 600000,
            "type": "action"
        },
        {
            "_id": "5H5M7ucca4W3guPv",
            "data": {
                "description": {
                    "value": ""
                },
                "mod": {
                    "value": 12
                },
                "proficient": {
                    "value": 0
                },
                "rules": [],
                "slug": null,
                "source": {
                    "value": ""
                },
                "traits": {
                    "custom": "",
                    "rarity": "common",
                    "value": []
                }
            },
            "img": "systems/pf2ettw/icons/default-icons/lore.svg",
            "name": "Abaddon Lore",
            "sort": 700000,
            "type": "lore"
        },
        {
            "_id": "P4VimjFKa7O09lOU",
            "data": {
                "description": {
                    "value": ""
                },
                "mod": {
                    "value": 17
                },
                "proficient": {
                    "value": 0
                },
                "rules": [],
                "slug": null,
                "source": {
                    "value": ""
                },
                "traits": {
                    "custom": "",
                    "rarity": "common",
                    "value": []
                }
            },
            "img": "systems/pf2ettw/icons/default-icons/lore.svg",
            "name": "Acrobatics",
            "sort": 800000,
            "type": "lore"
        },
        {
            "_id": "xgfHuCYsYIIbtjwz",
            "data": {
                "description": {
                    "value": ""
                },
                "mod": {
                    "value": 15
                },
                "proficient": {
                    "value": 0
                },
                "rules": [],
                "slug": null,
                "source": {
                    "value": ""
                },
                "traits": {
                    "custom": "",
                    "rarity": "common",
                    "value": []
                }
            },
            "img": "systems/pf2ettw/icons/default-icons/lore.svg",
            "name": "Intimidation",
            "sort": 900000,
            "type": "lore"
        },
        {
            "_id": "jaF864bUYkmqmrC8",
            "data": {
                "description": {
                    "value": ""
                },
                "mod": {
                    "value": 17
                },
                "proficient": {
                    "value": 0
                },
                "rules": [
                    {
                        "key": "FlatModifier",
                        "predicate": {
                            "all": [
                                "terrain:darkness",
                                "terrain:smoke"
                            ]
                        },
                        "selector": "stealth",
                        "value": 2
                    }
                ],
                "slug": null,
                "source": {
                    "value": ""
                },
                "traits": {
                    "custom": "",
                    "rarity": "common",
                    "value": []
                },
                "variants": {
                    "0": {
                        "label": "+19 in darkness or smoke",
                        "options": "terrain:darkness,terrain:smoke"
                    }
                }
            },
            "img": "systems/pf2ettw/icons/default-icons/lore.svg",
            "name": "Stealth",
            "sort": 1000000,
            "type": "lore"
        }
    ],
    "name": "Soul Eater",
    "token": {
        "disposition": -1,
        "height": 1,
        "img": "systems/pf2ettw/icons/default-icons/npc.svg",
        "name": "Soul Eater",
        "width": 1
    },
    "type": "npc"
}
