{
    "_id": "Tju9kpQlwcKkyKor",
    "data": {
        "badge": null,
        "description": {
            "value": ""
        },
        "duration": {
            "expiry": "turn-start",
            "sustained": false,
            "unit": "unlimited",
            "value": -1
        },
        "level": {
            "value": 1
        },
        "rules": [
            {
                "adjustName": true,
                "choices": [
                    {
                        "label": "pf2ettw.OracleCurses.Label.Minor",
                        "value": "self:curse:minor"
                    },
                    {
                        "label": "pf2ettw.OracleCurses.Label.Moderate",
                        "value": "self:curse:moderate"
                    },
                    {
                        "label": "pf2ettw.OracleCurses.Label.Major",
                        "predicate": {
                            "all": [
                                "feature:major-curse"
                            ]
                        },
                        "value": "self:curse:major"
                    },
                    {
                        "label": "pf2ettw.OracleCurses.Label.Extreme",
                        "predicate": {
                            "all": [
                                "feature:extreme-curse"
                            ]
                        },
                        "value": "self:curse:major"
                    }
                ],
                "flag": "oracleCurse",
                "key": "ChoiceSet",
                "prompt": "pf2ettw.UI.RuleElements.ChoiceSet.Prompt"
            },
            {
                "domain": "all",
                "key": "RollOption",
                "option": "{item|flags.pf2ettw.rulesSelections.oracleCurse}"
            },
            {
                "key": "FlatModifier",
                "selector": "initiative",
                "value": -4
            },
            {
                "key": "FlatModifier",
                "predicate": {
                    "all": [
                        "linguistic",
                        "self:curse:major"
                    ]
                },
                "selector": "saving-throw",
                "type": "status",
                "value": 4
            }
        ],
        "source": {
            "value": "Pathfinder Advanced Player's Guide"
        },
        "start": {
            "initiative": null,
            "value": 0
        },
        "target": null,
        "tokenIcon": {
            "show": true
        },
        "traits": {
            "custom": "",
            "rarity": "common",
            "value": []
        }
    },
    "img": "systems/pf2ettw/icons/features/classes/lore-mystery.webp",
    "name": "Effect: Lore Curse",
    "type": "effect"
}
