{
    "_id": "s3Te8waFP3KEb2dN",
    "data": {
        "badge": null,
        "description": {
            "value": "<p>The hardness of your equipped shield increases by 2.</p>"
        },
        "duration": {
            "expiry": "turn-start",
            "sustained": false,
            "unit": "unlimited",
            "value": -1
        },
        "level": {
            "value": 1
        },
        "rules": [
            {
                "key": "ActiveEffectLike",
                "mode": "add",
                "path": "data.attributes.shield.hardness",
                "predicate": {
                    "all": [
                        "self:shield:equipped"
                    ]
                },
                "value": 2
            }
        ],
        "source": {
            "value": "Pathfinder Core Rulebook"
        },
        "start": {
            "initiative": null,
            "value": 0
        },
        "target": null,
        "tokenIcon": {
            "show": true
        },
        "traits": {
            "custom": "",
            "rarity": "common",
            "value": []
        }
    },
    "img": "systems/pf2ettw/icons/features/classes/champions-reaction.webp",
    "name": "Effect: Shield Ally",
    "type": "effect"
}
