{
    "_id": "rhG0ZcTBxfxGve5k",
    "data": {
        "description": {
            "value": "<p>The massive flow of information clouding your mind overwhelms your ability to communicate with others. You can understand all languages, but you can't speak, use linguistic effects, or otherwise communicate with your allies.</p>\n<p>You take a -4 penalty to initiative, as trying to process a surge of information about what's happening around you slows your ability to respond to it.</p>\n<p>The attention you divert to process this huge influx of information means you are always @Compendium[pf2ettw.conditionitems.Flat-Footed]{Flat-Footed}.</p>\n<p>At the start of each of your turns, you automatically make one check to @Compendium[pf2ettw.actionspf2ettw.Recall Knowledge (Arcana)]{Recall Knowledge} as a free action. This uses a skill of your choice that has the Recall Knowledge action, using a result equal to 10 + your proficiency bonus in that skill (with no other bonuses, penalties, or modifiers).</p>\n<p>If you Cast a Spell with a verbal component, you must succeed at a DC 5 flat check or the spell is lost.</p>\n<p>You gain a +4 status bonus on saving throws against linguistic effects.</p>\n<hr />\n<p><em>Note: The bonus to saving throws and penalty to initiative rolls are applied automatically. You need to apply the remaining effects manually.</em></p>"
        },
        "duration": {
            "expiry": "turn-start",
            "sustained": false,
            "unit": "unlimited",
            "value": -1
        },
        "level": {
            "value": 1
        },
        "rules": [
            {
                "key": "FlatModifier",
                "selector": "initiative",
                "value": -4
            },
            {
                "key": "FlatModifier",
                "label": "Major Lore Curse (vs. linguistic effects)",
                "predicate": {
                    "all": [
                        "linguistic"
                    ]
                },
                "selector": "saving-throw",
                "type": "status",
                "value": 4
            }
        ],
        "source": {
            "value": ""
        },
        "start": {
            "initiative": null,
            "value": 0
        },
        "target": null,
        "tokenIcon": {
            "show": true
        },
        "traits": {
            "custom": "",
            "rarity": "common",
            "value": []
        }
    },
    "img": "systems/pf2ettw/icons/features/classes/lore-mystery.webp",
    "name": "Effect: Major Lore Curse",
    "type": "effect"
}
