{
    "_id": "V6lnFOq998B76Rr0",
    "data": {
        "badge": null,
        "description": {
            "value": ""
        },
        "duration": {
            "expiry": null,
            "sustained": false,
            "unit": "unlimited",
            "value": -1
        },
        "level": {
            "value": 1
        },
        "rules": [
            {
                "adjustName": true,
                "choices": [
                    {
                        "label": "pf2ettw.OracleCurses.Ancestor.Label.MinorBattle",
                        "value": "self:curse:minor:battle"
                    },
                    {
                        "label": "pf2ettw.OracleCurses.Ancestor.Label.MinorSkillful",
                        "value": "self:curse:minor:skill"
                    },
                    {
                        "label": "pf2ettw.OracleCurses.Ancestor.Label.MinorSpellcasting",
                        "value": "self:curse:minor:spell"
                    },
                    {
                        "label": "pf2ettw.OracleCurses.Ancestor.Label.ModerateBattle",
                        "value": "self:curse:moderate:battle"
                    },
                    {
                        "label": "pf2ettw.OracleCurses.Ancestor.Label.ModerateSkillful",
                        "value": "self:curse:moderate:skill"
                    },
                    {
                        "label": "pf2ettw.OracleCurses.Ancestor.Label.ModerateSpellcasting",
                        "value": "self:curse:moderate:spell"
                    },
                    {
                        "label": "pf2ettw.OracleCurses.Ancestor.Label.MajorBattle",
                        "predicate": {
                            "all": [
                                "feature:major-curse"
                            ]
                        },
                        "value": "self:curse:major:battle"
                    },
                    {
                        "label": "pf2ettw.OracleCurses.Ancestor.Label.MajorSkillful",
                        "predicate": {
                            "all": [
                                "feature:major-curse"
                            ]
                        },
                        "value": "self:curse:major:skill"
                    },
                    {
                        "label": "pf2ettw.OracleCurses.Ancestor.Label.MajorSpellcasting",
                        "predicate": {
                            "all": [
                                "feature:major-curse"
                            ]
                        },
                        "value": "self:curse:major:spell"
                    },
                    {
                        "label": "pf2ettw.OracleCurses.Ancestor.Label.ExtremeBattle",
                        "predicate": {
                            "all": [
                                "feature:extreme-curse"
                            ]
                        },
                        "value": "self:curse:major:battle"
                    },
                    {
                        "label": "pf2ettw.OracleCurses.Ancestor.Label.ExtremeSkillful",
                        "predicate": {
                            "all": [
                                "feature:extreme-curse"
                            ]
                        },
                        "value": "self:curse:major:skill"
                    },
                    {
                        "label": "pf2ettw.OracleCurses.Ancestor.Label.ExtremeSpellcasting",
                        "predicate": {
                            "all": [
                                "feature:extreme-curse"
                            ]
                        },
                        "value": "self:curse:major:spell"
                    }
                ],
                "flag": "oracleCurse",
                "key": "ChoiceSet",
                "prompt": "pf2ettw.UI.RuleElements.ChoiceSet.Prompt"
            },
            {
                "domain": "all",
                "key": "RollOption",
                "option": "{item|flags.pf2ettw.rulesSelections.oracleCurse}"
            },
            {
                "key": "Note",
                "predicate": {
                    "any": [
                        "self:curse:minor:skill",
                        "self:curse:minor:spell"
                    ]
                },
                "selector": "attack",
                "text": "pf2ettw.OracleCurses.Ancestor.MinorFailure",
                "title": "{item|name}"
            },
            {
                "key": "Note",
                "predicate": {
                    "any": [
                        "self:curse:minor:battle",
                        "self:curse:minor:spell"
                    ]
                },
                "selector": "skill-check",
                "text": "pf2ettw.OracleCurses.Ancestor.MinorFailure",
                "title": "{item|name}"
            },
            {
                "key": "Note",
                "predicate": {
                    "any": [
                        "self:curse:moderate:skill",
                        "self:curse:moderate:spell"
                    ]
                },
                "selector": "attack",
                "text": "pf2ettw.OracleCurses.Ancestor.ModerateFailure",
                "title": "{item|name}"
            },
            {
                "key": "Note",
                "predicate": {
                    "any": [
                        "self:curse:moderate:battle",
                        "self:curse:moderate:spell"
                    ]
                },
                "selector": "skill-check",
                "text": "pf2ettw.OracleCurses.Ancestor.ModerateFailure",
                "title": "{item|name}"
            },
            {
                "key": "Note",
                "predicate": {
                    "any": [
                        "self:curse:major:skill",
                        "self:curse:major:spell"
                    ]
                },
                "selector": "attack",
                "text": "pf2ettw.OracleCurses.Ancestor.MajorFailure",
                "title": "{item|name}"
            },
            {
                "key": "Note",
                "predicate": {
                    "any": [
                        "self:curse:major:battle",
                        "self:curse:major:spell"
                    ]
                },
                "selector": "skill-check",
                "text": "pf2ettw.OracleCurses.Ancestor.MajorFailure",
                "title": "{item|name}"
            },
            {
                "key": "FlatModifier",
                "predicate": {
                    "all": [
                        "item:spell-slot",
                        "item:duration:0",
                        "damaging-effect",
                        "self:curse:moderate:spell"
                    ]
                },
                "selector": "spell-damage",
                "slug": "moderate-spell",
                "type": "status",
                "value": "@spell.level"
            },
            {
                "key": "FlatModifier",
                "predicate": {
                    "all": [
                        "item:spell-slot",
                        "item:duration:0",
                        "damaging-effect",
                        "self:curse:major:spell"
                    ]
                },
                "selector": "spell-damage",
                "slug": "major-spell",
                "type": "status",
                "value": "3+@spell.level"
            },
            {
                "key": "FlatModifier",
                "predicate": {
                    "any": [
                        "self:curse:moderate:battle",
                        "self:curse:major:battle"
                    ]
                },
                "selector": "attack",
                "type": "status",
                "value": 1
            },
            {
                "key": "FlatModifier",
                "predicate": {
                    "any": [
                        "self:curse:moderate:battle"
                    ]
                },
                "selector": "strike-damage",
                "slug": "curse-moderate-battle",
                "type": "status",
                "value": 2
            },
            {
                "key": "FlatModifier",
                "predicate": {
                    "any": [
                        "self:curse:major:battle"
                    ]
                },
                "selector": "strike-damage",
                "slug": "curse-major-battle",
                "type": "status",
                "value": 6
            },
            {
                "key": "FlatModifier",
                "predicate": {
                    "any": [
                        "self:curse:moderate:skill"
                    ]
                },
                "selector": "skill-check",
                "slug": "curse-moderate-skill",
                "type": "status",
                "value": 1
            },
            {
                "key": "FlatModifier",
                "predicate": {
                    "any": [
                        "self:curse:moderate:skill"
                    ]
                },
                "selector": "perception",
                "slug": "curse-moderate-perception",
                "type": "status",
                "value": 1
            },
            {
                "key": "FlatModifier",
                "predicate": {
                    "any": [
                        "self:curse:major:skill"
                    ]
                },
                "selector": "skill-check",
                "slug": "curse-major-skill",
                "type": "status",
                "value": 2
            },
            {
                "key": "FlatModifier",
                "predicate": {
                    "any": [
                        "self:curse:major:skill"
                    ]
                },
                "selector": "perception",
                "slug": "curse-major-perception",
                "type": "status",
                "value": 2
            }
        ],
        "source": {
            "value": "Pathfinder Advanced Player's Guide"
        },
        "start": {
            "initiative": null,
            "value": 0
        },
        "target": null,
        "tokenIcon": {
            "show": true
        },
        "traits": {
            "custom": "",
            "rarity": "common",
            "value": []
        }
    },
    "img": "systems/pf2ettw/icons/features/classes/ancestors-mystery.webp",
    "name": "Effect: Ancestor Curse",
    "type": "effect"
}
