{
    "_id": "4z6XXHfT83iseJeb",
    "data": {
        "badge": null,
        "description": {
            "value": "<p>Granted by using @Compendium[pf2ettw.feats-srd.Shape of the Night]{Shape of the Night}</p>\n<ul id=\"docs-internal-guid-28f015cc-7fff-426e-26dc-da35d8d5e0f0\">\n<li dir=\"ltr\" aria-level=\"1\">\n<p dir=\"ltr\" role=\"presentation\">You have the shape of a dire wolf - you therefore don’t have hands or thumbs, and can’t activate items or interact with items in ways which require manual dexterity.</p>\n</li>\n<li dir=\"ltr\" aria-level=\"1\">\n<p dir=\"ltr\" role=\"presentation\">You become large and your attacks have 10-foot reach. You must have enough space to expand into or the ability is used to no effect.</p>\n</li>\n<li dir=\"ltr\" aria-level=\"1\">\n<p dir=\"ltr\" role=\"presentation\">You gain temporary hit points equal to your level.</p>\n</li>\n<li dir=\"ltr\" aria-level=\"1\">\n<p dir=\"ltr\" role=\"presentation\">Your speed becomes 40 feet, and you gain imprecise scent 30 feet.</p>\n</li>\n<li dir=\"ltr\" aria-level=\"1\">\n<p dir=\"ltr\" role=\"presentation\">The only attacks you can make are athletics actions, and fangs unarmed strikes, which deal 2d8+12 piercing damage.</p>\n<ul>\n<li dir=\"ltr\" aria-level=\"2\">\n<p dir=\"ltr\" role=\"presentation\">These strikes cannot benefit from additional or bonus damage from any sources except for status bonuses and weaknesses, and cannot be used as part of other actions or activities, except for those granted by Shape of the Night.</p>\n</li>\n<li dir=\"ltr\" aria-level=\"2\">\n<p dir=\"ltr\" role=\"presentation\">When you critically hit a creature with a jaws strike, it takes a -10-foot penalty to its speeds for 1 round.</p>\n</li>\n<li dir=\"ltr\" aria-level=\"2\">\n<p dir=\"ltr\" role=\"presentation\">You can use the @Compendium[pf2ettw.actionspf2ettw.Feast]{Feast} action whilst in this form.</p>\n</li>\n</ul>\n</li>\n<li dir=\"ltr\" aria-level=\"1\">\n<p dir=\"ltr\" role=\"presentation\">Your attack modifier becomes equal to <span style=\"font-family: var(--font-primary); font-size: var(--font-size-14);\">[8 + your level]. </span>If your unarmed attack modifier is higher, you can use it instead.</p>\n</li>\n<li dir=\"ltr\" aria-level=\"1\">\n<p dir=\"ltr\" role=\"presentation\">Your AC becomes [17 + your level]. Ignore your armour's check penalty and speed reduction.</p>\n</li>\n<li dir=\"ltr\" aria-level=\"1\">\n<p dir=\"ltr\" role=\"presentation\">Your athletics modifier becomes <span style=\"font-family: var(--font-primary); font-size: var(--font-size-14);\">[10 + your level]. If your athletics modifier is higher, you can use it instead.</span></p>\n</li>\n</ul>\n<hr />\n<p><strong>Heightened (10th)</strong> Your attack modifier becomes [10 + your level], your AC becomes [18 + your level], and your athletics modifier becomes [12 + your level].</p>\n<p><strong>Heightened (12th)</strong> Your fangs unarmed strikes deal 3d8 + 13 piercing damage and your athletics modifier becomes [13 + your level].</p>\n<p><strong>Heightened (13th)</strong> Your attack modifier becomes [12 + your level] and your AC becomes [20 + your level].</p>\n<p><strong>Heightened (15th)</strong> Your fangs unarmed strikes deal 4d8 + 15 damage and your athletics modifier becomes [15 + your level].</p>\n<p><strong>Heightened (16th)</strong> Your attack modifier becomes [13 + your level].</p>\n<p><strong>Heightened (17th)</strong> Your attack modifier becomes [14 + your level] and your athletics modifier becomes [16 + your level].</p>\n<p><strong>Heightened (18th)</strong> Your AC becomes [21 + your level].</p>\n<p><strong>Heightened (19th)</strong> Your fangs unarmed strikes deal 5d8 + 18 damage and your AC becomes [22 + your level].</p>\n<p><strong>Heightened (20th)</strong> Your attack modifier becomes [15 + your level] and your athletics modifier becomes [17 + your level].</p>"
        },
        "duration": {
            "expiry": "turn-start",
            "sustained": false,
            "unit": "minutes",
            "value": 1
        },
        "level": {
            "value": 7
        },
        "rules": [
            {
                "field": "@actor.level",
                "key": "BattleForm",
                "label": "Shape of Night (Dire Wolf)",
                "overrides": {
                    "armorClass": {
                        "ignoreCheckPenalty": true,
                        "ignoreSpeedReduction": true,
                        "modifier": "17 + @actor.level"
                    },
                    "hasHands": false,
                    "senses": {
                        "scent": {
                            "acuity": "imprecise",
                            "range": 30
                        }
                    },
                    "size": "lg",
                    "skills": {
                        "ath": {
                            "modifier": "10 + @actor.level"
                        }
                    },
                    "speeds": {
                        "land": 40
                    },
                    "strikes": {
                        "fangs": {
                            "category": "unarmed",
                            "damage": {
                                "damageType": "piercing",
                                "dice": 2,
                                "die": "d8",
                                "modifier": 12
                            },
                            "group": "brawling",
                            "traits": [
                                "unarmed"
                            ]
                        }
                    },
                    "tempHP": "@actor.level"
                },
                "value": {
                    "brackets": [
                        {
                            "end": 7,
                            "start": 7,
                            "value": {
                                "strikes": {
                                    "fangs": {
                                        "modifier": 15
                                    }
                                }
                            }
                        },
                        {
                            "end": 8,
                            "start": 8,
                            "value": {
                                "strikes": {
                                    "fangs": {
                                        "modifier": 16
                                    }
                                }
                            }
                        },
                        {
                            "end": 9,
                            "start": 9,
                            "value": {
                                "strikes": {
                                    "fangs": {
                                        "modifier": 17
                                    }
                                }
                            }
                        },
                        {
                            "end": 10,
                            "start": 10,
                            "value": {
                                "armorClass": {
                                    "modifier": "18 + @actor.level"
                                },
                                "skills": {
                                    "ath": {
                                        "modifier": "12 + @actor.level"
                                    }
                                },
                                "strikes": {
                                    "fangs": {
                                        "modifier": 20
                                    }
                                }
                            }
                        },
                        {
                            "end": 11,
                            "start": 11,
                            "value": {
                                "armorClass": {
                                    "modifier": "18 + @actor.level"
                                },
                                "skills": {
                                    "ath": {
                                        "modifier": "12 + @actor.level"
                                    }
                                },
                                "strikes": {
                                    "fangs": {
                                        "modifier": 21
                                    }
                                }
                            }
                        },
                        {
                            "end": 12,
                            "start": 12,
                            "value": {
                                "armorClass": {
                                    "modifier": "18 + @actor.level"
                                },
                                "skills": {
                                    "ath": {
                                        "modifier": "13 + @actor.level"
                                    }
                                },
                                "strikes": {
                                    "fangs": {
                                        "damage": {
                                            "dice": 3,
                                            "modifier": 13
                                        },
                                        "modifier": 22
                                    }
                                }
                            }
                        },
                        {
                            "end": 13,
                            "start": 13,
                            "value": {
                                "armorClass": {
                                    "modifier": "20 + @actor.level"
                                },
                                "skills": {
                                    "ath": {
                                        "modifier": "13 + @actor.level"
                                    }
                                },
                                "strikes": {
                                    "fangs": {
                                        "damage": {
                                            "dice": 3,
                                            "modifier": 13
                                        },
                                        "modifier": 25
                                    }
                                }
                            }
                        },
                        {
                            "end": 14,
                            "start": 14,
                            "value": {
                                "armorClass": {
                                    "modifier": "20 + @actor.level"
                                },
                                "skills": {
                                    "ath": {
                                        "modifier": "13 + @actor.level"
                                    }
                                },
                                "strikes": {
                                    "fangs": {
                                        "damage": {
                                            "dice": 3,
                                            "modifier": 13
                                        },
                                        "modifier": 26
                                    }
                                }
                            }
                        },
                        {
                            "end": 15,
                            "start": 15,
                            "value": {
                                "armorClass": {
                                    "modifier": "20 + @actor.level"
                                },
                                "skills": {
                                    "ath": {
                                        "modifier": "15 + @actor.level"
                                    }
                                },
                                "strikes": {
                                    "fangs": {
                                        "damage": {
                                            "dice": 4,
                                            "modifier": 15
                                        },
                                        "modifier": 27
                                    }
                                }
                            }
                        },
                        {
                            "end": 16,
                            "start": 16,
                            "value": {
                                "armorClass": {
                                    "modifier": "20 + @actor.level"
                                },
                                "skills": {
                                    "ath": {
                                        "modifier": "15 + @actor.level"
                                    }
                                },
                                "strikes": {
                                    "fangs": {
                                        "damage": {
                                            "dice": 4,
                                            "modifier": 15
                                        },
                                        "modifier": 29
                                    }
                                }
                            }
                        },
                        {
                            "end": 17,
                            "start": 17,
                            "value": {
                                "armorClass": {
                                    "modifier": "20 + @actor.level"
                                },
                                "skills": {
                                    "ath": {
                                        "modifier": "16 + @actor.level"
                                    }
                                },
                                "strikes": {
                                    "fangs": {
                                        "damage": {
                                            "dice": 4,
                                            "modifier": 15
                                        },
                                        "modifier": 31
                                    }
                                }
                            }
                        },
                        {
                            "end": 18,
                            "start": 18,
                            "value": {
                                "armorClass": {
                                    "modifier": "21 + @actor.level"
                                },
                                "skills": {
                                    "ath": {
                                        "modifier": "16 + @actor.level"
                                    }
                                },
                                "strikes": {
                                    "fangs": {
                                        "damage": {
                                            "dice": 4,
                                            "modifier": 15
                                        },
                                        "modifier": 32
                                    }
                                }
                            }
                        },
                        {
                            "end": 19,
                            "start": 19,
                            "value": {
                                "armorClass": {
                                    "modifier": "22 + @actor.level"
                                },
                                "skills": {
                                    "ath": {
                                        "modifier": "16 + @actor.level"
                                    }
                                },
                                "strikes": {
                                    "fangs": {
                                        "damage": {
                                            "dice": 5,
                                            "modifier": 18
                                        },
                                        "modifier": 33
                                    }
                                }
                            }
                        },
                        {
                            "end": 20,
                            "start": 20,
                            "value": {
                                "armorClass": {
                                    "modifier": "22 + @actor.level"
                                },
                                "skills": {
                                    "ath": {
                                        "modifier": "17 + @actor.level"
                                    }
                                },
                                "strikes": {
                                    "fangs": {
                                        "damage": {
                                            "dice": 5,
                                            "modifier": 18
                                        },
                                        "modifier": 35
                                    }
                                }
                            }
                        }
                    ]
                }
            }
        ],
        "source": {
            "value": ""
        },
        "start": {
            "initiative": null,
            "value": 0
        },
        "target": null,
        "tokenIcon": {
            "show": true
        },
        "traits": {
            "custom": "",
            "rarity": "common",
            "value": []
        }
    },
    "img": "systems/pf2ettw/icons/spells/pest-form.webp",
    "name": "Effect: Dire Wolf",
    "type": "effect"
}
