{
    "_id": "vguxP8ukwVTWWWaA",
    "data": {
        "description": {
            "value": "<p>A surge of ancestral memories grants you or one target a +1 status bonus to skill checks for 1 round.</p>"
        },
        "duration": {
            "expiry": "turn-start",
            "sustained": false,
            "unit": "rounds",
            "value": 1
        },
        "level": {
            "value": 1
        },
        "rules": [
            {
                "key": "FlatModifier",
                "selector": "skill-check",
                "type": "status",
                "value": 1
            }
        ],
        "source": {
            "value": ""
        },
        "start": {
            "initiative": null,
            "value": 0
        },
        "target": null,
        "tokenIcon": {
            "show": true
        },
        "traits": {
            "custom": "",
            "rarity": "common",
            "value": []
        }
    },
    "img": "systems/pf2ettw/icons/features/classes/imperial.webp",
    "name": "Effect: Imperial Blood Magic",
    "type": "effect"
}
