{
    "_id": "vJuaxTd6q11OjGqA",
    "data": {
        "ability": {
            "value": ""
        },
        "area": {
            "areaType": "",
            "value": ""
        },
        "areasize": {
            "value": ""
        },
        "autoHeightenLevel": {
            "value": null
        },
        "category": {
            "value": "spell"
        },
        "components": {
            "focus": false,
            "material": false,
            "somatic": true,
            "verbal": true
        },
        "cost": {
            "value": ""
        },
        "damage": {
            "value": {}
        },
        "description": {
            "value": "<p>Your touch afflicts the target with Abyssal plague, which siphons fragments of their soul away to empower the Abyss (although there's probably no abyss to empower). The effect is based on the target's Fortitude save.</p>\n<hr />\n<p><strong>Critical Success</strong> The target is unaffected.</p>\n<p><strong>Success</strong> The target takes 2 evil damage per spell level, and takes a -2 status penalty to saves against Abyssal plague for 1 day or until the target contracts it, whichever comes first.</p>\n<p><strong>Failure</strong> The target is afflicted with Abyssal plague at stage 1.</p>\n<p><strong>Critical Failure</strong> The target is afflicted with Abyssal plague at stage 2.</p>\n<hr />\n<p><strong>Abyssal Plague</strong> (disease) <strong>Level 9</strong></p>\n<p>The target can't recover from the drained condition from Abyssal plague until the disease is cured</p>\n<p><strong>Stage 1</strong> @Compendium[pf2ettw.conditionitems.Drained]{Drained 1} (1 day)</p>\n<p><strong>Stage 2</strong> Drained increases by 2 (1 day).</p>"
        },
        "duration": {
            "value": ""
        },
        "hasCounteractCheck": {
            "value": false
        },
        "level": {
            "value": 5
        },
        "location": {
            "value": ""
        },
        "materials": {
            "value": ""
        },
        "prepared": {
            "value": ""
        },
        "primarycheck": {
            "value": ""
        },
        "range": {
            "value": "touch"
        },
        "rules": [],
        "save": {
            "basic": "",
            "value": "fortitude"
        },
        "school": {
            "value": "necromancy"
        },
        "secondarycasters": {
            "value": ""
        },
        "secondarycheck": {
            "value": ""
        },
        "source": {
            "value": "Pathfinder Core Rulebook"
        },
        "spellType": {
            "value": "save"
        },
        "sustained": {
            "value": false
        },
        "target": {
            "value": "1 creature"
        },
        "time": {
            "value": "2"
        },
        "traditions": {
            "custom": "",
            "value": [
                "divine",
                "occult",
                "sangromancy"
            ]
        },
        "traits": {
            "custom": "",
            "rarity": "common",
            "value": [
                "disease"
            ]
        }
    },
    "img": "systems/pf2ettw/icons/spells/abyssal-plague.webp",
    "name": "Abyssal Plague",
    "type": "spell"
}
