{
    "_id": "GoKkejPj5yWJPIPK",
    "data": {
        "ability": {
            "value": ""
        },
        "area": {
            "areaType": "",
            "value": ""
        },
        "areasize": {
            "value": ""
        },
        "category": {
            "value": "focus"
        },
        "components": {
            "focus": false,
            "material": false,
            "somatic": true,
            "verbal": false
        },
        "cost": {
            "value": ""
        },
        "damage": {
            "value": {}
        },
        "description": {
            "value": "<p><strong>Trigger</strong> You take acid, cold, electricity, fire, or sonic damage.</p>\n<hr />\n<p>You shift yourself to adapt to the mystical wavelengths of the energy damage, protecting yourself from further harm. You gain resistance 5 to the triggering energy type; you gain this resistance after you take the triggering damage, so it applies only to future damage you take during the duration.</p>\n<p>@Compendium[pf2ettw.spell-effects.Spell Effect: Adaptive Ablation]{Spell Effect: Adaptive Ablation}</p>\n<hr />\n<p><strong>Heightened (+2)</strong> Increase the resistance by 5.</p>"
        },
        "duration": {
            "value": "1 minute"
        },
        "hasCounteractCheck": {
            "value": false
        },
        "level": {
            "value": 4
        },
        "location": {
            "value": ""
        },
        "materials": {
            "value": ""
        },
        "prepared": {
            "value": ""
        },
        "primarycheck": {
            "value": ""
        },
        "range": {
            "value": ""
        },
        "rules": [],
        "save": {
            "basic": "",
            "value": ""
        },
        "school": {
            "value": "abjuration"
        },
        "secondarycasters": {
            "value": ""
        },
        "secondarycheck": {
            "value": ""
        },
        "source": {
            "value": "Pathfinder Lost Omens: Gods & Magic"
        },
        "spellType": {
            "value": "utility"
        },
        "sustained": {
            "value": false
        },
        "target": {
            "value": ""
        },
        "time": {
            "value": "reaction"
        },
        "traditions": {
            "custom": "",
            "value": []
        },
        "traits": {
            "custom": "",
            "rarity": "common",
            "value": [
                "cleric"
            ]
        }
    },
    "img": "systems/pf2ettw/icons/spells/adaptive-ablation.webp",
    "name": "Adaptive Ablation",
    "type": "spell"
}
