{
    "_id": "q5qmNn144ZJGxnvJ",
    "data": {
        "ability": {
            "value": ""
        },
        "area": {
            "areaType": "",
            "value": ""
        },
        "category": {
            "value": "spell"
        },
        "components": {
            "focus": false,
            "material": true,
            "somatic": false,
            "verbal": true
        },
        "cost": {
            "value": ""
        },
        "damage": {
            "value": {}
        },
        "description": {
            "value": "<p>You cloak the targets in an illusion, shaping their clothing and worn items into ones suitable for a particular occasion. You visualize the occasion, and the spell creates illusory attire customized to each target. For instance, if you visualized a noble ball, armor would appear to be fine clothing. This doesn't change identifying details of the targets' appearances other than their clothes.</p>\n<p>Any creature that touches the attire, uses the Seek action to examine it, or otherwise interacts with it can attempt to disbelieve your illusion.</p>\n<hr />\n<p><strong>Heightened (4th)</strong> You can target up to 20 creatures.</p>\n<p><strong>Heightened (5th)</strong> You can target up to 100 creatures.</p>"
        },
        "duration": {
            "value": "1 hour"
        },
        "hasCounteractCheck": {
            "value": false
        },
        "heightening": {
            "levels": {
                "4": {
                    "target": {
                        "value": "20 willing creatures"
                    }
                },
                "5": {
                    "target": {
                        "value": "100 willing creatures"
                    }
                }
            },
            "type": "fixed"
        },
        "level": {
            "value": 2
        },
        "location": {
            "value": ""
        },
        "materials": {
            "value": ""
        },
        "prepared": {
            "value": ""
        },
        "range": {
            "value": "30 feet"
        },
        "rules": [],
        "save": {
            "basic": "",
            "value": ""
        },
        "school": {
            "value": "illusion"
        },
        "source": {
            "value": "Pathfinder Secrets of Magic"
        },
        "spellType": {
            "value": "utility"
        },
        "sustained": {
            "value": false
        },
        "target": {
            "value": "5 willing creatures"
        },
        "time": {
            "value": "2"
        },
        "traditions": {
            "custom": "",
            "value": [
                "arcane",
                "occult"
            ]
        },
        "traits": {
            "custom": "",
            "rarity": "common",
            "value": [
                "visual"
            ]
        }
    },
    "img": "systems/pf2ettw/icons/spells/befitting-attire.webp",
    "name": "Befitting Attire",
    "type": "spell"
}
