{
    "_id": "BItahht2hEHvR9Bt",
    "data": {
        "ability": {
            "value": ""
        },
        "area": {
            "areaType": "",
            "value": ""
        },
        "category": {
            "value": "focus"
        },
        "components": {
            "focus": false,
            "material": false,
            "somatic": true,
            "verbal": false
        },
        "cost": {
            "value": ""
        },
        "damage": {
            "value": {
                "nq1rqbq4e9qh9tfk": {
                    "applyMod": false,
                    "type": {
                        "categories": [],
                        "subtype": "",
                        "value": "piercing"
                    },
                    "value": "1d4"
                }
            }
        },
        "description": {
            "value": "<p>You evoke buzzing and crawling insects to climb onto a foe's body and bite, dealing 1d4 piercing damage and potentially sickening the foe, depending on its Fortitude save. You deal the piercing damage initially and then again the first time each round you Sustain the Spell, starting on the round after you cast it and rolling the damage based on the target's saving throw result each time. However, the creature only attempts the Fortitude save once, when you first Cast the Spell. Once this spell ends, the target becomes temporarily immune for 1 minute.</p>\n<hr />\n<p><strong>Critical Success</strong> The target is unaffected.</p>\n<p><strong>Success</strong> The target takes half damage.</p>\n<p><strong>Failure</strong> The target takes full damage.</p>\n<p><strong>Critical Failure</strong> The target takes double damage and is @Compendium[pf2ettw.conditionitems.Sickened]{Sickened 1} by the crawling insects. The sickened value can't be reduced below 1 while the spell is active.</p>\n<hr />\n<p><strong>Heightened (+1)</strong> The damage increases by 1d4.</p>"
        },
        "duration": {
            "value": "sustained up to 1 minute"
        },
        "hasCounteractCheck": {
            "value": false
        },
        "heightening": {
            "damage": {
                "nq1rqbq4e9qh9tfk": "1d4"
            },
            "interval": 1,
            "type": "interval"
        },
        "level": {
            "value": 1
        },
        "location": {
            "value": ""
        },
        "materials": {
            "value": ""
        },
        "range": {
            "value": "30 feet"
        },
        "rules": [],
        "save": {
            "basic": "",
            "value": "fortitude"
        },
        "school": {
            "value": "evocation"
        },
        "source": {
            "value": "Pathfinder Lost Omens: Monsters of Myth"
        },
        "spellType": {
            "value": "save"
        },
        "sustained": {
            "value": false
        },
        "target": {
            "value": "1 creature"
        },
        "time": {
            "value": "1"
        },
        "traditions": {
            "value": []
        },
        "traits": {
            "custom": "",
            "rarity": "rare",
            "value": [
                "cantrip",
                "hex",
                "witch"
            ]
        }
    },
    "img": "systems/pf2ettw/icons/spells/swarming-wasp-stings.webp",
    "name": "Buzzing Bites",
    "type": "spell"
}
