{
    "_id": "xPrbxyOEwy9QaPVn",
    "data": {
        "ability": {
            "value": ""
        },
        "area": {
            "value": ""
        },
        "areasize": {
            "value": ""
        },
        "category": {
            "value": "spell"
        },
        "components": {
            "material": true,
            "somatic": true,
            "verbal": true
        },
        "cost": {
            "value": ""
        },
        "damage": {
            "value": {}
        },
        "description": {
            "value": "<p>You shift the colors of the targets' outermost layer of clothing and gear to be closer to their environment when they remain still. Creatures affected by the spell gain a +3 status bonus to Stealth checks to @Compendium[pf2ettw.actionspf2ettw.Hide]{Hide}. The changed color granted by the spell always shifts to match the environment, even if there are drastic changes. If any piece of gear or clothing affected by the spell is removed from a creature, the spell ends for that creature.</p>\n<hr />\n<p><strong>Heightened (6th)</strong> If a creature affected by this spell rolls a critical failure on its Stealth check to @Compendium[pf2ettw.actionspf2ettw.Sneak]{Sneak} within 30 feet of a creature that would spot it, it instead only fails its check, as the spell mildly hypnotizes the spotter.</p>\n<p><strong>Heightened (8th)</strong> As 6th level, and the status bonus is +4.</p>"
        },
        "duration": {
            "value": "10 minutes"
        },
        "hasCounteractCheck": {
            "value": false
        },
        "level": {
            "value": 5
        },
        "location": {
            "value": ""
        },
        "materials": {
            "value": ""
        },
        "prepared": {
            "value": false
        },
        "primarycheck": {
            "value": ""
        },
        "range": {
            "value": "15 feet"
        },
        "rules": [],
        "save": {
            "basic": "",
            "value": ""
        },
        "school": {
            "value": "illusion"
        },
        "secondarycasters": {
            "value": ""
        },
        "secondarycheck": {
            "value": ""
        },
        "source": {
            "value": "Pathfinder Advanced Player's Guide"
        },
        "spellType": {
            "value": "utility"
        },
        "sustained": {
            "value": false
        },
        "target": {
            "value": "up to 8 creatures"
        },
        "time": {
            "value": "3"
        },
        "traditions": {
            "value": [
                "primal"
            ]
        },
        "traits": {
            "custom": "",
            "rarity": "common",
            "value": []
        }
    },
    "img": "systems/pf2ettw/icons/spells/chameleon-coat.webp",
    "name": "Chameleon Coat",
    "type": "spell"
}
