{
    "_id": "GzN9bG6cKZ96YC6l",
    "data": {
        "ability": {
            "value": ""
        },
        "area": {
            "areaType": "",
            "value": ""
        },
        "areasize": {
            "value": ""
        },
        "category": {
            "value": "focus"
        },
        "components": {
            "material": false,
            "somatic": true,
            "verbal": true
        },
        "cost": {
            "value": ""
        },
        "damage": {
            "value": {}
        },
        "description": {
            "value": "<p>You attempt to wrest control of a target undead or force it to recognize you as its master. If the target is controlled by another creature, that controller attempts a Will saving throw to retain control; otherwise, the target must attempt a Will save.</p>\n<hr />\n<p><strong>Critical Success</strong> The target is unaffected.</p>\n<p><strong>Success</strong> The target is @Compendium[pf2ettw.conditionitems.Stunned]{Stunned 1} as it fights off your commands.</p>\n<p><strong>Failure</strong> The target becomes @Compendium[pf2ettw.conditionitems.Controlled]{Controlled} by you and follows</p>\n<p>your orders. It (or the creature previously controlling it) can</p>\n<p>attempt a new Will save at the end of each of its turns,</p>\n<p>and the spell ends on a success. If you issue an obviously</p>\n<p>self-destructive order, the target doesn't act until you issue</p>\n<p>a new order.</p>\n<p><strong>Critical Failure</strong> As failure, but the target (or the creature</p>\n<p>previously controlling it) receives a new save only if you</p>\n<p>give it a new order that is against its nature.</p>"
        },
        "duration": {
            "value": "10 minutes"
        },
        "hasCounteractCheck": {
            "value": false
        },
        "level": {
            "value": 6
        },
        "location": {
            "value": ""
        },
        "materials": {
            "value": ""
        },
        "prepared": {
            "value": ""
        },
        "primarycheck": {
            "value": ""
        },
        "range": {
            "value": "30 feet"
        },
        "rules": [],
        "save": {
            "basic": "",
            "value": "will"
        },
        "school": {
            "value": "necromancy"
        },
        "secondarycasters": {
            "value": ""
        },
        "secondarycheck": {
            "value": ""
        },
        "source": {
            "value": "Pathfinder Advanced Player's Guide"
        },
        "spellType": {
            "value": "save"
        },
        "sustained": {
            "value": false
        },
        "target": {
            "value": "1 undead creature"
        },
        "time": {
            "value": "2"
        },
        "traditions": {
            "custom": "",
            "value": []
        },
        "traits": {
            "custom": "",
            "rarity": "uncommon",
            "value": [
                "incapacitation",
                "oracle",
                "cursebound"
            ]
        }
    },
    "img": "systems/pf2ettw/icons/spells/claim-undead.webp",
    "name": "Claim Undead",
    "type": "spell"
}
