{
    "_id": "DgNOpb8H9MTAu9KL",
    "data": {
        "ability": {
            "value": ""
        },
        "area": {
            "areaType": "",
            "value": ""
        },
        "category": {
            "value": "spell"
        },
        "components": {
            "focus": false,
            "material": false,
            "somatic": true,
            "verbal": true
        },
        "cost": {
            "value": ""
        },
        "damage": {
            "value": {}
        },
        "description": {
            "value": "<p>Through the strength of your faith, your body becomes infused with holy energy. You have weakness 5 to evil. Any creature that touches or damages you with an unarmed attack or non-reach melee weapon takes 1d6 good damage. Your unarmed attacks deal an additional 1 good damage. Your healing spells that restore Hit Points restore an additional 1d4 Hit Points when you initially cast them; as normal, if your healing spell restores Hit Points more than once, grants fast healing, or the like, the additional Hit Points still only apply once.</p>\n<hr />\n<p><strong>Heightened (+3)</strong> Creatures touching you take 1d6 additional good damage, your unarmed Strikes deal 1 additional good damage, your healing spells restore 1d4 more additional Hit Points, and your weakness to evil increases by 5.</p>"
        },
        "duration": {
            "value": "1 minute"
        },
        "hasCounteractCheck": {
            "value": false
        },
        "heightening": {
            "damage": {},
            "interval": 3,
            "type": "interval"
        },
        "level": {
            "value": 3
        },
        "location": {
            "value": ""
        },
        "materials": {
            "value": ""
        },
        "range": {
            "value": ""
        },
        "rules": [],
        "save": {
            "basic": "",
            "value": ""
        },
        "school": {
            "value": "transmutation"
        },
        "source": {
            "value": "Pathfinder Lost Omens: Knights of Lastwall"
        },
        "spellType": {
            "value": "utility"
        },
        "sustained": {
            "value": false
        },
        "target": {
            "value": "self"
        },
        "time": {
            "value": "2"
        },
        "traditions": {
            "custom": "",
            "value": [
                "divine"
            ]
        },
        "traits": {
            "custom": "",
            "rarity": "uncommon",
            "value": [
                "good"
            ]
        }
    },
    "img": "systems/pf2ettw/icons/spells/consecrate-flesh.webp",
    "name": "Consecrate Flesh",
    "type": "spell"
}
