{
    "_id": "bbdxAG1z02RQyLDk",
    "data": {
        "ability": {
            "value": ""
        },
        "area": {
            "areaType": "",
            "value": ""
        },
        "autoHeightenLevel": {
            "value": null
        },
        "category": {
            "value": "spell"
        },
        "components": {
            "focus": false,
            "material": false,
            "somatic": true,
            "verbal": false
        },
        "cost": {
            "value": ""
        },
        "damage": {
            "value": {}
        },
        "description": {
            "value": "<p>You manifest a blade of darkness within an empty hand (or hands).</p>\n<p>When you cast the spell, choose a simple or martial weapon from the sword or knife group, and create an instance of this weapon formed from darkness, held within the appropriate number of your hands. You must have these hands free at the point of casting, or the spell fails with no effect. The created weapon functions normally as a weapon of its type, with the exception that for proficiency purposes you treat it as a simple weapon, it’s magical, and it has a bulk of 0.</p>\n<p dir=\"ltr\">You can have multiple castings of this spell active simultaneously, so long as you can hold all of the blades of darkness manifested.</p>"
        },
        "duration": {
            "value": "Until dismissed as a free action, you release or otherwise lose your grip on the weapon, or you next make your daily preparations."
        },
        "hasCounteractCheck": {
            "value": false
        },
        "level": {
            "value": 1
        },
        "location": {
            "value": ""
        },
        "materials": {
            "value": ""
        },
        "range": {
            "value": ""
        },
        "rules": [],
        "save": {
            "basic": "",
            "value": ""
        },
        "school": {
            "value": "evocation"
        },
        "source": {
            "value": ""
        },
        "spellType": {
            "value": "utility"
        },
        "sustained": {
            "value": false
        },
        "target": {
            "value": ""
        },
        "time": {
            "value": "1"
        },
        "traditions": {
            "custom": "",
            "value": [
                "arcane",
                "divine",
                "occult",
                "primal",
                "sangromancy",
                "vampire"
            ]
        },
        "traits": {
            "custom": "",
            "rarity": {
                "value": "common"
            },
            "value": [
                "cantrip",
                "vampire"
            ]
        }
    },
    "img": "systems/pf2ettw/icons/default-icons/spell.webp",
    "name": "Darkblade",
    "type": "spell"
}
