{
    "_id": "nsQvjNyg4Whw2mek",
    "data": {
        "ability": {
            "value": ""
        },
        "area": {
            "areaType": "emanation",
            "value": "10"
        },
        "areasize": {
            "value": "10-foot emanation"
        },
        "autoHeightenLevel": {
            "value": null
        },
        "category": {
            "value": "spell"
        },
        "components": {
            "focus": false,
            "material": false,
            "somatic": true,
            "verbal": true
        },
        "cost": {
            "value": ""
        },
        "damage": {
            "value": {}
        },
        "description": {
            "value": "<p>Divine power wards the targets, granting each a +1 status bonus to AC and saves while in the area.</p>\n<p>Choose vampire, or a creature trait set out in @Compendium[pf2ettw.spells-srd.Blood Ward]{Blood Ward}. The bonuses granted by the spell increase to +2 against attacks by-and effects created by-creatures with the chosen trait.</p>\n<p>These bonuses increase to +4 against effects created by such creatures that attempt to impose the @Compendium[pf2ettw.conditionitems.Controlled]{Controlled} condition on a target of your divine aura, as well as against attacks made by summoned creatures with the chosen trait.</p>\n<p>When a creature with this trait hits a target with a melee attack, the creature must succeed at a Will save or be @Compendium[pf2ettw.conditionitems.Blinded]{Blinded} for 1 minute. It's then temporarily immune for 1 minute.</p>\n<p>The first time you Sustain the Spell each round, the divine aura's radius grows 10 feet.</p>"
        },
        "duration": {
            "value": "sustained up to 1 minute"
        },
        "hasCounteractCheck": {
            "value": false
        },
        "level": {
            "value": 8
        },
        "location": {
            "value": ""
        },
        "materials": {
            "value": ""
        },
        "prepared": {
            "value": ""
        },
        "primarycheck": {
            "value": ""
        },
        "range": {
            "value": ""
        },
        "rules": [],
        "save": {
            "basic": "",
            "value": ""
        },
        "school": {
            "value": "abjuration"
        },
        "secondarycasters": {
            "value": ""
        },
        "secondarycheck": {
            "value": ""
        },
        "source": {
            "value": "Pathfinder Core Rulebook"
        },
        "spellType": {
            "value": "utility"
        },
        "sustained": {
            "value": false
        },
        "target": {
            "value": "allies in the area"
        },
        "time": {
            "value": "2"
        },
        "traditions": {
            "custom": "",
            "value": [
                "divine",
                "sangromancy"
            ]
        },
        "traits": {
            "custom": "",
            "rarity": "common",
            "value": []
        }
    },
    "img": "systems/pf2ettw/icons/spells/divine-aura.webp",
    "name": "Divine Aura",
    "type": "spell"
}
