{
    "_id": "NkeLctXo9FLGnDhi",
    "data": {
        "ability": {
            "value": ""
        },
        "area": {
            "areaType": "",
            "value": ""
        },
        "areasize": {
            "value": ""
        },
        "autoHeightenLevel": {
            "value": null
        },
        "category": {
            "value": "focus"
        },
        "components": {
            "focus": false,
            "material": false,
            "somatic": true,
            "verbal": true
        },
        "cost": {
            "value": ""
        },
        "damage": {
            "value": {}
        },
        "description": {
            "value": "<p>Your deity sends wracking plagues. The target must attempt a Fortitude save. When you Cast the Spell, decide whether the disease inflicts the Clumsy, Enfeebled, or Stupefied condition.</p>\n<p><strong>Divine Plague</strong> (disease) <strong>Level</strong> 1</p>\n<p><strong>Stage 1</strong> @Compendium[pf2ettw.conditionitems.Clumsy]{Clumsy 1}, @Compendium[pf2ettw.conditionitems.Enfeebled]{Enfeebled 1}, or @Compendium[pf2ettw.conditionitems.Stupefied]{Stupefied 1} (1 round)</p>\n<p><strong>Stage 2</strong> @Compendium[pf2ettw.conditionitems.Slowed]{Slowed 1}, and Clumsy 1, Enfeebled 1, or Stupefied 1 (1 round)</p>\n<p><strong>Stage 3</strong> Clumsy 1, Enfeebled 1, or Stupefied 1 and the target can't recover from the condition until they are cured (1 day)</p>\n<hr />\n<p><strong>Success</strong> The target is unaffected.</p>\n<p><strong>Failure</strong> The target is afflicted with divine plague at stage 1.</p>\n<p><strong>Critical Failure</strong> The target is afflicted with divine plague at stage 2.</p>\n<hr />\n<p><strong>Heightened (5th)</strong> The divine plague disease gains the virulent trait. The condition value for the Clumsy, Enfeebled, or Stupefied condition is 2 instead of 1.</p>"
        },
        "duration": {
            "value": ""
        },
        "hasCounteractCheck": {
            "value": false
        },
        "level": {
            "value": 1
        },
        "location": {
            "value": ""
        },
        "materials": {
            "value": ""
        },
        "prepared": {
            "value": ""
        },
        "primarycheck": {
            "value": ""
        },
        "range": {
            "value": "15 feet"
        },
        "rules": [],
        "save": {
            "basic": "",
            "value": "fortitude"
        },
        "school": {
            "value": "necromancy"
        },
        "secondarycasters": {
            "value": ""
        },
        "secondarycheck": {
            "value": ""
        },
        "source": {
            "value": "Pathfinder Lost Omens: Gods & Magic"
        },
        "spellType": {
            "value": "save"
        },
        "sustained": {
            "value": false
        },
        "target": {
            "value": ""
        },
        "time": {
            "value": "2"
        },
        "traditions": {
            "value": []
        },
        "traits": {
            "custom": "",
            "rarity": "common",
            "value": [
                "cleric",
                "disease"
            ]
        }
    },
    "img": "systems/pf2ettw/icons/spells/divine-plagues.webp",
    "name": "Divine Plagues",
    "type": "spell"
}
