{
    "_id": "K8vvrOgW4bGakXxm",
    "data": {
        "ability": {
            "value": ""
        },
        "area": {
            "areaType": "",
            "value": ""
        },
        "areasize": {
            "value": ""
        },
        "category": {
            "value": "focus"
        },
        "components": {
            "focus": false,
            "material": false,
            "somatic": false,
            "verbal": true
        },
        "cost": {
            "value": ""
        },
        "damage": {
            "value": {}
        },
        "description": {
            "value": "<p>Vicious claws grow from your fingers. They are finesse unarmed attacks that deal 1d4 slashing damage and 1d6 extra damage of a type determined by the dragon in your bloodline.</p>\n<p>Your scales from blood magic glow with faint energy, giving you resistance 5 to the same damage type.</p>\n<p>@Compendium[pf2ettw.spell-effects.Spell Effect: Dragon Claws]{Spell Effect: Dragon Claws}</p>\n<hr />\n<p><strong>Heightened (5th)</strong> The extra damage increases to 2d6, and the resistance increases to 10.</p>\n<p><strong>Heightened (9th)</strong> The extra damage increases to 3d6, and the resistance increases to 15.</p>"
        },
        "duration": {
            "value": "1 minute"
        },
        "hasCounteractCheck": {
            "value": false
        },
        "level": {
            "value": 1
        },
        "location": {
            "value": ""
        },
        "materials": {
            "value": ""
        },
        "prepared": {
            "value": ""
        },
        "primarycheck": {
            "value": ""
        },
        "range": {
            "value": ""
        },
        "rules": [],
        "save": {
            "basic": "",
            "value": ""
        },
        "school": {
            "value": "transmutation"
        },
        "secondarycasters": {
            "value": ""
        },
        "secondarycheck": {
            "value": ""
        },
        "source": {
            "value": "Pathfinder Core Rulebook"
        },
        "spellType": {
            "value": "utility"
        },
        "sustained": {
            "value": false
        },
        "target": {
            "value": ""
        },
        "time": {
            "value": "1"
        },
        "traditions": {
            "value": []
        },
        "traits": {
            "custom": "",
            "rarity": "uncommon",
            "value": [
                "morph",
                "sorcerer"
            ]
        }
    },
    "img": "systems/pf2ettw/icons/spells/dragon-claws.webp",
    "name": "Dragon Claws",
    "type": "spell"
}
