{
    "_id": "jsWthW1Qy6tg3SwD",
    "data": {
        "ability": {
            "value": ""
        },
        "area": {
            "areaType": "",
            "value": ""
        },
        "category": {
            "value": "spell"
        },
        "components": {
            "focus": false,
            "material": false,
            "somatic": true,
            "verbal": true
        },
        "cost": {
            "value": ""
        },
        "damage": {
            "applyMod": false,
            "value": {
                "0": {
                    "applyMod": false,
                    "type": {
                        "subtype": "",
                        "value": "mental"
                    },
                    "value": "1d10"
                }
            }
        },
        "description": {
            "value": "<p>You cause mental distress to a creature, goading it to strike back at you. You deal 1d10 mental damage to the creature and cause it to take a -1 status penalty to attack rolls against creatures other than you. The creature must attempt a Will saving throw.</p>\n<hr />\n<p><strong>Critical Success</strong> The target is unaffected.</p>\n<p><strong>Success</strong> The target takes half damage and the penalty. The spell ends at the end of the target's next turn. @Compendium[pf2ettw.spell-effects.Spell Effect: Draw Ire (Success)]{Spell Effect: Draw Ire (Success)}</p>\n<p><strong>Failure</strong> The target takes full damage and the penalty. @Compendium[pf2ettw.spell-effects.Spell Effect: Draw Ire (Failure)]{Spell Effect: Draw Ire (Failure)}</p>\n<p><strong>Critical Failure</strong> The target takes double damage, and the status penalty is -2. @Compendium[pf2ettw.spell-effects.Spell Effect: Draw Ire (Critical Failure)]{Spell Effect: Draw Ire (Critical Failure)}</p>\n<hr />\n<p><strong>Heightened (+1)</strong> The damage increases by 1d10.</p>"
        },
        "duration": {
            "value": "1 minute"
        },
        "hasCounteractCheck": {
            "value": false
        },
        "heightening": {
            "damage": {
                "0": "1d10"
            },
            "interval": 1,
            "type": "interval"
        },
        "level": {
            "value": 1
        },
        "location": {
            "value": ""
        },
        "materials": {
            "value": ""
        },
        "prepared": {
            "value": ""
        },
        "range": {
            "value": "120 feet"
        },
        "rules": [],
        "save": {
            "basic": "",
            "value": "will"
        },
        "school": {
            "value": "enchantment"
        },
        "source": {
            "value": "Pathfinder Secrets of Magic"
        },
        "spellType": {
            "value": "save"
        },
        "sustained": {
            "value": false
        },
        "target": {
            "value": "1 creature"
        },
        "time": {
            "value": "2"
        },
        "traditions": {
            "custom": "",
            "value": [
                "arcane",
                "occult"
            ]
        },
        "traits": {
            "custom": "",
            "rarity": "common",
            "value": [
                "emotion",
                "mental"
            ]
        }
    },
    "img": "systems/pf2ettw/icons/spells/draw-ire.webp",
    "name": "Draw Ire",
    "type": "spell"
}
