{
    "_id": "scTRIrTfXquVYHGw",
    "data": {
        "ability": {
            "value": ""
        },
        "area": {
            "areaType": "",
            "value": null
        },
        "areasize": {
            "value": ""
        },
        "category": {
            "value": "spell"
        },
        "components": {
            "material": false,
            "somatic": true,
            "verbal": false
        },
        "cost": {
            "value": ""
        },
        "damage": {
            "value": {}
        },
        "description": {
            "value": "<p><strong>Trigger</strong> A creature within range is hit by an attack from an enemy.</p>\n<hr />\n<p>The target appears to fall down dead, though it actually turns @Compendium[pf2ettw.conditionitems.Invisible]{Invisible}. Its illusory corpse remains where it fell, complete with a believable fatal wound. This illusion looks and feels like a dead body. If the target's death seems absurd-for instance, a barbarian at full health appears to be slain by 2 damage-the GM can grant the attacker an immediate Perception check to disbelieve the illusion. If the target uses hostile actions, the spell ends. This ends the entire spell, so the illusory corpse disappears too.</p>\n<hr />\n<p><strong>Heightened (7th)</strong> The spell doesn't end if the target uses hostile actions.</p>"
        },
        "duration": {
            "value": "sustained up to 1 minute"
        },
        "hasCounteractCheck": {
            "value": false
        },
        "level": {
            "value": 5
        },
        "location": {
            "value": ""
        },
        "materials": {
            "value": ""
        },
        "prepared": {
            "value": ""
        },
        "primarycheck": {
            "value": ""
        },
        "range": {
            "value": "120 feet"
        },
        "rules": [],
        "save": {
            "basic": "",
            "value": ""
        },
        "school": {
            "value": "illusion"
        },
        "secondarycasters": {
            "value": ""
        },
        "secondarycheck": {
            "value": ""
        },
        "source": {
            "value": "Pathfinder Core Rulebook"
        },
        "spellType": {
            "value": "utility"
        },
        "sustained": {
            "value": false
        },
        "target": {
            "value": "1 creature"
        },
        "time": {
            "value": "reaction"
        },
        "traditions": {
            "value": [
                "arcane",
                "divine"
            ]
        },
        "traits": {
            "custom": "",
            "rarity": "uncommon",
            "value": [
                "visual"
            ]
        }
    },
    "img": "systems/pf2ettw/icons/spells/drop-dead.webp",
    "name": "Drop Dead",
    "type": "spell"
}
