{
    "_id": "obVA6duK5fGbfFUY",
    "data": {
        "ability": {
            "value": ""
        },
        "area": {
            "areaType": "",
            "value": ""
        },
        "category": {
            "value": "spell"
        },
        "components": {
            "focus": false,
            "material": true,
            "somatic": true,
            "verbal": true
        },
        "cost": {
            "value": ""
        },
        "damage": {
            "value": {}
        },
        "description": {
            "value": "<p>You forge a bond between yourself and the target, enabling you to feel each other's emotions. You and the target can communicate empathetically, sharing emotions, at a distance of up to 1 mile.</p>\n<hr />\n<p><strong>Heightened (4th)</strong> You can target up to 4 willing creatures, and the duration increases to 8 hours.</p>"
        },
        "duration": {
            "value": "1 hour"
        },
        "hasCounteractCheck": {
            "value": false
        },
        "heightening": {
            "levels": {
                "4": {}
            },
            "type": "fixed"
        },
        "level": {
            "value": 2
        },
        "location": {
            "value": ""
        },
        "materials": {
            "value": ""
        },
        "range": {
            "value": "touch"
        },
        "rules": [],
        "save": {
            "basic": "",
            "value": ""
        },
        "school": {
            "value": "divination"
        },
        "source": {
            "value": "Pathfinder Lost Omens: Knights of Lastwall"
        },
        "spellType": {
            "value": "attack"
        },
        "sustained": {
            "value": false
        },
        "target": {
            "value": "1 willing creature"
        },
        "time": {
            "value": "1 minute"
        },
        "traditions": {
            "custom": "",
            "value": [
                "arcane",
                "occult"
            ]
        },
        "traits": {
            "custom": "",
            "rarity": "uncommon",
            "value": [
                "emotion",
                "mental"
            ]
        }
    },
    "img": "systems/pf2ettw/icons/spells/empathic-link.webp",
    "name": "Empathic Link",
    "type": "spell"
}
