{
    "_id": "MPxbKoR54gkYkqLO",
    "data": {
        "ability": {
            "value": ""
        },
        "area": {
            "areaType": "",
            "value": ""
        },
        "category": {
            "value": "spell"
        },
        "components": {
            "focus": false,
            "material": false,
            "somatic": true,
            "verbal": true
        },
        "cost": {
            "value": ""
        },
        "damage": {
            "applyMod": true,
            "value": {
                "0": {
                    "applyMod": true,
                    "type": {
                        "subtype": "",
                        "value": "slashing"
                    },
                    "value": "1d6"
                }
            }
        },
        "description": {
            "value": "<p>You temporarily morph your limb into a clawed appendage. Make a melee spell attack roll against your target's AC. If you hit, you deal your choice of slashing or piercing damage equal to 1d6 plus your spellcasting ability modifier. On a critical success, you deal double damage plus @Localize[pf2ettw.PersistentDamage.Bleed1d4.success].</p>\n<hr />\n<p><strong>Heightened (+1)</strong> The damage increases by 1d6 and the</p>\n<p>persistent bleed damage on a critical increases by 1d4.</p>"
        },
        "duration": {
            "value": ""
        },
        "hasCounteractCheck": {
            "value": false
        },
        "heightening": {
            "damage": {
                "0": "1d6"
            },
            "interval": 1,
            "type": "interval"
        },
        "level": {
            "value": 1
        },
        "location": {
            "value": ""
        },
        "materials": {
            "value": ""
        },
        "range": {
            "value": "touch"
        },
        "rules": [],
        "save": {
            "basic": "",
            "value": ""
        },
        "school": {
            "value": "transmutation"
        },
        "source": {
            "value": "Pathfinder Secrets of Magic"
        },
        "spellType": {
            "value": "attack"
        },
        "sustained": {
            "value": false
        },
        "target": {
            "value": "1 creature"
        },
        "time": {
            "value": "2"
        },
        "traditions": {
            "custom": "",
            "value": [
                "arcane",
                "primal"
            ]
        },
        "traits": {
            "custom": "",
            "rarity": "common",
            "value": [
                "attack",
                "cantrip",
                "morph"
            ]
        }
    },
    "img": "systems/pf2ettw/icons/spells/gouging-claw.webp",
    "name": "Gouging Claw",
    "type": "spell"
}
