{
    "_id": "3ipOKanMLnJrPwbr",
    "data": {
        "ability": {
            "value": ""
        },
        "area": {
            "areaType": "",
            "value": ""
        },
        "category": {
            "value": "ritual"
        },
        "components": {
            "focus": false,
            "material": false,
            "somatic": false,
            "verbal": false
        },
        "cost": {
            "value": "rare oils worth 10 gp × the primary caster's level"
        },
        "damage": {
            "value": {}
        },
        "description": {
            "value": "<p>The guardian's aegis is a ritual used across numerous cultures to bind a chosen guardian and ward together so that they can complete a quest of great import. When the ritual is completed, designate one of the casters as the guardian, while the other is the ward. As long as you're on the same plane of existence, both of you are always aware of each other's relative directions and state of being, including any conditions the other is affected by. As long as you're within 30 feet of each other, whenever the ward takes damage, the damage is reduced by the amount equal to half the guardian's level, and the guardian loses an equal number of Hit Points; the target still takes additional effects like poison even if guardian's aegis reduces the damage to 0.</p>\n<hr />\n<p><strong>Critical Success</strong> The ritual is successful, and the duration is 1 month.</p>\n<p><strong>Success</strong> The ritual is successful.</p>\n<p><strong>Failure</strong> The ritual has no effect.</p>\n<p><strong>Critical Failure</strong> The ritual backfires. You and the secondary caster become magically isolated from each other for 1 week, unable to provide each other any beneficial effect.</p>"
        },
        "duration": {
            "value": "1 week"
        },
        "hasCounteractCheck": {
            "value": false
        },
        "level": {
            "value": 3
        },
        "location": {
            "value": ""
        },
        "materials": {
            "value": ""
        },
        "primarycheck": {
            "value": "Occultism or Religion"
        },
        "range": {
            "value": ""
        },
        "rules": [],
        "save": {
            "basic": "",
            "value": ""
        },
        "school": {
            "value": "abjuration"
        },
        "secondarycasters": {
            "value": "1"
        },
        "secondarycheck": {
            "value": "Athletics, Diplomacy, or Society"
        },
        "source": {
            "value": "Pathfinder Secrets of Magic"
        },
        "spellType": {
            "value": "utility"
        },
        "sustained": {
            "value": false
        },
        "target": {
            "value": ""
        },
        "time": {
            "value": "1 day"
        },
        "traditions": {
            "value": []
        },
        "traits": {
            "custom": "",
            "rarity": "uncommon",
            "value": []
        }
    },
    "img": "systems/pf2ettw/icons/spells/augury.webp",
    "name": "Guardian's Aegis",
    "type": "spell"
}
