{
    "_id": "2ZcrDzPJGgvhIF9o",
    "data": {
        "ability": {
            "value": ""
        },
        "area": {
            "areaType": "",
            "value": ""
        },
        "autoHeightenLevel": {
            "value": null
        },
        "category": {
            "value": "ritual"
        },
        "components": {
            "focus": false,
            "material": false,
            "somatic": false,
            "verbal": false
        },
        "cost": {
            "value": ""
        },
        "damage": {
            "value": {}
        },
        "description": {
            "value": "<p id=\"docs-internal-guid-d1e7a3e6-7fff-88b4-d9c7-d707babd1f9d\" dir=\"ltr\">You seal the vital essence of the blood into itself, preserving its potency for an extended duration.</p>\n<p dir=\"ltr\"><strong>Success</strong> The blood remains usable as libation for a period of 1 week.</p>\n<p dir=\"ltr\"><strong>Failure</strong> The blood remains usable as libation for a period of 2 days.</p>\n<p dir=\"ltr\"><strong>Critical Failure</strong> No effect.</p>\n<hr />\n<p dir=\"ltr\"><strong>Heightened (2nd)</strong> Double the stated duration.</p>\n<p dir=\"ltr\"><strong>Heightened (5th)</strong> Triple the stated duration.</p>\n<p dir=\"ltr\"><strong>Heightened (7th)</strong> Quadruple the stated duration.</p>\n<p dir=\"ltr\"><strong>Heightened (9th)</strong> The blood remains usable for an indefinite period on any result except a critical failure.</p>\n<hr />\n<p dir=\"ltr\"><span id=\"docs-internal-guid-29876488-7fff-70af-bfb7-cf188ec56300\">This ritual has a normal, rather than very hard DC, for a level equal to twice the spell’s level. </span></p>"
        },
        "duration": {
            "value": ""
        },
        "hasCounteractCheck": {
            "value": false
        },
        "level": {
            "value": 1
        },
        "location": {
            "value": ""
        },
        "materials": {
            "value": ""
        },
        "primarycheck": {
            "value": "Sangromancy"
        },
        "range": {
            "value": "Touch"
        },
        "rules": [],
        "save": {
            "basic": "",
            "value": ""
        },
        "school": {
            "value": "conjuration"
        },
        "secondarycasters": {
            "value": ""
        },
        "secondarycheck": {
            "value": ""
        },
        "source": {
            "value": ""
        },
        "spellType": {
            "value": "utility"
        },
        "sustained": {
            "value": false
        },
        "target": {
            "value": "1 or more libations of blood in a suitable container."
        },
        "time": {
            "value": "3"
        },
        "traditions": {
            "custom": "",
            "value": [
                "sangromancy",
                "vampire"
            ]
        },
        "traits": {
            "custom": "",
            "rarity": {
                "value": "common"
            },
            "value": [
                "vampire"
            ]
        }
    },
    "effects": [],
    "flags": {},
    "img": "systems/pf2ettw/icons/default-icons/spell.webp",
    "name": "Hallow Blood",
    "type": "spell"
}
