{
    "_id": "fI20AVwOzJMHXRdo",
    "data": {
        "ability": {
            "value": ""
        },
        "area": {
            "areaType": "",
            "value": ""
        },
        "areasize": {
            "value": ""
        },
        "category": {
            "value": "spell"
        },
        "components": {
            "focus": false,
            "material": false,
            "somatic": true,
            "verbal": true
        },
        "cost": {
            "value": ""
        },
        "damage": {
            "value": {}
        },
        "description": {
            "value": "<p>You defy gravity and levitate the target 5 feet off the ground. For the duration of the spell, you can move the target up or down 10 feet with a single action, which has the concentrate trait. A creature floating in the air from levitate takes a -2 circumstance penalty to attack rolls. A floating creature can spend an Interact action to stabilize itself and negate this penalty for the remainder of its turn. If the target is adjacent to a fixed object or terrain of suitable stability, it can move across the surface by climbing (if the surface is vertical, like a wall) or crawling (if the surface is horizontal, such as a ceiling). The GM determines which surfaces can be climbed or crawled across.</p>\n<p>@Compendium[pf2ettw.spell-effects.Spell Effect: Levitate]{Spell Effect: Levitate}</p>"
        },
        "duration": {
            "value": "5 minutes"
        },
        "hasCounteractCheck": {
            "value": false
        },
        "level": {
            "value": 3
        },
        "location": {
            "value": ""
        },
        "materials": {
            "value": ""
        },
        "prepared": {
            "value": ""
        },
        "primarycheck": {
            "value": ""
        },
        "range": {
            "value": "touch"
        },
        "rules": [],
        "save": {
            "basic": "",
            "value": ""
        },
        "school": {
            "value": "evocation"
        },
        "secondarycasters": {
            "value": ""
        },
        "secondarycheck": {
            "value": ""
        },
        "source": {
            "value": "Pathfinder Core Rulebook"
        },
        "spellType": {
            "value": "utility"
        },
        "sustained": {
            "value": false
        },
        "target": {
            "value": "1 unattended object or willing creature"
        },
        "time": {
            "value": "2"
        },
        "traditions": {
            "value": [
                "arcane",
                "occult"
            ]
        },
        "traits": {
            "custom": "",
            "rarity": "common",
            "value": []
        }
    },
    "img": "systems/pf2ettw/icons/spells/levitate.webp",
    "name": "Levitate",
    "type": "spell"
}
