{
    "_id": "vvbS69EHZuUTq0dr",
    "data": {
        "ability": {
            "value": ""
        },
        "area": {
            "areaType": "",
            "value": ""
        },
        "category": {
            "value": "spell"
        },
        "components": {
            "focus": false,
            "material": true,
            "somatic": true,
            "verbal": true
        },
        "cost": {
            "value": ""
        },
        "damage": {
            "value": {}
        },
        "description": {
            "value": "<p>Using your life force or spirit as a conduit, you bind the targets in a mystical pact. If one of the targets is about to take damage that would reduce it to 0 Hit Points, all other targets immediately lose 3 Hit Points and the triggering target regains a number of Hit Points equal to the Hit Points lost this way, just before taking the damage. If this healing is enough that the triggering target is no longer reduced to 0 Hit Points, they remain conscious. Once the triggering target has regained Hit Points from the other targets, the spell ends.</p>\n<hr />\n<p><strong>Heightened (+1)</strong> Increase the number of Hit Points lost by 1 for each target other than the one reduced to 0 Hit Points. The target reduced to 0 Hit Points regains that many additional Hit Points.</p>"
        },
        "duration": {
            "value": "10 minutes"
        },
        "hasCounteractCheck": {
            "value": false
        },
        "heightening": {
            "damage": {},
            "interval": 1,
            "type": "interval"
        },
        "level": {
            "value": 3
        },
        "location": {
            "value": ""
        },
        "materials": {
            "value": ""
        },
        "range": {
            "value": "touch"
        },
        "rules": [],
        "save": {
            "basic": "",
            "value": ""
        },
        "school": {
            "value": "necromancy"
        },
        "source": {
            "value": "Pathfinder Lost Omens: Knights of Lastwall"
        },
        "spellType": {
            "value": "heal"
        },
        "sustained": {
            "value": false
        },
        "target": {
            "value": "up to 6 willing creatures"
        },
        "time": {
            "value": "1 minute"
        },
        "traditions": {
            "custom": "",
            "value": [
                "divine",
                "occult",
                "primal"
            ]
        },
        "traits": {
            "custom": "",
            "rarity": "uncommon",
            "value": [
                "healing"
            ]
        }
    },
    "img": "systems/pf2ettw/icons/spells/life-pact.webp",
    "name": "Life Pact",
    "type": "spell"
}
