{
    "_id": "n3b3pDmA6L5YRTyq",
    "data": {
        "ability": {
            "value": ""
        },
        "area": {
            "areaType": "",
            "value": ""
        },
        "areasize": {
            "value": ""
        },
        "category": {
            "value": "focus"
        },
        "components": {
            "focus": false,
            "material": false,
            "somatic": false,
            "verbal": true
        },
        "cost": {
            "value": ""
        },
        "damage": {
            "value": {}
        },
        "description": {
            "value": "<p>Your litany denounces an evildoer, rendering it susceptible to the powers of good. The target gains weakness 7 to radiant. @Compendium[pf2ettw.spell-effects.Spell Effect: Litany of Light]{Spell Effect: Litany of Light} The target then becomes temporarily immune to all of your litanies for 1 minute.</p>\n<hr />\n<p><strong>Heightened (+1)</strong> The weakness increases by 1.</p>"
        },
        "duration": {
            "value": "1 round"
        },
        "hasCounteractCheck": {
            "value": false
        },
        "level": {
            "value": 7
        },
        "location": {
            "value": ""
        },
        "materials": {
            "value": ""
        },
        "prepared": {
            "value": ""
        },
        "primarycheck": {
            "value": ""
        },
        "range": {
            "value": "30 feet"
        },
        "rules": [],
        "save": {
            "basic": "",
            "value": ""
        },
        "school": {
            "value": "evocation"
        },
        "secondarycasters": {
            "value": ""
        },
        "secondarycheck": {
            "value": ""
        },
        "source": {
            "value": "Pathfinder Core Rulebook"
        },
        "spellType": {
            "value": "utility"
        },
        "sustained": {
            "value": false
        },
        "target": {
            "value": "1 aberration, extraplanar creature, or undead creature"
        },
        "time": {
            "value": "1"
        },
        "traditions": {
            "value": []
        },
        "traits": {
            "custom": "",
            "rarity": "uncommon",
            "value": [
                "champion",
                "litany"
            ]
        }
    },
    "img": "systems/pf2ettw/icons/spells/litany-of-righteousness.webp",
    "name": "Litany of Light",
    "type": "spell"
}
