{
    "_id": "qOeBQyC1z7OScHvP",
    "data": {
        "ability": {
            "value": ""
        },
        "area": {
            "value": ""
        },
        "areasize": {
            "value": ""
        },
        "category": {
            "value": "spell"
        },
        "components": {
            "material": false,
            "somatic": true,
            "verbal": true
        },
        "cost": {
            "value": ""
        },
        "damage": {
            "value": {}
        },
        "description": {
            "value": "<p>The target of your spell is drawn into a long, twisting, extradimensional hallway blocked at 30-foot intervals with high-grade darkwood doors (Hardness 20, HP 80, BT 40, Athletics DC 30 to Force Open) secured with @Compendium[pf2ettw.equipment-srd.Lock (Average)]{Lock (Average)} (DC 25 Thievery, 4 successful checks required). A creature trapped within this hallway can escape only when the spell expires, or when they successfully pass through the number of doors determined by their save, either by breaking through the doors or picking the locks (or any combination of these, if the target must pass through multiple doors to escape). Teleportation effects of 6th level or lower are automatically suppressed within the extradimensional hallway; higher-level teleportation effects require the caster to succeed at a counteract check against your spell DC or they fail.</p>\n<hr />\n<p><strong>Critical Success</strong> The target is unaffected.</p>\n<p><strong>Success</strong> The target is trapped for 1 round, or until it bypasses 1 door.</p>\n<p><strong>Failure</strong> The target is trapped for 1 minute, or until it bypasses 2 doors.</p>\n<p><strong>Critical Failure</strong> The target it trapped for 10 minutes, or until it bypasses 3 doors.</p>"
        },
        "duration": {
            "value": "sustained"
        },
        "hasCounteractCheck": {
            "value": false
        },
        "level": {
            "value": 7
        },
        "location": {
            "value": "Aq01kMb7yAj1VxPX"
        },
        "materials": {
            "value": ""
        },
        "prepared": {
            "value": ""
        },
        "primarycheck": {
            "value": ""
        },
        "range": {
            "value": "120 feet"
        },
        "rules": [],
        "save": {
            "basic": "",
            "value": "will"
        },
        "school": {
            "value": "conjuration"
        },
        "secondarycasters": {
            "value": ""
        },
        "secondarycheck": {
            "value": ""
        },
        "source": {
            "value": "Pathfinder #158: Sixty Feet Under"
        },
        "spellType": {
            "value": "save"
        },
        "sustained": {
            "value": false
        },
        "target": {
            "value": "1 creature"
        },
        "time": {
            "value": "2"
        },
        "traditions": {
            "custom": "",
            "value": [
                "arcane",
                "occult"
            ]
        },
        "traits": {
            "custom": "",
            "rarity": "uncommon",
            "selected": {
                "conjuration": "Conjuration",
                "extradimensional": "Extradimensional",
                "incapacitation": "Incapacitation",
                "teleportation": "Teleportation"
            },
            "value": [
                "extradimensional",
                "incapacitation",
                "teleportation"
            ]
        }
    },
    "img": "systems/pf2ettw/icons/spells/maze-of-locked-doors.webp",
    "name": "Maze of Locked Doors",
    "type": "spell"
}
