{
    "_id": "dIxYsKQhRpTXbigB",
    "data": {
        "ability": {
            "value": ""
        },
        "area": {
            "areaType": "",
            "value": ""
        },
        "autoHeightenLevel": {
            "value": null
        },
        "category": {
            "value": "focus"
        },
        "components": {
            "focus": false,
            "material": false,
            "somatic": false,
            "verbal": false
        },
        "cost": {
            "value": ""
        },
        "damage": {
            "value": {
                "1ss3j4a0kxgh4qx3": {
                    "applyMod": false,
                    "type": {
                        "categories": [],
                        "subtype": "",
                        "value": "mental"
                    },
                    "value": "12d10"
                }
            }
        },
        "description": {
            "value": "<p id=\"docs-internal-guid-72b0b9ff-7fff-3e2a-82cb-0f3d24824933\" dir=\"ltr\">Y<em>ou drive your will against your enemy, seeking to overcome them at the centre of their being. Whoever triumphs here will be able to strike directly at the mind of the other.</em></p>\n<hr />\n<p dir=\"ltr\">Make a Will save against the enemy’s Will save DC.</p>\n<hr />\n<p dir=\"ltr\">Critical Success: The target takes 18d10 mental damage and is stunned 1.</p>\n<p dir=\"ltr\">Success: The target takes 12d10 mental damage.</p>\n<p dir=\"ltr\">Failure: The spell has no effect</p>\n<p dir=\"ltr\">Critical Failure: You take 6d10 mental damage and are stunned 1.</p>\n<hr />\n<p dir=\"ltr\">Heightened (+2) The damage on a critical success increases by 3d10, and the damage on a success or critical fail increases by 2d10.</p>"
        },
        "duration": {
            "value": ""
        },
        "hasCounteractCheck": {
            "value": false
        },
        "level": {
            "value": 7
        },
        "location": {
            "value": ""
        },
        "materials": {
            "value": ""
        },
        "range": {
            "value": "120 feet"
        },
        "rules": [],
        "save": {
            "basic": "",
            "value": ""
        },
        "scaling": {
            "damage": {
                "1ss3j4a0kxgh4qx3": "2d10"
            },
            "interval": 2
        },
        "school": {
            "value": "enchantment"
        },
        "source": {
            "value": ""
        },
        "spellType": {
            "value": "attack"
        },
        "sustained": {
            "value": false
        },
        "target": {
            "value": "i creature"
        },
        "time": {
            "value": "3"
        },
        "traditions": {
            "custom": "",
            "value": [
                "vampire"
            ]
        },
        "traits": {
            "custom": "",
            "rarity": {
                "value": "uncommon"
            },
            "value": [
                "mental",
                "vampire"
            ]
        }
    },
    "img": "systems/pf2ettw/icons/default-icons/spell.svg",
    "name": "Mind War",
    "type": "spell"
}
