{
    "_id": "mtlyAyf30JnIvxVn",
    "data": {
        "ability": {
            "value": ""
        },
        "area": {
            "areaType": "",
            "value": ""
        },
        "category": {
            "value": "spell"
        },
        "components": {
            "focus": false,
            "material": false,
            "somatic": true,
            "verbal": true
        },
        "cost": {
            "value": ""
        },
        "damage": {
            "value": {
                "4k01cn72e258j1g4": {
                    "applyMod": false,
                    "type": {
                        "categories": [],
                        "subtype": "",
                        "value": "radiant"
                    },
                    "value": "5d6"
                },
                "z4vh7m14o6f2hazs": {
                    "applyMod": false,
                    "type": {
                        "categories": [],
                        "subtype": "",
                        "value": "cold"
                    },
                    "value": "5d6"
                }
            }
        },
        "description": {
            "value": "<p>You unleash a holy beam of freezing moonlight. Make a ranged spell attack. The ray deals 5d6 cold damage and 5d6 radiant damage.</p>\n<p>Moonlight ray's cold damage is silver damage for the purposes of weaknesses, resistances, and the like.</p>\n<p>If the light passes through an area of magical darkness or targets a creature affected by magical darkness, moonlight ray attempts to counteract the darkness. If you need to determine whether the light passes through an area of darkness, draw a line between yourself and the spell's target.</p>\n<hr />\n<p><strong>Heightened (+1)</strong> The cold damage increases by 1d6, and the radiant damage by 1d6.</p>"
        },
        "duration": {
            "value": ""
        },
        "hasCounteractCheck": {
            "value": true
        },
        "heightening": {
            "damage": {
                "z4vh7m14o6f2hazs": "2d6"
            },
            "interval": 1,
            "type": "interval"
        },
        "level": {
            "value": 3
        },
        "location": {
            "value": ""
        },
        "materials": {
            "value": ""
        },
        "range": {
            "value": "120 feet"
        },
        "rules": [],
        "save": {
            "basic": "",
            "value": ""
        },
        "scaling": {
            "damage": {
                "4k01cn72e258j1g4": "1d6",
                "z4vh7m14o6f2hazs": "1d6"
            },
            "interval": 1
        },
        "school": {
            "value": "evocation"
        },
        "source": {
            "value": "Pathfinder #172: Secrets of the Temple-City"
        },
        "spellType": {
            "value": "attack"
        },
        "sustained": {
            "value": false
        },
        "target": {
            "value": "1 creature"
        },
        "time": {
            "value": "2"
        },
        "traditions": {
            "custom": "",
            "value": [
                "divine",
                "primal"
            ]
        },
        "traits": {
            "custom": "",
            "rarity": "uncommon",
            "value": [
                "attack",
                "cold",
                "light"
            ]
        }
    },
    "img": "systems/pf2ettw/icons/spells/moonlight-ray.webp",
    "name": "Moonlight Ray",
    "type": "spell"
}
