{
    "_id": "qVXraYXlTjissCaG",
    "data": {
        "ability": {
            "value": ""
        },
        "area": {
            "areaType": "",
            "value": ""
        },
        "category": {
            "value": "ritual"
        },
        "components": {
            "focus": false,
            "material": false,
            "somatic": false,
            "verbal": false
        },
        "cost": {
            "value": "at least 1 gallon of clean river water"
        },
        "damage": {
            "value": {}
        },
        "description": {
            "value": "<p>You attempt to purify and stabilize the life inside of Ulgrem-Axaan's last remaining clutch of eggs. With its blessing, you wash the eggs clean from the filth of undeath and bury them in warm sand by the banks of a river in Garund.</p>\n<hr />\n<p><strong>Critical Success</strong> The ritual is successful and the eggs hatch, giving life to an ancient species brought to the brink of extinction by the destruction of their home.</p>\n<p><strong>Success</strong> As critical success, but only half of the eggs hatch (rounded up). You can try again with the remaining eggs.</p>\n<p><strong>Failure</strong> No effect, and you must wait a week to try again.</p>\n<p><strong>Critical Failure</strong> 90% of the eggs shatter (rounded up). You must wait a month to try again.</p>"
        },
        "duration": {
            "value": ""
        },
        "hasCounteractCheck": {
            "value": false
        },
        "level": {
            "value": 5
        },
        "location": {
            "value": ""
        },
        "materials": {
            "value": ""
        },
        "primarycheck": {
            "value": "Nature (expert)"
        },
        "range": {
            "value": ""
        },
        "rules": [],
        "save": {
            "basic": "",
            "value": ""
        },
        "school": {
            "value": "necromancy"
        },
        "secondarycasters": {
            "value": "3"
        },
        "secondarycheck": {
            "value": "Crafting, Medicine, Survival"
        },
        "source": {
            "value": "Pathfinder Lost Omens: Monsters of Myth"
        },
        "spellType": {
            "value": "utility"
        },
        "sustained": {
            "value": false
        },
        "target": {
            "value": "Ulgrem-Axaan's eggs"
        },
        "time": {
            "value": "1 day"
        },
        "traditions": {
            "custom": "",
            "value": [
                "primal"
            ]
        },
        "traits": {
            "custom": "",
            "rarity": "rare",
            "value": [
                "beast",
                "consecration",
                "positive"
            ]
        }
    },
    "img": "systems/pf2ettw/icons/default-icons/spell.svg",
    "name": "Mother's Blessing",
    "type": "spell"
}
