{
    "_id": "VTb0yI6P1bLkzuRr",
    "data": {
        "ability": {
            "value": ""
        },
        "area": {
            "areaType": "burst",
            "value": "30"
        },
        "category": {
            "value": "spell"
        },
        "components": {
            "focus": false,
            "material": true,
            "somatic": true,
            "verbal": true
        },
        "cost": {
            "value": ""
        },
        "damage": {
            "applyMod": false,
            "value": {
                "0": {
                    "applyMod": false,
                    "type": {
                        "subtype": "",
                        "value": "bludgeoning"
                    },
                    "value": "6d8"
                }
            }
        },
        "description": {
            "value": "<p>You spin illusions of flying shadows throughout the area. The shadows strike and cavort, harming your foes and blocking their vision with twisting shadow. Enemies in the area when you Cast the Spell take 6d8 bludgeoning, piercing, or slashing damage, with a @Check[type:reflex|basic:true|traits:illusion] or @Check[type:will|basic:true|traits:illusion] save, as shadows explode into being. You choose the damage type when you Cast the Spell, and each creature chooses the type of save it attempts before it rolls the save. The shadows then persist in the area for 1 minute, dealing [[/r 3d8]] damage of the type you chose to any enemy that ends its turn in the area. All creatures are @Compendium[pf2ettw.conditionitems.Concealed]{Concealed} to enemies in the area, as the illusory shadows swarm over them and block light.</p>\n<p>A creature that spends an action to Seek or otherwise interact with the shadow raid can attempt a Perception check to disbelieve it. On a success, the creature halves the damage it takes from the shadows, and the shadows no longer impede its vision. These benefits last until the spell ends.</p>\n<hr />\n<p><strong>Heightened (9th)</strong> The initial damage increases by 2d8, and the damage to a creature that ends its turn in the area increases by 1d8 ([[/r 4d8]]).</p>"
        },
        "duration": {
            "value": "1 minute"
        },
        "hasCounteractCheck": {
            "value": false
        },
        "heightening": {
            "levels": {
                "9": {
                    "damage": {
                        "applyMod": false,
                        "value": {
                            "0": {
                                "applyMod": false,
                                "type": {
                                    "subtype": "",
                                    "value": "bludgeoning"
                                },
                                "value": "8d8"
                            }
                        }
                    }
                }
            },
            "type": "fixed"
        },
        "level": {
            "value": 7
        },
        "location": {
            "value": ""
        },
        "materials": {
            "value": ""
        },
        "range": {
            "value": "120 feet"
        },
        "rules": [],
        "save": {
            "basic": "basic",
            "value": "reflex"
        },
        "school": {
            "value": "illusion"
        },
        "source": {
            "value": "Pathfinder Secrets of Magic"
        },
        "spellType": {
            "value": "save"
        },
        "sustained": {
            "value": false
        },
        "target": {
            "value": ""
        },
        "time": {
            "value": "3"
        },
        "traditions": {
            "custom": "",
            "value": [
                "arcane",
                "occult"
            ]
        },
        "traits": {
            "custom": "",
            "rarity": "common",
            "value": [
                "shadow"
            ]
        }
    },
    "img": "systems/pf2ettw/icons/spells/shadow-raid.webp",
    "name": "Shadow Raid",
    "type": "spell"
}
