{
    "_id": "HcIAQZjNXHemoXSU",
    "data": {
        "ability": {
            "value": ""
        },
        "area": {
            "areaType": "burst",
            "value": "20"
        },
        "areasize": {
            "value": "a horizontal earthen or sandy surface within a 20-foot burst"
        },
        "category": {
            "value": "spell"
        },
        "components": {
            "focus": false,
            "material": true,
            "somatic": true,
            "verbal": true
        },
        "cost": {
            "value": ""
        },
        "damage": {
            "value": {}
        },
        "description": {
            "value": "<p>You cause the surface to heave. The area becomes difficult terrain and any tracks in the area are destroyed by the churning ground. Creatures standing in the area take a -1 status penalty to Acrobatics checks to @Compendium[pf2ettw.actionspf2ettw.Balance]{Balance} and @Compendium[pf2ettw.actionspf2ettw.Tumble Through]{Tumble Through} and Athletics checks to @Compendium[pf2ettw.actionspf2ettw.High Jump]{High Jump} and @Compendium[pf2ettw.actionspf2ettw.Long Jump]{Long Jump}. The first time each round you Sustain the Spell, you can move the churning area up to 10 feet in any direction. Creatures immobilized by the spell are carried along with the shifting sand in the same direction, if possible; this movement is forced movement. Creatures that enter or begin their turn standing in the shifting sand must attempt a Reflex save.</p>\n<hr />\n<p><strong>Critical Success</strong> The creature is unaffected and ignores the area's difficult terrain and penalty to skill checks until the end of its turn.</p>\n<p><strong>Success</strong> The creature ignores the area's penalty to skill checks until the end of its turn.</p>\n<p><strong>Failure</strong> The creature is affected normally by the spell this turn.</p>\n<p><strong>Critical Failure</strong> The creature becomes @Compendium[pf2ettw.conditionitems.Immobilized]{Immobilized} within the spell's area until it Escapes. If the creature was already immobilized by shifting sands, it also falls @Compendium[pf2ettw.conditionitems.Prone]{Prone}.</p>\n<hr />\n<p><strong>Heightened (5th)</strong> The status penalty increases to -2 and the spell's range increases to 60 feet.</p>\n<p><strong>Heightened (7th)</strong> The status penalty increases to -3, the spell's range increases to 60 feet, and the spell's area increases to a 30-foot burst.</p>\n<p><strong>Heightened (9th)</strong> The status penalty increases to -4, the spell's range increases to 60 feet, and the spell's area increases to a 40-foot burst.</p>"
        },
        "duration": {
            "value": "sustained up to 1 minute"
        },
        "hasCounteractCheck": {
            "value": false
        },
        "heightening": {
            "levels": {
                "5": {
                    "range": {
                        "value": "60 feet"
                    }
                },
                "7": {
                    "area": {
                        "areaType": "burst",
                        "value": "30"
                    }
                },
                "9": {
                    "area": {
                        "areaType": "burst",
                        "value": "40"
                    }
                }
            },
            "type": "fixed"
        },
        "level": {
            "value": 3
        },
        "location": {
            "value": ""
        },
        "materials": {
            "value": ""
        },
        "prepared": {
            "value": ""
        },
        "primarycheck": {
            "value": ""
        },
        "range": {
            "value": "30 feet"
        },
        "rules": [],
        "save": {
            "basic": "",
            "value": ""
        },
        "school": {
            "value": "transmutation"
        },
        "secondarycasters": {
            "value": ""
        },
        "secondarycheck": {
            "value": ""
        },
        "source": {
            "value": "Pathfinder Lost Omens: Gods & Magic"
        },
        "spellType": {
            "value": "attack"
        },
        "sustained": {
            "value": false
        },
        "target": {
            "value": ""
        },
        "time": {
            "value": "3"
        },
        "traditions": {
            "custom": "",
            "value": [
                "arcane",
                "primal"
            ]
        },
        "traits": {
            "custom": "",
            "rarity": "common",
            "value": [
                "earth"
            ]
        }
    },
    "img": "systems/pf2ettw/icons/spells/shifting-sand.webp",
    "name": "Shifting Sand",
    "type": "spell"
}
