{
    "_id": "W6QlRwQLPoBSw6PZ",
    "data": {
        "ability": {
            "value": ""
        },
        "area": {
            "areaType": "",
            "value": null
        },
        "areasize": {
            "value": ""
        },
        "category": {
            "value": "spell"
        },
        "components": {
            "material": false,
            "somatic": true,
            "verbal": true
        },
        "cost": {
            "value": ""
        },
        "damage": {
            "value": {
                "0": {
                    "type": {
                        "categories": [],
                        "value": "cold"
                    },
                    "value": "2d4"
                }
            }
        },
        "description": {
            "value": "<p>You throw a magically propelled and chilled ball of dense snow. The target takes 2d4 cold damage and potentially other effects, depending on the result of your spell attack roll.</p>\n<hr />\n<p><strong>Critical Success</strong> The target takes double damage and a -10-foot status penalty to its Speeds for 1 round.</p>\n<p><strong>Success</strong> The target takes full damage and a -5-foot status penalty to its Speeds for 1 round.</p>\n<p><strong>Failure</strong> No effect.</p>\n<hr />\n<p><strong>Heightened (+1)</strong> The damage increases by 2d4.</p>"
        },
        "duration": {
            "value": ""
        },
        "hasCounteractCheck": {
            "value": false
        },
        "heightening": {
            "damage": {
                "0": "2d4"
            },
            "interval": 1,
            "type": "interval"
        },
        "level": {
            "value": 1
        },
        "location": {
            "value": ""
        },
        "materials": {
            "value": ""
        },
        "prepared": {
            "value": ""
        },
        "primarycheck": {
            "value": ""
        },
        "range": {
            "value": "30 feet"
        },
        "rules": [],
        "save": {
            "basic": "",
            "value": ""
        },
        "school": {
            "value": "evocation"
        },
        "secondarycasters": {
            "value": ""
        },
        "secondarycheck": {
            "value": ""
        },
        "source": {
            "value": "Pathfinder Lost Omens: World Guide"
        },
        "spellType": {
            "value": "attack"
        },
        "sustained": {
            "value": false
        },
        "target": {
            "value": "1 creature"
        },
        "time": {
            "value": "2"
        },
        "traditions": {
            "custom": "",
            "value": [
                "arcane",
                "primal"
            ]
        },
        "traits": {
            "custom": "",
            "rarity": "common",
            "value": [
                "attack",
                "water",
                "cold"
            ]
        }
    },
    "img": "systems/pf2ettw/icons/spells/snowball.webp",
    "name": "Snowball",
    "type": "spell"
}
