{
    "_id": "XYhU3Wi94n1RKxTa",
    "data": {
        "ability": {
            "value": ""
        },
        "area": {
            "areaType": "emanation",
            "value": "100"
        },
        "areasize": {
            "value": "100-foot emanation which affects you."
        },
        "category": {
            "value": "focus"
        },
        "components": {
            "material": false,
            "somatic": true,
            "verbal": true
        },
        "cost": {
            "value": ""
        },
        "damage": {
            "value": {
                "0": {
                    "type": {
                        "categories": [],
                        "value": "electricity"
                    },
                    "value": "10d6"
                }
            }
        },
        "description": {
            "value": "<p>The sky above you darkens in a matter of moments, swirling with ominous clouds punctuated by flashes of lighting. The first time you Sustain this Spell each round, you can select one of the following effects to occur in the area, affecting you as well.</p>\n<ul>\n<li><strong>Calm</strong> No additional effect.</li>\n<li><strong>Fog</strong> Heavy fog rolls in, concealing the area with the effects of <em>@Compendium[pf2ettw.spells-srd.Obscuring Mist]{Obscuring Mist}</em>.</li>\n<li><strong>Rain</strong> Torrential rain falls from the sky, dousing ordinary flames. Creatures in the area take a -2 circumstance penalty to Acrobatics and Perception checks.</li>\n<li><strong>Wind</strong> Powerful winds buffet the area in all directions. Ranged attacks take a -4 circumstance penalty, and all flying is against the wind and counts as moving through difficult terrain.</li>\n</ul>\n<p>In addition, once per round you can use a single action, which has the concentrate and manipulate traits, to call down a bolt of lightning, striking any target in range that you can see. You deal 10d6 electricity damage to the target; it must attempt a basic Reflex save. On a failure, it is also @Compendium[pf2ettw.conditionitems.Deafened]{Deafened} for 1 round.</p>"
        },
        "duration": {
            "value": "sustained up to 1 minute"
        },
        "hasCounteractCheck": {
            "value": false
        },
        "level": {
            "value": 9
        },
        "location": {
            "value": ""
        },
        "materials": {
            "value": "You are outdoors and aboveground."
        },
        "prepared": {
            "value": ""
        },
        "primarycheck": {
            "value": ""
        },
        "range": {
            "value": ""
        },
        "rules": [],
        "save": {
            "basic": "basic",
            "value": "reflex"
        },
        "school": {
            "value": "evocation"
        },
        "secondarycasters": {
            "value": ""
        },
        "secondarycheck": {
            "value": ""
        },
        "source": {
            "value": "Pathfinder Core Rulebook"
        },
        "spellType": {
            "value": "save"
        },
        "sustained": {
            "value": false
        },
        "target": {
            "value": ""
        },
        "time": {
            "value": "2"
        },
        "traditions": {
            "value": []
        },
        "traits": {
            "custom": "",
            "rarity": "uncommon",
            "value": [
                "air",
                "druid",
                "electricity"
            ]
        }
    },
    "img": "systems/pf2ettw/icons/spells/storm-lord.webp",
    "name": "Storm Lord",
    "type": "spell"
}
