{
    "_id": "pMTltbI3S3UIuFaR",
    "data": {
        "ability": {
            "value": ""
        },
        "area": {
            "areaType": "",
            "value": ""
        },
        "areasize": {
            "value": ""
        },
        "category": {
            "value": "focus"
        },
        "components": {
            "focus": false,
            "material": false,
            "somatic": true,
            "verbal": true
        },
        "cost": {
            "value": ""
        },
        "damage": {
            "value": {
                "0": {
                    "applyMod": false,
                    "type": {
                        "categories": [],
                        "subtype": "",
                        "value": "fire"
                    },
                    "value": "1d4"
                }
            }
        },
        "description": {
            "value": "<p>You fire a ray of burning sunlight from your weapon. You must be wielding a sword or spear to cast <em>sun blade</em>, and you perform this spell's somatic component with the weapon.</p>\n<p>Make a spell attack roll. The ray deals 1d4 fire damage and an addition 1d4 radiant damage to aberrations, extraplanar creatures, and undead.</p>\n<p>If you are in an area of bright natural sunlight, increase the die size of each damage die by one step (from d4 to d6).</p>\n<p><span id=\"docs-internal-guid-9f4f91fa-7fff-b163-567a-cad599eecc98\">Alternatively, you may convert this spell to @Compendium[pf2ettw.spells-srd.Midnight Blade]{Midnight Blade}. Choose which version of this you have when you acquire the focus spell.</span></p>\n<hr />\n<p><strong>Heightened (+1)</strong> The damage increases by 1d4 fire and 1d4 radiant (or 1d6 of each type of damage in bright natural sunlight).</p>"
        },
        "duration": {
            "value": ""
        },
        "hasCounteractCheck": {
            "value": false
        },
        "heightening": {
            "damage": {
                "0": "1d4"
            },
            "interval": 1,
            "type": "interval"
        },
        "level": {
            "value": 2
        },
        "location": {
            "value": ""
        },
        "materials": {
            "value": ""
        },
        "prepared": {
            "value": ""
        },
        "primarycheck": {
            "value": ""
        },
        "range": {
            "value": "60 feet"
        },
        "rules": [],
        "save": {
            "basic": "",
            "value": ""
        },
        "school": {
            "value": "evocation"
        },
        "secondarycasters": {
            "value": ""
        },
        "secondarycheck": {
            "value": ""
        },
        "source": {
            "value": "Pathfinder Lost Omens: Character Guide"
        },
        "spellType": {
            "value": "attack"
        },
        "sustained": {
            "value": false
        },
        "target": {
            "value": "1 creature"
        },
        "time": {
            "value": "2"
        },
        "traditions": {
            "custom": "",
            "value": []
        },
        "traits": {
            "custom": "",
            "rarity": "uncommon",
            "value": [
                "fire",
                "light"
            ]
        }
    },
    "img": "systems/pf2ettw/icons/spells/sunblade.webp",
    "name": "Sun Blade",
    "type": "spell"
}
