{
    "_id": "lbrWMnS2pecKaSVB",
    "data": {
        "ability": {
            "value": ""
        },
        "area": {
            "areaType": "burst",
            "value": "10"
        },
        "category": {
            "value": "spell"
        },
        "components": {
            "focus": false,
            "material": false,
            "somatic": true,
            "verbal": true
        },
        "cost": {
            "value": ""
        },
        "damage": {
            "value": {}
        },
        "description": {
            "value": "<p>You call upon the spirits of the soil to twist and churn, transforming the terrain in the targeted area into a sodden mess. The area becomes difficult terrain. Creatures in the area when you Cast this Spell must attempt a Reflex saving throw.</p>\n<hr />\n<p><strong>Success</strong> The creature is unaffected.</p>\n<p><strong>Failure</strong> The creature sinks partially into the mud. The creature takes a -10-foot circumstance penalty to its Speeds (except for its swim Speed, if any) and becomes @Compendium[pf2ettw.conditionitems.Flat-Footed]{Flat-Footed}. These effects last until the creature leaves the area or until the end of its next turn, whichever comes first.</p>\n<p><strong>Critical Failure</strong> As failure, but the penalty to Speeds (except Swim speed) is -15 feet.</p>\n<hr />\n<p><strong>Heightened (3rd)</strong> The range increases to 60 feet, and the area increases to a 20-foot burst.</p>\n<hr />\n<p>@Compendium[pf2ettw.spell-effects.Spell Effect: Swampcall (Failure)]{Spell Effect: Swampcall (Failure)}</p>\n<p>@Compendium[pf2ettw.spell-effects.Spell Effect: Swampcall (Critical Failure)]{Spell Effect: Swampcall (Critical Failure)}</p>"
        },
        "duration": {
            "value": "1 minute"
        },
        "hasCounteractCheck": {
            "value": false
        },
        "heightening": {
            "levels": {
                "3": {
                    "area": {
                        "areaType": "burst",
                        "value": "20"
                    },
                    "range": {
                        "value": "60 feet"
                    }
                }
            },
            "type": "fixed"
        },
        "level": {
            "value": 1
        },
        "location": {
            "value": ""
        },
        "materials": {
            "value": ""
        },
        "range": {
            "value": "30 feet"
        },
        "rules": [],
        "save": {
            "basic": "",
            "value": "reflex"
        },
        "school": {
            "value": "transmutation"
        },
        "source": {
            "value": "Pathfinder #171: Hurricane's Howl"
        },
        "spellType": {
            "value": "save"
        },
        "sustained": {
            "value": false
        },
        "target": {
            "value": ""
        },
        "time": {
            "value": "2"
        },
        "traditions": {
            "custom": "",
            "value": [
                "primal"
            ]
        },
        "traits": {
            "custom": "",
            "rarity": "uncommon",
            "value": [
                "earth"
            ]
        }
    },
    "img": "systems/pf2ettw/icons/spells/swampcall.webp",
    "name": "Swampcall",
    "type": "spell"
}
