{
    "_id": "r82rqcm0MmGaBFkM",
    "data": {
        "ability": {
            "value": ""
        },
        "area": {
            "areaType": "cone",
            "value": "15"
        },
        "category": {
            "value": "focus"
        },
        "components": {
            "focus": false,
            "material": false,
            "somatic": false,
            "verbal": true
        },
        "cost": {
            "value": ""
        },
        "damage": {
            "applyMod": false,
            "value": {
                "0": {
                    "applyMod": false,
                    "type": {
                        "subtype": "",
                        "value": "sonic"
                    },
                    "value": "2"
                }
            }
        },
        "description": {
            "value": "<p>You swing your massive weapon, creating a wave of sonic vibrations that topples creatures. Make a melee Strike with your two-handed weapon. Each creature in a 15-foot cone from you must attempt a basic Fortitude save against your spell DC or take 2 sonic damage. On a critical failure, the creature is knocked @Compendium[pf2ettw.conditionitems.Prone]{Prone}. The target of your Strike must be within the cone or the effect fails.</p>\n<hr />\n<p><strong>Heightened (+1)</strong> The damage increases by 1.</p>\n<p data-visibility=\"owner\"><em>Note: Conflux spells refresh Spellstrike.</em></p>"
        },
        "duration": {
            "value": ""
        },
        "hasCounteractCheck": {
            "value": false
        },
        "heightening": {
            "damage": {
                "0": "1"
            },
            "interval": 1,
            "type": "interval"
        },
        "level": {
            "value": 1
        },
        "location": {
            "value": ""
        },
        "materials": {
            "value": "You're wielding a melee weapon in two hands"
        },
        "range": {
            "value": ""
        },
        "rules": [],
        "save": {
            "basic": "basic",
            "value": "fortitude"
        },
        "school": {
            "value": "evocation"
        },
        "source": {
            "value": "Pathfinder Secrets of Magic"
        },
        "spellType": {
            "value": "save"
        },
        "sustained": {
            "value": false
        },
        "target": {
            "value": ""
        },
        "time": {
            "value": "1"
        },
        "traditions": {
            "value": []
        },
        "traits": {
            "custom": "",
            "rarity": "uncommon",
            "value": [
                "magus",
                "sonic"
            ]
        }
    },
    "img": "systems/pf2ettw/icons/spells/thunderous-strike.webp",
    "name": "Thunderous Strike",
    "type": "spell"
}
