{
    "_id": "FedTjedva2rYk33r",
    "data": {
        "ability": {
            "value": ""
        },
        "area": {
            "areaType": "",
            "value": ""
        },
        "areasize": {
            "value": ""
        },
        "category": {
            "value": "focus"
        },
        "components": {
            "material": false,
            "somatic": true,
            "verbal": false
        },
        "cost": {
            "value": ""
        },
        "damage": {
            "value": {}
        },
        "description": {
            "value": "<p>You instill within a creature the touch of the grave. For the duration, <em>@Compendium[pf2ettw.spells-srd.Harm]{Harm}</em> spells treat the creature as undead and <em>@Compendium[pf2ettw.spells-srd.Heal]{Heal}</em> spells treat the creature as living. In addition, harm spells gain a +2 status bonus to the Hit Points restored to the target.</p>\n<p>If the target wishes to avoid the spell, it can attempt a Will save to reduce the effects.</p>\n<hr />\n<p><strong>Critical Success</strong> The target is unaffected.</p>\n<p><strong>Success</strong> The target heals half as much from <em>heal</em> and takes half as much damage from <em>harm</em> for 1 round.</p>\n<p><strong>Failure</strong> Effects as described in the text.</p>\n<hr />\n<p><strong>Heightened (+1)</strong> The status bonus to the Hit Points restored increases by 2.</p>"
        },
        "duration": {
            "value": "1 minute"
        },
        "hasCounteractCheck": {
            "value": false
        },
        "level": {
            "value": 1
        },
        "location": {
            "value": ""
        },
        "materials": {
            "value": ""
        },
        "prepared": {
            "value": ""
        },
        "primarycheck": {
            "value": ""
        },
        "range": {
            "value": "touch"
        },
        "rules": [],
        "save": {
            "basic": "",
            "value": "will"
        },
        "school": {
            "value": "necromancy"
        },
        "secondarycasters": {
            "value": ""
        },
        "secondarycheck": {
            "value": ""
        },
        "source": {
            "value": "Pathfinder Core Rulebook"
        },
        "spellType": {
            "value": "save"
        },
        "sustained": {
            "value": false
        },
        "target": {
            "value": "1 living creature touched"
        },
        "time": {
            "value": "1"
        },
        "traditions": {
            "custom": "",
            "value": []
        },
        "traits": {
            "custom": "",
            "rarity": "uncommon",
            "value": [
                "negative",
                "sorcerer"
            ]
        }
    },
    "img": "systems/pf2ettw/icons/spells/undeaths-blessing.webp",
    "name": "Undeath's Blessing",
    "type": "spell"
}
