{
    "_id": "8hKW4mWQyLnkHVta",
    "data": {
        "ability": {
            "value": ""
        },
        "area": {
            "areaType": "burst",
            "value": "15"
        },
        "category": {
            "value": "spell"
        },
        "components": {
            "focus": false,
            "material": true,
            "somatic": true,
            "verbal": true
        },
        "cost": {
            "value": ""
        },
        "damage": {
            "applyMod": false,
            "value": {
                "0": {
                    "applyMod": false,
                    "type": {
                        "subtype": "",
                        "value": "bludgeoning"
                    },
                    "value": "5d10"
                }
            }
        },
        "description": {
            "value": "<p><strong>Area</strong> 15-foot radius, 80-foot-tall cylinder</p>\n<hr />\n<p>Powerful winds coalesce into a devastating tornado. You can Cast this Spell only if you are outside or the ceiling is 80 feet or higher. All squares in the whirlwind are difficult terrain.</p>\n<p>All creatures in the area take 5d10 bludgeoning damage as powerful winds and debris buffet them, with a Reflex save. Each time you Sustain the Spell, you can move the whirlwind up to 30 feet in a straight line. Each creature the whirlwind moves through takes the damage, also with a Reflex save. A creature can be affected by a whirlwind only once per round.</p>\n<hr />\n<p><strong>Critical Success</strong> The creature is unaffected.</p>\n<p><strong>Success</strong> The creature takes half damage.</p>\n<p><strong>Failure</strong> The creature takes full damage and rises 10 feet into the air. If it doesn't have a fly Speed, the creature gains one equal to its Speed until it either reaches the ground or ceases to be in the whirlwind's area, potentially falling when the spell ends or when it leaves the area.</p>\n<p><strong>Critical Failure</strong> As failure, except the creature takes double damage and rises 20 feet into the air.</p>\n<hr />\n<p><strong>Heightened (+1)</strong> Increase the bludgeoning damage by 1d10.</p>"
        },
        "duration": {
            "value": "sustained up to 1 minute"
        },
        "hasCounteractCheck": {
            "value": false
        },
        "heightening": {
            "damage": {
                "0": "1d10"
            },
            "interval": 1,
            "type": "interval"
        },
        "level": {
            "value": 8
        },
        "location": {
            "value": ""
        },
        "materials": {
            "value": ""
        },
        "range": {
            "value": "500 feet"
        },
        "rules": [],
        "save": {
            "basic": "",
            "value": "reflex"
        },
        "school": {
            "value": "evocation"
        },
        "source": {
            "value": "Pathfinder Secrets of Magic"
        },
        "spellType": {
            "value": "save"
        },
        "sustained": {
            "value": false
        },
        "target": {
            "value": ""
        },
        "time": {
            "value": "3"
        },
        "traditions": {
            "custom": "",
            "value": [
                "primal"
            ]
        },
        "traits": {
            "custom": "",
            "rarity": "common",
            "value": [
                "air"
            ]
        }
    },
    "img": "systems/pf2ettw/icons/spells/whirlwind.webp",
    "name": "Whirlwind",
    "type": "spell"
}
