{
    "_id": "Eyuqu6eIaoGCjnMv",
    "data": {
        "actionCategory": {
            "value": ""
        },
        "actionType": {
            "value": "passive"
        },
        "actions": {
            "value": null
        },
        "description": {
            "value": "<p>You get one @Compendium[pf2ettw.equipment-srd.Clan Dagger]{clan dagger} of your clan for free, as it was given to you at birth. Selling this dagger is a terrible taboo and earns you the disdain of other dwarves.</p>"
        },
        "featType": {
            "value": "ancestryfeature"
        },
        "level": {
            "value": 0
        },
        "location": "",
        "prerequisites": {
            "value": []
        },
        "rules": [
            {
                "adjustName": false,
                "allowedDrops": {
                    "all": [
                        "item:level:0",
                        "item:trait:dwarf",
                        "item:type:weapon"
                    ],
                    "label": "level-0 dwarf weapon"
                },
                "choices": [
                    {
                        "img": "systems/pf2ettw/icons/equipment/weapons/clan-dagger.webp",
                        "label": "pf2ettw.Weapon.Base.clan-dagger",
                        "value": "clan-dagger"
                    },
                    {
                        "img": "systems/pf2ettw/icons/equipment/weapons/clan-pistol.webp",
                        "label": "pf2ettw.SpecificRule.ClanWeapon.ClanPistol",
                        "value": "clan-pistol"
                    }
                ],
                "flag": "clanWeapon",
                "key": "ChoiceSet",
                "label": "pf2ettw.SpecificRule.ClanWeapon.Label",
                "prompt": "pf2ettw.SpecificRule.ClanWeapon.Prompt"
            },
            {
                "domain": "all",
                "key": "RollOption",
                "option": "{item|flags.pf2ettw.rulesSelections.clanWeapon}",
                "removeUponCreate": true
            },
            {
                "key": "GrantItem",
                "predicate": {
                    "all": [
                        "clan-dagger"
                    ]
                },
                "uuid": "Compendium.pf2ettw.equipment-srd.Clan Dagger"
            },
            {
                "key": "GrantItem",
                "nestFeat": false,
                "predicate": {
                    "all": [
                        "clan-pistol"
                    ]
                },
                "uuid": "Compendium.pf2ettw.feats-srd.Clan Pistol"
            }
        ],
        "source": {
            "value": "Pathfinder Core Rulebook"
        },
        "traits": {
            "custom": "",
            "rarity": "common",
            "value": [
                "dwarf"
            ]
        }
    },
    "img": "systems/pf2ettw/icons/equipment/weapons/clan-dagger.webp",
    "name": "Clan Dagger",
    "type": "feat"
}
