{
    "_id": "AUlPRySCqE6o6LHH",
    "data": {
        "actionCategory": {
            "value": "defensive"
        },
        "actionType": {
            "value": "passive"
        },
        "actions": {
            "value": null
        },
        "description": {
            "value": "<p>You have eyes that point in several different directions and instinctively notice movement in the peripheries of your vision. When you use the Seek basic action, you can look for creatures in two areas instead of one. If precision is necessary, you can select two @Template[type:cone|distance:30]s or @Template[type:burst|distance:15]s within line of sight instead of one.</p>"
        },
        "featType": {
            "value": "ancestryfeature"
        },
        "level": {
            "value": 0
        },
        "location": "",
        "prerequisites": {
            "value": []
        },
        "rules": [],
        "source": {
            "value": ""
        },
        "traits": {
            "custom": "",
            "rarity": "common",
            "value": [
                "goloma"
            ]
        }
    },
    "img": "systems/pf2ettw/icons/default-icons/feat.svg",
    "name": "Eyes in Back",
    "type": "feat"
}
