{
    "_id": "Ez8wXPDKOzxvxnqS",
    "data": {
        "attributes": {
            "ac": {
                "value": 10
            },
            "hardness": 0,
            "hp": {
                "details": "",
                "max": 10,
                "temp": 0,
                "value": 10
            },
            "stealth": {
                "details": "<p>(trained) to smell blood</p>",
                "value": 6
            }
        },
        "creatureType": "",
        "details": {
            "description": "<p>The blood of those who died in the area bubbles up from the earth, soaking the soil and turning it into a bloody morass.</p>",
            "disable": "<p>@Check[type:diplomacy|dc:18|name:Settle the Spirits] or @Check[type:occultism|dc:18|name:Settle the Spirits] (trained) to settle the spirits or @Check[type:religion|dc:19|name:Bless the Area] (trained) to bless the area</p>",
            "isComplex": false,
            "level": {
                "value": 0
            },
            "reset": "<p>1 day</p>",
            "routine": ""
        },
        "saves": {
            "fortitude": {
                "saveDetail": "",
                "value": 0
            },
            "reflex": {
                "saveDetail": "",
                "value": 0
            },
            "will": {
                "saveDetail": "",
                "value": 0
            }
        },
        "source": {
            "value": "Pathfinder Book of the Dead"
        },
        "statusEffects": [],
        "traits": {
            "di": {
                "custom": "",
                "selected": {},
                "value": []
            },
            "dr": [],
            "dv": [],
            "rarity": "common",
            "size": {
                "value": "med"
            },
            "traits": {
                "custom": "",
                "value": [
                    "haunt"
                ]
            }
        }
    },
    "img": "systems/pf2ettw/icons/default-icons/hazard.svg",
    "items": [
        {
            "_id": "yM9uk6VXyMHmaP4c",
            "data": {
                "actionCategory": {
                    "value": "offensive"
                },
                "actionType": {
                    "value": "reaction"
                },
                "actions": {
                    "value": null
                },
                "description": {
                    "value": "<p><strong>Trigger</strong> A creature enters the area</p>\n<hr />\n<p><strong>Effect</strong> Blood seeps up from the earth, turning the area into sucking, gory mud. The area becomes difficult terrain for 1 hour. All creatures in or moving through the area must succeed at a @Check[type:reflex|dc:16] save, or they become @Compendium[pf2ettw.conditionitems.Immobilized]{Immobilized} until they can @Compendium[pf2ettw.actionspf2ettw.Escape]{Escape} (DC 16).</p>"
                },
                "requirements": {
                    "value": ""
                },
                "rules": [],
                "slug": null,
                "source": {
                    "value": ""
                },
                "traits": {
                    "custom": "",
                    "rarity": "common",
                    "value": [
                        "divine",
                        "earth",
                        "necromancy"
                    ]
                },
                "trigger": {
                    "value": ""
                }
            },
            "img": "systems/pf2ettw/icons/actions/Reaction.webp",
            "name": "Seep Blood",
            "sort": 0,
            "type": "action"
        }
    ],
    "name": "Blood-Soaked Soil",
    "token": {
        "disposition": 0,
        "height": 1,
        "img": "systems/pf2ettw/icons/default-icons/hazard.svg",
        "name": "Blood-Soaked Soil",
        "width": 1
    },
    "type": "hazard"
}
