{
    "_id": "L0JAq1IGEsjJwTbl",
    "data": {
        "abilities": {
            "cha": {
                "mod": 4
            },
            "con": {
                "mod": 6
            },
            "dex": {
                "mod": 4
            },
            "int": {
                "mod": 4
            },
            "str": {
                "mod": 7
            },
            "wis": {
                "mod": 8
            }
        },
        "attributes": {
            "ac": {
                "details": "",
                "value": 36
            },
            "allSaves": {
                "value": ""
            },
            "hp": {
                "details": "fast healing 10, negative healing, one more breath",
                "max": 190,
                "temp": 0,
                "value": 190
            },
            "initiative": {
                "ability": "perception"
            },
            "perception": {
                "value": 28
            },
            "speed": {
                "details": "rigor mortis",
                "otherSpeeds": [],
                "special": "",
                "value": "30"
            }
        },
        "details": {
            "alignment": {
                "value": "LE"
            },
            "blurb": "",
            "creatureType": "",
            "level": {
                "value": 14
            },
            "privateNotes": "",
            "publicNotes": "<p>Jiang-shi are terrifying hopping vampires from Tian Xia. Though similar to other vampires&mdash;they are undead, drain vital energy from the living, and can be slain only in specific ways&mdash;jiang-shi feast upon the breath of the living, also known as qi or ki, instead of blood. While they possess unique powers, including their magic-deflecting paper fulus, extraordinary jumping ability, and immunity to sunlight, jiang-shi also possess unique vulnerabilities, such as the inability to see living creatures save through breathsense, a revulsion to bells and mirrors, and near-stupefying melancholia. Thankfully, most jiang-shi can't create vampiric spawn.</p>\n<p>Ministers of tumult are grandmasters of killing, having cultivated their prowess to supernatural levels through the qi reaved from countless mortals. Many such jiang-shi ministers rule over settlements or even entire city-states, cowing their subjects into unerring obedience.</p>\n<p>A settlement or city-state under the control of a minister of tumult typically seems, on the outside, like everything is running smoothly and with clockwork precision. Guard patrols, street cleanings, carriages, and more always arrive precisely at the designated time, neither early nor late. To a visitor who doesn't pay any heed to the unease behind the smiles on the inhabitants' faces, the minister of tumult's fiefdom might appear to be a marvelous place to live. But the truth is much more dire. Ministers of tumult keep control and engorge themselves with qi by draining qi from criminals. If the minister of tumult is hungry and there haven't been any serious crimes, they simply dole out this punishment for petty crimes, minor infractions, or simple failures to perform adequately. This keeps the people in check, as there always seems to be a way to avoid the penalty by acting perfectly.</p>",
            "source": {
                "value": "Pathfinder Book of the Dead"
            }
        },
        "resources": {
            "focus": {
                "max": 3,
                "value": 3
            }
        },
        "saves": {
            "fortitude": {
                "saveDetail": "",
                "value": 26
            },
            "reflex": {
                "saveDetail": "",
                "value": 24
            },
            "will": {
                "saveDetail": "",
                "value": 28
            }
        },
        "traits": {
            "ci": [],
            "di": {
                "custom": "",
                "value": [
                    "death-effects",
                    "disease",
                    "paralyzed",
                    "poison",
                    "sleep",
                    "prone"
                ]
            },
            "dr": [
                {
                    "exceptions": "except magical darkwood",
                    "type": "physical",
                    "value": 10
                }
            ],
            "dv": [],
            "languages": {
                "custom": "",
                "selected": [],
                "value": [
                    "common",
                    "necril",
                    "tien"
                ]
            },
            "rarity": "common",
            "senses": {
                "value": "breathsense (precise) 60 feet, darkvision"
            },
            "size": {
                "value": "med"
            },
            "traits": {
                "custom": "",
                "value": [
                    "undead",
                    "vampire"
                ]
            }
        }
    },
    "img": "systems/pf2ettw/icons/default-icons/npc.svg",
    "items": [
        {
            "_id": "ugPuUFMgsKh55RQn",
            "data": {
                "autoHeightenLevel": {
                    "value": null
                },
                "description": {
                    "value": ""
                },
                "displayLevels": {},
                "prepared": {
                    "flexible": false,
                    "value": "focus"
                },
                "proficiency": {
                    "value": 1
                },
                "rules": [],
                "showSlotlessLevels": {
                    "value": true
                },
                "showUnpreparedSpells": {
                    "value": true
                },
                "slots": {
                    "slot0": {
                        "max": 0,
                        "prepared": [],
                        "value": 0
                    },
                    "slot1": {
                        "max": 0,
                        "prepared": [],
                        "value": 0
                    },
                    "slot10": {
                        "max": 0,
                        "prepared": [],
                        "value": 0
                    },
                    "slot11": {
                        "max": 0,
                        "prepared": [],
                        "value": 0
                    },
                    "slot2": {
                        "max": 0,
                        "prepared": [],
                        "value": 0
                    },
                    "slot3": {
                        "max": 0,
                        "prepared": [],
                        "value": 0
                    },
                    "slot4": {
                        "max": 0,
                        "prepared": [],
                        "value": 0
                    },
                    "slot5": {
                        "max": 0,
                        "prepared": [],
                        "value": 0
                    },
                    "slot6": {
                        "max": 0,
                        "prepared": [],
                        "value": 0
                    },
                    "slot7": {
                        "max": 0,
                        "prepared": [],
                        "value": 0
                    },
                    "slot8": {
                        "max": 0,
                        "prepared": [],
                        "value": 0
                    },
                    "slot9": {
                        "max": 0,
                        "prepared": [],
                        "value": 0
                    }
                },
                "slug": null,
                "source": {
                    "value": ""
                },
                "spelldc": {
                    "dc": 34,
                    "mod": 0,
                    "value": 26
                },
                "tradition": {
                    "value": "divine"
                },
                "traits": {
                    "custom": "",
                    "rarity": "common",
                    "value": []
                }
            },
            "img": "systems/pf2ettw/icons/default-icons/spellcastingEntry.svg",
            "name": "Divine Focus Spells",
            "sort": 100000,
            "type": "spellcastingEntry"
        },
        {
            "_id": "hDVOuJCC1mJYzeMR",
            "data": {
                "ability": {
                    "value": ""
                },
                "area": {
                    "value": ""
                },
                "areasize": {
                    "value": ""
                },
                "category": {
                    "value": "focus"
                },
                "components": {
                    "focus": false,
                    "material": false,
                    "somatic": true,
                    "verbal": true
                },
                "cost": {
                    "value": ""
                },
                "damage": {
                    "value": {}
                },
                "description": {
                    "value": "<p>You make an attack filled with a medusa's petrifying power. Make an unarmed Strike with the following additional effects.</p>\n<hr />\n<p><strong>Critical Success</strong> The target is @Compendium[pf2ettw.conditionitems.Slowed]{Slowed 2} and must attempt a Fortitude save at the end of each of its turns; this ongoing save has the incapacitation trait.</p>\n<p>On a failed save, the Slowed condition increases by 1 (2 on a critical failure). A successful save reduces the Slowed condition by 1. When a creature is unable to act due to the Slowed condition from medusa's wrath, it is @Compendium[pf2ettw.conditionitems.Petrified]{Petrified} permanently. The spell ends if the creature is Petrified or the Slowed condition is removed.</p>\n<p><strong>Success</strong> As critical success, but the target is initially @Compendium[pf2ettw.conditionitems.Slowed]{Slowed 1}.</p>"
                },
                "duration": {
                    "value": ""
                },
                "hasCounteractCheck": {
                    "value": false
                },
                "level": {
                    "value": 8
                },
                "location": {
                    "value": "ugPuUFMgsKh55RQn"
                },
                "materials": {
                    "value": ""
                },
                "prepared": {
                    "value": ""
                },
                "primarycheck": {
                    "value": ""
                },
                "range": {
                    "value": ""
                },
                "rules": [],
                "save": {
                    "basic": "",
                    "value": ""
                },
                "school": {
                    "value": "transmutation"
                },
                "secondarycasters": {
                    "value": ""
                },
                "secondarycheck": {
                    "value": ""
                },
                "slug": "medusas-wrath",
                "source": {
                    "value": "Pathfinder Advanced Player's Guide"
                },
                "spellType": {
                    "value": "utility"
                },
                "sustained": {
                    "value": false
                },
                "target": {
                    "value": ""
                },
                "time": {
                    "value": "2"
                },
                "traditions": {
                    "value": []
                },
                "traits": {
                    "custom": "",
                    "rarity": "uncommon",
                    "value": [
                        "monk"
                    ]
                }
            },
            "flags": {
                "core": {
                    "sourceId": "Compendium.pf2ettw.spells-srd.wTYxxYJWN348oV15"
                }
            },
            "img": "systems/pf2ettw/icons/spells/medusas-wrath.webp",
            "name": "Medusa's Wrath",
            "sort": 200000,
            "type": "spell"
        },
        {
            "_id": "sI8kA1FMAZYAEDd7",
            "data": {
                "ability": {
                    "value": ""
                },
                "area": {
                    "areaType": "",
                    "value": null
                },
                "areasize": {
                    "value": ""
                },
                "category": {
                    "value": "focus"
                },
                "components": {
                    "focus": false,
                    "material": false,
                    "somatic": false,
                    "verbal": true
                },
                "cost": {
                    "value": ""
                },
                "damage": {
                    "value": {}
                },
                "description": {
                    "value": "<p>You gain a fly Speed equal to your Speed. You must end your turn on solid ground, or you fall.</p>\n<hr />\n<p><strong>Heightened (6th)</strong> At the end of your turn, you can attempt a DC 30 Acrobatics check to find purchase in midair. If you succeed, you don't fall.</p>\n<p>@Compendium[pf2ettw.spell-effects.Spell Effect: Wind Jump]{Spell Effect: Wind Jump}</p>"
                },
                "duration": {
                    "value": "1 minute"
                },
                "hasCounteractCheck": {
                    "value": false
                },
                "level": {
                    "value": 5
                },
                "location": {
                    "value": "ugPuUFMgsKh55RQn"
                },
                "materials": {
                    "value": ""
                },
                "prepared": {
                    "value": ""
                },
                "primarycheck": {
                    "value": ""
                },
                "range": {
                    "value": ""
                },
                "rules": [],
                "save": {
                    "basic": "",
                    "value": ""
                },
                "school": {
                    "value": "transmutation"
                },
                "secondarycasters": {
                    "value": ""
                },
                "secondarycheck": {
                    "value": ""
                },
                "slug": "wind-jump",
                "source": {
                    "value": "Pathfinder Core Rulebook"
                },
                "spellType": {
                    "value": "utility"
                },
                "sustained": {
                    "value": false
                },
                "target": {
                    "value": ""
                },
                "time": {
                    "value": "1"
                },
                "traditions": {
                    "value": []
                },
                "traits": {
                    "custom": "",
                    "rarity": "uncommon",
                    "value": [
                        "air",
                        "monk"
                    ]
                }
            },
            "flags": {
                "core": {
                    "sourceId": "Compendium.pf2ettw.spells-srd.kRxlkPPe6Gr7Du59"
                }
            },
            "img": "systems/pf2ettw/icons/spells/wind-jump.webp",
            "name": "Wind Jump",
            "sort": 300000,
            "type": "spell"
        },
        {
            "_id": "zhBwRgUxKMyx2Ws8",
            "data": {
                "ability": {
                    "value": ""
                },
                "area": {
                    "areaType": "",
                    "value": null
                },
                "areasize": {
                    "value": ""
                },
                "category": {
                    "value": "focus"
                },
                "components": {
                    "focus": false,
                    "material": false,
                    "somatic": false,
                    "verbal": true
                },
                "cost": {
                    "value": ""
                },
                "damage": {
                    "value": {}
                },
                "description": {
                    "value": "<p>Accelerated by your ki, you move with such speed you become a blur. Move two times: two Strides, two Steps, or one Stride and one Step (in either order).</p>\n<p>You gain the @Compendium[pf2ettw.conditionitems.Concealed]{Concealed} condition during this movement and until the start of your next turn.</p>"
                },
                "duration": {
                    "value": ""
                },
                "hasCounteractCheck": {
                    "value": false
                },
                "level": {
                    "value": 1
                },
                "location": {
                    "value": "ugPuUFMgsKh55RQn"
                },
                "materials": {
                    "value": ""
                },
                "prepared": {
                    "value": ""
                },
                "primarycheck": {
                    "value": ""
                },
                "range": {
                    "value": ""
                },
                "rules": [],
                "save": {
                    "basic": "",
                    "value": ""
                },
                "school": {
                    "value": "transmutation"
                },
                "secondarycasters": {
                    "value": ""
                },
                "secondarycheck": {
                    "value": ""
                },
                "slug": "ki-rush",
                "source": {
                    "value": "Pathfinder Core Rulebook"
                },
                "spellType": {
                    "value": "utility"
                },
                "sustained": {
                    "value": false
                },
                "target": {
                    "value": ""
                },
                "time": {
                    "value": "1"
                },
                "traditions": {
                    "value": []
                },
                "traits": {
                    "custom": "",
                    "rarity": "uncommon",
                    "value": [
                        "monk"
                    ]
                }
            },
            "flags": {
                "core": {
                    "sourceId": "Compendium.pf2ettw.spells-srd.ps0nmhclT6aIXgd8"
                }
            },
            "img": "systems/pf2ettw/icons/spells/ki-rush.webp",
            "name": "Ki Rush",
            "sort": 400000,
            "type": "spell"
        },
        {
            "_id": "h7zcdyu7ovmxa2ya",
            "data": {
                "attack": {
                    "value": ""
                },
                "attackEffects": {
                    "custom": "",
                    "value": [
                        "grab"
                    ]
                },
                "bonus": {
                    "value": 29
                },
                "damageRolls": {
                    "lgCHI4bQd8Ep66Yi": {
                        "damage": "3d10+13",
                        "damageType": "piercing"
                    }
                },
                "description": {
                    "value": ""
                },
                "rules": [],
                "slug": null,
                "source": {
                    "value": ""
                },
                "traits": {
                    "custom": "",
                    "rarity": "common",
                    "value": [
                        "agile",
                        "finesse"
                    ]
                },
                "weaponType": {
                    "value": "melee"
                }
            },
            "img": "systems/pf2ettw/icons/default-icons/melee.svg",
            "name": "Claw",
            "sort": 500000,
            "type": "melee"
        },
        {
            "_id": "mjX6AVWz9h31QQlj",
            "data": {
                "actionCategory": {
                    "value": "interaction"
                },
                "actionType": {
                    "value": "passive"
                },
                "actions": {
                    "value": null
                },
                "description": {
                    "value": "<p>@Localize[pf2ettw.NPC.Abilities.Glossary.Darkvision]</p>"
                },
                "requirements": {
                    "value": ""
                },
                "rules": [],
                "slug": "darkvision",
                "source": {
                    "value": "Pathfinder Bestiary"
                },
                "traits": {
                    "custom": "",
                    "rarity": "common",
                    "value": []
                },
                "trigger": {
                    "value": ""
                },
                "weapon": {
                    "value": ""
                }
            },
            "flags": {
                "core": {
                    "sourceId": "Compendium.pf2ettw.bestiary-ability-glossary-srd.qCCLZhnp2HhP3Ex6"
                }
            },
            "img": "systems/pf2ettw/icons/actions/Passive.webp",
            "name": "Darkvision",
            "sort": 600000,
            "type": "action"
        },
        {
            "_id": "XyO3dvZ3nK3xea9x",
            "data": {
                "actionCategory": {
                    "value": "interaction"
                },
                "actionType": {
                    "value": "passive"
                },
                "actions": {
                    "value": null
                },
                "description": {
                    "value": "<p>A jiang-shi can't perceive living creatures beyond 5 feet except with their breathsense. A living creature within the listed range who holds its breath is @Compendium[pf2ettw.conditionitems.Invisible]{Invisible} to the jiang-shi for as long as it holds its breath. To hold its breath in this way, a creature must have one hand free to fully plug its nose or cover its mouth.</p>"
                },
                "requirements": {
                    "value": ""
                },
                "rules": [],
                "slug": "vampire-jiang-shi-basic-breathsense-60-feet",
                "source": {
                    "value": "Pathfinder Book of the Dead"
                },
                "traits": {
                    "custom": "",
                    "rarity": "common",
                    "value": []
                },
                "trigger": {
                    "value": ""
                }
            },
            "flags": {
                "core": {
                    "sourceId": "Compendium.pf2ettw.bestiary-family-ability-glossary.OSnNiMdqgARyEVuv"
                }
            },
            "img": "systems/pf2ettw/icons/actions/Passive.webp",
            "name": "Breathsense  (Precise) 60 feet",
            "sort": 700000,
            "type": "action"
        },
        {
            "_id": "n7PNu3mHe1gYDzMO",
            "data": {
                "actionCategory": {
                    "value": "defensive"
                },
                "actionType": {
                    "value": "passive"
                },
                "actions": {
                    "value": null
                },
                "description": {
                    "value": "<p>@Localize[pf2ettw.NPC.Abilities.Glossary.FastHealing]</p>"
                },
                "requirements": {
                    "value": ""
                },
                "rules": [],
                "slug": "fast-healing",
                "source": {
                    "value": "Pathfinder Bestiary"
                },
                "traits": {
                    "custom": "",
                    "rarity": "common",
                    "value": []
                },
                "trigger": {
                    "value": ""
                },
                "weapon": {
                    "value": ""
                }
            },
            "flags": {
                "core": {
                    "sourceId": "Compendium.pf2ettw.bestiary-ability-glossary-srd.fJSNOw4zHGbIm4bZ"
                }
            },
            "img": "systems/pf2ettw/icons/actions/Passive.webp",
            "name": "Fast Healing",
            "sort": 800000,
            "type": "action"
        },
        {
            "_id": "nXUOVxkr2qzcOOP6",
            "data": {
                "actionCategory": {
                    "value": "defensive"
                },
                "actionType": {
                    "value": "passive"
                },
                "actions": {
                    "value": null
                },
                "description": {
                    "value": "<p>@Localize[pf2ettw.NPC.Abilities.Glossary.NegativeHealing]</p>"
                },
                "requirements": {
                    "value": ""
                },
                "rules": [
                    {
                        "key": "ActiveEffectLike",
                        "mode": "override",
                        "path": "data.attributes.hp.negativeHealing",
                        "value": true
                    }
                ],
                "slug": "negative-healing",
                "source": {
                    "value": "Pathfinder Bestiary 2"
                },
                "traits": {
                    "custom": "",
                    "rarity": "common",
                    "value": []
                },
                "trigger": {
                    "value": ""
                },
                "weapon": {
                    "value": ""
                }
            },
            "flags": {
                "core": {
                    "sourceId": "Compendium.pf2ettw.bestiary-ability-glossary-srd.TTCw5NusiSSkJU1x"
                }
            },
            "img": "systems/pf2ettw/icons/actions/Passive.webp",
            "name": "Negative Healing",
            "sort": 900000,
            "type": "action"
        },
        {
            "_id": "L4ewcxHDWUZozOIs",
            "data": {
                "actionCategory": {
                    "value": "defensive"
                },
                "actionType": {
                    "value": "passive"
                },
                "actions": {
                    "value": null
                },
                "description": {
                    "value": "<p>All jiang-shi possess the following vulnerabilities.</p>\n<ul>\n<li><strong>Revulsion</strong> A jiang-shi can't voluntarily come within 10 feet of a brandished mirror or the sound of ringing handbells. A creature can Interact with a mirror or handbell to brandish or ring the item for 1 round (similar to Raising a Shield). If the jiang-shi involuntarily comes within 10 feet of an object of their revulsion, they gain the @Compendium[pf2ettw.conditionitems.Fleeing]{Fleeing} condition, running from the object of their revulsion until they are 10 feet or farther from the object. After 1 round of being exposed to the object of their revulsion, a jiang-shi can attempt a @Check[type:will|dc:25] save as a single action, which has the concentrate trait. On a success, they overcome their revulsions for [[/r 1d6 #rounds]]{1d6 rounds} (or 1 hour on a critical success).</li>\n<li><strong>Bitter Epiphany</strong> A jiang-shi is afflicted by severe melancholia when reminded of their debased nature and the truth of their existential disconnection from living beings. When a jiang-shi sees an altar with at least 1 Bulk of food offerings to ancestor spirits, they must attempt a @Check[type:will|dc:25] save. They are then temporarily immune to Bitter Epiphany for 1 minute.</li>\n</ul>\n<hr />\n<p><strong>Critical Success</strong> The jiang-shi is unaffected.</p>\n<p><strong>Success</strong> The jiang-shi is @Compendium[pf2ettw.conditionitems.Stupefied]{Stupefied 1} for 1 round.</p>\n<p><strong>Failure</strong> The jiang-shi is @Compendium[pf2ettw.conditionitems.Stupefied]{Stupefied 2} for 1 minute.</p>\n<p><strong>Critical Failure</strong> The jiang-shi is stupefied 2 and @Compendium[pf2ettw.conditionitems.Confused]{Confused} for 1 minute.</p>"
                },
                "requirements": {
                    "value": ""
                },
                "rules": [],
                "slug": "vampire-jiang-shi-basic-jiang-shi-vulnerabilities",
                "source": {
                    "value": "Pathfinder Book of the Dead"
                },
                "traits": {
                    "custom": "",
                    "rarity": "common",
                    "value": []
                },
                "trigger": {
                    "value": ""
                }
            },
            "flags": {
                "core": {
                    "sourceId": "Compendium.pf2ettw.bestiary-family-ability-glossary.R1vYhCJ2KvT8uAy1"
                }
            },
            "img": "systems/pf2ettw/icons/actions/Passive.webp",
            "name": "Jiang-Shi Vulnerabilities",
            "sort": 1000000,
            "type": "action"
        },
        {
            "_id": "e7nXVy8HD6KkhPGf",
            "data": {
                "actionCategory": {
                    "value": "defensive"
                },
                "actionType": {
                    "value": "passive"
                },
                "actions": {
                    "value": null
                },
                "deathNote": true,
                "description": {
                    "value": "<p>Unlike other undead, a jiang-shi isn't destroyed at 0 HP. Instead, they fall @Compendium[pf2ettw.conditionitems.Unconscious]{Unconscious} and awaken in 1 minute with 1 Hit Point. Scattering at least 1 Bulk of glutinous rice or hen eggs on an unconscious jiang-shi destroys them permanently. If the jiang-shi was reduced to 0 HP by an attack from a weapon made of darkwood, they're destroyed immediately.</p>"
                },
                "requirements": {
                    "value": ""
                },
                "rules": [],
                "slug": "vampire-jiang-shi-basic-one-more-breath",
                "source": {
                    "value": "Pathfinder Book of the Dead"
                },
                "traits": {
                    "custom": "",
                    "rarity": "common",
                    "value": [
                        "divine",
                        "necromancy",
                        "negative"
                    ]
                },
                "trigger": {
                    "value": ""
                }
            },
            "flags": {
                "core": {
                    "sourceId": "Compendium.pf2ettw.bestiary-family-ability-glossary.BBqjQN5Gbe4PWP56"
                }
            },
            "img": "systems/pf2ettw/icons/actions/Passive.webp",
            "name": "One More Breath",
            "sort": 1100000,
            "type": "action"
        },
        {
            "_id": "zy1MsGurtjxz9LuB",
            "data": {
                "actionCategory": {
                    "value": "defensive"
                },
                "actionType": {
                    "value": "passive"
                },
                "actions": {
                    "value": null
                },
                "description": {
                    "value": "<p>The jiang-shi has corrupted the fulu attached to their brow. The jiang-shi is immune to spells cast from a magic item without expending a spell slot, such as from a scroll or wand. A creature can @Compendium[pf2ettw.actionspf2ettw.Steal]{Steal} the fulu to remove it, rolling against the jiangshi's Perception DC. This immediately ends the jiang-shi's immunity to these effects. If a creature then destroys the removed fulu with an Interact action, the jiang-shi also loses their @Compendium[pf2ettw.bestiary-ability-glossary-srd.Fast Healing]{Fast Healing} ability. A jiang-shi can create a replacement fulu by spending 1 uninterrupted hour inscribing a strip of paper (or similar) with a writing instrument.</p>"
                },
                "requirements": {
                    "value": ""
                },
                "rules": [],
                "slug": "vampire-jiang-shi-basic-warped-fulu",
                "source": {
                    "value": "Pathfinder Book of the Dead"
                },
                "traits": {
                    "custom": "",
                    "rarity": "common",
                    "value": []
                },
                "trigger": {
                    "value": ""
                }
            },
            "flags": {
                "core": {
                    "sourceId": "Compendium.pf2ettw.bestiary-family-ability-glossary.hwrZQSADT36TjDdv"
                }
            },
            "img": "systems/pf2ettw/icons/actions/Passive.webp",
            "name": "Warped Fulu",
            "sort": 1200000,
            "type": "action"
        },
        {
            "_id": "RvTQTNsY192UMAWY",
            "data": {
                "actionCategory": {
                    "value": "offensive"
                },
                "actionType": {
                    "value": "action"
                },
                "actions": {
                    "value": 1
                },
                "description": {
                    "value": "<p><strong>Requirements</strong> A @Compendium[pf2ettw.conditionitems.Grabbed]{Grabbed}, @Compendium[pf2ettw.conditionitems.Paralyzed]{Paralyzed}, @Compendium[pf2ettw.conditionitems.Restrained]{Restrained}, @Compendium[pf2ettw.conditionitems.Unconscious]{Unconscious}, or willing creature is within the jiang-shi's reach;</p>\n<hr />\n<p><strong>Effect</strong> The jiang-shi drains the victim's life energy, or qi, through their breath. This requires an @Check[type:athletics] check against the victim's Fortitude DC if the victim is grabbed and is automatic for any of the other conditions. The victim is @Compendium[pf2ettw.conditionitems.Drained]{Drained 1} and the jiang-shi regains [[/r 19 #Hit Points]]{19 HP}, gaining any excess as temporary Hit Points. Draining qi from a creature that's already drained doesn't restore any HP to the jiang-shi but increases the victim's drained condition value by 1, killing the victim when it reaches drained 5. If the victim has the ability to cast ki spells, it can spend 1 Focus Point to avoid becoming drained. This protects it only from the current attack, not from subsequent attempts to Drain Qi.</p>\n<p>A victim's drained condition value decreases by 1 every week. If the creature restricts their diet to glutinous rice for at least 1 day and spends 10 minutes dancing, jogging, or otherwise engaging in vigorous physical activity by succeeding at a @Check[type:athletics|dc:25] check, it reduces its drained condition by 1.</p>"
                },
                "requirements": {
                    "value": ""
                },
                "rules": [],
                "slug": "vampire-jiang-shi-basic-drain-qi",
                "source": {
                    "value": "Pathfinder Book of the Dead"
                },
                "traits": {
                    "custom": "",
                    "rarity": "common",
                    "value": [
                        "divine",
                        "necromancy"
                    ]
                },
                "trigger": {
                    "value": ""
                }
            },
            "flags": {
                "core": {
                    "sourceId": "Compendium.pf2ettw.bestiary-family-ability-glossary.QMlQ5AvcunCvjlfM"
                }
            },
            "img": "systems/pf2ettw/icons/actions/OneAction.webp",
            "name": "Drain Qi",
            "sort": 1300000,
            "type": "action"
        },
        {
            "_id": "2ccxczu33z7f67dc",
            "data": {
                "actionCategory": {
                    "value": "offensive"
                },
                "actionType": {
                    "value": "free"
                },
                "actions": {
                    "value": null
                },
                "description": {
                    "value": "<p><strong>Trigger</strong> The minister rolls initiative or their turn begins</p><hr />\n<p><strong>Effect</strong> The minister is attuned to coming violence. The minister uses Stance of Death.</p>"
                },
                "requirements": {
                    "value": ""
                },
                "rules": [],
                "slug": null,
                "source": {
                    "value": ""
                },
                "traits": {
                    "custom": "",
                    "rarity": "common",
                    "value": []
                },
                "trigger": {
                    "value": ""
                }
            },
            "img": "systems/pf2ettw/icons/actions/FreeAction.webp",
            "name": "Premonition of Death",
            "sort": 1400000,
            "type": "action"
        },
        {
            "_id": "mvCicXdmNRrAJwTJ",
            "data": {
                "actionCategory": {
                    "value": "offensive"
                },
                "actionType": {
                    "value": "passive"
                },
                "actions": {
                    "value": null
                },
                "description": {
                    "value": "<p>The jiang-shi ignores difficult terrain and effects that would render them @Compendium[pf2ettw.conditionitems.Prone]{Prone}. A jiang-shi can't take the @Compendium[pf2ettw.actionspf2ettw.Drop Prone]{Drop Prone} action. When they @Compendium[pf2ettw.actionspf2ettw.Leap]{Leap} they don't trigger reactions that are normally triggered by move actions, such as Attacks of Opportunity.</p>"
                },
                "requirements": {
                    "value": ""
                },
                "rules": [],
                "slug": "vampire-jiang-shi-basic-rigor-mortis",
                "source": {
                    "value": "Pathfinder Book of the Dead"
                },
                "traits": {
                    "custom": "",
                    "rarity": "common",
                    "value": []
                },
                "trigger": {
                    "value": ""
                }
            },
            "flags": {
                "core": {
                    "sourceId": "Compendium.pf2ettw.bestiary-family-ability-glossary.O6AXB9aZB0K14sS5"
                }
            },
            "img": "systems/pf2ettw/icons/actions/Passive.webp",
            "name": "Rigor Mortis",
            "sort": 1500000,
            "type": "action"
        },
        {
            "_id": "w8nbobeosq4s3a35",
            "data": {
                "actionCategory": {
                    "value": "offensive"
                },
                "actionType": {
                    "value": "action"
                },
                "actions": {
                    "value": 1
                },
                "description": {
                    "value": "<p>The minister's qi-engorged form allows perfect body control at all times. They assume one of the following stances.</p>\n<ul>\n<li><strong>Bone Corpse</strong> When the minister successfully Drains Qi while in this stance, for 1 round each time the drained creature Strides it must succeed at a @Check[type:flat|dc:5] or waste the action and fall @Compendium[pf2ettw.conditionitems.Prone]{Prone}.</li>\n<li><strong>Cloudless Void</strong> The jiang-shi gains a +1 circumstance bonus to AC and their claw Strikes gain the reach trait.</li>\n<li><strong>Sundered Veins</strong> Creatures struck by the jiang-shi's claw Strikes take @Localize[pf2ettw.PersistentDamage.Bleed1d10.success]. On a critical hit, they are also @Compendium[pf2ettw.conditionitems.Enfeebled]{Enfeebled 1}.</li>\n</ul>"
                },
                "requirements": {
                    "value": ""
                },
                "rules": [
                    {
                        "domain": "all",
                        "key": "RollOption",
                        "label": "pf2ettw.NPCAbility.Vampire.JiangShi.StanceOfDeath.CloudlessVoid.Label",
                        "option": "cloudless-void",
                        "toggleable": true,
                        "value": false
                    },
                    {
                        "domain": "all",
                        "key": "RollOption",
                        "label": "pf2ettw.NPCAbility.Vampire.JiangShi.StanceOfDeath.SunderedVeins.Label",
                        "option": "sundered-veins",
                        "toggleable": true,
                        "value": false
                    },
                    {
                        "key": "FlatModifier",
                        "predicate": {
                            "all": [
                                "cloudless-void"
                            ]
                        },
                        "selector": "ac",
                        "type": "circumstance",
                        "value": 1
                    },
                    {
                        "key": "Note",
                        "outcome": [
                            "success"
                        ],
                        "predicate": {
                            "all": [
                                "sundered-veins"
                            ]
                        },
                        "selector": "damage",
                        "text": "pf2ettw.PersistentDamage.Bleed1d10.success"
                    },
                    {
                        "key": "Note",
                        "outcome": [
                            "criticalSuccess"
                        ],
                        "predicate": {
                            "all": [
                                "sundered-veins"
                            ]
                        },
                        "selector": "damage",
                        "text": "pf2ettw.PersistentDamage.Bleed1d10.criticalSuccess"
                    },
                    {
                        "key": "Note",
                        "outcome": [
                            "criticalSuccess"
                        ],
                        "predicate": {
                            "all": [
                                "sundered-veins"
                            ]
                        },
                        "selector": "damage",
                        "text": "pf2ettw.NPCAbility.Vampire.JiangShi.SunderedVeins.Note"
                    }
                ],
                "slug": null,
                "source": {
                    "value": ""
                },
                "traits": {
                    "custom": "",
                    "rarity": "common",
                    "value": [
                        "stance",
                        "necromancy"
                    ]
                },
                "trigger": {
                    "value": ""
                }
            },
            "img": "systems/pf2ettw/icons/actions/OneAction.webp",
            "name": "Stance of Death",
            "sort": 1600000,
            "type": "action"
        },
        {
            "_id": "MRiU0bmGLDherRXE",
            "data": {
                "actionCategory": {
                    "value": "offensive"
                },
                "actionType": {
                    "value": "action"
                },
                "actions": {
                    "value": 1
                },
                "description": {
                    "value": "<p>@Localize[pf2ettw.NPC.Abilities.Glossary.Grab]</p>"
                },
                "requirements": {
                    "value": ""
                },
                "rules": [],
                "slug": "grab",
                "source": {
                    "value": "Pathfinder Bestiary"
                },
                "traits": {
                    "custom": "",
                    "rarity": "common",
                    "value": []
                },
                "trigger": {
                    "value": ""
                },
                "weapon": {
                    "value": ""
                }
            },
            "flags": {
                "core": {
                    "sourceId": "Compendium.pf2ettw.bestiary-ability-glossary-srd.Tkd8sH4pwFIPzqTr"
                }
            },
            "img": "systems/pf2ettw/icons/actions/OneAction.webp",
            "name": "Grab",
            "sort": 1700000,
            "type": "action"
        },
        {
            "_id": "6xf4kadok17mvgm8",
            "data": {
                "description": {
                    "value": ""
                },
                "mod": {
                    "value": 24
                },
                "proficient": {
                    "value": 0
                },
                "rules": [],
                "slug": null,
                "source": {
                    "value": ""
                },
                "traits": {
                    "custom": "",
                    "rarity": "common",
                    "value": []
                }
            },
            "img": "systems/pf2ettw/icons/default-icons/lore.svg",
            "name": "Acrobatics",
            "sort": 1800000,
            "type": "lore"
        },
        {
            "_id": "rbbahp1nx3j2a48f",
            "data": {
                "description": {
                    "value": ""
                },
                "mod": {
                    "value": 29
                },
                "proficient": {
                    "value": 0
                },
                "rules": [],
                "slug": null,
                "source": {
                    "value": ""
                },
                "traits": {
                    "custom": "",
                    "rarity": "common",
                    "value": []
                }
            },
            "img": "systems/pf2ettw/icons/default-icons/lore.svg",
            "name": "Athletics",
            "sort": 1900000,
            "type": "lore"
        },
        {
            "_id": "97qofp9hz9hcukb5",
            "data": {
                "description": {
                    "value": ""
                },
                "mod": {
                    "value": 24
                },
                "proficient": {
                    "value": 0
                },
                "rules": [],
                "slug": null,
                "source": {
                    "value": ""
                },
                "traits": {
                    "custom": "",
                    "rarity": "common",
                    "value": []
                }
            },
            "img": "systems/pf2ettw/icons/default-icons/lore.svg",
            "name": "Diplomacy",
            "sort": 2000000,
            "type": "lore"
        },
        {
            "_id": "edhnxf74wq462hzl",
            "data": {
                "description": {
                    "value": ""
                },
                "mod": {
                    "value": 24
                },
                "proficient": {
                    "value": 0
                },
                "rules": [],
                "slug": null,
                "source": {
                    "value": ""
                },
                "traits": {
                    "custom": "",
                    "rarity": "common",
                    "value": []
                }
            },
            "img": "systems/pf2ettw/icons/default-icons/lore.svg",
            "name": "Intimidation",
            "sort": 2100000,
            "type": "lore"
        },
        {
            "_id": "s4bb8j40iolivf58",
            "data": {
                "description": {
                    "value": ""
                },
                "mod": {
                    "value": 22
                },
                "proficient": {
                    "value": 0
                },
                "rules": [],
                "slug": null,
                "source": {
                    "value": ""
                },
                "traits": {
                    "custom": "",
                    "rarity": "common",
                    "value": []
                }
            },
            "img": "systems/pf2ettw/icons/default-icons/lore.svg",
            "name": "Martial Arts Lore",
            "sort": 2200000,
            "type": "lore"
        },
        {
            "_id": "xuuvdhqdqt9pmsi4",
            "data": {
                "description": {
                    "value": ""
                },
                "mod": {
                    "value": 20
                },
                "proficient": {
                    "value": 0
                },
                "rules": [],
                "slug": null,
                "source": {
                    "value": ""
                },
                "traits": {
                    "custom": "",
                    "rarity": "common",
                    "value": []
                }
            },
            "img": "systems/pf2ettw/icons/default-icons/lore.svg",
            "name": "Society",
            "sort": 2300000,
            "type": "lore"
        },
        {
            "_id": "xi9niaaevyr77303",
            "data": {
                "description": {
                    "value": ""
                },
                "mod": {
                    "value": 24
                },
                "proficient": {
                    "value": 0
                },
                "rules": [],
                "slug": null,
                "source": {
                    "value": ""
                },
                "traits": {
                    "custom": "",
                    "rarity": "common",
                    "value": []
                }
            },
            "img": "systems/pf2ettw/icons/default-icons/lore.svg",
            "name": "Stealth",
            "sort": 2400000,
            "type": "lore"
        }
    ],
    "name": "Minister Of Tumult",
    "token": {
        "disposition": -1,
        "height": 1,
        "img": "systems/pf2ettw/icons/default-icons/npc.svg",
        "name": "Minister Of Tumult",
        "width": 1
    },
    "type": "npc"
}
