{
    "_id": "DVpP5ObHDoT0OULK",
    "data": {
        "abilities": {
            "cha": {
                "mod": 3
            },
            "con": {
                "mod": 2
            },
            "dex": {
                "mod": 5
            },
            "int": {
                "mod": 1
            },
            "str": {
                "mod": 4
            },
            "wis": {
                "mod": 3
            }
        },
        "attributes": {
            "ac": {
                "details": "",
                "value": 28
            },
            "allSaves": {
                "value": ""
            },
            "hp": {
                "details": "negative healing",
                "max": 155,
                "temp": 0,
                "value": 155
            },
            "initiative": {
                "ability": "perception"
            },
            "perception": {
                "value": 18
            },
            "speed": {
                "otherSpeeds": [],
                "special": "",
                "value": "25"
            }
        },
        "details": {
            "alignment": {
                "value": "LE"
            },
            "blurb": "",
            "creatureType": "",
            "level": {
                "value": 9
            },
            "privateNotes": "",
            "publicNotes": "<p>Often found lurking in the dark, prowler wights wield subterfuge as their greatest weapon. They frequently feign death in old sewers, graveyards, and mausoleums, waiting for hapless victims to pass by before striking.</p>\n<hr />\n<p>Wights are undead beings of spite who primarily stalk places related to death.</p>",
            "source": {
                "value": "Pathfinder Book of the Dead"
            }
        },
        "resources": {},
        "saves": {
            "fortitude": {
                "saveDetail": "",
                "value": 17
            },
            "reflex": {
                "saveDetail": "",
                "value": 20
            },
            "will": {
                "saveDetail": "",
                "value": 16
            }
        },
        "traits": {
            "ci": [],
            "di": {
                "custom": "",
                "value": [
                    "death-effects",
                    "disease",
                    "paralyzed",
                    "poison",
                    "unconscious"
                ]
            },
            "dr": [],
            "dv": [],
            "languages": {
                "custom": "",
                "selected": [],
                "value": [
                    "common",
                    "necril"
                ]
            },
            "rarity": "uncommon",
            "senses": {
                "value": "darkvision"
            },
            "size": {
                "value": "med"
            },
            "traits": {
                "custom": "",
                "value": [
                    "undead",
                    "wight"
                ]
            }
        }
    },
    "img": "systems/pf2ettw/icons/default-icons/npc.svg",
    "items": [
        {
            "_id": "HdJVXKg1EjumVlC0",
            "data": {
                "MAP": {
                    "value": ""
                },
                "baseItem": "dagger",
                "bonus": {
                    "value": 0
                },
                "bonusDamage": {
                    "value": 0
                },
                "category": "simple",
                "containerId": null,
                "damage": {
                    "damageType": "piercing",
                    "dice": 1,
                    "die": "d4",
                    "value": ""
                },
                "description": {
                    "value": "<p>This small, bladed weapon is held in one hand and used to stab a creature in close combat. It can also be thrown.</p>"
                },
                "equipped": {
                    "carryType": "worn",
                    "handsHeld": 0,
                    "invested": null
                },
                "equippedBulk": {
                    "value": ""
                },
                "group": "knife",
                "hardness": 0,
                "hp": {
                    "brokenThreshold": 0,
                    "max": 0,
                    "value": 0
                },
                "level": {
                    "value": 0
                },
                "negateBulk": {
                    "value": "0"
                },
                "potencyRune": {
                    "value": 1
                },
                "preciousMaterial": {
                    "value": null
                },
                "preciousMaterialGrade": {
                    "value": null
                },
                "price": {
                    "value": {
                        "sp": 2
                    }
                },
                "property1": {
                    "critDamage": "",
                    "critDamageType": "",
                    "critDice": null,
                    "critDie": "",
                    "criticalConditionType": "",
                    "criticalConditionValue": null,
                    "damageType": "",
                    "dice": null,
                    "die": "",
                    "strikeConditionType": "",
                    "strikeConditionValue": null,
                    "value": ""
                },
                "propertyRune1": {
                    "value": null
                },
                "propertyRune2": {
                    "value": null
                },
                "propertyRune3": {
                    "value": null
                },
                "propertyRune4": {
                    "value": null
                },
                "quantity": 1,
                "range": null,
                "reload": {
                    "value": "-"
                },
                "rules": [],
                "size": "med",
                "slug": "dagger",
                "source": {
                    "value": "Pathfinder Core Rulebook"
                },
                "specific": {
                    "value": false
                },
                "splashDamage": {
                    "value": 0
                },
                "stackGroup": null,
                "strikingRune": {
                    "value": "striking"
                },
                "traits": {
                    "custom": "",
                    "rarity": "common",
                    "value": [
                        "agile",
                        "finesse",
                        "thrown-10",
                        "versatile-s"
                    ]
                },
                "usage": {
                    "value": "held-in-one-hand"
                },
                "weight": {
                    "value": "L"
                }
            },
            "flags": {
                "core": {
                    "sourceId": "Compendium.pf2ettw.equipment-srd.rQWaJhI5Bko5x14Z"
                }
            },
            "img": "systems/pf2ettw/icons/equipment/weapons/dagger.webp",
            "name": "Dagger",
            "sort": 100000,
            "type": "weapon"
        },
        {
            "_id": "1Pxm74jV5M4ArqQ4",
            "data": {
                "armor": {
                    "value": 1
                },
                "baseItem": "leather-armor",
                "category": "light",
                "check": {
                    "value": -1
                },
                "containerId": null,
                "description": {
                    "value": "<p>A mix of flexible and molded boiled leather, a suit of this type of armor provides some protection with maximum flexibility.</p>"
                },
                "dex": {
                    "value": 4
                },
                "equipped": {
                    "carryType": "worn",
                    "inSlot": false,
                    "invested": null
                },
                "equippedBulk": {
                    "value": "1"
                },
                "group": "leather",
                "hardness": 0,
                "hp": {
                    "brokenThreshold": 0,
                    "max": 0,
                    "value": 0
                },
                "level": {
                    "value": 0
                },
                "negateBulk": {
                    "value": "0"
                },
                "potency": {},
                "potencyRune": {
                    "value": 0
                },
                "preciousMaterial": {
                    "value": ""
                },
                "preciousMaterialGrade": {
                    "value": ""
                },
                "price": {
                    "value": {
                        "gp": 2
                    }
                },
                "propertyRune1": {
                    "value": ""
                },
                "propertyRune2": {
                    "value": ""
                },
                "propertyRune3": {
                    "value": ""
                },
                "propertyRune4": {
                    "value": ""
                },
                "quantity": 1,
                "resiliencyRune": {
                    "value": ""
                },
                "rules": [],
                "size": "med",
                "slug": "leather-armor",
                "source": {
                    "value": "Pathfinder Core Rulebook"
                },
                "speed": {
                    "value": 0
                },
                "stackGroup": null,
                "strength": {
                    "value": 10
                },
                "traits": {
                    "custom": "",
                    "rarity": "common",
                    "value": []
                },
                "usage": {
                    "value": "wornarmor"
                },
                "weight": {
                    "value": "2"
                }
            },
            "flags": {
                "core": {
                    "sourceId": "Compendium.pf2ettw.equipment-srd.4tIVTg9wj56RrveA"
                }
            },
            "img": "systems/pf2ettw/icons/equipment/armor/leather-armor.webp",
            "name": "Leather Armor",
            "sort": 200000,
            "type": "armor"
        },
        {
            "_id": "21sp3kwgg8uh9p13",
            "data": {
                "attack": {
                    "value": ""
                },
                "attackEffects": {
                    "custom": "",
                    "value": []
                },
                "bonus": {
                    "value": 21
                },
                "damageRolls": {
                    "I8MdO16Xv2BRVHkv": {
                        "damage": "2d4+7",
                        "damageType": "piercing"
                    }
                },
                "description": {
                    "value": ""
                },
                "rules": [],
                "slug": null,
                "source": {
                    "value": ""
                },
                "traits": {
                    "custom": "",
                    "rarity": "common",
                    "value": [
                        "agile",
                        "finesse",
                        "magical",
                        "versatile-s"
                    ]
                },
                "weaponType": {
                    "value": "melee"
                }
            },
            "img": "systems/pf2ettw/icons/default-icons/melee.svg",
            "name": "Dagger",
            "sort": 300000,
            "type": "melee"
        },
        {
            "_id": "oer9h35wciqfjj68",
            "data": {
                "attack": {
                    "value": ""
                },
                "attackEffects": {
                    "custom": "",
                    "value": []
                },
                "bonus": {
                    "value": 20
                },
                "damageRolls": {
                    "Xea4qdbnOUjnJ67c": {
                        "damage": "1d8+7",
                        "damageType": "slashing"
                    }
                },
                "description": {
                    "value": ""
                },
                "rules": [],
                "slug": null,
                "source": {
                    "value": ""
                },
                "traits": {
                    "custom": "",
                    "rarity": "common",
                    "value": [
                        "agile",
                        "finesse"
                    ]
                },
                "weaponType": {
                    "value": "melee"
                }
            },
            "img": "systems/pf2ettw/icons/default-icons/melee.svg",
            "name": "Claw",
            "sort": 400000,
            "type": "melee"
        },
        {
            "_id": "SwCl0ytYvoRbPKKM",
            "data": {
                "actionCategory": {
                    "value": "interaction"
                },
                "actionType": {
                    "value": "passive"
                },
                "actions": {
                    "value": null
                },
                "description": {
                    "value": "<p>@Localize[pf2ettw.NPC.Abilities.Glossary.Darkvision]</p>"
                },
                "requirements": {
                    "value": ""
                },
                "rules": [],
                "slug": "darkvision",
                "source": {
                    "value": "Pathfinder Bestiary"
                },
                "traits": {
                    "custom": "",
                    "rarity": "common",
                    "value": []
                },
                "trigger": {
                    "value": ""
                },
                "weapon": {
                    "value": ""
                }
            },
            "flags": {
                "core": {
                    "sourceId": "Compendium.pf2ettw.bestiary-ability-glossary-srd.qCCLZhnp2HhP3Ex6"
                }
            },
            "img": "systems/pf2ettw/icons/actions/Passive.webp",
            "name": "Darkvision",
            "sort": 500000,
            "type": "action"
        },
        {
            "_id": "517tUMEgs6I4camL",
            "data": {
                "actionCategory": {
                    "value": "defensive"
                },
                "actionType": {
                    "value": "passive"
                },
                "actions": {
                    "value": null
                },
                "description": {
                    "value": "<p>@Localize[pf2ettw.NPC.Abilities.Glossary.NegativeHealing]</p>"
                },
                "requirements": {
                    "value": ""
                },
                "rules": [
                    {
                        "key": "ActiveEffectLike",
                        "mode": "override",
                        "path": "data.attributes.hp.negativeHealing",
                        "value": true
                    }
                ],
                "slug": "negative-healing",
                "source": {
                    "value": "Pathfinder Bestiary 2"
                },
                "traits": {
                    "custom": "",
                    "rarity": "common",
                    "value": []
                },
                "trigger": {
                    "value": ""
                },
                "weapon": {
                    "value": ""
                }
            },
            "flags": {
                "core": {
                    "sourceId": "Compendium.pf2ettw.bestiary-ability-glossary-srd.TTCw5NusiSSkJU1x"
                }
            },
            "img": "systems/pf2ettw/icons/actions/Passive.webp",
            "name": "Negative Healing",
            "sort": 600000,
            "type": "action"
        },
        {
            "_id": "xicsjt4e3glrfz9g",
            "data": {
                "actionCategory": {
                    "value": "defensive"
                },
                "actionType": {
                    "value": "reaction"
                },
                "actions": {
                    "value": null
                },
                "deathNote": true,
                "description": {
                    "value": "<p><strong>Trigger</strong> The prowler wight is reduced to 0 Hit Points;</p>\n<hr />\n<p><strong>Effect</strong> The prowler wight makes a Strike before being destroyed. They don't gain any temporary HP from drain life on this Strike.</p>"
                },
                "requirements": {
                    "value": ""
                },
                "rules": [],
                "slug": null,
                "source": {
                    "value": ""
                },
                "traits": {
                    "custom": "",
                    "rarity": "common",
                    "value": []
                },
                "trigger": {
                    "value": ""
                }
            },
            "img": "systems/pf2ettw/icons/actions/Reaction.webp",
            "name": "Final Spite",
            "sort": 700000,
            "type": "action"
        },
        {
            "_id": "TDyZOrJxLY1hcPKJ",
            "data": {
                "actionCategory": {
                    "value": "offensive"
                },
                "actionType": {
                    "value": "passive"
                },
                "actions": {
                    "value": null
                },
                "description": {
                    "value": "<p>When the hunter wight damages a living creature using an unarmed attack or their bound weapon, they gain 9 temporary Hit Points, and the creature must succeed at a @Check[type:fortitude|dc:25] save or become @Compendium[pf2ettw.conditionitems.Drained]{Drained 1}. Further damage dealt by the hunter wight's unarmed and bound weapon attacks increases the value of the drained condition by 1 on a failed save, to a maximum of drained 4.</p>"
                },
                "requirements": {
                    "value": ""
                },
                "rules": [],
                "slug": null,
                "source": {
                    "value": ""
                },
                "traits": {
                    "custom": "",
                    "rarity": "common",
                    "value": [
                        "divine",
                        "necromancy"
                    ]
                },
                "trigger": {
                    "value": ""
                }
            },
            "img": "systems/pf2ettw/icons/actions/Passive.webp",
            "name": "Drain Life",
            "sort": 800000,
            "type": "action"
        },
        {
            "_id": "apx5l6z5p09xanhv",
            "data": {
                "actionCategory": {
                    "value": "offensive"
                },
                "actionType": {
                    "value": "action"
                },
                "actions": {
                    "value": 1
                },
                "description": {
                    "value": "<p>The prowler wight quenches the telltale red glow in their eye sockets, falls @Compendium[pf2ettw.conditionitems.Prone]{Prone}, and lies completely still. Until the next time they act, the prowler wight appears to be an ordinary corpse. They have an automatic result of 38 on Deception checks and DCs to pass as an ordinary corpse.</p>"
                },
                "requirements": {
                    "value": ""
                },
                "rules": [],
                "slug": null,
                "source": {
                    "value": ""
                },
                "traits": {
                    "custom": "",
                    "rarity": "common",
                    "value": [
                        "concentrate"
                    ]
                },
                "trigger": {
                    "value": ""
                }
            },
            "img": "systems/pf2ettw/icons/actions/OneAction.webp",
            "name": "Feign Death",
            "sort": 900000,
            "type": "action"
        },
        {
            "_id": "56PK7jsheqUjQAKo",
            "data": {
                "actionCategory": {
                    "value": "offensive"
                },
                "actionType": {
                    "value": "passive"
                },
                "actions": {
                    "value": null
                },
                "description": {
                    "value": "<p>The prowler wight deals an additional 2d6 precision damage to flat-footed creatures.</p>\n<hr />\n<p>@Localize[pf2ettw.NPC.Abilities.Glossary.SneakAttack]</p>"
                },
                "requirements": {
                    "value": ""
                },
                "rules": [
                    {
                        "category": "precision",
                        "diceNumber": 2,
                        "dieSize": "d6",
                        "key": "DamageDice",
                        "predicate": {
                            "all": [
                                "target:condition:flat-footed",
                                {
                                    "or": [
                                        "finesse",
                                        "agile",
                                        {
                                            "and": [
                                                "ranged",
                                                {
                                                    "not": "thrown"
                                                }
                                            ]
                                        }
                                    ]
                                }
                            ]
                        },
                        "selector": "strike-damage"
                    }
                ],
                "slug": "sneak-attack",
                "source": {
                    "value": "Pathfinder Bestiary"
                },
                "traits": {
                    "custom": "",
                    "rarity": "common",
                    "value": []
                },
                "trigger": {
                    "value": ""
                },
                "weapon": {
                    "value": ""
                }
            },
            "flags": {
                "core": {
                    "sourceId": "Compendium.pf2ettw.bestiary-ability-glossary-srd.AWvNPE4U0kEJSL1T"
                }
            },
            "img": "systems/pf2ettw/icons/actions/Passive.webp",
            "name": "Sneak Attack",
            "sort": 1000000,
            "type": "action"
        },
        {
            "_id": "7499bjv6f655br8n",
            "data": {
                "actionCategory": {
                    "value": "offensive"
                },
                "actionType": {
                    "value": "passive"
                },
                "actions": {
                    "value": null
                },
                "description": {
                    "value": "<p>A living humanoid killed by a prowler wight's weapon or claw Strike rises as a hunter wight spawn after [[/r 1d4 #rounds]]{1d4 rounds}. This spawn is under the command of the prowler wight that killed them. They don't have drain life or spawn prowler wight and are @Compendium[pf2ettw.conditionitems.Clumsy]{Clumsy 2} for as long as they're a prowler wight spawn. If the creator of the prowler wight spawn dies, the prowler wight spawn becomes a fully autonomous prowler wight; they regain their free will, gain drain life and spawn prowler wight, and are no longer clumsy</p>"
                },
                "requirements": {
                    "value": ""
                },
                "rules": [],
                "slug": null,
                "source": {
                    "value": ""
                },
                "traits": {
                    "custom": "",
                    "rarity": "common",
                    "value": [
                        "divine",
                        "necromancy"
                    ]
                },
                "trigger": {
                    "value": ""
                }
            },
            "img": "systems/pf2ettw/icons/actions/Passive.webp",
            "name": "Spawn Prowler Wight",
            "sort": 1100000,
            "type": "action"
        },
        {
            "_id": "gwm1iew21xv75yh7",
            "data": {
                "description": {
                    "value": ""
                },
                "mod": {
                    "value": 18
                },
                "proficient": {
                    "value": 0
                },
                "rules": [],
                "slug": null,
                "source": {
                    "value": ""
                },
                "traits": {
                    "custom": "",
                    "rarity": "common",
                    "value": []
                }
            },
            "img": "systems/pf2ettw/icons/default-icons/lore.svg",
            "name": "Acrobatics",
            "sort": 1200000,
            "type": "lore"
        },
        {
            "_id": "pc8xvfr0j4febds5",
            "data": {
                "description": {
                    "value": ""
                },
                "mod": {
                    "value": 18
                },
                "proficient": {
                    "value": 0
                },
                "rules": [],
                "slug": null,
                "source": {
                    "value": ""
                },
                "traits": {
                    "custom": "",
                    "rarity": "common",
                    "value": []
                }
            },
            "img": "systems/pf2ettw/icons/default-icons/lore.svg",
            "name": "Deception",
            "sort": 1300000,
            "type": "lore"
        },
        {
            "_id": "8z1h6mwnctd41one",
            "data": {
                "description": {
                    "value": ""
                },
                "mod": {
                    "value": 20
                },
                "proficient": {
                    "value": 0
                },
                "rules": [],
                "slug": null,
                "source": {
                    "value": ""
                },
                "traits": {
                    "custom": "",
                    "rarity": "common",
                    "value": []
                }
            },
            "img": "systems/pf2ettw/icons/default-icons/lore.svg",
            "name": "Stealth",
            "sort": 1400000,
            "type": "lore"
        }
    ],
    "name": "Prowler Wight",
    "token": {
        "disposition": -1,
        "height": 1,
        "img": "systems/pf2ettw/icons/default-icons/npc.svg",
        "name": "Prowler Wight",
        "width": 1
    },
    "type": "npc"
}
