{
    "_id": "I2XdTFyxnnRdmWsi",
    "data": {
        "attributes": {
            "ac": {
                "value": 10
            },
            "hardness": 0,
            "hp": {
                "details": "",
                "max": 10,
                "temp": 0,
                "value": 10
            },
            "stealth": {
                "details": "<p>(trained) to hear the spirit's grunt of exertion as it works to topple the furniture</p>",
                "value": 8
            }
        },
        "creatureType": "",
        "details": {
            "description": "<p>A mischievous spirit pushes a bookshelf over onto a creature.</p>",
            "disable": "<p>@Check[type:athletics|dc:16|name:Hold the furniture upright] to hold the furniture upright or @Check[type:occultism|dc:18|name:Foil the spirit's influence] (trained) to foil the spirit's efforts to influence matter</p>",
            "isComplex": false,
            "level": {
                "value": 2
            },
            "reset": "<p>If the haunt successfully damages a creature with Topple Furniture, the spirit laughs for [[/br 1d4 #Laughing Duration]]{1d4 rounds} as the haunt resets; each subsequent time the haunt activates, it must topple a different piece of upright furniture. If the haunt fails to damage a creature, the spirit wails in frustration and resets after pouting for [[/br 1d4 #Haunt Reset]]{1d4 hours}.</p>",
            "routine": ""
        },
        "saves": {
            "fortitude": {
                "saveDetail": "",
                "value": 0
            },
            "reflex": {
                "saveDetail": "",
                "value": 0
            },
            "will": {
                "saveDetail": "",
                "value": 0
            }
        },
        "source": {
            "value": "Pathfinder Book of the Dead"
        },
        "statusEffects": [],
        "traits": {
            "di": {
                "custom": "",
                "selected": {},
                "value": []
            },
            "dr": [],
            "dv": [],
            "rarity": "common",
            "size": {
                "value": "med"
            },
            "traits": {
                "custom": "",
                "value": [
                    "haunt"
                ]
            }
        }
    },
    "img": "systems/pf2ettw/icons/default-icons/hazard.svg",
    "items": [
        {
            "_id": "HUgw20uZ51R7a9a4",
            "data": {
                "actionCategory": {
                    "value": "offensive"
                },
                "actionType": {
                    "value": "reaction"
                },
                "actions": {
                    "value": null
                },
                "description": {
                    "value": "<p><strong>Trigger</strong> A creature moves adjacent to the furniture</p>\n<hr />\n<p><strong>Effect</strong> The spirit shoves the furniture over in an attempt to crush the triggering creature. The triggering creature takes [[/r {2d10+7}[bludgeoning]]]{2d10+7 bludgeoning damage} (@Check[type:reflex|dc:22|basic:true]). On a failure, the creature is additionally knocked @Compendium[pf2ettw.conditionitems.Prone]{Prone}.</p>"
                },
                "requirements": {
                    "value": ""
                },
                "rules": [],
                "slug": null,
                "source": {
                    "value": ""
                },
                "traits": {
                    "custom": "",
                    "rarity": "common",
                    "value": []
                },
                "trigger": {
                    "value": ""
                }
            },
            "img": "systems/pf2ettw/icons/actions/Reaction.webp",
            "name": "Topple Furniture",
            "sort": 0,
            "type": "action"
        }
    ],
    "name": "Toppling Furniture",
    "token": {
        "disposition": 0,
        "height": 1,
        "img": "systems/pf2ettw/icons/default-icons/hazard.svg",
        "name": "1",
        "width": 1
    },
    "type": "hazard"
}
