{
    "_id": "0QRG6TAVwCWL2Zr8",
    "data": {
        "actionCategory": {
            "value": ""
        },
        "actionType": {
            "value": "passive"
        },
        "actions": {
            "value": null
        },
        "description": {
            "value": "<p><strong>[Heroic]</strong></p>\n<p><strong>Prerequisites</strong><strong></strong> Tier 3 with the Envoy's Alliance</p>\n<p><strong>Cost</strong> 4 Fame</p>\n<hr />\n<p><strong>Effect</strong> Your most momentous actions can inspire your allies to follow suit. When you use a Hero Point to reroll a check and succeed at the check, your allies gain a +1 circumstance bonus to checks of the same type for 1 round (such as attack rolls, Will saves, or Perception checks).</p>"
        },
        "featType": {
            "value": "pfsboon"
        },
        "level": {
            "value": 0
        },
        "prerequisites": {
            "value": []
        },
        "rules": [],
        "source": {
            "value": ""
        },
        "traits": {
            "custom": "",
            "rarity": "common",
            "value": []
        }
    },
    "img": "systems/pf2ettw/icons/default-icons/mystery-man.webp",
    "name": "Heroic Inspiration",
    "type": "feat"
}
