{
    "_id": "1VWMLe12ZFqF9jah",
    "data": {
        "actionCategory": {
            "value": ""
        },
        "actionType": {
            "value": "passive"
        },
        "actions": {
            "value": null
        },
        "description": {
            "value": "<p><strong>[Slotless]</strong></p>\n<p><strong>Prerequisites</strong><strong></strong> Tier 2 with any faction, @Compendium[pf2ettw.pathfinder-society-boons.Hireling]{Hireling}</p>\n<p><strong>Cost</strong> 6 Fame</p>\n<hr />\n<p><strong>Effect</strong> When you gain this boon, select one Hireling boon you possess. The selected ally's proficiency for their selected skills improves to expert, and their modifier to skill checks increases to 4 + your level.</p>\n<p><strong>Special</strong> You can purchase this boon multiple times. Each time you purchase this boon, you must apply its benefits to a different Hireling boon.</p>"
        },
        "featType": {
            "value": "pfsboon"
        },
        "level": {
            "value": 0
        },
        "prerequisites": {
            "value": []
        },
        "rules": [],
        "source": {
            "value": ""
        },
        "traits": {
            "custom": "",
            "rarity": "common",
            "value": []
        }
    },
    "img": "systems/pf2ettw/icons/default-icons/mystery-man.webp",
    "name": "Hireling, Expert",
    "type": "feat"
}
