{
    "_id": "6oTXrz56Evik64Fy",
    "data": {
        "actionCategory": {
            "value": ""
        },
        "actionType": {
            "value": "passive"
        },
        "actions": {
            "value": null
        },
        "description": {
            "value": "<p><strong>[Generic]</strong></p>\n<hr />\n<p><strong>Effect</strong> You were beaten by Vengeant Thorn's minions and left tied up in the woods. It's hard to say what will happen to the Immenwood with the renegade centaur in possession of such a powerful artifact, but maybe you'll have better luck thwarting the druid next time around. This boon might have special eff ects in future scenarios.</p>"
        },
        "featType": {
            "value": "pfsboon"
        },
        "level": {
            "value": 0
        },
        "prerequisites": {
            "value": []
        },
        "rules": [],
        "source": {
            "value": ""
        },
        "traits": {
            "custom": "",
            "rarity": "common",
            "value": []
        }
    },
    "img": "systems/pf2ettw/icons/default-icons/mystery-man.webp",
    "name": "S1-04 - A Thorny Situation",
    "type": "feat"
}
