{
    "_id": "ctiTtuRWFjAnWdYQ",
    "data": {
        "badge": null,
        "description": {
            "value": "<p>You gain a +1 status bonus to attack and damage rolls against undead.</p>"
        },
        "duration": {
            "expiry": "turn-start",
            "sustained": false,
            "unit": "rounds",
            "value": 1
        },
        "level": {
            "value": 1
        },
        "rules": [
            {
                "key": "FlatModifier",
                "predicate": {
                    "all": [
                        "target:trait:undead"
                    ]
                },
                "selector": "attack",
                "type": "status",
                "value": 1
            },
            {
                "key": "FlatModifier",
                "predicate": {
                    "all": [
                        "target:trait:undead"
                    ]
                },
                "selector": "damage",
                "type": "status",
                "value": 1
            }
        ],
        "source": {
            "value": ""
        },
        "start": {
            "initiative": null,
            "value": 0
        },
        "target": null,
        "tokenIcon": {
            "show": true
        },
        "traits": {
            "custom": "",
            "rarity": "common",
            "value": []
        }
    },
    "img": "systems/pf2ettw/icons/default-icons/effect.svg",
    "name": "Effect: Corpse-Killer's Defiance (Lower Level)",
    "type": "effect"
}
