{
    "_id": "os9rN9c9WAeOlAx5",
    "data": {
        "badge": null,
        "description": {
            "value": "<p>Granted by @Compendium[pf2ettw.feats-srd.Bring it Down!]{Bring it Down!}</p>\n<p id=\"docs-internal-guid-ea223168-7fff-0475-90d2-d1915544112e\" dir=\"ltr\">You gain a +2 circumstance bonus to attack rolls, skill checks and damage rolls against the target.</p>"
        },
        "duration": {
            "expiry": "turn-start",
            "sustained": false,
            "unit": "unlimited",
            "value": -1
        },
        "level": {
            "value": 1
        },
        "rules": [
            {
                "key": "FlatModifier",
                "label": "Bring it Down!",
                "predicate": {
                    "all": [
                        "bring-it-down"
                    ]
                },
                "selector": "attack",
                "type": "circumstance",
                "value": 2
            },
            {
                "key": "FlatModifier",
                "label": "Bring it Down!",
                "predicate": {
                    "all": [
                        "bring-it-down"
                    ]
                },
                "selector": "skill-check",
                "type": "circumstance",
                "value": 2
            },
            {
                "key": "FlatModifier",
                "label": "Bring it Down!",
                "predicate": {
                    "all": [
                        "bring-it-down"
                    ]
                },
                "selector": "damage",
                "type": "circumstance",
                "value": 2
            },
            {
                "domain": "all",
                "key": "RollOption",
                "label": "Bring It Down! Foe",
                "option": "bring-it-down",
                "toggleable": true
            }
        ],
        "source": {
            "value": ""
        },
        "start": {
            "initiative": null,
            "value": 0
        },
        "target": null,
        "tokenIcon": {
            "show": false
        },
        "traits": {
            "custom": "",
            "rarity": "common",
            "value": []
        }
    },
    "img": "systems/pf2ettw/icons/default-icons/effect.svg",
    "name": "Effect: Bring it Down!",
    "type": "effect"
}
