{
    "_id": "YxYr18vleIt2t3RS",
    "data": {
        "badge": null,
        "description": {
            "value": "<p>This weapon is empowered by flickering flame. The weapon deals an additional [[/r {1d6}[fire]]]{1d6 fire damage} on a successful Strike, plus [[/r {1d10}[persistent,fire]]] @Compendium[pf2ettw.conditionitems.Persistent Damage]{Persistent Fire Damage} on a critical hit.</p>"
        },
        "duration": {
            "expiry": "turn-start",
            "sustained": false,
            "unit": "unlimited",
            "value": -1
        },
        "level": {
            "value": 1
        },
        "rules": [
            {
                "damageType": "fire",
                "diceNumber": 1,
                "dieSize": "d6",
                "key": "DamageDice",
                "selector": "{item|flags.pf2ettw.rulesSelections.effectBladeAllyFlamingRune}-damage"
            },
            {
                "choices": {
                    "includeHandwraps": true,
                    "ownedItems": true,
                    "types": [
                        "weapon"
                    ]
                },
                "key": "ChoiceSet",
                "prompt": "pf2ettw.SpecificRule.Prompt.Weapon"
            },
            {
                "key": "Note",
                "outcome": [
                    "criticalSuccess"
                ],
                "selector": "{item|flags.pf2ettw.rulesSelections.effectBladeAllyFlamingRune}-damage",
                "text": "pf2ettw.WeaponPropertyRune.flaming.Note.criticalSuccess"
            }
        ],
        "source": {
            "value": ""
        },
        "start": {
            "initiative": null,
            "value": 0
        },
        "target": null,
        "tokenIcon": {
            "show": true
        },
        "traits": {
            "custom": "",
            "rarity": "common",
            "value": []
        }
    },
    "img": "systems/pf2ettw/icons/equipment/runes/weapon-property-runes/weapon-property-runes.webp",
    "name": "Effect: Blade Ally Flaming Rune",
    "type": "effect"
}
