{
    "_id": "z4pnE8KyUdEkJmru",
    "data": {
        "description": {
            "value": "<p>Granted by @Compendium[pf2ettw.actionspf2ettw.Clue In]{Clue In} if the investigator has @Compendium[pf2ettw.feats-srd.Detective's Readiness]{Detective's Readiness} and @Compendium[pf2ettw.classfeatures.Investigator Expertise]{Investigator Expertise}.</p>\n<p>Whenever you attempt a saving throw against the subject of a lead, you gain a +2 circumstance bonus to the check.</p>"
        },
        "duration": {
            "expiry": "turn-start",
            "sustained": false,
            "unit": "unlimited",
            "value": -1
        },
        "level": {
            "value": 9
        },
        "rules": [
            {
                "key": "FlatModifier",
                "label": "Clue In",
                "selector": "saving-throw",
                "type": "circumstance",
                "value": 2
            }
        ],
        "source": {
            "value": ""
        },
        "start": {
            "initiative": null,
            "value": 0
        },
        "target": null,
        "tokenIcon": {
            "show": true
        },
        "traits": {
            "custom": "",
            "rarity": "common",
            "value": []
        }
    },
    "img": "systems/pf2ettw/icons/equipment/adventuring-gear/magnifying-glass.webp",
    "name": "Effect: Clue In (Detective's Readiness, Expertise)",
    "type": "effect"
}
