{
    "_id": "BHnunYPROBG5lxv4",
    "data": {
        "badge": null,
        "description": {
            "value": "<p>You gain temporary Hit Points equal to twice your level.</p>"
        },
        "duration": {
            "expiry": "turn-start",
            "sustained": false,
            "unit": "unlimited",
            "value": -1
        },
        "level": {
            "value": 1
        },
        "rules": [
            {
                "key": "TempHP",
                "value": "@actor.level*2"
            }
        ],
        "source": {
            "value": "Pathfinder Lost Omens: Character Guide"
        },
        "start": {
            "initiative": null,
            "value": 0
        },
        "target": null,
        "tokenIcon": {
            "show": true
        },
        "traits": {
            "custom": "",
            "rarity": "common",
            "value": []
        }
    },
    "img": "systems/pf2ettw/icons/default-icons/effect.svg",
    "name": "Effect: Heroes' Call",
    "type": "effect"
}
