{
    "_id": "WRe8qbemruWxkN8d",
    "data": {
        "badge": null,
        "description": {
            "value": "<p>You Change Shape into a form of living ice for 1 minute or until you shift back. Your battle form is Huge and has the following statistics:</p>\n<ul>\n<li>AC = 18 + your level. Ignore your armor's check penalty and Speed reduction.</li>\n<li>20 temporary Hit Points.</li>\n<li>Low-light vision and imprecise scent 30 feet.</li>\n<li>A Speed of 30, a Fly speed of 40, and you don't need to breathe</li>\n<li><strong>Melee</strong> <span class=\"pf2-icon\">a</span> jaws, <strong>Damage</strong> 2d8 piercing + 1d4 cold damage.</li>\n<li>Your unarmed attacks deal 1d4 additional cold damage, and your cold spells deal one additional die of cold damage (of the same damage die the spell uses).</li>\n<li>You can cast <em>@Compendium[pf2ettw.spells-srd.Ray of Frost]{Ray of Frost}</em> as an innate spell; the casting is reduced from 2 actions to 1.</li>\n<li>Any creature that touches you or damages you with an unarmed attack or non-reach melee weapon takes [[/r {3d6}[cold]]]{3d6 cold} damage.</li>\n<li>Athletics modifier of +20, unless your own modifier is higher.</li>\n</ul>"
        },
        "duration": {
            "expiry": "turn-start",
            "sustained": false,
            "unit": "minutes",
            "value": 1
        },
        "level": {
            "value": 9
        },
        "rules": [
            {
                "key": "BattleForm",
                "overrides": {
                    "armorClass": {
                        "modifier": "18 + @actor.level"
                    },
                    "immunities": [
                        {
                            "type": "cold"
                        }
                    ],
                    "resistances": [
                        {
                            "type": "precision",
                            "value": 10
                        }
                    ],
                    "senses": {
                        "lowLightVision": {},
                        "scent": {
                            "acuity": "imprecise",
                            "range": 30
                        }
                    },
                    "size": "huge",
                    "skills": {
                        "ath": {
                            "modifier": 20
                        }
                    },
                    "speeds": {
                        "fly": 40,
                        "land": 40
                    },
                    "strikes": {
                        "jaws": {
                            "ability": "str",
                            "baseType": "jaws",
                            "category": "unarmed",
                            "damage": {
                                "damageType": "piercing",
                                "dice": 4,
                                "die": "d8",
                                "modifier": 7
                            },
                            "group": "brawling",
                            "label": "pf2ettw.Weapon.Base.jaws",
                            "modifier": 18,
                            "traits": [
                                "unarmed",
                                "reach-15"
                            ]
                        }
                    },
                    "tempHP": 20,
                    "traits": [
                        "animal"
                    ],
                    "weaknesses": [
                        {
                            "type": "fire",
                            "value": 5
                        },
                        {
                            "type": "water",
                            "value": 5
                        }
                    ]
                }
            },
            {
                "damageType": "cold",
                "diceNumber": 1,
                "dieSize": "d4",
                "key": "DamageDice",
                "predicate": {
                    "all": [
                        "unarmed"
                    ]
                },
                "selector": "strike-damage"
            }
        ],
        "source": {
            "value": "Pathfinder Lost Omens: Ancestry Guide"
        },
        "start": {
            "initiative": null,
            "value": 0
        },
        "target": null,
        "tokenIcon": {
            "show": true
        },
        "traits": {
            "custom": "",
            "rarity": "common",
            "value": []
        }
    },
    "img": "systems/pf2ettw/icons/features/feats/rampaging-form-frozen-wind.webp",
    "name": "Effect: Rampaging Form (Frozen Winds Kitsune)",
    "type": "effect"
}
