{
    "_id": "eippbzuocVM6ftcj",
    "data": {
        "description": {
            "value": "<p>A disrupting weapon pulses with positive energy, dealing an extra [[/r {1d6}[positive]]]{1d6 positive damage} to undead. On a critical hit, the undead is also @Compendium[pf2ettw.conditionitems.Enfeebled]{Enfeebled 1} until the end of your next turn.</p>"
        },
        "duration": {
            "expiry": "turn-start",
            "sustained": false,
            "unit": "unlimited",
            "value": -1
        },
        "level": {
            "value": 1
        },
        "rules": [
            {
                "choices": {
                    "includeHandwraps": true,
                    "ownedItems": true,
                    "types": [
                        "weapon"
                    ]
                },
                "key": "ChoiceSet",
                "prompt": "pf2ettw.SpecificRule.Prompt.Weapon"
            },
            {
                "key": "Note",
                "outcome": [
                    "criticalSuccess"
                ],
                "predicate": {
                    "all": [
                        "target:trait:undead"
                    ]
                },
                "selector": "{item|flags.pf2ettw.rulesSelections.effectBladeAllyDisruptingRune}-damage",
                "text": "<strong>Disrupting</strong> On a critical hit, the undead is @Compendium[pf2ettw.conditionitems.Enfeebled]{Enfeebled 1} until the end of your next turn."
            },
            {
                "damageType": "positive",
                "diceNumber": 1,
                "dieSize": "d6",
                "key": "DamageDice",
                "predicate": {
                    "all": [
                        "target:trait:undead"
                    ]
                },
                "selector": "{item|flags.pf2ettw.rulesSelections.effectBladeAllyDisruptingRune}-damage"
            }
        ],
        "source": {
            "value": "Pathfinder Core Rulebook"
        },
        "start": {
            "initiative": null,
            "value": 0
        },
        "target": null,
        "tokenIcon": {
            "show": true
        },
        "traits": {
            "custom": "",
            "rarity": "common",
            "value": []
        }
    },
    "img": "systems/pf2ettw/icons/equipment/runes/weapon-property-runes/weapon-property-runes.webp",
    "name": "Effect: Blade Ally Disrupting Rune",
    "type": "effect"
}
