{
    "_id": "rzcpTJU9MvW1x1gz",
    "data": {
        "badge": null,
        "description": {
            "value": "<p>Your armor has been tampered with! You are @Compendium[pf2ettw.conditionitems.Flat-Footed]{flat-footed} and take a –10-foot penalty to your Speeds. The effect lasts until you @Compendium[pf2ettw.actionspf2ettw.Interact]{Interact} to remove it.</p>"
        },
        "duration": {
            "expiry": "turn-start",
            "sustained": false,
            "unit": "unlimited",
            "value": -1
        },
        "level": {
            "value": 1
        },
        "rules": [
            {
                "key": "FlatModifier",
                "selector": "speed",
                "type": "untyped",
                "value": -10
            }
        ],
        "source": {
            "value": ""
        },
        "start": {
            "initiative": null,
            "value": 0
        },
        "target": null,
        "tokenIcon": {
            "show": true
        },
        "traits": {
            "custom": "",
            "rarity": "common",
            "value": []
        }
    },
    "img": "systems/pf2ettw/icons/default-icons/effect.svg",
    "name": "Effect: Armor Tampered With (Critical Success)",
    "type": "effect"
}
