{
    "_id": "DjxZpQ4xJWWvYQqY",
    "data": {
        "badge": null,
        "description": {
            "value": "<p>Granted by @Compendium[pf2ettw.feats-srd.Repair Module]{Repair Module}.</p>"
        },
        "duration": {
            "expiry": "turn-start",
            "sustained": false,
            "unit": "minutes",
            "value": 1
        },
        "level": {
            "value": 9
        },
        "rules": [
            {
                "key": "FastHealing",
                "value": "floor(@actor.level / 2)"
            }
        ],
        "source": {
            "value": ""
        },
        "start": {
            "initiative": null,
            "value": 0
        },
        "target": null,
        "tokenIcon": {
            "show": true
        },
        "traits": {
            "custom": "",
            "rarity": "common",
            "value": []
        }
    },
    "img": "systems/pf2ettw/icons/features/feats/effect-repair-module.webp",
    "name": "Effect: Repair Module",
    "type": "effect"
}
