{
    "_id": "ZSgB3imGveukWUxs",
    "data": {
        "description": {
            "value": "<p>Granted by @Compendium[pf2ettw.feats-srd.Bespell Weapon]{Bespell Weapon} if you cast a divination, enchantment or illusion spell.</p>\n<p>Until the end of your turn, the weapon deals an additional 1d6 mental damage.</p>"
        },
        "duration": {
            "expiry": "turn-end",
            "sustained": false,
            "unit": "rounds",
            "value": 0
        },
        "level": {
            "value": 4
        },
        "rules": [
            {
                "choices": {
                    "ownedItems": true,
                    "types": [
                        "weapon"
                    ]
                },
                "key": "ChoiceSet",
                "prompt": "pf2ettw.SpecificRule.Prompt.Weapon"
            },
            {
                "damageType": "mental",
                "diceNumber": 1,
                "dieSize": "d6",
                "key": "DamageDice",
                "selector": "{item|flags.pf2ettw.rulesSelections.effectBespellWeaponMental}-damage"
            }
        ],
        "source": {
            "value": ""
        },
        "start": {
            "initiative": null,
            "value": 0
        },
        "target": null,
        "tokenIcon": {
            "show": true
        },
        "traits": {
            "custom": "",
            "rarity": "common",
            "value": []
        }
    },
    "img": "systems/pf2ettw/icons/spells/astral-labyrinth.webp",
    "name": "Effect: Bespell Weapon (Mental)",
    "type": "effect"
}
