{
    "_id": "EDpjey6SCdvIYqEc",
    "data": {
        "description": {
            "value": "<p>Granted by @Compendium[pf2ettw.feats-srd.Twin Parry]{Twin Parry} if either weapon has the parry trait.</p>\n<p>You gain a +2 circumstance bonus to AC until the start of your next turn.</p>"
        },
        "duration": {
            "expiry": "turn-start",
            "sustained": false,
            "unit": "unlimited",
            "value": -1
        },
        "level": {
            "value": 1
        },
        "rules": [
            {
                "key": "FlatModifier",
                "label": "Twin Parry",
                "selector": "ac",
                "type": "circumstance",
                "value": 2
            }
        ],
        "source": {
            "value": ""
        },
        "start": {
            "initiative": null,
            "value": 0
        },
        "target": null,
        "tokenIcon": {
            "show": true
        },
        "traits": {
            "custom": "",
            "rarity": "common",
            "value": []
        }
    },
    "img": "systems/pf2ettw/icons/equipment/weapons/main-gauche.webp",
    "name": "Effect: Twin Parry (Parry Trait)",
    "type": "effect"
}
