{
    "_id": "jwxurN6JPQm9wXug",
    "data": {
        "description": {
            "value": "<p>Granted by @Compendium[pf2ettw.feats-srd.Defensive Recovery]{Defensive Recovery}.</p>\n<p>If the next action you use is to cast <em>@Compendium[pf2ettw.spells-srd.Harm]{Harm}</em> or <em>@Compendium[pf2ettw.spells-srd.Heal]{Heal}</em> on a single target and the target regains Hit Points from the spell, it also gains a +2 status bonus to AC and saving throws for 1 round.</p>"
        },
        "duration": {
            "expiry": "turn-start",
            "sustained": false,
            "unit": "rounds",
            "value": 1
        },
        "level": {
            "value": 12
        },
        "rules": [
            {
                "key": "FlatModifier",
                "selector": "ac",
                "type": "status",
                "value": 2
            },
            {
                "key": "FlatModifier",
                "selector": "saving-throw",
                "type": "status",
                "value": 2
            }
        ],
        "source": {
            "value": ""
        },
        "start": {
            "initiative": null,
            "value": 0
        },
        "target": null,
        "tokenIcon": {
            "show": true
        },
        "traits": {
            "custom": "",
            "rarity": "common",
            "value": []
        }
    },
    "img": "systems/pf2ettw/icons/spells/battlefield-persistence.webp",
    "name": "Effect: Defensive Recovery",
    "type": "effect"
}
