{
    "_id": "IfsglZ7fdegwem0E",
    "data": {
        "description": {
            "value": "<p>Granted by @Compendium[pf2ettw.feats-srd.Hydraulic Deflection]{Hydraulic Deflection}</p>"
        },
        "duration": {
            "expiry": "turn-start",
            "sustained": false,
            "unit": "rounds",
            "value": 1
        },
        "level": {
            "value": 1
        },
        "rules": [
            {
                "key": "FlatModifier",
                "label": "Hydraulic Deflection",
                "selector": "ac",
                "type": "circumstance",
                "value": 1
            }
        ],
        "source": {
            "value": ""
        },
        "start": {
            "initiative": null,
            "value": 0
        },
        "target": null,
        "tokenIcon": {
            "show": true
        },
        "traits": {
            "custom": "",
            "rarity": "common",
            "value": []
        }
    },
    "img": "systems/pf2ettw/icons/spells/control-water.webp",
    "name": "Effect: Hydraulic Deflection",
    "type": "effect"
}
