{
    "_id": "1dxD3xsTzak6GNj5",
    "data": {
        "description": {
            "value": "<p>Granted by @Compendium[pf2ettw.feats-srd.Monastic Archer Stance]{Monastic Archer Stance}</p>\n<p>You enter a specialized stance for a unique martial art centered around the use of a bow. While in this stance, the only Strikes you can make are those using longbows, shortbows, or bows with the monk trait.</p>\n<p>You can use @Compendium[pf2ettw.actionspf2ettw.Flurry of Blows]{Flurry of Blows} with these bows. You can use your other monk feats or monk abilities that normally require unarmed attacks with these bows when attacking within half the first range increment (normally 50 feet for a longbow and 30 feet for a shortbow), so long as the feat or ability doesn't require a single, specific Strike.</p>"
        },
        "duration": {
            "expiry": "turn-start",
            "sustained": false,
            "unit": "encounter",
            "value": -1
        },
        "level": {
            "value": 0
        },
        "rules": [],
        "source": {
            "value": ""
        },
        "start": {
            "initiative": null,
            "value": 0
        },
        "target": null,
        "tokenIcon": {
            "show": true
        },
        "traits": {
            "custom": "",
            "rarity": "common",
            "value": []
        }
    },
    "img": "systems/pf2ettw/icons/equipment/weapons/specific-magic-weapons/oathbow.webp",
    "name": "Stance: Monastic Archer Stance",
    "type": "effect"
}
