{
    "_id": "ScNPruIwcIJNuSHb",
    "data": {
        "abilities": {
            "cha": {
                "mod": 0
            },
            "con": {
                "mod": 4
            },
            "dex": {
                "mod": 2
            },
            "int": {
                "mod": -3
            },
            "str": {
                "mod": 6
            },
            "wis": {
                "mod": 2
            }
        },
        "attributes": {
            "ac": {
                "details": "",
                "value": 27
            },
            "allSaves": {
                "value": ""
            },
            "hp": {
                "details": "",
                "max": 135,
                "temp": 0,
                "value": 135
            },
            "initiative": {
                "ability": "perception"
            },
            "perception": {
                "value": 16
            },
            "speed": {
                "otherSpeeds": [
                    {
                        "type": "fly",
                        "value": "40"
                    }
                ],
                "value": "25"
            }
        },
        "details": {
            "alignment": {
                "value": "CE"
            },
            "blurb": "",
            "creatureType": "Beast",
            "level": {
                "value": 8
            },
            "privateNotes": "",
            "publicNotes": "<p>The chimera is the archetypal example of an unnatural monster made up of a monstrous mix of wildly different component creatures: in this case, a lion, a dragon, and a goat. Wild, hateful, and hungry, it tries to eat any creature it sees, but sometimes a strong-willed master is able to compel a chimera to serve as a guardian or even a mount.</p>",
            "source": {
                "value": "Pathfinder Bestiary"
            }
        },
        "resources": {},
        "saves": {
            "fortitude": {
                "saveDetail": "",
                "value": 18
            },
            "reflex": {
                "saveDetail": "",
                "value": 16
            },
            "will": {
                "saveDetail": "",
                "value": 14
            }
        },
        "traits": {
            "ci": [],
            "di": {
                "custom": "",
                "value": []
            },
            "dr": [],
            "dv": [],
            "languages": {
                "custom": "",
                "selected": [],
                "value": [
                    "draconic"
                ]
            },
            "rarity": "uncommon",
            "senses": {
                "value": "darkvision, scent (imprecise) 30 feet"
            },
            "size": {
                "value": "lg"
            },
            "traits": {
                "custom": "",
                "value": [
                    "beast"
                ]
            }
        }
    },
    "img": "systems/pf2ettw/icons/default-icons/npc.svg",
    "items": [
        {
            "_id": "p4gHmixTKN3Gb87J",
            "data": {
                "attack": {
                    "value": ""
                },
                "attackEffects": {
                    "custom": "",
                    "value": []
                },
                "bonus": {
                    "value": 20
                },
                "damageRolls": {
                    "dac0cndr4wgpu6mjd2ff": {
                        "damage": "2d6+9",
                        "damageType": "piercing"
                    },
                    "arc84499ycdq519e18zx": {
                        "damage": "2d6",
                        "damageType": "fire"
                    }
                },
                "description": {
                    "value": ""
                },
                "rules": [],
                "slug": null,
                "source": {
                    "value": ""
                },
                "traits": {
                    "custom": "",
                    "rarity": "common",
                    "value": []
                },
                "weaponType": {
                    "value": "melee"
                }
            },
            "img": "systems/pf2ettw/icons/default-icons/melee.svg",
            "name": "Dragon Jaws",
            "sort": 100000,
            "type": "melee"
        },
        {
            "_id": "XfQQjjOdt5sRiSb6",
            "data": {
                "attack": {
                    "value": ""
                },
                "attackEffects": {
                    "custom": "",
                    "value": []
                },
                "bonus": {
                    "value": 20
                },
                "damageRolls": {
                    "zjdn41fp3hbttedbxqgo": {
                        "damage": "2d10+9",
                        "damageType": "piercing"
                    }
                },
                "description": {
                    "value": ""
                },
                "rules": [],
                "slug": null,
                "source": {
                    "value": ""
                },
                "traits": {
                    "custom": "",
                    "rarity": "common",
                    "value": []
                },
                "weaponType": {
                    "value": "melee"
                }
            },
            "img": "systems/pf2ettw/icons/default-icons/melee.svg",
            "name": "Lion Jaws",
            "sort": 200000,
            "type": "melee"
        },
        {
            "_id": "rog22HpLDkUnfolA",
            "data": {
                "attack": {
                    "value": ""
                },
                "attackEffects": {
                    "custom": "",
                    "value": []
                },
                "bonus": {
                    "value": 20
                },
                "damageRolls": {
                    "it9pipqnft8ysztguu7y": {
                        "damage": "2d10+9",
                        "damageType": "piercing"
                    }
                },
                "description": {
                    "value": ""
                },
                "rules": [],
                "slug": null,
                "source": {
                    "value": ""
                },
                "traits": {
                    "custom": "",
                    "rarity": "common",
                    "value": []
                },
                "weaponType": {
                    "value": "melee"
                }
            },
            "img": "systems/pf2ettw/icons/default-icons/melee.svg",
            "name": "Goat Horns",
            "sort": 300000,
            "type": "melee"
        },
        {
            "_id": "sT4lUsg0seVtpUKQ",
            "data": {
                "attack": {
                    "value": ""
                },
                "attackEffects": {
                    "custom": "",
                    "value": []
                },
                "bonus": {
                    "value": 20
                },
                "damageRolls": {
                    "v7luy1ttfoi91850stm2": {
                        "damage": "2d6+9",
                        "damageType": "slashing"
                    }
                },
                "description": {
                    "value": ""
                },
                "rules": [],
                "slug": null,
                "source": {
                    "value": ""
                },
                "traits": {
                    "custom": "",
                    "rarity": "common",
                    "value": [
                        "agile"
                    ]
                },
                "weaponType": {
                    "value": "melee"
                }
            },
            "img": "systems/pf2ettw/icons/default-icons/melee.svg",
            "name": "Claw",
            "sort": 400000,
            "type": "melee"
        },
        {
            "_id": "YyxKJRRXl2GdUfTt",
            "data": {
                "actionCategory": {
                    "value": "interaction"
                },
                "actionType": {
                    "value": "passive"
                },
                "actions": {
                    "value": null
                },
                "description": {
                    "value": "<p>@Localize[pf2ettw.NPC.Abilities.Glossary.Darkvision]</p>"
                },
                "requirements": {
                    "value": ""
                },
                "rules": [],
                "slug": "darkvision",
                "source": {
                    "value": "Pathfinder Bestiary"
                },
                "traits": {
                    "custom": "",
                    "rarity": "common",
                    "value": []
                },
                "trigger": {
                    "value": ""
                },
                "weapon": {
                    "value": ""
                }
            },
            "flags": {
                "core": {
                    "sourceId": "Compendium.pf2ettw.bestiary-ability-glossary-srd.qCCLZhnp2HhP3Ex6"
                }
            },
            "img": "systems/pf2ettw/icons/actions/Passive.webp",
            "name": "Darkvision",
            "sort": 500000,
            "type": "action"
        },
        {
            "_id": "iu1YHlbvh64HBaor",
            "data": {
                "actionCategory": {
                    "value": "interaction"
                },
                "actionType": {
                    "value": "passive"
                },
                "actions": {
                    "value": null
                },
                "description": {
                    "value": "<p>@Localize[pf2ettw.NPC.Abilities.Glossary.Scent]</p>"
                },
                "requirements": {
                    "value": ""
                },
                "rules": [],
                "slug": "scent",
                "source": {
                    "value": "Pathfinder Bestiary"
                },
                "traits": {
                    "custom": "",
                    "rarity": "common",
                    "value": []
                },
                "trigger": {
                    "value": ""
                },
                "weapon": {
                    "value": ""
                }
            },
            "flags": {
                "core": {
                    "sourceId": "Compendium.pf2ettw.bestiary-ability-glossary-srd.rqfnQ5VHT5hxm25r"
                }
            },
            "img": "systems/pf2ettw/icons/actions/Passive.webp",
            "name": "Scent (Imprecise) 30 feet",
            "sort": 600000,
            "type": "action"
        },
        {
            "_id": "5ulvx0zqprJryzvq",
            "data": {
                "actionCategory": {
                    "value": "defensive"
                },
                "actionType": {
                    "value": "reaction"
                },
                "actions": {
                    "value": null
                },
                "description": {
                    "value": "<p>@Localize[pf2ettw.NPC.Abilities.Glossary.AttackOfOpportunity]</p>"
                },
                "requirements": {
                    "value": ""
                },
                "rules": [],
                "slug": "attack-of-opportunity",
                "source": {
                    "value": "Pathfinder Bestiary"
                },
                "traits": {
                    "custom": "",
                    "rarity": "common",
                    "value": []
                },
                "trigger": {
                    "value": ""
                },
                "weapon": {
                    "value": ""
                }
            },
            "flags": {
                "core": {
                    "sourceId": "Compendium.pf2ettw.bestiary-ability-glossary-srd.hFtNbo1LKYCoDy2O"
                }
            },
            "img": "systems/pf2ettw/icons/actions/Reaction.webp",
            "name": "Attack of Opportunity",
            "sort": 700000,
            "type": "action"
        },
        {
            "_id": "7CQGpLGBAg2Jbtjv",
            "data": {
                "actionCategory": {
                    "value": "defensive"
                },
                "actionType": {
                    "value": "passive"
                },
                "actions": {
                    "value": null
                },
                "description": {
                    "value": "<p>Any ability that would sever a chimera's head (such as a critical hit with a <em>@Compendium[pf2ettw.equipment-srd.Vorpal]{Vorpal Weapon}</em>) severs one head at random. Losing a head doesn't kill a chimera (as long as it has one head left), but it does prevent it from making Strikes with the lost head or using the head's Breath Weapon.</p>"
                },
                "requirements": {
                    "value": ""
                },
                "rules": [],
                "slug": null,
                "source": {
                    "value": ""
                },
                "traits": {
                    "custom": "",
                    "rarity": "common",
                    "value": []
                },
                "trigger": {
                    "value": ""
                },
                "weapon": {
                    "value": ""
                }
            },
            "img": "systems/pf2ettw/icons/actions/Passive.webp",
            "name": "Three Headed",
            "sort": 800000,
            "type": "action"
        },
        {
            "_id": "PQMwXaG8Zqcd02Oe",
            "data": {
                "actionCategory": {
                    "value": "defensive"
                },
                "actionType": {
                    "value": "passive"
                },
                "actions": {
                    "value": null
                },
                "description": {
                    "value": "<p>A chimera gains 2 extra reactions each round that it can use only to make Attacks of Opportunity. It must use a different head for each reaction, and it can't use more than one on the same triggering action. If it loses one of its heads, it also loses one of these extra reactions.</p>"
                },
                "requirements": {
                    "value": ""
                },
                "rules": [],
                "slug": null,
                "source": {
                    "value": ""
                },
                "traits": {
                    "custom": "",
                    "rarity": "common",
                    "value": []
                },
                "trigger": {
                    "value": ""
                },
                "weapon": {
                    "value": ""
                }
            },
            "img": "systems/pf2ettw/icons/actions/Passive.webp",
            "name": "Triple Opportunity",
            "sort": 900000,
            "type": "action"
        },
        {
            "_id": "9RDkmFyfywWSOj2V",
            "data": {
                "actionCategory": {
                    "value": "offensive"
                },
                "actionType": {
                    "value": "action"
                },
                "actions": {
                    "value": 2
                },
                "description": {
                    "value": "<p>The chimera breathes a @Template[type:cone|distance:30] of fire that deals [[/r {9d6}[fire]]]{9d6 fire damage} to all creatures in the area (@Check[type:reflex|dc:26|basic:true] save).</p>\n<p>The chimera can't use Breath Weapon again for [[/br 1d4 #Recharge Breath Weapon]]{1d4 rounds}.</p>"
                },
                "requirements": {
                    "value": ""
                },
                "rules": [],
                "slug": null,
                "source": {
                    "value": ""
                },
                "traits": {
                    "custom": "",
                    "rarity": "common",
                    "value": [
                        "arcane",
                        "evocation"
                    ]
                },
                "trigger": {
                    "value": ""
                },
                "weapon": {
                    "value": ""
                }
            },
            "img": "systems/pf2ettw/icons/actions/TwoActions.webp",
            "name": "Breath Weapon",
            "sort": 1000000,
            "type": "action"
        },
        {
            "_id": "8PkUYYXKF3YdJiBM",
            "data": {
                "actionCategory": {
                    "value": "offensive"
                },
                "actionType": {
                    "value": "passive"
                },
                "actions": {
                    "value": null
                },
                "description": {
                    "value": "<p>A chimera's red dragon head deals an extra [[/r {2d6}[fire]]]{2d6 fire damage} <em>(already included)</em>.</p>"
                },
                "requirements": {
                    "value": ""
                },
                "rules": [],
                "slug": null,
                "source": {
                    "value": ""
                },
                "traits": {
                    "custom": "",
                    "rarity": "common",
                    "value": []
                },
                "trigger": {
                    "value": ""
                },
                "weapon": {
                    "value": ""
                }
            },
            "img": "systems/pf2ettw/icons/actions/Passive.webp",
            "name": "Draconic Bite",
            "sort": 1100000,
            "type": "action"
        },
        {
            "_id": "pEpgPRttHusG3elF",
            "data": {
                "actionCategory": {
                    "value": "offensive"
                },
                "actionType": {
                    "value": "action"
                },
                "actions": {
                    "value": 2
                },
                "description": {
                    "value": "<p>The chimera makes a Strike with its dragon jaws, lion jaws, and goat horns, each at a -2 penalty and targeting a different creature. These Strikes count as only one attack for the chimera's multiple attack penalty, and the penalty doesn't increase until after it has made all three attacks.</p>"
                },
                "requirements": {
                    "value": ""
                },
                "rules": [
                    {
                        "domain": "attack-roll",
                        "key": "RollOption",
                        "option": "threeHeadedStrike",
                        "toggleable": true
                    },
                    {
                        "key": "FlatModifier",
                        "predicate": {
                            "all": [
                                "threeHeadedStrike"
                            ]
                        },
                        "selector": "dragon-jaws-attack",
                        "value": -2
                    },
                    {
                        "key": "FlatModifier",
                        "predicate": {
                            "all": [
                                "threeHeadedStrike"
                            ]
                        },
                        "selector": "lion-jaws-attack",
                        "value": -2
                    },
                    {
                        "key": "FlatModifier",
                        "predicate": {
                            "all": [
                                "threeHeadedStrike"
                            ]
                        },
                        "selector": "goat-horns-attack",
                        "value": -2
                    }
                ],
                "slug": null,
                "source": {
                    "value": ""
                },
                "traits": {
                    "custom": "",
                    "rarity": "common",
                    "value": []
                },
                "trigger": {
                    "value": ""
                },
                "weapon": {
                    "value": ""
                }
            },
            "img": "systems/pf2ettw/icons/actions/TwoActions.webp",
            "name": "Three-Headed Strike",
            "sort": 1200000,
            "type": "action"
        },
        {
            "_id": "2K2A44OtYypl8DbZ",
            "data": {
                "description": {
                    "value": ""
                },
                "mod": {
                    "value": 14
                },
                "proficient": {
                    "value": 0
                },
                "rules": [],
                "slug": null,
                "source": {
                    "value": ""
                },
                "traits": {
                    "custom": "",
                    "rarity": "common",
                    "value": []
                }
            },
            "img": "systems/pf2ettw/icons/default-icons/lore.svg",
            "name": "Acrobatics",
            "sort": 1300000,
            "type": "lore"
        },
        {
            "_id": "fErwJBL3nJQbjZDG",
            "data": {
                "description": {
                    "value": ""
                },
                "mod": {
                    "value": 18
                },
                "proficient": {
                    "value": 0
                },
                "rules": [],
                "slug": null,
                "source": {
                    "value": ""
                },
                "traits": {
                    "custom": "",
                    "rarity": "common",
                    "value": []
                }
            },
            "img": "systems/pf2ettw/icons/default-icons/lore.svg",
            "name": "Athletics",
            "sort": 1400000,
            "type": "lore"
        },
        {
            "_id": "QUBsSBlGghApLnPs",
            "data": {
                "description": {
                    "value": ""
                },
                "mod": {
                    "value": 18
                },
                "proficient": {
                    "value": 0
                },
                "rules": [],
                "slug": null,
                "source": {
                    "value": ""
                },
                "traits": {
                    "custom": "",
                    "rarity": "common",
                    "value": []
                }
            },
            "img": "systems/pf2ettw/icons/default-icons/lore.svg",
            "name": "Stealth",
            "sort": 1500000,
            "type": "lore"
        }
    ],
    "name": "Chimera (Red Dragon)",
    "token": {
        "disposition": -1,
        "height": 2,
        "img": "systems/pf2ettw/icons/default-icons/npc.svg",
        "name": "Chimera",
        "width": 2
    },
    "type": "npc"
}
