{
    "_id": "4p07SH4zdmVZ405I",
    "data": {
        "abilities": {
            "cha": {
                "mod": 5
            },
            "con": {
                "mod": 4
            },
            "dex": {
                "mod": 4
            },
            "int": {
                "mod": 2
            },
            "str": {
                "mod": 7
            },
            "wis": {
                "mod": 3
            }
        },
        "attributes": {
            "ac": {
                "details": "",
                "value": 31
            },
            "allSaves": {
                "value": ""
            },
            "hp": {
                "details": "negative healing, rejuvenation",
                "max": 175,
                "temp": 0,
                "value": 175
            },
            "initiative": {
                "ability": "perception"
            },
            "perception": {
                "value": 19
            },
            "speed": {
                "otherSpeeds": [],
                "value": "25"
            }
        },
        "details": {
            "alignment": {
                "value": "LE"
            },
            "blurb": "",
            "creatureType": "Undead",
            "level": {
                "value": 10
            },
            "privateNotes": "",
            "publicNotes": "<p>Graveknights are undead warriors granted unlife by a cursed suit of armor.</p>",
            "source": {
                "value": "Pathfinder Bestiary"
            }
        },
        "resources": {},
        "saves": {
            "fortitude": {
                "saveDetail": "",
                "value": 21
            },
            "reflex": {
                "saveDetail": "",
                "value": 19
            },
            "will": {
                "saveDetail": "",
                "value": 18
            }
        },
        "traits": {
            "ci": [],
            "di": {
                "custom": "",
                "value": [
                    "cold",
                    "death-effects",
                    "disease",
                    "paralyzed",
                    "poison",
                    "unconscious"
                ]
            },
            "dr": [],
            "dv": [],
            "languages": {
                "custom": "",
                "selected": [],
                "value": [
                    "common",
                    "necril"
                ]
            },
            "rarity": "common",
            "senses": {
                "value": "darkvision"
            },
            "size": {
                "value": "med"
            },
            "traits": {
                "custom": "",
                "value": [
                    "undead"
                ]
            }
        }
    },
    "img": "systems/pf2ettw/icons/default-icons/npc.svg",
    "items": [
        {
            "_id": "Usuq1lTFnGGNGmOW",
            "data": {
                "MAP": {
                    "value": ""
                },
                "baseItem": "composite-longbow",
                "bonus": {
                    "value": 0
                },
                "bonusDamage": {
                    "value": 0
                },
                "category": "martial",
                "containerId": null,
                "damage": {
                    "damageType": "piercing",
                    "dice": 1,
                    "die": "d8",
                    "value": ""
                },
                "description": {
                    "value": "<p>This projectile weapon is made from horn, wood, and sinew laminated together to increase the power of its pull and the force of its projectile. Like all longbows, its great size also increases the bow's range and power. You must use two hands to fire it, and it cannot be used while mounted. Any time an ability is specifically restricted to a longbow, such as Erastil's favored weapon, it also applies to composite longbows unless otherwise stated.</p>"
                },
                "equipped": {
                    "carryType": "held",
                    "handsHeld": 1,
                    "invested": null
                },
                "equippedBulk": {
                    "value": ""
                },
                "group": "bow",
                "hardness": 0,
                "hp": {
                    "brokenThreshold": 0,
                    "max": 0,
                    "value": 0
                },
                "level": {
                    "value": 0
                },
                "negateBulk": {
                    "value": "0"
                },
                "potencyRune": {
                    "value": null
                },
                "preciousMaterial": {
                    "value": ""
                },
                "preciousMaterialGrade": {
                    "value": ""
                },
                "price": {
                    "value": {
                        "gp": 20
                    }
                },
                "property1": {
                    "critDamage": "",
                    "critDamageType": "",
                    "critDice": null,
                    "critDie": "",
                    "criticalConditionType": "",
                    "criticalConditionValue": null,
                    "damageType": "",
                    "dice": null,
                    "die": "",
                    "strikeConditionType": "",
                    "strikeConditionValue": null,
                    "value": ""
                },
                "propertyRune1": {
                    "value": ""
                },
                "propertyRune2": {
                    "value": ""
                },
                "propertyRune3": {
                    "value": ""
                },
                "propertyRune4": {
                    "value": ""
                },
                "quantity": 1,
                "range": 100,
                "reload": {
                    "value": "0"
                },
                "rules": [],
                "size": "med",
                "slug": "composite-longbow",
                "source": {
                    "value": "Pathfinder Core Rulebook"
                },
                "specific": {
                    "value": false
                },
                "splashDamage": {
                    "value": 0
                },
                "stackGroup": null,
                "strikingRune": {
                    "value": ""
                },
                "traits": {
                    "custom": "",
                    "rarity": "common",
                    "value": [
                        "deadly-d10",
                        "propulsive",
                        "volley-30"
                    ]
                },
                "usage": {
                    "value": "held-in-one-plus-hands"
                },
                "weight": {
                    "value": "2"
                }
            },
            "flags": {
                "core": {
                    "sourceId": "Compendium.pf2ettw.equipment-srd.dUC8Fsa6FZtVikS3"
                }
            },
            "img": "systems/pf2ettw/icons/equipment/weapons/composite-longbow.webp",
            "name": "Composite Longbow",
            "sort": 100000,
            "type": "weapon"
        },
        {
            "_id": "yfLr23zjUHGPyekK",
            "data": {
                "MAP": {
                    "value": ""
                },
                "baseItem": "greatsword",
                "bonus": {
                    "value": 0
                },
                "bonusDamage": {
                    "value": 0
                },
                "category": "martial",
                "containerId": null,
                "damage": {
                    "damageType": "slashing",
                    "dice": 1,
                    "die": "d12",
                    "value": ""
                },
                "description": {
                    "value": "<p>This immense two‑handed sword is nearly as tall as its wielder. Its lower blade is often somewhat dulled to allow it to be gripped for extra leverage in close‑quarter fights.</p>"
                },
                "equipped": {
                    "carryType": "held",
                    "handsHeld": 2,
                    "invested": null
                },
                "equippedBulk": {
                    "value": ""
                },
                "group": "sword",
                "hardness": 0,
                "hp": {
                    "brokenThreshold": 0,
                    "max": 0,
                    "value": 0
                },
                "level": {
                    "value": 0
                },
                "negateBulk": {
                    "value": "0"
                },
                "potencyRune": {
                    "value": null
                },
                "preciousMaterial": {
                    "value": ""
                },
                "preciousMaterialGrade": {
                    "value": ""
                },
                "price": {
                    "value": {
                        "gp": 2
                    }
                },
                "property1": {
                    "critDamage": "",
                    "critDamageType": "",
                    "critDice": null,
                    "critDie": "",
                    "criticalConditionType": "",
                    "criticalConditionValue": null,
                    "damageType": "",
                    "dice": null,
                    "die": "",
                    "strikeConditionType": "",
                    "strikeConditionValue": null,
                    "value": ""
                },
                "propertyRune1": {
                    "value": ""
                },
                "propertyRune2": {
                    "value": ""
                },
                "propertyRune3": {
                    "value": ""
                },
                "propertyRune4": {
                    "value": ""
                },
                "quantity": 1,
                "range": null,
                "reload": {
                    "value": ""
                },
                "rules": [],
                "size": "med",
                "slug": "greatsword",
                "source": {
                    "value": "Pathfinder Core Rulebook"
                },
                "specific": {
                    "value": false
                },
                "splashDamage": {
                    "value": 0
                },
                "stackGroup": null,
                "strikingRune": {
                    "value": ""
                },
                "traits": {
                    "custom": "",
                    "rarity": "common",
                    "value": [
                        "versatile-p"
                    ]
                },
                "usage": {
                    "value": "held-in-two-hands"
                },
                "weight": {
                    "value": "2"
                }
            },
            "flags": {
                "core": {
                    "sourceId": "Compendium.pf2ettw.equipment-srd.UX71GkWBL9g41VwM"
                }
            },
            "img": "systems/pf2ettw/icons/equipment/weapons/greatsword.webp",
            "name": "Greatsword",
            "sort": 200000,
            "type": "weapon"
        },
        {
            "_id": "vYamsmUJUWGVxqsL",
            "data": {
                "armor": {
                    "value": 6
                },
                "baseItem": "full-plate",
                "category": "heavy",
                "check": {
                    "value": -3
                },
                "containerId": null,
                "description": {
                    "value": "<p>Plate mail consists of interlocking plates that encase nearly the entire body in a carapace of steel. It is costly and heavy, and the wearer often requires help to don it correctly, but it provides some of the best defense armor can supply. A suit of this armor comes with an undercoat of padded armor and a pair of gauntlets.</p>"
                },
                "dex": {
                    "value": 0
                },
                "equipped": {
                    "carryType": "worn",
                    "inSlot": true,
                    "invested": false
                },
                "equippedBulk": {
                    "value": "4"
                },
                "group": "plate",
                "hardness": 0,
                "hp": {
                    "brokenThreshold": 0,
                    "max": 0,
                    "value": 0
                },
                "level": {
                    "value": 2
                },
                "negateBulk": {
                    "value": "0"
                },
                "potency": {},
                "potencyRune": {
                    "value": 1
                },
                "preciousMaterial": {
                    "value": null
                },
                "preciousMaterialGrade": {
                    "value": null
                },
                "price": {
                    "value": {
                        "gp": 30
                    }
                },
                "propertyRune1": {
                    "value": ""
                },
                "propertyRune2": {
                    "value": ""
                },
                "propertyRune3": {
                    "value": ""
                },
                "propertyRune4": {
                    "value": ""
                },
                "quantity": 1,
                "resiliencyRune": {
                    "value": "resilient"
                },
                "rules": [],
                "size": "med",
                "slug": "full-plate",
                "source": {
                    "value": "Pathfinder Core Rulebook"
                },
                "speed": {
                    "value": -10
                },
                "stackGroup": null,
                "strength": {
                    "value": 18
                },
                "traits": {
                    "custom": "",
                    "rarity": "common",
                    "value": [
                        "bulwark"
                    ]
                },
                "usage": {
                    "value": "wornarmor"
                },
                "weight": {
                    "value": "5"
                }
            },
            "flags": {
                "core": {
                    "sourceId": "Compendium.pf2ettw.equipment-srd.Gq1cZWSKOtJhKd2p"
                }
            },
            "img": "systems/pf2ettw/icons/equipment//armor/fullplate.webp",
            "name": "+1 Resilient Full Plate",
            "sort": 300000,
            "type": "armor"
        },
        {
            "_id": "DSpF3QNsGXCQO5Re",
            "data": {
                "activation": {
                    "condition": "",
                    "cost": 0,
                    "type": ""
                },
                "autoDestroy": {
                    "_deprecated": true,
                    "value": true
                },
                "autoUse": {
                    "_deprecated": true,
                    "value": true
                },
                "baseItem": null,
                "charges": {
                    "_deprecated": true,
                    "max": 0,
                    "value": 0
                },
                "consumableType": {
                    "value": "ammo"
                },
                "consume": {
                    "_deprecated": true,
                    "value": ""
                },
                "containerId": null,
                "description": {
                    "value": "<p>These projectiles are the ammunition for bows. The shaft of an arrow is made of wood. It is stabilized in flight by fletching at one end and bears a metal head on the other.</p>"
                },
                "duration": {
                    "units": "",
                    "value": null
                },
                "equipped": {
                    "carryType": "held",
                    "handsHeld": 1
                },
                "equippedBulk": {
                    "value": ""
                },
                "hardness": 0,
                "hp": {
                    "brokenThreshold": 0,
                    "max": 0,
                    "value": 0
                },
                "level": {
                    "value": 0
                },
                "negateBulk": {
                    "value": "0"
                },
                "preciousMaterial": {
                    "value": ""
                },
                "preciousMaterialGrade": {
                    "value": ""
                },
                "price": {
                    "per": 10,
                    "value": {
                        "sp": 1
                    }
                },
                "quantity": 20,
                "range": {
                    "long": null,
                    "units": "",
                    "value": null
                },
                "rules": [],
                "size": "med",
                "slug": "arrows",
                "source": {
                    "value": "Pathfinder Core Rulebook"
                },
                "spell": {
                    "data": null,
                    "heightenedLevel": null
                },
                "stackGroup": "arrows",
                "target": {
                    "type": "",
                    "units": "",
                    "value": null
                },
                "traits": {
                    "custom": "",
                    "rarity": "common",
                    "value": []
                },
                "usage": {
                    "value": "held-in-one-hand"
                },
                "uses": {
                    "autoDestroy": true,
                    "autoUse": true,
                    "max": 0,
                    "per": null,
                    "value": 0
                },
                "weight": {
                    "value": "L"
                }
            },
            "flags": {
                "core": {
                    "sourceId": "Compendium.pf2ettw.equipment-srd.w2ENw2VMPcsbif8g"
                }
            },
            "img": "systems/pf2ettw/icons/equipment/weapons/arrows.webp",
            "name": "Arrows",
            "sort": 400000,
            "type": "consumable"
        },
        {
            "_id": "12LD6QHUzml95C9n",
            "data": {
                "attack": {
                    "value": ""
                },
                "attackEffects": {
                    "custom": "",
                    "value": []
                },
                "bonus": {
                    "value": 24
                },
                "damageRolls": {
                    "eohgyhvhtgrdtl2k7kua": {
                        "damage": "2d12+10",
                        "damageType": "slashing"
                    },
                    "c9q7yk08hwk9j37lggiq": {
                        "damage": "1d6",
                        "damageType": "cold"
                    }
                },
                "description": {
                    "value": ""
                },
                "rules": [],
                "slug": null,
                "source": {
                    "value": ""
                },
                "traits": {
                    "custom": "",
                    "rarity": "common",
                    "value": [
                        "cold",
                        "magical",
                        "versatile-p"
                    ]
                },
                "weaponType": {
                    "value": "melee"
                }
            },
            "img": "systems/pf2ettw/icons/default-icons/melee.svg",
            "name": "Frost Greatsword",
            "sort": 500000,
            "type": "melee"
        },
        {
            "_id": "4adEu2Sh2OYsvkLV",
            "data": {
                "attack": {
                    "value": ""
                },
                "attackEffects": {
                    "custom": "",
                    "value": []
                },
                "bonus": {
                    "value": 23
                },
                "damageRolls": {
                    "mgs4izgeqgvoi3r4d3r2": {
                        "damage": "2d6+10",
                        "damageType": "bludgeoning"
                    },
                    "eu9brchkzus9k057651g": {
                        "damage": "1d6",
                        "damageType": "cold"
                    }
                },
                "description": {
                    "value": ""
                },
                "rules": [],
                "slug": null,
                "source": {
                    "value": ""
                },
                "traits": {
                    "custom": "",
                    "rarity": "common",
                    "value": [
                        "agile",
                        "cold"
                    ]
                },
                "weaponType": {
                    "value": "melee"
                }
            },
            "img": "systems/pf2ettw/icons/default-icons/melee.svg",
            "name": "Fist",
            "sort": 600000,
            "type": "melee"
        },
        {
            "_id": "XCfMmPXvB7LJznlU",
            "data": {
                "attack": {
                    "value": ""
                },
                "attackEffects": {
                    "custom": "",
                    "value": []
                },
                "bonus": {
                    "value": 21
                },
                "damageRolls": {
                    "ykeryqhp11mn21lxueou": {
                        "damage": "2d8+6",
                        "damageType": "piercing"
                    },
                    "xrpg5ubgqwg6hoeo84gu": {
                        "damage": "1d6",
                        "damageType": "cold"
                    }
                },
                "description": {
                    "value": ""
                },
                "rules": [],
                "slug": null,
                "source": {
                    "value": ""
                },
                "traits": {
                    "custom": "",
                    "rarity": "common",
                    "value": [
                        "cold",
                        "deadly-d10",
                        "magical",
                        "range-increment-100",
                        "reload-0",
                        "volley-30"
                    ]
                },
                "weaponType": {
                    "value": "ranged"
                }
            },
            "img": "systems/pf2ettw/icons/default-icons/melee.svg",
            "name": "Frost Composite Longbow",
            "sort": 700000,
            "type": "melee"
        },
        {
            "_id": "yp7FDjO7715BHNPw",
            "data": {
                "actionCategory": {
                    "value": "interaction"
                },
                "actionType": {
                    "value": "passive"
                },
                "actions": {
                    "value": null
                },
                "description": {
                    "value": "<p>@Localize[pf2ettw.NPC.Abilities.Glossary.Darkvision]</p>"
                },
                "requirements": {
                    "value": ""
                },
                "rules": [],
                "slug": "darkvision",
                "source": {
                    "value": "Pathfinder Bestiary"
                },
                "traits": {
                    "custom": "",
                    "rarity": "common",
                    "value": []
                },
                "trigger": {
                    "value": ""
                },
                "weapon": {
                    "value": ""
                }
            },
            "flags": {
                "core": {
                    "sourceId": "Compendium.pf2ettw.bestiary-ability-glossary-srd.qCCLZhnp2HhP3Ex6"
                }
            },
            "img": "systems/pf2ettw/icons/actions/Passive.webp",
            "name": "Darkvision",
            "sort": 800000,
            "type": "action"
        },
        {
            "_id": "8R3jmOcyIfgNNdKr",
            "data": {
                "actionCategory": {
                    "value": "defensive"
                },
                "actionType": {
                    "value": "passive"
                },
                "actions": {
                    "value": null
                },
                "description": {
                    "value": "<p>@Localize[pf2ettw.NPC.Abilities.Glossary.NegativeHealing]</p>"
                },
                "requirements": {
                    "value": ""
                },
                "rules": [
                    {
                        "key": "ActiveEffectLike",
                        "mode": "override",
                        "path": "data.attributes.hp.negativeHealing",
                        "value": true
                    }
                ],
                "slug": "negative-healing",
                "source": {
                    "value": "Pathfinder Bestiary 2"
                },
                "traits": {
                    "custom": "",
                    "rarity": "common",
                    "value": []
                },
                "trigger": {
                    "value": ""
                },
                "weapon": {
                    "value": ""
                }
            },
            "flags": {
                "core": {
                    "sourceId": "Compendium.pf2ettw.bestiary-ability-glossary-srd.TTCw5NusiSSkJU1x"
                }
            },
            "img": "systems/pf2ettw/icons/actions/Passive.webp",
            "name": "Negative Healing",
            "sort": 900000,
            "type": "action"
        },
        {
            "_id": "0Pe1uBGVehRLhBim",
            "data": {
                "actionCategory": {
                    "value": "defensive"
                },
                "actionType": {
                    "value": "reaction"
                },
                "actions": {
                    "value": null
                },
                "description": {
                    "value": "<p>@Localize[pf2ettw.NPC.Abilities.Glossary.AttackOfOpportunity]</p>"
                },
                "requirements": {
                    "value": ""
                },
                "rules": [],
                "slug": "attack-of-opportunity",
                "source": {
                    "value": "Pathfinder Bestiary"
                },
                "traits": {
                    "custom": "",
                    "rarity": "common",
                    "value": []
                },
                "trigger": {
                    "value": ""
                },
                "weapon": {
                    "value": ""
                }
            },
            "flags": {
                "core": {
                    "sourceId": "Compendium.pf2ettw.bestiary-ability-glossary-srd.hFtNbo1LKYCoDy2O"
                }
            },
            "img": "systems/pf2ettw/icons/actions/Reaction.webp",
            "name": "Attack of Opportunity",
            "sort": 1000000,
            "type": "action"
        },
        {
            "_id": "oKuYToU9Nv9ALIIv",
            "data": {
                "actionCategory": {
                    "value": "defensive"
                },
                "actionType": {
                    "value": "passive"
                },
                "actions": {
                    "value": null
                },
                "deathNote": true,
                "description": {
                    "value": "<p>When a graveknight is destroyed, its armor rebuilds its body over the course of [[/br 1d10 #days]]{1d10 days}-or more quickly if the armor is worn by a living host. If the body is destroyed before then, the process restarts.</p>\n<p>A graveknight can only be permanently destroyed by obliterating its armor (such as with <em>@Compendium[pf2ettw.spells-srd.Disintegrate]{Disintegrate}</em>), transporting it to the Positive Energy Plane, or throwing it into the heart of a volcano.</p>"
                },
                "requirements": {
                    "value": ""
                },
                "rules": [],
                "slug": "graveknight-rejuvenation",
                "source": {
                    "value": "Pathfinder Bestiary"
                },
                "traits": {
                    "custom": "",
                    "rarity": "common",
                    "value": [
                        "divine",
                        "necromancy"
                    ]
                },
                "trigger": {
                    "value": ""
                },
                "weapon": {
                    "value": ""
                }
            },
            "flags": {
                "core": {
                    "sourceId": "Compendium.pf2ettw.bestiary-family-ability-glossary.ZIFaA4jDQjM0vq8q"
                }
            },
            "img": "systems/pf2ettw/icons/actions/Passive.webp",
            "name": "Rejuvenation",
            "sort": 1100000,
            "type": "action"
        },
        {
            "_id": "xH6NrBw4bYEHU7e3",
            "data": {
                "actionCategory": {
                    "value": "defensive"
                },
                "actionType": {
                    "value": "passive"
                },
                "actions": {
                    "value": null
                },
                "description": {
                    "value": "<p>@Template[type:emanation|distance:30]{30 feet} @Compendium[pf2ettw.bestiary-ability-glossary-srd.Aura]{Aura}</p>\n<hr />\n<p>When a creature in the aura uses a positive spell or ability, the graveknight automatically attempts to counteract it, with a counteract modifier of [[/r 1d20+17 #Counteract]]{+17}.</p>"
                },
                "requirements": {
                    "value": ""
                },
                "rules": [],
                "slug": "graveknight-sacrilegious-aura",
                "source": {
                    "value": "Pathfinder Bestiary"
                },
                "traits": {
                    "custom": "",
                    "rarity": "common",
                    "value": [
                        "abjuration",
                        "aura",
                        "divine",
                        "evil"
                    ]
                },
                "trigger": {
                    "value": ""
                },
                "weapon": {
                    "value": ""
                }
            },
            "flags": {
                "core": {
                    "sourceId": "Compendium.pf2ettw.bestiary-family-ability-glossary.bTJnxBQjr7G8yr30"
                }
            },
            "img": "systems/pf2ettw/icons/actions/Passive.webp",
            "name": "Sacrilegious Aura",
            "sort": 1200000,
            "type": "action"
        },
        {
            "_id": "1UmNfowZ4HWxS9rx",
            "data": {
                "actionCategory": {
                    "value": "offensive"
                },
                "actionType": {
                    "value": "action"
                },
                "actions": {
                    "value": 2
                },
                "description": {
                    "value": "<p>The graveknight unleashes a @Template[type:cone|distance:30] of energy. Creatures in the area take [[/r {6d12}[cold]]]{6d12 cold damage} (@Check[type:reflex|dc:29|basic:true] save).</p>\n<p>The graveknight can use this ability once every [[/br 1d4 #Recharge Devastating Blast]]{1d4 rounds}.</p>"
                },
                "requirements": {
                    "value": ""
                },
                "rules": [],
                "slug": "graveknight-devastating-blast",
                "source": {
                    "value": "Pathfinder Bestiary"
                },
                "traits": {
                    "custom": "",
                    "rarity": "common",
                    "value": [
                        "arcane",
                        "cold",
                        "evocation"
                    ]
                },
                "trigger": {
                    "value": ""
                },
                "weapon": {
                    "value": ""
                }
            },
            "flags": {
                "core": {
                    "sourceId": "Compendium.pf2ettw.bestiary-family-ability-glossary.IxJbFJ8dG5RbZWBD"
                }
            },
            "img": "systems/pf2ettw/icons/actions/TwoActions.webp",
            "name": "Devastating Blast",
            "sort": 1300000,
            "type": "action"
        },
        {
            "_id": "snOrUVs5f8v8gtuP",
            "data": {
                "actionCategory": {
                    "value": "offensive"
                },
                "actionType": {
                    "value": "passive"
                },
                "actions": {
                    "value": null
                },
                "description": {
                    "value": "<p>This curse affects anyone who wears a graveknight's armor for at least 1 hour.</p>\n<p><strong>Saving Throw</strong> @Check[type:will|dc:33] save</p>\n<hr />\n<p><strong>Onset</strong> 1 hour</p>\n<p><strong>Stage 1</strong> @Compendium[pf2ettw.conditionitems.Doomed]{Doomed 1} and cannot remove the armor (1 day)</p>\n<p><strong>Stage 2</strong> @Compendium[pf2ettw.conditionitems.Doomed]{Doomed 2}, the creature's Speed is reduced by 10, and cannot remove the armor (1 day)</p>\n<p><strong>Stage 3</strong> dies and transforms into the armor's graveknight.</p>\n<hr />\n<p>@Compendium[pf2ettw.bestiary-effects.Effect: Graveknight's Curse]{Effect: Graveknight's Curse}</p>"
                },
                "requirements": {
                    "value": ""
                },
                "rules": [],
                "slug": "graveknight-graveknights-curse",
                "source": {
                    "value": "Pathfinder Bestiary"
                },
                "traits": {
                    "custom": "",
                    "rarity": "common",
                    "value": [
                        "arcane",
                        "curse",
                        "necromancy"
                    ]
                },
                "trigger": {
                    "value": ""
                },
                "weapon": {
                    "value": ""
                }
            },
            "flags": {
                "core": {
                    "sourceId": "Compendium.pf2ettw.bestiary-family-ability-glossary.5dbzWZbiTyPKgwKS"
                }
            },
            "img": "systems/pf2ettw/icons/actions/Passive.webp",
            "name": "Graveknight's Curse",
            "sort": 1400000,
            "type": "action"
        },
        {
            "_id": "cYzNZC3Tju4useHD",
            "data": {
                "actionCategory": {
                    "value": "offensive"
                },
                "actionType": {
                    "value": "action"
                },
                "actions": {
                    "value": 3
                },
                "description": {
                    "value": "<p>HP 58; AC 27, Fort +17, Ref +15, Will +14</p>\n<hr />\n<p>The graveknight summons a supernatural mount as per <em>@Compendium[pf2ettw.spells-srd.Phantom Steed]{Phantom Steed}</em>, heightened to a level equal to half the graveknight's level.</p>\n<p>Unlike <em>phantom steed</em>, the steed's AC and saving throw bonuses are all 4 lower than the graveknight's, and the steed has one-third the graveknight's Hit Points (rounded down).</p>\n<p>If the steed is destroyed, the graveknight must wait 1 hour before using this ability again.</p>"
                },
                "requirements": {
                    "value": ""
                },
                "rules": [],
                "slug": "graveknight-phantom-mount",
                "source": {
                    "value": "Pathfinder Bestiary"
                },
                "traits": {
                    "custom": "",
                    "rarity": "common",
                    "value": [
                        "arcane",
                        "conjuration",
                        "summon"
                    ]
                },
                "trigger": {
                    "value": ""
                },
                "weapon": {
                    "value": ""
                }
            },
            "flags": {
                "core": {
                    "sourceId": "Compendium.pf2ettw.bestiary-family-ability-glossary.BgbSHRdkGH7raOgA"
                }
            },
            "img": "systems/pf2ettw/icons/actions/ThreeActions.webp",
            "name": "Phantom Mount",
            "sort": 1500000,
            "type": "action"
        },
        {
            "_id": "t6KHJCiZXdNJnqxB",
            "data": {
                "actionCategory": {
                    "value": "offensive"
                },
                "actionType": {
                    "value": "passive"
                },
                "actions": {
                    "value": null
                },
                "description": {
                    "value": "<p>The graveknight has access to the critical specialization effects of any weapons it wields.</p>"
                },
                "requirements": {
                    "value": ""
                },
                "rules": [
                    {
                        "key": "Note",
                        "outcome": [
                            "criticalSuccess"
                        ],
                        "selector": "frost-greatsword-attack",
                        "text": "pf2ettw.Item.Weapon.CriticalSpecialization.sword",
                        "title": "{item|name}",
                        "visibility": "gm"
                    },
                    {
                        "key": "Note",
                        "outcome": [
                            "criticalSuccess"
                        ],
                        "selector": "fist-attack",
                        "text": "pf2ettw.Item.Weapon.CriticalSpecialization.brawling",
                        "title": "{item|name}",
                        "visibility": "gm"
                    },
                    {
                        "key": "Note",
                        "outcome": [
                            "criticalSuccess"
                        ],
                        "selector": "frost-composite-longbow-attack",
                        "text": "pf2ettw.Item.Weapon.CriticalSpecialization.bow",
                        "title": "{item|name}",
                        "visibility": "gm"
                    }
                ],
                "slug": "graveknight-weapon-master",
                "source": {
                    "value": "Pathfinder Bestiary"
                },
                "traits": {
                    "custom": "",
                    "rarity": "common",
                    "value": []
                },
                "trigger": {
                    "value": ""
                },
                "weapon": {
                    "value": ""
                }
            },
            "flags": {
                "core": {
                    "sourceId": "Compendium.pf2ettw.bestiary-family-ability-glossary.6isn9nqnvfRrC1wW"
                }
            },
            "img": "systems/pf2ettw/icons/actions/Passive.webp",
            "name": "Weapon Master",
            "sort": 1600000,
            "type": "action"
        },
        {
            "_id": "1GsU8eXwhUC9xXyu",
            "data": {
                "description": {
                    "value": ""
                },
                "mod": {
                    "value": 23
                },
                "proficient": {
                    "value": 0
                },
                "rules": [],
                "slug": null,
                "source": {
                    "value": ""
                },
                "traits": {
                    "custom": "",
                    "rarity": "common",
                    "value": []
                }
            },
            "img": "systems/pf2ettw/icons/default-icons/lore.svg",
            "name": "Athletics",
            "sort": 1700000,
            "type": "lore"
        },
        {
            "_id": "S7d8F6RUMUv74Lj9",
            "data": {
                "description": {
                    "value": ""
                },
                "mod": {
                    "value": 22
                },
                "proficient": {
                    "value": 0
                },
                "rules": [],
                "slug": null,
                "source": {
                    "value": ""
                },
                "traits": {
                    "custom": "",
                    "rarity": "common",
                    "value": []
                }
            },
            "img": "systems/pf2ettw/icons/default-icons/lore.svg",
            "name": "Intimidation",
            "sort": 1800000,
            "type": "lore"
        },
        {
            "_id": "AstJsV2ZTVKdnMUq",
            "data": {
                "description": {
                    "value": ""
                },
                "mod": {
                    "value": 19
                },
                "proficient": {
                    "value": 0
                },
                "rules": [],
                "slug": null,
                "source": {
                    "value": ""
                },
                "traits": {
                    "custom": "",
                    "rarity": "common",
                    "value": []
                }
            },
            "img": "systems/pf2ettw/icons/default-icons/lore.svg",
            "name": "Religion",
            "sort": 1900000,
            "type": "lore"
        },
        {
            "_id": "8CznKBBokxBMcUVf",
            "data": {
                "description": {
                    "value": ""
                },
                "mod": {
                    "value": 20
                },
                "proficient": {
                    "value": 0
                },
                "rules": [],
                "slug": null,
                "source": {
                    "value": ""
                },
                "traits": {
                    "custom": "",
                    "rarity": "common",
                    "value": []
                }
            },
            "img": "systems/pf2ettw/icons/default-icons/lore.svg",
            "name": "Warfare Lore",
            "sort": 2000000,
            "type": "lore"
        }
    ],
    "name": "Graveknight",
    "token": {
        "disposition": -1,
        "height": 1,
        "img": "systems/pf2ettw/icons/default-icons/npc.svg",
        "name": "Graveknight",
        "width": 1
    },
    "type": "npc"
}
