{
    "_id": "HFbZ580RDOG6Rxz2",
    "data": {
        "abilities": {
            "cha": {
                "mod": 2
            },
            "con": {
                "mod": 4
            },
            "dex": {
                "mod": 2
            },
            "int": {
                "mod": 0
            },
            "str": {
                "mod": 5
            },
            "wis": {
                "mod": 3
            }
        },
        "attributes": {
            "ac": {
                "details": "",
                "value": 24
            },
            "allSaves": {
                "value": ""
            },
            "hp": {
                "details": "",
                "max": 95,
                "temp": 0,
                "value": 95
            },
            "initiative": {
                "ability": "perception"
            },
            "perception": {
                "value": 13
            },
            "speed": {
                "otherSpeeds": [
                    {
                        "type": "swim",
                        "value": "35"
                    }
                ],
                "value": "25"
            }
        },
        "details": {
            "alignment": {
                "value": "LE"
            },
            "blurb": "",
            "creatureType": "Humanoid",
            "level": {
                "value": 6
            },
            "privateNotes": "",
            "publicNotes": "<p>Unlike in many cultures, the highest-ranking sea devils are expected not just to wade into battle alongside their brethren, but to actively lead the campaign.</p>\n<hr />\n<p>Sea devils are horrid, amphibious humanoids who lurk in Golarion's oceans and crawl ashore to steal away victims beneath the veil of darkness. When an entire fishing village disappears overnight, sea devils are the first suspects.</p>\n<p>Far from mindless monstrosities, sea devils are terribly intelligent, with a cunning limited only by their strict adherence to hierarchy. They call themselves \"sahuagin\" but have wholly embraced their enemies' name for their kind as their own. Their cultural militancy enables sea devils to act in concert to perform grand acts of sabotage, marauding, and pillaging, and only the strongest (and most conniving) members of the tribe make it to the top of the social ladder. For all their discipline, however, sea devils are widely known to snap into murderous frenzies at the scent of blood. Even the best-laid plans can fall apart when a sea devil breaks ranks to revel in the spilled blood of their victims, an indulgence that can quickly cause a chain reaction of bloodthirsty ecstasy throughout an entire raiding party. For this reason, sea devils typically capture landborne quarry using nets and ropes, dragging them to the depths of the sea before making even a single incision.</p>\n<p>Among sea devil society, individuals are rewarded based on their performance during hunts and shore excursions, with rebels and outliers quickly culled from the ranks. Every pup is given a fair chance, however, and even the lowest-born sea devil can strive for the rank of commander, general, or perhaps even king or queen. Sea devils in positions of leadership tend to be among the largest, most violent, and most calculating of their kind, and fully realized sea devils are skilled warriors capable of capturing entire villages on their own. The most powerful sea devils are mighty kings and queens who coordinate the activity of lesser sea devils across territories spanning leagues, foiling attempts at their positions via manufactured blood feuds and wars against their numerous enemies ashore and underwater.</p>",
            "source": {
                "value": "Pathfinder Bestiary"
            }
        },
        "resources": {},
        "saves": {
            "fortitude": {
                "saveDetail": "",
                "value": 16
            },
            "reflex": {
                "saveDetail": "",
                "value": 14
            },
            "will": {
                "saveDetail": "",
                "value": 13
            }
        },
        "traits": {
            "ci": [],
            "di": {
                "custom": "",
                "value": []
            },
            "dr": [],
            "dv": [],
            "languages": {
                "custom": "Shark Commune 150 feet",
                "selected": [],
                "value": [
                    "aquan"
                ]
            },
            "rarity": "common",
            "senses": {
                "value": "darkvision, wavesense 30 feet"
            },
            "size": {
                "value": "med"
            },
            "traits": {
                "custom": "",
                "value": [
                    "amphibious",
                    "humanoid",
                    "mutant",
                    "sea devil"
                ]
            }
        }
    },
    "img": "systems/pf2ettw/icons/default-icons/npc.svg",
    "items": [
        {
            "_id": "f71OTTsfGWrC7paN",
            "data": {
                "MAP": {
                    "value": null
                },
                "baseItem": "longspear",
                "bonus": {
                    "value": 0
                },
                "bonusDamage": {
                    "value": 0
                },
                "category": "simple",
                "containerId": null,
                "damage": {
                    "damageType": "piercing",
                    "dice": 1,
                    "die": "d8",
                    "value": ""
                },
                "description": {
                    "value": "<p>This very long spear, sometimes called a pike, is purely for thrusting rather than throwing. Used by many soldiers and city watch for crowd control and defense against charging enemies, it must be wielded with two hands.</p>"
                },
                "equipped": {
                    "carryType": "held",
                    "handsHeld": 2,
                    "invested": null
                },
                "equippedBulk": {
                    "value": ""
                },
                "group": "spear",
                "hardness": 0,
                "hp": {
                    "brokenThreshold": 0,
                    "max": 0,
                    "value": 0
                },
                "level": {
                    "value": 0
                },
                "negateBulk": {
                    "value": "0"
                },
                "potencyRune": {
                    "value": null
                },
                "preciousMaterial": {
                    "value": ""
                },
                "preciousMaterialGrade": {
                    "value": ""
                },
                "price": {
                    "value": {
                        "sp": 5
                    }
                },
                "property1": {
                    "critDamage": "",
                    "critDamageType": "",
                    "critDice": null,
                    "critDie": "",
                    "criticalConditionType": "",
                    "criticalConditionValue": null,
                    "damageType": "",
                    "dice": null,
                    "die": "",
                    "strikeConditionType": "",
                    "strikeConditionValue": null,
                    "value": ""
                },
                "propertyRune1": {
                    "value": ""
                },
                "propertyRune2": {
                    "value": ""
                },
                "propertyRune3": {
                    "value": ""
                },
                "propertyRune4": {
                    "value": ""
                },
                "quantity": 1,
                "range": null,
                "reload": {
                    "value": ""
                },
                "rules": [],
                "size": "med",
                "slug": "longspear",
                "source": {
                    "value": "Pathfinder Core Rulebook"
                },
                "specific": {
                    "value": false
                },
                "splashDamage": {
                    "value": 0
                },
                "stackGroup": null,
                "strikingRune": {
                    "value": ""
                },
                "traits": {
                    "custom": "",
                    "rarity": "common",
                    "value": [
                        "reach"
                    ]
                },
                "usage": {
                    "value": "held-in-two-hands"
                },
                "weight": {
                    "value": "2"
                }
            },
            "flags": {
                "core": {
                    "sourceId": "Compendium.pf2ettw.equipment-srd.aXuJh4i8HqSu6NYV"
                }
            },
            "img": "systems/pf2ettw/icons/equipment/weapons/longspear.webp",
            "name": "Longspear",
            "sort": 100000,
            "type": "weapon"
        },
        {
            "_id": "Sp5uVKmxu33LkFwq",
            "data": {
                "MAP": {
                    "value": ""
                },
                "baseItem": "spear",
                "bonus": {
                    "value": 0
                },
                "bonusDamage": {
                    "value": 0
                },
                "category": "simple",
                "containerId": null,
                "damage": {
                    "damageType": "piercing",
                    "dice": 1,
                    "die": "d6",
                    "value": ""
                },
                "description": {
                    "value": "<p>A long metal shaft ending with a metal spike, a spear can be used one‑handed as a melee weapon and can be thrown.</p>"
                },
                "equipped": {
                    "carryType": "held",
                    "handsHeld": 1,
                    "invested": null
                },
                "equippedBulk": {
                    "value": ""
                },
                "group": "spear",
                "hardness": 0,
                "hp": {
                    "brokenThreshold": 0,
                    "max": 0,
                    "value": 0
                },
                "level": {
                    "value": 0
                },
                "negateBulk": {
                    "value": "0"
                },
                "potencyRune": {
                    "value": 0
                },
                "preciousMaterial": {
                    "value": null
                },
                "preciousMaterialGrade": {
                    "value": null
                },
                "price": {
                    "value": {
                        "sp": 1
                    }
                },
                "property1": {
                    "critDamage": "",
                    "critDamageType": "",
                    "critDice": null,
                    "critDie": "",
                    "criticalConditionType": "",
                    "criticalConditionValue": null,
                    "damageType": "",
                    "dice": null,
                    "die": "",
                    "strikeConditionType": "",
                    "strikeConditionValue": null,
                    "value": ""
                },
                "propertyRune1": {
                    "value": null
                },
                "propertyRune2": {
                    "value": null
                },
                "propertyRune3": {
                    "value": null
                },
                "propertyRune4": {
                    "value": null
                },
                "quantity": 2,
                "range": null,
                "reload": {
                    "value": "-"
                },
                "rules": [],
                "size": "med",
                "slug": "spear",
                "source": {
                    "value": "Pathfinder Core Rulebook"
                },
                "specific": {
                    "value": false
                },
                "splashDamage": {
                    "value": 0
                },
                "stackGroup": null,
                "strikingRune": {
                    "value": ""
                },
                "traits": {
                    "custom": "",
                    "rarity": "common",
                    "value": [
                        "thrown-20"
                    ]
                },
                "usage": {
                    "value": "held-in-one-hand"
                },
                "weight": {
                    "value": "1"
                }
            },
            "flags": {
                "core": {
                    "sourceId": "Compendium.pf2ettw.equipment-srd.tOhoGvmCMw4JpWcS"
                }
            },
            "img": "systems/pf2ettw/icons/equipment/weapons/spear.webp",
            "name": "Spear",
            "sort": 200000,
            "type": "weapon"
        },
        {
            "_id": "UKNPyXkarfzkXTHO",
            "data": {
                "attack": {
                    "value": ""
                },
                "attackEffects": {
                    "custom": "",
                    "value": []
                },
                "bonus": {
                    "value": 17
                },
                "damageRolls": {
                    "ynsvjq8ec2mhogad5upp": {
                        "damage": "1d8+11",
                        "damageType": "piercing"
                    }
                },
                "description": {
                    "value": ""
                },
                "rules": [],
                "slug": null,
                "source": {
                    "value": ""
                },
                "traits": {
                    "custom": "",
                    "rarity": "common",
                    "value": [
                        "reach-10"
                    ]
                },
                "weaponType": {
                    "value": "melee"
                }
            },
            "img": "systems/pf2ettw/icons/default-icons/melee.svg",
            "name": "Longspear",
            "sort": 300000,
            "type": "melee"
        },
        {
            "_id": "I0zRRHgyNtxaiNb1",
            "data": {
                "attack": {
                    "value": ""
                },
                "attackEffects": {
                    "custom": "",
                    "value": []
                },
                "bonus": {
                    "value": 17
                },
                "damageRolls": {
                    "vkeelbx631p8yw2azbz9": {
                        "damage": "1d6+8",
                        "damageType": "slashing"
                    }
                },
                "description": {
                    "value": ""
                },
                "rules": [],
                "slug": null,
                "source": {
                    "value": ""
                },
                "traits": {
                    "custom": "",
                    "rarity": "common",
                    "value": [
                        "agile"
                    ]
                },
                "weaponType": {
                    "value": "melee"
                }
            },
            "img": "systems/pf2ettw/icons/default-icons/melee.svg",
            "name": "Claw",
            "sort": 400000,
            "type": "melee"
        },
        {
            "_id": "Bk52AZEcClvtQXB0",
            "data": {
                "attack": {
                    "value": ""
                },
                "attackEffects": {
                    "custom": "",
                    "value": []
                },
                "bonus": {
                    "value": 17
                },
                "damageRolls": {
                    "rzqq2c2wc7qgbqb0gg8f": {
                        "damage": "1d6+8",
                        "damageType": "piercing"
                    }
                },
                "description": {
                    "value": ""
                },
                "rules": [],
                "slug": null,
                "source": {
                    "value": ""
                },
                "traits": {
                    "custom": "",
                    "rarity": "common",
                    "value": []
                },
                "weaponType": {
                    "value": "melee"
                }
            },
            "img": "systems/pf2ettw/icons/default-icons/melee.svg",
            "name": "Jaws",
            "sort": 500000,
            "type": "melee"
        },
        {
            "_id": "UYwBYJoDNWHyjeIa",
            "data": {
                "attack": {
                    "value": ""
                },
                "attackEffects": {
                    "custom": "",
                    "value": []
                },
                "bonus": {
                    "value": 17
                },
                "damageRolls": {
                    "yqhlj0kza8r8j49o9462": {
                        "damage": "1d8+11",
                        "damageType": "piercing"
                    }
                },
                "description": {
                    "value": ""
                },
                "rules": [],
                "slug": null,
                "source": {
                    "value": ""
                },
                "traits": {
                    "custom": "",
                    "rarity": "common",
                    "value": [
                        "thrown-20"
                    ]
                },
                "weaponType": {
                    "value": "ranged"
                }
            },
            "img": "systems/pf2ettw/icons/default-icons/melee.svg",
            "name": "Spear",
            "sort": 600000,
            "type": "melee"
        },
        {
            "_id": "muQiaR4uAaAcFhJ0",
            "data": {
                "actionCategory": {
                    "value": "interaction"
                },
                "actionType": {
                    "value": "passive"
                },
                "actions": {
                    "value": null
                },
                "description": {
                    "value": "<p>@Localize[pf2ettw.NPC.Abilities.Glossary.Darkvision]</p>"
                },
                "requirements": {
                    "value": ""
                },
                "rules": [],
                "slug": "darkvision",
                "source": {
                    "value": "Pathfinder Bestiary"
                },
                "traits": {
                    "custom": "",
                    "rarity": "common",
                    "value": []
                },
                "trigger": {
                    "value": ""
                },
                "weapon": {
                    "value": ""
                }
            },
            "flags": {
                "core": {
                    "sourceId": "Compendium.pf2ettw.bestiary-ability-glossary-srd.qCCLZhnp2HhP3Ex6"
                }
            },
            "img": "systems/pf2ettw/icons/actions/Passive.webp",
            "name": "Darkvision",
            "sort": 700000,
            "type": "action"
        },
        {
            "_id": "0HSgD6W8PvrZ62ts",
            "data": {
                "actionCategory": {
                    "value": "interaction"
                },
                "actionType": {
                    "value": "passive"
                },
                "actions": {
                    "value": null
                },
                "description": {
                    "value": "<p>The sea devil can communicate telepathically with sharks within range. It can communicate only simple concepts like \"come,\" \"guard,\" or \"attack.\"</p>"
                },
                "requirements": {
                    "value": ""
                },
                "rules": [],
                "slug": null,
                "source": {
                    "value": ""
                },
                "traits": {
                    "custom": "",
                    "rarity": "common",
                    "value": [
                        "mental",
                        "telepathy"
                    ]
                },
                "trigger": {
                    "value": ""
                },
                "weapon": {
                    "value": ""
                }
            },
            "img": "systems/pf2ettw/icons/actions/Passive.webp",
            "name": "Shark Commune 150 feet",
            "sort": 800000,
            "type": "action"
        },
        {
            "_id": "Lj4RQQp6b9XUoSUb",
            "data": {
                "actionCategory": {
                    "value": "interaction"
                },
                "actionType": {
                    "value": "passive"
                },
                "actions": {
                    "value": null
                },
                "description": {
                    "value": "<p>@Localize[pf2ettw.NPC.Abilities.Glossary.Wavesense]</p>"
                },
                "requirements": {
                    "value": ""
                },
                "rules": [],
                "slug": "wavesense",
                "source": {
                    "value": "Pathfinder Bestiary"
                },
                "traits": {
                    "custom": "",
                    "rarity": "common",
                    "value": []
                },
                "trigger": {
                    "value": ""
                },
                "weapon": {
                    "value": ""
                }
            },
            "flags": {
                "core": {
                    "sourceId": "Compendium.pf2ettw.bestiary-ability-glossary-srd.VdSMQ6yRZ3YXNXHL"
                }
            },
            "img": "systems/pf2ettw/icons/actions/Passive.webp",
            "name": "Wavesense 30 feet",
            "sort": 900000,
            "type": "action"
        },
        {
            "_id": "vjCJtuDBXH0SYNN7",
            "data": {
                "actionCategory": {
                    "value": "offensive"
                },
                "actionType": {
                    "value": "free"
                },
                "actions": {
                    "value": null
                },
                "description": {
                    "value": "<p><strong>Requirements</strong> The sea devil is not @Compendium[pf2ettw.conditionitems.Fatigued]{Fatigued} or already in a frenzy</p>\n<p><strong>Trigger</strong> The sea devil deals bleed damage to a living creature.</p>\n<hr />\n<p><strong>Effect</strong> The sea devil flies into a frenzy that lasts 1 minute. While frenzied, the sea devil gains a +1 status bonus to attack rolls with its claws and jaws, gains a +4 status bonus to damage rolls with its claws and jaws, gains 15 temporary HP until the end of the frenzy, and takes a -2 status penalty to AC. The sea devil can't voluntarily stop its frenzy. After its frenzy, the sea devil is @Compendium[pf2ettw.conditionitems.Fatigued]{Fatigued}.</p>\n<hr />\n<p>@Compendium[pf2ettw.bestiary-effects.Effect: Blood Frenzy]{Effect: Blood Frenzy}</p>"
                },
                "requirements": {
                    "value": ""
                },
                "rules": [
                    {
                        "key": "FlatModifier",
                        "predicate": {
                            "all": [
                                "self:effect:blood-frenzy"
                            ]
                        },
                        "selector": "claw-attack",
                        "type": "status",
                        "value": 1
                    },
                    {
                        "key": "FlatModifier",
                        "predicate": {
                            "all": [
                                "self:effect:blood-frenzy"
                            ]
                        },
                        "selector": "jaws-attack",
                        "type": "status",
                        "value": 1
                    },
                    {
                        "key": "FlatModifier",
                        "predicate": {
                            "all": [
                                "self:effect:blood-frenzy"
                            ]
                        },
                        "selector": "claw-damage",
                        "type": "status",
                        "value": 4
                    },
                    {
                        "key": "FlatModifier",
                        "predicate": {
                            "all": [
                                "self:effect:blood-frenzy"
                            ]
                        },
                        "selector": "jaws-damage",
                        "type": "status",
                        "value": 4
                    },
                    {
                        "key": "ActiveEffectLike",
                        "mode": "add",
                        "path": "data.custom.modifiers.frenzyMod",
                        "value": 5
                    },
                    {
                        "key": "FlatModifier",
                        "predicate": {
                            "all": [
                                "self:effect:blood-frenzy"
                            ]
                        },
                        "selector": "ac",
                        "type": "status",
                        "value": -2
                    }
                ],
                "slug": null,
                "source": {
                    "value": ""
                },
                "traits": {
                    "custom": "",
                    "rarity": "common",
                    "value": [
                        "rage"
                    ]
                },
                "trigger": {
                    "value": ""
                },
                "weapon": {
                    "value": ""
                }
            },
            "img": "systems/pf2ettw/icons/actions/FreeAction.webp",
            "name": "Blood Frenzy",
            "sort": 1000000,
            "type": "action"
        },
        {
            "_id": "P0MPVynVKmKMh3FI",
            "data": {
                "actionCategory": {
                    "value": "offensive"
                },
                "actionType": {
                    "value": "passive"
                },
                "actions": {
                    "value": null
                },
                "description": {
                    "value": "<p>When the sea devil deals piercing or slashing damage, it also deals @Localize[pf2ettw.PersistentDamage.Bleed1d4.success] if the target was @Compendium[pf2ettw.conditionitems.Flat-Footed]{Flat-Footed} or if the attack was a critical hit.</p>"
                },
                "requirements": {
                    "value": ""
                },
                "rules": [
                    {
                        "key": "Note",
                        "predicate": {
                            "all": [
                                "target:condition:flat-footed"
                            ]
                        },
                        "selector": "attack",
                        "text": "{item|data.description.value}",
                        "title": "{item|name}"
                    },
                    {
                        "key": "Note",
                        "outcome": [
                            "criticalSuccess"
                        ],
                        "predicate": {
                            "not": [
                                "target:condition:flat-footed"
                            ]
                        },
                        "selector": "attack",
                        "text": "{item|data.description.value}",
                        "title": "{item|name}"
                    }
                ],
                "slug": null,
                "source": {
                    "value": ""
                },
                "traits": {
                    "custom": "",
                    "rarity": "common",
                    "value": []
                },
                "trigger": {
                    "value": ""
                },
                "weapon": {
                    "value": ""
                }
            },
            "img": "systems/pf2ettw/icons/actions/Passive.webp",
            "name": "Bloodletting",
            "sort": 1100000,
            "type": "action"
        },
        {
            "_id": "RyRiVUoP2scafR6g",
            "data": {
                "actionCategory": {
                    "value": "offensive"
                },
                "actionType": {
                    "value": "action"
                },
                "actions": {
                    "value": 2
                },
                "description": {
                    "value": "<p><strong>Requirement</strong> The sea devil baron is in a blood frenzy.</p>\n<hr />\n<p><strong>Effect</strong> The sea devil baron unleashes a whirlwind of attacks against its foes, making a single melee Strike with its claws or jaws against each opponent within reach.</p>"
                },
                "requirements": {
                    "value": ""
                },
                "rules": [],
                "slug": null,
                "source": {
                    "value": ""
                },
                "traits": {
                    "custom": "",
                    "rarity": "common",
                    "value": [
                        "rage"
                    ]
                },
                "trigger": {
                    "value": ""
                },
                "weapon": {
                    "value": ""
                }
            },
            "img": "systems/pf2ettw/icons/actions/TwoActions.webp",
            "name": "Hateful Tide",
            "sort": 1200000,
            "type": "action"
        },
        {
            "_id": "N5MfzopIegJDrl6g",
            "data": {
                "description": {
                    "value": ""
                },
                "mod": {
                    "value": 15
                },
                "proficient": {
                    "value": 0
                },
                "rules": [
                    {
                        "key": "FlatModifier",
                        "label": "pf2ettw.SkillVariant.Swim",
                        "predicate": {
                            "all": [
                                "action:swim"
                            ]
                        },
                        "selector": "athletics",
                        "value": 3
                    }
                ],
                "slug": null,
                "source": {
                    "value": ""
                },
                "traits": {
                    "custom": "",
                    "rarity": "common",
                    "value": []
                },
                "variants": {
                    "0": {
                        "label": "+18 to Swim",
                        "options": "action:swim"
                    }
                }
            },
            "img": "systems/pf2ettw/icons/default-icons/lore.svg",
            "name": "Athletics",
            "sort": 1300000,
            "type": "lore"
        },
        {
            "_id": "Ajil23JVkcut1Nwb",
            "data": {
                "description": {
                    "value": ""
                },
                "mod": {
                    "value": 12
                },
                "proficient": {
                    "value": 0
                },
                "rules": [],
                "slug": null,
                "source": {
                    "value": ""
                },
                "traits": {
                    "custom": "",
                    "rarity": "common",
                    "value": []
                }
            },
            "img": "systems/pf2ettw/icons/default-icons/lore.svg",
            "name": "Intimidation",
            "sort": 1400000,
            "type": "lore"
        },
        {
            "_id": "zkoLuntyppO3wAmg",
            "data": {
                "description": {
                    "value": ""
                },
                "mod": {
                    "value": 12
                },
                "proficient": {
                    "value": 0
                },
                "rules": [],
                "slug": null,
                "source": {
                    "value": ""
                },
                "traits": {
                    "custom": "",
                    "rarity": "common",
                    "value": []
                }
            },
            "img": "systems/pf2ettw/icons/default-icons/lore.svg",
            "name": "Stealth",
            "sort": 1500000,
            "type": "lore"
        },
        {
            "_id": "Qi1Ch2DzUmJHgejE",
            "data": {
                "description": {
                    "value": ""
                },
                "mod": {
                    "value": 11
                },
                "proficient": {
                    "value": 0
                },
                "rules": [],
                "slug": null,
                "source": {
                    "value": ""
                },
                "traits": {
                    "custom": "",
                    "rarity": "common",
                    "value": []
                }
            },
            "img": "systems/pf2ettw/icons/default-icons/lore.svg",
            "name": "Survival",
            "sort": 1600000,
            "type": "lore"
        }
    ],
    "name": "Sea Devil Baron",
    "token": {
        "disposition": -1,
        "height": 1,
        "img": "systems/pf2ettw/icons/default-icons/npc.svg",
        "name": "Sea Devil Baron",
        "width": 1
    },
    "type": "npc"
}
