{
    "_id": "XrmHgbKgcHDi4OnK",
    "data": {
        "abilities": {
            "cha": {
                "mod": 3
            },
            "con": {
                "mod": 0
            },
            "dex": {
                "mod": 4
            },
            "int": {
                "mod": -2
            },
            "str": {
                "mod": -5
            },
            "wis": {
                "mod": 2
            }
        },
        "attributes": {
            "ac": {
                "details": "",
                "value": 20
            },
            "allSaves": {
                "value": ""
            },
            "hp": {
                "details": "",
                "max": 40,
                "temp": 0,
                "value": 40
            },
            "initiative": {
                "ability": "perception"
            },
            "perception": {
                "value": 10
            },
            "speed": {
                "otherSpeeds": [
                    {
                        "type": "fly",
                        "value": "30"
                    }
                ],
                "value": "0"
            }
        },
        "details": {
            "alignment": {
                "value": "CE"
            },
            "blurb": "",
            "creatureType": "Undead",
            "level": {
                "value": 4
            },
            "privateNotes": "",
            "publicNotes": "<p>The mysterious undead known as shadows lurk in dark places and feed on those who stray too far from the light. Those who parley with shadows, typically by keeping them at bay with a glowing weapon, may learn great secrets, for they are ideal spies.</p>",
            "source": {
                "value": "Pathfinder Bestiary"
            }
        },
        "resources": {},
        "saves": {
            "fortitude": {
                "saveDetail": "",
                "value": 8
            },
            "reflex": {
                "saveDetail": "",
                "value": 14
            },
            "will": {
                "saveDetail": "",
                "value": 12
            }
        },
        "traits": {
            "attitude": {
                "value": "hostile"
            },
            "ci": [],
            "di": {
                "custom": "",
                "value": [
                    "death-effects",
                    "disease",
                    "paralyzed",
                    "poison",
                    "precision",
                    "unconscious"
                ]
            },
            "dr": [
                {
                    "exceptions": "except force, ghost touch, or positive; double resistance vs. non-magical",
                    "type": "all",
                    "value": 5
                }
            ],
            "dv": [],
            "languages": {
                "custom": "",
                "selected": [],
                "value": [
                    "necril"
                ]
            },
            "rarity": "common",
            "senses": {
                "value": "darkvision"
            },
            "size": {
                "value": "med"
            },
            "traits": {
                "custom": "",
                "value": [
                    "incorporeal",
                    "undead"
                ]
            }
        }
    },
    "img": "systems/pf2ettw/icons/default-icons/npc.svg",
    "items": [
        {
            "_id": "x47iDfIE9albveGl",
            "data": {
                "attack": {
                    "value": ""
                },
                "attackEffects": {
                    "custom": "",
                    "value": []
                },
                "bonus": {
                    "value": 15
                },
                "damageRolls": {
                    "0": {
                        "damage": "2d6+3",
                        "damageType": "negative"
                    }
                },
                "description": {
                    "value": ""
                },
                "rules": [],
                "slug": null,
                "source": {
                    "value": ""
                },
                "traits": {
                    "custom": "",
                    "rarity": "common",
                    "value": [
                        "finesse",
                        "magical"
                    ]
                },
                "weaponType": {
                    "value": "melee"
                }
            },
            "img": "systems/pf2ettw/icons/default-icons/melee.svg",
            "name": "Shadow Hand",
            "sort": 100000,
            "type": "melee"
        },
        {
            "_id": "20wHQZMjGAPl30DH",
            "data": {
                "actionCategory": {
                    "value": "interaction"
                },
                "actionType": {
                    "value": "passive"
                },
                "actions": {
                    "value": null
                },
                "description": {
                    "value": "<p>@Localize[pf2ettw.NPC.Abilities.Glossary.Darkvision]</p>"
                },
                "requirements": {
                    "value": ""
                },
                "rules": [],
                "slug": "darkvision",
                "source": {
                    "value": "Pathfinder Bestiary"
                },
                "traits": {
                    "custom": "",
                    "rarity": "common",
                    "value": []
                },
                "trigger": {
                    "value": ""
                },
                "weapon": {
                    "value": ""
                }
            },
            "flags": {
                "core": {
                    "sourceId": "Compendium.pf2ettw.bestiary-ability-glossary-srd.qCCLZhnp2HhP3Ex6"
                }
            },
            "img": "systems/pf2ettw/icons/actions/Passive.webp",
            "name": "Darkvision",
            "sort": 200000,
            "type": "action"
        },
        {
            "_id": "ACHlnYzXVxizzqPw",
            "data": {
                "actionCategory": {
                    "value": "defensive"
                },
                "actionType": {
                    "value": "passive"
                },
                "actions": {
                    "value": null
                },
                "description": {
                    "value": "<p>An object shedding magical light (such as from the <em>@Compendium[pf2ettw.spells-srd.Light]{Light}</em> spell) is treated as magical when used to attack the shadow.</p>"
                },
                "requirements": {
                    "value": ""
                },
                "rules": [],
                "slug": null,
                "source": {
                    "value": ""
                },
                "traits": {
                    "custom": "",
                    "rarity": "common",
                    "value": []
                },
                "trigger": {
                    "value": ""
                },
                "weapon": {
                    "value": ""
                }
            },
            "img": "systems/pf2ettw/icons/actions/Passive.webp",
            "name": "Light Vulnerability",
            "sort": 300000,
            "type": "action"
        },
        {
            "_id": "0Qt9ULbGzJV8ZG3W",
            "data": {
                "actionCategory": {
                    "value": "offensive"
                },
                "actionType": {
                    "value": "passive"
                },
                "actions": {
                    "value": null
                },
                "description": {
                    "value": "<p>When a creature's shadow is pulled free by Steal Shadow, it becomes a @Compendium[pf2ettw.pathfinder-bestiary.Shadow]{Shadow Spawn} under the command of the shadow that created it. This shadow spawn doesn't have Steal Shadow and is perpetually and incurably @Compendium[pf2ettw.conditionitems.Clumsy]{Clumsy 2}. If the creature the shadow spawn was pulled from dies, the shadow spawn becomes a full-fledged, autonomous shadow. If the creature recovers from its @Compendium[pf2ettw.conditionitems.Enfeebled]{Enfeeblement}, its shadow returns to it and the shadow spawn is extinguished.</p>"
                },
                "requirements": {
                    "value": ""
                },
                "rules": [],
                "slug": null,
                "source": {
                    "value": ""
                },
                "traits": {
                    "custom": "",
                    "rarity": "common",
                    "value": []
                },
                "trigger": {
                    "value": ""
                },
                "weapon": {
                    "value": ""
                }
            },
            "img": "systems/pf2ettw/icons/actions/Passive.webp",
            "name": "Shadow Spawn",
            "sort": 400000,
            "type": "action"
        },
        {
            "_id": "0QWVJ7Of8cQNKp0N",
            "data": {
                "actionCategory": {
                    "value": "offensive"
                },
                "actionType": {
                    "value": "passive"
                },
                "actions": {
                    "value": null
                },
                "description": {
                    "value": "<p>The shadow can @Compendium[pf2ettw.actionspf2ettw.Hide]{Hide} or end its @Compendium[pf2ettw.actionspf2ettw.Sneak]{Sneak} in a creature's or object's shadow.</p>"
                },
                "requirements": {
                    "value": ""
                },
                "rules": [],
                "slug": null,
                "source": {
                    "value": ""
                },
                "traits": {
                    "custom": "",
                    "rarity": "common",
                    "value": []
                },
                "trigger": {
                    "value": ""
                },
                "weapon": {
                    "value": ""
                }
            },
            "img": "systems/pf2ettw/icons/actions/Passive.webp",
            "name": "Slink in Shadows",
            "sort": 500000,
            "type": "action"
        },
        {
            "_id": "Kjifw1jgDvfmrEGU",
            "data": {
                "actionCategory": {
                    "value": "offensive"
                },
                "actionType": {
                    "value": "action"
                },
                "actions": {
                    "value": 1
                },
                "description": {
                    "value": "<p><strong>Requirement</strong> The shadow hit a living creature with a shadow hand Strike on its previous action.</p>\n<hr />\n<p><strong>Effect</strong> The shadow pulls at the target's shadow, making the creature @Compendium[pf2ettw.conditionitems.Enfeebled]{Enfeebled 1}. This is cumulative with other enfeebled conditions from shadows, to a maximum of enfeebled 4. If this increases a creature's enfeebled value to 3 or more, the target's shadow is separated from its body. Enfeebled from Steal Shadow decreases by 1 every hour.</p>"
                },
                "requirements": {
                    "value": ""
                },
                "rules": [],
                "slug": null,
                "source": {
                    "value": ""
                },
                "traits": {
                    "custom": "",
                    "rarity": "common",
                    "value": [
                        "divine",
                        "necromancy"
                    ]
                },
                "trigger": {
                    "value": ""
                },
                "weapon": {
                    "value": ""
                }
            },
            "img": "systems/pf2ettw/icons/actions/OneAction.webp",
            "name": "Steal Shadow",
            "sort": 600000,
            "type": "action"
        },
        {
            "_id": "MN0vvAiaLlor6r9T",
            "data": {
                "description": {
                    "value": ""
                },
                "mod": {
                    "value": 10
                },
                "proficient": {
                    "value": 0
                },
                "rules": [],
                "slug": null,
                "source": {
                    "value": ""
                },
                "traits": {
                    "custom": "",
                    "rarity": "common",
                    "value": []
                }
            },
            "img": "systems/pf2ettw/icons/default-icons/lore.svg",
            "name": "Acrobatics",
            "sort": 700000,
            "type": "lore"
        },
        {
            "_id": "vJe05g3F9QTjJFzu",
            "data": {
                "description": {
                    "value": ""
                },
                "mod": {
                    "value": 14
                },
                "proficient": {
                    "value": 0
                },
                "rules": [],
                "slug": null,
                "source": {
                    "value": ""
                },
                "traits": {
                    "custom": "",
                    "rarity": "common",
                    "value": []
                }
            },
            "img": "systems/pf2ettw/icons/default-icons/lore.svg",
            "name": "Stealth",
            "sort": 800000,
            "type": "lore"
        }
    ],
    "name": "Shadow",
    "token": {
        "disposition": -1,
        "height": 1,
        "img": "systems/pf2ettw/icons/default-icons/npc.svg",
        "name": "Shadow",
        "width": 1
    },
    "type": "npc"
}
