{
    "_id": "6XlGTt3RveX49YbC",
    "data": {
        "abilities": {
            "cha": {
                "mod": -1
            },
            "con": {
                "mod": 5
            },
            "dex": {
                "mod": 1
            },
            "int": {
                "mod": -2
            },
            "str": {
                "mod": 6
            },
            "wis": {
                "mod": 2
            }
        },
        "attributes": {
            "ac": {
                "details": "",
                "value": 22
            },
            "allSaves": {
                "value": ""
            },
            "hp": {
                "details": "",
                "max": 120,
                "temp": 0,
                "value": 120
            },
            "initiative": {
                "ability": "perception"
            },
            "perception": {
                "value": 12
            },
            "speed": {
                "otherSpeeds": [
                    {
                        "type": "swim",
                        "value": "20"
                    }
                ],
                "value": "20"
            }
        },
        "details": {
            "alignment": {
                "value": "N"
            },
            "blurb": "",
            "creatureType": "Plant",
            "level": {
                "value": 6
            },
            "privateNotes": "",
            "publicNotes": "<p>Shamblers are cunning carnivorous plants that resemble heaps of wet, rotting vegetation. Even when standing erect on their stumpy legs, shamblers don't have much in the way of identifiable anatomy; they are tangles of parasitic vines that lash out at prey with their longest creepers, entwined together to deliver powerful blows. Sometimes called \"shambling mounds,\" these ambush predators have a particular fondness for flesh, and are most well known for their ability to hunker down and hide in plain sight. A shambler can draw nutrients from plant matter or soil, but won't do so if it suspects meat might soon wander near, and indeed may lie in wait for days in anticipation of such a meal.</p>\n<p>Shamblers are usually solitary creatures. Fierce thunderstorms are among the few events that bring numerous shamblers together. During such gatherings, the plants gather around strange but seemingly sacred earthen mounds in remote jungles and swamps and cavort and caper excitedly, stretching their tendrils toward the sky to hope for-or perhaps to summon-intense lightning strikes. Not only are these strange plants unharmed by even the most powerful electrical strikes, but they seem to become supernaturally empowered by such bursts of raw energy. Shamblers consider being struck by lightning a sign of divine favor, and those shamblers frequently blasted by bolts of electricity become respected elders among their kind. Shambler elders are few and far between and may possess a wide array of abilities; some can cast primal spells, others can empathically call upon the aid of other shamblers in the area, and still others wield awesome powers over electricity.</p>\n<p>Other types of shamblers exist, including those composed not of plant matter but fungal growth. These creatures, known as \"spore mounds,\" discharge clouds of toxic spores from their bodies when struck in combat. In semiarid deserts, shambler-like plants called tanglethorns dwell amid sagebrush and rock formations; they resemble bunches of tumbleweeds and cacti and inflict deep, bloody lacerations with their attacks.</p>",
            "source": {
                "value": "Pathfinder Bestiary"
            }
        },
        "resources": {},
        "saves": {
            "fortitude": {
                "saveDetail": "",
                "value": 17
            },
            "reflex": {
                "saveDetail": "",
                "value": 11
            },
            "will": {
                "saveDetail": "",
                "value": 14
            }
        },
        "traits": {
            "ci": [],
            "di": {
                "custom": "",
                "value": [
                    "electricity"
                ]
            },
            "dr": [
                {
                    "type": "fire",
                    "value": 5
                }
            ],
            "dv": [],
            "languages": {
                "custom": "(Can't Speak Any Language)",
                "selected": [],
                "value": [
                    "common",
                    "elven",
                    "sylvan"
                ]
            },
            "rarity": "common",
            "senses": {
                "value": "darkvision"
            },
            "size": {
                "value": "lg"
            },
            "traits": {
                "custom": "",
                "value": [
                    "plant"
                ]
            }
        }
    },
    "img": "systems/pf2ettw/icons/default-icons/npc.svg",
    "items": [
        {
            "_id": "EUf1gqfe5un9Aprz",
            "data": {
                "attack": {
                    "value": ""
                },
                "attackEffects": {
                    "custom": "",
                    "value": [
                        "grab"
                    ]
                },
                "bonus": {
                    "value": 17
                },
                "damageRolls": {
                    "rsrxo3cheibra8yjrb66": {
                        "damage": "2d8+8",
                        "damageType": "bludgeoning"
                    }
                },
                "description": {
                    "value": ""
                },
                "rules": [],
                "slug": null,
                "source": {
                    "value": ""
                },
                "traits": {
                    "custom": "",
                    "rarity": "common",
                    "value": [
                        "reach-10"
                    ]
                },
                "weaponType": {
                    "value": "melee"
                }
            },
            "img": "systems/pf2ettw/icons/default-icons/melee.svg",
            "name": "Vine",
            "sort": 100000,
            "type": "melee"
        },
        {
            "_id": "KpFmMp8bJz2ZkMQN",
            "data": {
                "actionCategory": {
                    "value": "interaction"
                },
                "actionType": {
                    "value": "passive"
                },
                "actions": {
                    "value": null
                },
                "description": {
                    "value": "<p>@Localize[pf2ettw.NPC.Abilities.Glossary.Darkvision]</p>"
                },
                "requirements": {
                    "value": ""
                },
                "rules": [],
                "slug": "darkvision",
                "source": {
                    "value": "Pathfinder Bestiary"
                },
                "traits": {
                    "custom": "",
                    "rarity": "common",
                    "value": []
                },
                "trigger": {
                    "value": ""
                },
                "weapon": {
                    "value": ""
                }
            },
            "flags": {
                "core": {
                    "sourceId": "Compendium.pf2ettw.bestiary-ability-glossary-srd.qCCLZhnp2HhP3Ex6"
                }
            },
            "img": "systems/pf2ettw/icons/actions/Passive.webp",
            "name": "Darkvision",
            "sort": 200000,
            "type": "action"
        },
        {
            "_id": "cr8chy1goN1ZSrnT",
            "data": {
                "actionCategory": {
                    "value": "interaction"
                },
                "actionType": {
                    "value": "passive"
                },
                "actions": {
                    "value": null
                },
                "description": {
                    "value": "<p>When it's not in danger, the shambler spends 1 minute settling into a pile that looks like a lump of loose vegetation. While it is in this form, creatures must actively @Compendium[pf2ettw.actionspf2ettw.Seek]{Seek} and succeed at a @Check[type:perception|dc:22|traits:action:seek] check (@Check[type:perception|dc:28|traits:action:seek] in forests or swamps) to detect the shambler's true nature.</p>"
                },
                "requirements": {
                    "value": ""
                },
                "rules": [],
                "slug": null,
                "source": {
                    "value": ""
                },
                "traits": {
                    "custom": "",
                    "rarity": "common",
                    "value": []
                },
                "trigger": {
                    "value": ""
                },
                "weapon": {
                    "value": ""
                }
            },
            "img": "systems/pf2ettw/icons/actions/Passive.webp",
            "name": "Mound",
            "sort": 300000,
            "type": "action"
        },
        {
            "_id": "HjqV5crA9cRbpUVj",
            "data": {
                "actionCategory": {
                    "value": "defensive"
                },
                "actionType": {
                    "value": "passive"
                },
                "actions": {
                    "value": null
                },
                "description": {
                    "value": "<p>Whenever the shambler would take electricity damage or is targeted with an electricity effect, it gains 12 temporary HP and is @Compendium[pf2ettw.conditionitems.Quickened]{Quickened} until the end of its next turn. It can use its extra action to Stride, Strike, or Swim.</p>"
                },
                "requirements": {
                    "value": ""
                },
                "rules": [],
                "slug": null,
                "source": {
                    "value": ""
                },
                "traits": {
                    "custom": "",
                    "rarity": "common",
                    "value": []
                },
                "trigger": {
                    "value": ""
                },
                "weapon": {
                    "value": ""
                }
            },
            "img": "systems/pf2ettw/icons/actions/Passive.webp",
            "name": "Electric Surge",
            "sort": 400000,
            "type": "action"
        },
        {
            "_id": "XgjH4JAk9jbj9B8a",
            "data": {
                "actionCategory": {
                    "value": "offensive"
                },
                "actionType": {
                    "value": "reaction"
                },
                "actions": {
                    "value": null
                },
                "description": {
                    "value": "<p><strong>Shamble</strong><strong>Requirements</strong> The shambler is in mound form</p>\n<p><strong>Trigger</strong> A creature unaware of the shambler's true nature comes within 10 feet.</p>\n<hr />\n<p><strong>Effect</strong> The shambler makes a vine Strike against the creature. Then roll initiative.</p>"
                },
                "requirements": {
                    "value": ""
                },
                "rules": [],
                "slug": null,
                "source": {
                    "value": ""
                },
                "traits": {
                    "custom": "",
                    "rarity": "common",
                    "value": []
                },
                "trigger": {
                    "value": ""
                }
            },
            "img": "systems/pf2ettw/icons/actions/Reaction.webp",
            "name": "Shamble",
            "sort": 500000,
            "type": "action"
        },
        {
            "_id": "PfK4YgueBXw7cjqo",
            "data": {
                "actionCategory": {
                    "value": "offensive"
                },
                "actionType": {
                    "value": "action"
                },
                "actions": {
                    "value": 2
                },
                "description": {
                    "value": "<p>The shambler makes a vine Strike against each creature within reach. Its multiple attack penalty increases only after all the attacks.</p>"
                },
                "requirements": {
                    "value": ""
                },
                "rules": [],
                "slug": null,
                "source": {
                    "value": ""
                },
                "traits": {
                    "custom": "",
                    "rarity": "common",
                    "value": []
                },
                "trigger": {
                    "value": ""
                },
                "weapon": {
                    "value": ""
                }
            },
            "img": "systems/pf2ettw/icons/actions/TwoActions.webp",
            "name": "Vine Lash",
            "sort": 600000,
            "type": "action"
        },
        {
            "_id": "A8YjaMzEWbFC9JWF",
            "data": {
                "actionCategory": {
                    "value": "offensive"
                },
                "actionType": {
                    "value": "action"
                },
                "actions": {
                    "value": 1
                },
                "description": {
                    "value": "<p>@Localize[pf2ettw.NPC.Abilities.Glossary.Grab]</p>"
                },
                "requirements": {
                    "value": ""
                },
                "rules": [],
                "slug": "grab",
                "source": {
                    "value": "Pathfinder Bestiary"
                },
                "traits": {
                    "custom": "",
                    "rarity": "common",
                    "value": []
                },
                "trigger": {
                    "value": ""
                },
                "weapon": {
                    "value": ""
                }
            },
            "flags": {
                "core": {
                    "sourceId": "Compendium.pf2ettw.bestiary-ability-glossary-srd.Tkd8sH4pwFIPzqTr"
                }
            },
            "img": "systems/pf2ettw/icons/actions/OneAction.webp",
            "name": "Grab",
            "sort": 700000,
            "type": "action"
        },
        {
            "_id": "WOIo42ImBVjVcGRY",
            "data": {
                "description": {
                    "value": ""
                },
                "mod": {
                    "value": 16
                },
                "proficient": {
                    "value": 0
                },
                "rules": [],
                "slug": null,
                "source": {
                    "value": ""
                },
                "traits": {
                    "custom": "",
                    "rarity": "common",
                    "value": []
                }
            },
            "img": "systems/pf2ettw/icons/default-icons/lore.svg",
            "name": "Athletics",
            "sort": 800000,
            "type": "lore"
        },
        {
            "_id": "xAxV9yRmp780wKql",
            "data": {
                "description": {
                    "value": ""
                },
                "mod": {
                    "value": 12
                },
                "proficient": {
                    "value": 0
                },
                "rules": [
                    {
                        "key": "FlatModifier",
                        "label": "pf2ettw.SkillVariant.ForestsOrSwamps",
                        "predicate": {
                            "any": [
                                "terrain:forest",
                                "terrain:swamp"
                            ]
                        },
                        "selector": "stealth",
                        "value": 6
                    }
                ],
                "slug": null,
                "source": {
                    "value": ""
                },
                "traits": {
                    "custom": "",
                    "rarity": "common",
                    "value": []
                },
                "variants": {
                    "0": {
                        "label": "+18 in forests or swamps",
                        "options": "terrain:forest, terrain:swamp"
                    }
                }
            },
            "img": "systems/pf2ettw/icons/default-icons/lore.svg",
            "name": "Stealth",
            "sort": 900000,
            "type": "lore"
        }
    ],
    "name": "Shambler",
    "token": {
        "disposition": -1,
        "height": 2,
        "img": "systems/pf2ettw/icons/default-icons/npc.svg",
        "name": "Shambler",
        "width": 2
    },
    "type": "npc"
}
