{
    "_id": "Cq8sRhVVF0hagBu6",
    "data": {
        "abilities": {
            "cha": {
                "mod": 4
            },
            "con": {
                "mod": 2
            },
            "dex": {
                "mod": 3
            },
            "int": {
                "mod": 2
            },
            "str": {
                "mod": 5
            },
            "wis": {
                "mod": 4
            }
        },
        "attributes": {
            "ac": {
                "details": "",
                "value": 24
            },
            "allSaves": {
                "value": ""
            },
            "hp": {
                "details": "coffin restoration, fast healing 7, negative healing",
                "max": 65,
                "temp": 0,
                "value": 65
            },
            "initiative": {
                "ability": "perception"
            },
            "perception": {
                "value": 17
            },
            "speed": {
                "otherSpeeds": [
                    {
                        "type": "climb",
                        "value": "25"
                    }
                ],
                "value": "25"
            }
        },
        "details": {
            "alignment": {
                "value": "CE"
            },
            "blurb": "",
            "creatureType": "Undead",
            "level": {
                "value": 6
            },
            "privateNotes": "",
            "publicNotes": "<p>Vampire counts rule their demesnes through a mix of fear and cruelty.</p>\n<hr />\n<p>Vampires are undead creatures that feed on the blood of the living.</p>",
            "source": {
                "value": "Pathfinder Bestiary"
            }
        },
        "resources": {},
        "saves": {
            "fortitude": {
                "saveDetail": "",
                "value": 11
            },
            "reflex": {
                "saveDetail": "",
                "value": 14
            },
            "will": {
                "saveDetail": "",
                "value": 17
            }
        },
        "traits": {
            "ci": [],
            "di": {
                "custom": "",
                "value": [
                    "death-effects",
                    "disease",
                    "paralyzed",
                    "poison",
                    "sleep"
                ]
            },
            "dr": [
                {
                    "exceptions": "except magical silver",
                    "type": "physical",
                    "value": 7
                }
            ],
            "dv": [
                {
                    "type": "vampire-weaknesses",
                    "value": 0
                }
            ],
            "languages": {
                "custom": "Plus One Regional Language",
                "selected": [],
                "value": [
                    "common",
                    "necril"
                ]
            },
            "rarity": "common",
            "senses": {
                "value": "darkvision"
            },
            "size": {
                "value": "med"
            },
            "traits": {
                "custom": "",
                "value": [
                    "undead",
                    "vampire"
                ]
            }
        }
    },
    "img": "systems/pf2ettw/icons/default-icons/npc.svg",
    "items": [
        {
            "_id": "JqajO4nisN5Ddc6s",
            "data": {
                "autoHeightenLevel": {
                    "value": null
                },
                "description": {
                    "value": ""
                },
                "displayLevels": {},
                "prepared": {
                    "flexible": false,
                    "value": "innate"
                },
                "proficiency": {
                    "value": 0
                },
                "rules": [],
                "showSlotlessLevels": {
                    "value": false
                },
                "showUnpreparedSpells": {
                    "value": true
                },
                "slots": {
                    "slot0": {
                        "max": 0,
                        "prepared": [],
                        "value": 0
                    },
                    "slot1": {
                        "max": 0,
                        "prepared": [],
                        "value": 0
                    },
                    "slot10": {
                        "max": 0,
                        "prepared": [],
                        "value": 0
                    },
                    "slot11": {
                        "max": 0,
                        "prepared": [],
                        "value": 0
                    },
                    "slot2": {
                        "max": 0,
                        "prepared": [],
                        "value": 0
                    },
                    "slot3": {
                        "max": 0,
                        "prepared": [],
                        "value": 0
                    },
                    "slot4": {
                        "max": 0,
                        "prepared": [],
                        "value": 0
                    },
                    "slot5": {
                        "max": 0,
                        "prepared": [],
                        "value": 0
                    },
                    "slot6": {
                        "max": 0,
                        "prepared": [],
                        "value": 0
                    },
                    "slot7": {
                        "max": 0,
                        "prepared": [],
                        "value": 0
                    },
                    "slot8": {
                        "max": 0,
                        "prepared": [],
                        "value": 0
                    },
                    "slot9": {
                        "max": 0,
                        "prepared": [],
                        "value": 0
                    }
                },
                "slug": null,
                "source": {
                    "value": ""
                },
                "spelldc": {
                    "dc": 22,
                    "mod": 0,
                    "value": 14
                },
                "tradition": {
                    "value": "divine"
                },
                "traits": {
                    "custom": "",
                    "rarity": "common",
                    "value": []
                }
            },
            "img": "systems/pf2ettw/icons/default-icons/spellcastingEntry.svg",
            "name": "Divine Innate Spells",
            "sort": 100000,
            "type": "spellcastingEntry"
        },
        {
            "_id": "1KpcQXgkKmJR4pYK",
            "data": {
                "ability": {
                    "value": ""
                },
                "area": {
                    "areaType": "",
                    "value": ""
                },
                "areasize": {
                    "value": ""
                },
                "category": {
                    "value": "spell"
                },
                "components": {
                    "focus": false,
                    "material": false,
                    "somatic": true,
                    "verbal": true
                },
                "cost": {
                    "value": ""
                },
                "damage": {
                    "value": {}
                },
                "description": {
                    "value": "<p>You take command of the target, forcing it to obey your orders. If you issue an obviously self-destructive order, the target doesn't act until you issue a new order. The effect depends on its Will save.</p>\n<hr />\n<p><strong>Critical Success</strong> The target is unaffected.</p>\n<p><strong>Success</strong> The target is @Compendium[pf2ettw.conditionitems.Stunned]{Stunned 1} as it fights off your commands.</p>\n<p><strong>Failure</strong> You control the target. It gains the @Compendium[pf2ettw.conditionitems.Controlled]{Controlled} condition, but it can attempt a Will save at the end of each of its turns. On a success, the spell ends.</p>\n<p><strong>Critical Failure</strong> As a failure, but the target receives a new save only if you give it a new order that is against its nature, such as killing its allies.</p>\n<hr />\n<p><strong>Heightened (10th)</strong> The duration is unlimited.</p>"
                },
                "duration": {
                    "value": "until the next time you make your daily preparations"
                },
                "hasCounteractCheck": {
                    "value": false
                },
                "level": {
                    "value": 6
                },
                "location": {
                    "heightenedLevel": 6,
                    "value": "JqajO4nisN5Ddc6s"
                },
                "materials": {
                    "value": ""
                },
                "prepared": {
                    "value": ""
                },
                "primarycheck": {
                    "value": ""
                },
                "range": {
                    "value": "30 feet"
                },
                "rules": [],
                "save": {
                    "basic": "",
                    "value": "will"
                },
                "school": {
                    "value": "enchantment"
                },
                "secondarycasters": {
                    "value": ""
                },
                "secondarycheck": {
                    "value": ""
                },
                "slug": "dominate",
                "source": {
                    "value": "Pathfinder Core Rulebook"
                },
                "spellType": {
                    "value": "save"
                },
                "sustained": {
                    "value": false
                },
                "target": {
                    "value": "1 creature"
                },
                "time": {
                    "value": "2"
                },
                "traditions": {
                    "value": [
                        "arcane",
                        "occult"
                    ]
                },
                "traits": {
                    "custom": "",
                    "rarity": "uncommon",
                    "value": [
                        "incapacitation",
                        "mental",
                        "visual"
                    ]
                }
            },
            "flags": {
                "core": {
                    "sourceId": "Compendium.pf2ettw.spells-srd.OsOhx3TGIZ7AhD0P"
                }
            },
            "img": "systems/pf2ettw/icons/spells/dominate.webp",
            "name": "Dominate (At Will) (See Dominate)",
            "sort": 200000,
            "type": "spell"
        },
        {
            "_id": "7pJhkrdCMRHYdTFf",
            "data": {
                "MAP": {
                    "value": ""
                },
                "baseItem": "rapier",
                "bonus": {
                    "value": 0
                },
                "bonusDamage": {
                    "value": 0
                },
                "category": "martial",
                "containerId": null,
                "damage": {
                    "damageType": "piercing",
                    "dice": 1,
                    "die": "d6",
                    "value": ""
                },
                "description": {
                    "value": "<p>The rapier is a long and thin piercing blade with a basket hilt. It is prized among many as a dueling weapon.</p>"
                },
                "equipped": {
                    "carryType": "held",
                    "handsHeld": 1,
                    "invested": null
                },
                "equippedBulk": {
                    "value": ""
                },
                "group": "sword",
                "hardness": 0,
                "hp": {
                    "brokenThreshold": 0,
                    "max": 0,
                    "value": 0
                },
                "level": {
                    "value": 0
                },
                "negateBulk": {
                    "value": "0"
                },
                "potencyRune": {
                    "value": 1
                },
                "preciousMaterial": {
                    "value": null
                },
                "preciousMaterialGrade": {
                    "value": null
                },
                "price": {
                    "value": {
                        "gp": 2
                    }
                },
                "property1": {
                    "critDamage": "",
                    "critDamageType": "",
                    "critDice": null,
                    "critDie": "",
                    "criticalConditionType": "",
                    "criticalConditionValue": null,
                    "damageType": "",
                    "dice": null,
                    "die": "",
                    "strikeConditionType": "",
                    "strikeConditionValue": null,
                    "value": ""
                },
                "propertyRune1": {
                    "value": null
                },
                "propertyRune2": {
                    "value": null
                },
                "propertyRune3": {
                    "value": null
                },
                "propertyRune4": {
                    "value": null
                },
                "quantity": 1,
                "range": null,
                "reload": {
                    "value": ""
                },
                "rules": [],
                "size": "med",
                "slug": "rapier",
                "source": {
                    "value": "Pathfinder Core Rulebook"
                },
                "specific": {
                    "value": false
                },
                "splashDamage": {
                    "value": 0
                },
                "stackGroup": null,
                "strikingRune": {
                    "value": ""
                },
                "traits": {
                    "custom": "",
                    "rarity": "common",
                    "value": [
                        "deadly-d8",
                        "disarm",
                        "finesse"
                    ]
                },
                "usage": {
                    "value": "held-in-one-hand"
                },
                "weight": {
                    "value": "1"
                }
            },
            "flags": {
                "core": {
                    "sourceId": "Compendium.pf2ettw.equipment-srd.tH5GirEy7YB3ZgCk"
                }
            },
            "img": "systems/pf2ettw/icons/equipment/weapons/rapier.webp",
            "name": "Rapier",
            "sort": 300000,
            "type": "weapon"
        },
        {
            "_id": "IHktHOGAoQ7i14c1",
            "data": {
                "armor": {
                    "value": 1
                },
                "baseItem": "leather-armor",
                "category": "light",
                "check": {
                    "value": -1
                },
                "containerId": null,
                "description": {
                    "value": "<p>A mix of flexible and molded boiled leather, a suit of this type of armor provides some protection with maximum flexibility.</p>"
                },
                "dex": {
                    "value": 4
                },
                "equipped": {
                    "carryType": "worn",
                    "inSlot": true,
                    "invested": null
                },
                "equippedBulk": {
                    "value": "1"
                },
                "group": "leather",
                "hardness": 0,
                "hp": {
                    "brokenThreshold": 0,
                    "max": 0,
                    "value": 0
                },
                "level": {
                    "value": 0
                },
                "negateBulk": {
                    "value": "0"
                },
                "potency": {},
                "potencyRune": {
                    "value": 0
                },
                "preciousMaterial": {
                    "value": ""
                },
                "preciousMaterialGrade": {
                    "value": ""
                },
                "price": {
                    "value": {
                        "gp": 2
                    }
                },
                "propertyRune1": {
                    "value": ""
                },
                "propertyRune2": {
                    "value": ""
                },
                "propertyRune3": {
                    "value": ""
                },
                "propertyRune4": {
                    "value": ""
                },
                "quantity": 1,
                "resiliencyRune": {
                    "value": ""
                },
                "rules": [],
                "size": "med",
                "slug": "leather-armor",
                "source": {
                    "value": "Pathfinder Core Rulebook"
                },
                "speed": {
                    "value": 0
                },
                "stackGroup": null,
                "strength": {
                    "value": 10
                },
                "traits": {
                    "custom": "",
                    "rarity": "common",
                    "value": []
                },
                "usage": {
                    "value": "wornarmor"
                },
                "weight": {
                    "value": "2"
                }
            },
            "flags": {
                "core": {
                    "sourceId": "Compendium.pf2ettw.equipment-srd.4tIVTg9wj56RrveA"
                }
            },
            "img": "systems/pf2ettw/icons/equipment/armor/leather-armor.webp",
            "name": "Leather Armor",
            "sort": 400000,
            "type": "armor"
        },
        {
            "_id": "bgkXxmVMntPQOmND",
            "data": {
                "attack": {
                    "value": ""
                },
                "attackEffects": {
                    "custom": "",
                    "value": []
                },
                "bonus": {
                    "value": 17
                },
                "damageRolls": {
                    "6r2xqkx5nywfedxwtyts": {
                        "damage": "1d6+11",
                        "damageType": "piercing"
                    }
                },
                "description": {
                    "value": ""
                },
                "rules": [],
                "slug": null,
                "source": {
                    "value": ""
                },
                "traits": {
                    "custom": "",
                    "rarity": "common",
                    "value": [
                        "deadly-d8",
                        "disarm"
                    ]
                },
                "weaponType": {
                    "value": "melee"
                }
            },
            "img": "systems/pf2ettw/icons/default-icons/melee.svg",
            "name": "Rapier",
            "sort": 500000,
            "type": "melee"
        },
        {
            "_id": "ziSz2omKZDCD4A0e",
            "data": {
                "attack": {
                    "value": ""
                },
                "attackEffects": {
                    "custom": "",
                    "value": [
                        "grab"
                    ]
                },
                "bonus": {
                    "value": 17
                },
                "damageRolls": {
                    "biya5r6cbmpnb9ww4s11": {
                        "damage": "1d8+8",
                        "damageType": "slashing"
                    }
                },
                "description": {
                    "value": ""
                },
                "rules": [],
                "slug": null,
                "source": {
                    "value": ""
                },
                "traits": {
                    "custom": "",
                    "rarity": "common",
                    "value": [
                        "agile"
                    ]
                },
                "weaponType": {
                    "value": "melee"
                }
            },
            "img": "systems/pf2ettw/icons/default-icons/melee.svg",
            "name": "Claw",
            "sort": 600000,
            "type": "melee"
        },
        {
            "_id": "S2UO1rBCsuy3H5Ii",
            "data": {
                "actionCategory": {
                    "value": "interaction"
                },
                "actionType": {
                    "value": "passive"
                },
                "actions": {
                    "value": null
                },
                "description": {
                    "value": "<p>@Localize[pf2ettw.NPC.Abilities.Glossary.Darkvision]</p>"
                },
                "requirements": {
                    "value": ""
                },
                "rules": [],
                "slug": "darkvision",
                "source": {
                    "value": "Pathfinder Bestiary"
                },
                "traits": {
                    "custom": "",
                    "rarity": "common",
                    "value": []
                },
                "trigger": {
                    "value": ""
                },
                "weapon": {
                    "value": ""
                }
            },
            "flags": {
                "core": {
                    "sourceId": "Compendium.pf2ettw.bestiary-ability-glossary-srd.qCCLZhnp2HhP3Ex6"
                }
            },
            "img": "systems/pf2ettw/icons/actions/Passive.webp",
            "name": "Darkvision",
            "sort": 700000,
            "type": "action"
        },
        {
            "_id": "TjOmyfilNvHKI58M",
            "data": {
                "actionCategory": {
                    "value": "interaction"
                },
                "actionType": {
                    "value": "passive"
                },
                "actions": {
                    "value": null
                },
                "description": {
                    "value": "<p>The vampire's presence brings forth creatures of the night to do the master's bidding. These typically include @Compendium[pf2ettw.pathfinder-bestiary.Rat Swarm]{Rat Swarms}, @Compendium[pf2ettw.pathfinder-bestiary.Vampire Bat Swarm]{Bat Swarms}, and @Compendium[pf2ettw.pathfinder-bestiary.Wolf]{Wolves}, but can include other creatures.</p>\n<p>The vampire can give telepathic orders to these creatures as long as they are within 100 feet, but they can't communicate back.</p>"
                },
                "requirements": {
                    "value": ""
                },
                "rules": [],
                "slug": "vampire-true-children-of-the-night",
                "source": {
                    "value": "Pathfinder Bestiary"
                },
                "traits": {
                    "custom": "",
                    "rarity": "common",
                    "value": [
                        "divine",
                        "enchantment",
                        "mental"
                    ]
                },
                "trigger": {
                    "value": ""
                },
                "weapon": {
                    "value": ""
                }
            },
            "flags": {
                "core": {
                    "sourceId": "Compendium.pf2ettw.bestiary-family-ability-glossary.noOXyIXmwYN2rRd1"
                }
            },
            "img": "systems/pf2ettw/icons/actions/Passive.webp",
            "name": "Children of the Night",
            "sort": 800000,
            "type": "action"
        },
        {
            "_id": "KeTrwbKWih6HyuoM",
            "data": {
                "actionCategory": {
                    "value": "defensive"
                },
                "actionType": {
                    "value": "passive"
                },
                "actions": {
                    "value": null
                },
                "description": {
                    "value": "<p>@Localize[pf2ettw.NPC.Abilities.Glossary.FastHealing]</p>"
                },
                "requirements": {
                    "value": ""
                },
                "rules": [],
                "slug": "fast-healing",
                "source": {
                    "value": "Pathfinder Bestiary"
                },
                "traits": {
                    "custom": "",
                    "rarity": "common",
                    "value": []
                },
                "trigger": {
                    "value": ""
                },
                "weapon": {
                    "value": ""
                }
            },
            "flags": {
                "core": {
                    "sourceId": "Compendium.pf2ettw.bestiary-ability-glossary-srd.fJSNOw4zHGbIm4bZ"
                }
            },
            "img": "systems/pf2ettw/icons/actions/Passive.webp",
            "name": "Fast Healing 7",
            "sort": 900000,
            "type": "action"
        },
        {
            "_id": "0w3FhoNrrNel3ZcH",
            "data": {
                "actionCategory": {
                    "value": "defensive"
                },
                "actionType": {
                    "value": "passive"
                },
                "actions": {
                    "value": null
                },
                "description": {
                    "value": "<p>@Localize[pf2ettw.NPC.Abilities.Glossary.NegativeHealing]</p>"
                },
                "requirements": {
                    "value": ""
                },
                "rules": [
                    {
                        "key": "ActiveEffectLike",
                        "mode": "override",
                        "path": "data.attributes.hp.negativeHealing",
                        "value": true
                    }
                ],
                "slug": "negative-healing",
                "source": {
                    "value": "Pathfinder Bestiary 2"
                },
                "traits": {
                    "custom": "",
                    "rarity": "common",
                    "value": []
                },
                "trigger": {
                    "value": ""
                },
                "weapon": {
                    "value": ""
                }
            },
            "flags": {
                "core": {
                    "sourceId": "Compendium.pf2ettw.bestiary-ability-glossary-srd.TTCw5NusiSSkJU1x"
                }
            },
            "img": "systems/pf2ettw/icons/actions/Passive.webp",
            "name": "Negative Healing",
            "sort": 1000000,
            "type": "action"
        },
        {
            "_id": "gRQ32Y4BWrQbWOlS",
            "data": {
                "actionCategory": {
                    "value": "defensive"
                },
                "actionType": {
                    "value": "passive"
                },
                "actions": {
                    "value": null
                },
                "description": {
                    "value": "<p>Unlike other undead, a vampire isn't destroyed at 0 HP. Instead, it falls @Compendium[pf2ettw.conditionitems.Unconscious]{Unconscious}. If its body rests in its coffin for 1 hour, the vampire gains 1 HP, after which its @Compendium[pf2ettw.bestiary-ability-glossary-srd.Fast Healing]{Fast Healing} begins to function normally.</p>"
                },
                "requirements": {
                    "value": ""
                },
                "rules": [],
                "slug": "vampire-basic-coffin-restoration",
                "source": {
                    "value": "Pathfinder Bestiary"
                },
                "traits": {
                    "custom": "",
                    "rarity": "common",
                    "value": [
                        "divine",
                        "necromancy",
                        "negative"
                    ]
                },
                "trigger": {
                    "value": ""
                },
                "weapon": {
                    "value": ""
                }
            },
            "flags": {
                "core": {
                    "sourceId": "Compendium.pf2ettw.bestiary-family-ability-glossary.FXHjmH1oce7Z3tZb"
                }
            },
            "img": "systems/pf2ettw/icons/actions/Passive.webp",
            "name": "Coffin Restoration",
            "sort": 1100000,
            "type": "action"
        },
        {
            "_id": "iuyYNQtDMprDDoZH",
            "data": {
                "actionCategory": {
                    "value": "defensive"
                },
                "actionType": {
                    "value": "free"
                },
                "actions": {
                    "value": null
                },
                "deathNote": true,
                "description": {
                    "value": "<p><strong>Trigger</strong> The vampire is reduced to 0 HP.</p>\n<hr />\n<p><strong>Effect</strong> The vampire uses Turn to Mist. It can take move actions to move toward its coffin even though it's at 0 HP. While at 0 HP in this form, the vampire is unaffected by further damage.</p>\n<p>It automatically returns to its corporeal form, unconscious, if it reaches its coffin or after 2 hours, whichever comes first.</p>"
                },
                "requirements": {
                    "value": ""
                },
                "rules": [],
                "slug": "vampire-true-mist-escape",
                "source": {
                    "value": "Pathfinder Bestiary"
                },
                "traits": {
                    "custom": "",
                    "rarity": "common",
                    "value": []
                },
                "trigger": {
                    "value": ""
                },
                "weapon": {
                    "value": ""
                }
            },
            "flags": {
                "core": {
                    "sourceId": "Compendium.pf2ettw.bestiary-family-ability-glossary.sAyR4uJbsWukZFZf"
                }
            },
            "img": "systems/pf2ettw/icons/actions/FreeAction.webp",
            "name": "Mist Escape",
            "sort": 1200000,
            "type": "action"
        },
        {
            "_id": "OgOkCo3ZpgcUbZr1",
            "data": {
                "actionCategory": {
                    "value": "defensive"
                },
                "actionType": {
                    "value": "passive"
                },
                "actions": {
                    "value": null
                },
                "description": {
                    "value": "<p>All vampires possess the following weaknesses.</p>\n<ul>\n<li><strong>Compulsions</strong> Vampires are creatures of strange and unknowable compulsions. A typical vampire can't voluntarily cross running water unless it is transported while it hides within its coffin, nor can it enter a private dwelling unless invited in by someone with the authority to do so. At your discretion, vampires might have different compulsions-a pirate vampire might not be able to set foot on solid ground without being invited, for example. The vampire can still be forced to do these things and might be able to overcome its compulsion just as it does its revulsion.</li>\n<li><strong>Revulsion</strong> A vampire can't voluntarily come within 10 feet of brandished garlic or a brandished religious symbol of a non-evil deity. To brandish garlic or a religious symbol, a creature must Interact to do so for 1 round (similar to Raising a Shield). If the vampire involuntarily comes within 10 feet of an object of its revulsion, it gains the @Compendium[pf2ettw.conditionitems.Fleeing]{Fleeing} condition, running from the object of its revulsion until it ends an action beyond 10 feet. After 1 round of being exposed to the subject of its revulsion, a vampire can attempt a @Check[type:will|dc:25|name:Overcome Revulsion] save as a single action, which has the concentrate trait. On a success, it overcomes its revulsions for [[/br 1d6 #rounds]]{1d6 rounds} (or 1 hour on a critical success).</li>\n<li><strong>Stake</strong> A wooden stake driven through a vampire's heart drops the vampire to 0 HP and prevents it from healing above 0 HP, even in its coffin. Staking a vampire requires three actions and works only if the vampire is unconscious. If the stake is removed, the vampire can heal above 0 HP again, and if it's in its coffin the 1-hour rest period begins once the stake is removed. If the vampire's head is severed and anointed with <em>@Compendium[pf2ettw.equipment-srd.Holy Water]{Holy Water}</em> while the stake is in place, the vampire is destroyed.</li>\n<li><strong>Sunlight</strong> If exposed to direct sunlight, a vampire immediately becomes @Compendium[pf2ettw.conditionitems.Slowed]{Slowed 1}. The slowed value increases by 1 each time the vampire ends its turn in sunlight. If the vampire loses all its actions in this way, it is destroyed. Due to their supernatural aversion to light, vampires don't cast shadows or show a reflection in mirrors.</li>\n</ul>"
                },
                "requirements": {
                    "value": "Pathfinder Bestiary"
                },
                "rules": [],
                "slug": "vampire-basic-vampire-weaknesses",
                "source": {
                    "value": ""
                },
                "traits": {
                    "custom": "",
                    "rarity": "common",
                    "value": []
                },
                "trigger": {
                    "value": ""
                },
                "weapon": {
                    "value": ""
                }
            },
            "flags": {
                "core": {
                    "sourceId": "Compendium.pf2ettw.bestiary-family-ability-glossary.5DuBTf37u88IrphJ"
                }
            },
            "img": "systems/pf2ettw/icons/actions/Passive.webp",
            "name": "Vampire Weaknesses",
            "sort": 1300000,
            "type": "action"
        },
        {
            "_id": "QpzMidSalFaHGivw",
            "data": {
                "actionCategory": {
                    "value": "offensive"
                },
                "actionType": {
                    "value": "action"
                },
                "actions": {
                    "value": 1
                },
                "description": {
                    "value": "<p>The vampire transforms into its animal form or back into its normal form.</p>\n<ul>\n<li><strong>Bat</strong> The vampire changes into a @Compendium[pf2ettw.pathfinder-bestiary.Giant Bat]{Giant Bat}</li>\n<ul>\n<li><strong>Size</strong> Large</li>\n<li><strong>Senses</strong> Echolocation 40 feet</li>\n<li><strong>Speed</strong> 20 feet, fly 30 feet</li>\n<li><strong>Melee</strong> fangs [[/r 1d20+15 #Fangs]]{+15}/[[/r 1d20+10 #Fangs]]{+10}/[[/r 1d20+5 #Fangs]]{+5}, <strong>Damage</strong> [[/r {1d8+9}[piercing]]]{1d8+9 piercing damage}</li>\n</ul>\n</ul>\n<hr />\n<p>@Localize[pf2ettw.NPC.Abilities.Glossary.ChangeShape]</p>"
                },
                "requirements": {
                    "value": "Pathfinder Bestiary"
                },
                "rules": [],
                "slug": "vampire-true-change-shape",
                "source": {
                    "value": ""
                },
                "traits": {
                    "custom": "",
                    "rarity": "common",
                    "value": [
                        "concentrate",
                        "divine",
                        "polymorph",
                        "transmutation"
                    ]
                },
                "trigger": {
                    "value": ""
                },
                "weapon": {
                    "value": ""
                }
            },
            "flags": {
                "core": {
                    "sourceId": "Compendium.pf2ettw.bestiary-family-ability-glossary.ZMTnwyXjyfy7Ryi6"
                }
            },
            "img": "systems/pf2ettw/icons/actions/OneAction.webp",
            "name": "Change Shape",
            "sort": 1400000,
            "type": "action"
        },
        {
            "_id": "jnZDE6piOq3rzmdg",
            "data": {
                "actionCategory": {
                    "value": "offensive"
                },
                "actionType": {
                    "value": "passive"
                },
                "actions": {
                    "value": null
                },
                "description": {
                    "value": "<p>If a creature dies after being reduced to 0 HP by Drink Blood, the vampire can turn this victim into a vampire by donating some of its own blood to the victim and burying the victim in earth for 3 nights.</p>\n<p>If the new vampire is lower level than its creator, it is under the creator's control. If a vampire controls too many spawn at once (as determined by the GM), strong-willed spawn can free themselves by succeeding at a @Check[type:will|dc:22|name:Escape Thralldom] saving throw against the vampire's Will DC.</p>"
                },
                "requirements": {
                    "value": ""
                },
                "rules": [],
                "slug": "vampire-true-create-spawn",
                "source": {
                    "value": "Pathfinder Bestiary"
                },
                "traits": {
                    "custom": "",
                    "rarity": "common",
                    "value": [
                        "divine",
                        "downtime",
                        "necromancy"
                    ]
                },
                "trigger": {
                    "value": ""
                },
                "weapon": {
                    "value": ""
                }
            },
            "flags": {
                "core": {
                    "sourceId": "Compendium.pf2ettw.bestiary-family-ability-glossary.wqptDG0IW6ExnISC"
                }
            },
            "img": "systems/pf2ettw/icons/actions/Passive.webp",
            "name": "Create Spawn",
            "sort": 1500000,
            "type": "action"
        },
        {
            "_id": "AWS8p85NHI3IGL2n",
            "data": {
                "actionCategory": {
                    "value": "offensive"
                },
                "actionType": {
                    "value": "action"
                },
                "actions": {
                    "value": 2
                },
                "description": {
                    "value": "<p>The vampire can cast <em>@Compendium[pf2ettw.spells-srd.Dominate]{Dominate}</em> at will as a divine innate spell. Casting it requires staring into the target's eyes, giving the spell the visual trait. The save DC uses the DC of the vampire's level, and a creature that succeeds is temporarily immune to that vampire's Dominate for 24 hours.</p>\n<p>Fully destroying the vampire ends the domination, but merely reducing the vampire to 0 HP is insufficient to break the spell.</p>"
                },
                "requirements": {
                    "value": ""
                },
                "rules": [],
                "slug": "vampire-true-dominate",
                "source": {
                    "value": "Pathfinder Bestiary"
                },
                "traits": {
                    "custom": "",
                    "rarity": "common",
                    "value": [
                        "divine",
                        "enchantment",
                        "incapacitation",
                        "mental",
                        "visual"
                    ]
                },
                "trigger": {
                    "value": ""
                },
                "weapon": {
                    "value": ""
                }
            },
            "flags": {
                "core": {
                    "sourceId": "Compendium.pf2ettw.bestiary-family-ability-glossary.AjTkksppymqzCivT"
                }
            },
            "img": "systems/pf2ettw/icons/actions/TwoActions.webp",
            "name": "Dominate",
            "sort": 1600000,
            "type": "action"
        },
        {
            "_id": "KESgZ7EFPclSlLY8",
            "data": {
                "actionCategory": {
                    "value": "offensive"
                },
                "actionType": {
                    "value": "action"
                },
                "actions": {
                    "value": 1
                },
                "description": {
                    "value": "<p><strong>Requirement</strong> A @Compendium[pf2ettw.conditionitems.Grabbed]{Grabbed}, @Compendium[pf2ettw.conditionitems.Paralyzed]{Paralyzed}, @Compendium[pf2ettw.conditionitems.Restrained]{Restrained}, @Compendium[pf2ettw.conditionitems.Unconscious]{Unconscious}, or willing creature is within the vampire's reach.</p>\n<hr />\n<p><strong>Effect</strong> The vampire sinks its fangs into that creature to drink its blood. This requires an Athletics check against the victim's Fortitude DC if the victim is grabbed and is automatic for any of the other conditions.</p>\n<p>The victim is @Compendium[pf2ettw.conditionitems.Drained]{Drained 2} and the vampire regains [[/r {10}[healing]]]{10 Hit Points}, gaining any excess HP as temporary Hit Points. Drinking Blood from a creature that's already drained doesn't restore any HP to the vampire but increases the victim's drain value by 1. A vampire can also consume blood that's been emptied into a vessel for sustenance, but it gains no HP from doing so.</p>\n<p>A victim's drained condition decreases by 1 per week. A blood transfusion, which requires a @Check[type:medicine|dc:20|name:Blood Transfusion] check and sufficient blood or a blood donor, reduces the drain by 1 after 10 minutes.</p>"
                },
                "requirements": {
                    "value": ""
                },
                "rules": [],
                "slug": "vampire-true-drink-blood",
                "source": {
                    "value": "Pathfinder Bestiary"
                },
                "traits": {
                    "custom": "",
                    "rarity": "common",
                    "value": [
                        "divine",
                        "necromancy"
                    ]
                },
                "trigger": {
                    "value": ""
                },
                "weapon": {
                    "value": ""
                }
            },
            "flags": {
                "core": {
                    "sourceId": "Compendium.pf2ettw.bestiary-family-ability-glossary.XHut4MN0JBgm7WaN"
                }
            },
            "img": "systems/pf2ettw/icons/actions/OneAction.webp",
            "name": "Drink Blood",
            "sort": 1700000,
            "type": "action"
        },
        {
            "_id": "AVpXnwBBGoOo68pw",
            "data": {
                "actionCategory": {
                    "value": "offensive"
                },
                "actionType": {
                    "value": "action"
                },
                "actions": {
                    "value": 1
                },
                "description": {
                    "value": "<p>The vampire turns into a cloud of vapor, as the <em>@Compendium[pf2ettw.spells-srd.Gaseous Form]{Gaseous Form}</em> spell, or back to its normal form. The vampire loses @Compendium[pf2ettw.bestiary-ability-glossary-srd.Fast Healing]{Fast Healing} while in gaseous form.</p>\n<p>The vampire can remain in this form indefinitely.</p>"
                },
                "requirements": {
                    "value": ""
                },
                "rules": [],
                "slug": "vampire-true-turn-to-mist",
                "source": {
                    "value": "Pathfinder Bestiary"
                },
                "traits": {
                    "custom": "",
                    "rarity": "common",
                    "value": [
                        "concentrate",
                        "divine",
                        "transmutation"
                    ]
                },
                "trigger": {
                    "value": ""
                },
                "weapon": {
                    "value": ""
                }
            },
            "flags": {
                "core": {
                    "sourceId": "Compendium.pf2ettw.bestiary-family-ability-glossary.Nnl5wg6smOzieTop"
                }
            },
            "img": "systems/pf2ettw/icons/actions/OneAction.webp",
            "name": "Turn to Mist",
            "sort": 1800000,
            "type": "action"
        },
        {
            "_id": "JUgPxjF2b7DYZwEu",
            "data": {
                "actionCategory": {
                    "value": "offensive"
                },
                "actionType": {
                    "value": "action"
                },
                "actions": {
                    "value": 1
                },
                "description": {
                    "value": "<p>@Localize[pf2ettw.NPC.Abilities.Glossary.Grab]</p>"
                },
                "requirements": {
                    "value": ""
                },
                "rules": [],
                "slug": "grab",
                "source": {
                    "value": "Pathfinder Bestiary"
                },
                "traits": {
                    "custom": "",
                    "rarity": "common",
                    "value": []
                },
                "trigger": {
                    "value": ""
                },
                "weapon": {
                    "value": ""
                }
            },
            "flags": {
                "core": {
                    "sourceId": "Compendium.pf2ettw.bestiary-ability-glossary-srd.Tkd8sH4pwFIPzqTr"
                }
            },
            "img": "systems/pf2ettw/icons/actions/OneAction.webp",
            "name": "Grab",
            "sort": 1900000,
            "type": "action"
        },
        {
            "_id": "vZ1OrzwjKPUoKEMn",
            "data": {
                "description": {
                    "value": ""
                },
                "mod": {
                    "value": 13
                },
                "proficient": {
                    "value": 0
                },
                "rules": [],
                "slug": null,
                "source": {
                    "value": ""
                },
                "traits": {
                    "custom": "",
                    "rarity": "common",
                    "value": []
                }
            },
            "img": "systems/pf2ettw/icons/default-icons/lore.svg",
            "name": "Acrobatics",
            "sort": 2000000,
            "type": "lore"
        },
        {
            "_id": "89qMVolXaNuTdLvF",
            "data": {
                "description": {
                    "value": ""
                },
                "mod": {
                    "value": 15
                },
                "proficient": {
                    "value": 0
                },
                "rules": [],
                "slug": null,
                "source": {
                    "value": ""
                },
                "traits": {
                    "custom": "",
                    "rarity": "common",
                    "value": []
                }
            },
            "img": "systems/pf2ettw/icons/default-icons/lore.svg",
            "name": "Athletics",
            "sort": 2100000,
            "type": "lore"
        },
        {
            "_id": "CtCd0sUGvUKkHkgn",
            "data": {
                "description": {
                    "value": ""
                },
                "mod": {
                    "value": 14
                },
                "proficient": {
                    "value": 0
                },
                "rules": [],
                "slug": null,
                "source": {
                    "value": ""
                },
                "traits": {
                    "custom": "",
                    "rarity": "common",
                    "value": []
                }
            },
            "img": "systems/pf2ettw/icons/default-icons/lore.svg",
            "name": "Deception",
            "sort": 2200000,
            "type": "lore"
        },
        {
            "_id": "fLo8uFsftExYIRgA",
            "data": {
                "description": {
                    "value": ""
                },
                "mod": {
                    "value": 14
                },
                "proficient": {
                    "value": 0
                },
                "rules": [],
                "slug": null,
                "source": {
                    "value": ""
                },
                "traits": {
                    "custom": "",
                    "rarity": "common",
                    "value": []
                }
            },
            "img": "systems/pf2ettw/icons/default-icons/lore.svg",
            "name": "Diplomacy",
            "sort": 2300000,
            "type": "lore"
        },
        {
            "_id": "vvKUuEO1v0PbUCgS",
            "data": {
                "description": {
                    "value": ""
                },
                "mod": {
                    "value": 16
                },
                "proficient": {
                    "value": 0
                },
                "rules": [],
                "slug": null,
                "source": {
                    "value": ""
                },
                "traits": {
                    "custom": "",
                    "rarity": "common",
                    "value": []
                }
            },
            "img": "systems/pf2ettw/icons/default-icons/lore.svg",
            "name": "Intimidation",
            "sort": 2400000,
            "type": "lore"
        },
        {
            "_id": "9PrR48XhuDQhEg8V",
            "data": {
                "description": {
                    "value": ""
                },
                "mod": {
                    "value": 14
                },
                "proficient": {
                    "value": 0
                },
                "rules": [],
                "slug": null,
                "source": {
                    "value": ""
                },
                "traits": {
                    "custom": "",
                    "rarity": "common",
                    "value": []
                }
            },
            "img": "systems/pf2ettw/icons/default-icons/lore.svg",
            "name": "Society",
            "sort": 2500000,
            "type": "lore"
        },
        {
            "_id": "jGA2mmy3aNl6V6ZK",
            "data": {
                "description": {
                    "value": ""
                },
                "mod": {
                    "value": 13
                },
                "proficient": {
                    "value": 0
                },
                "rules": [],
                "slug": null,
                "source": {
                    "value": ""
                },
                "traits": {
                    "custom": "",
                    "rarity": "common",
                    "value": []
                }
            },
            "img": "systems/pf2ettw/icons/default-icons/lore.svg",
            "name": "Stealth",
            "sort": 2600000,
            "type": "lore"
        }
    ],
    "name": "Vampire Count",
    "token": {
        "disposition": -1,
        "height": 1,
        "img": "systems/pf2ettw/icons/default-icons/npc.svg",
        "name": "Vampire Count",
        "width": 1
    },
    "type": "npc"
}
