{
    "_id": "g4CRjb2zS1pkVDbk",
    "data": {
        "badge": null,
        "description": {
            "value": "<p>The creature takes a –10-foot status penalty to all its Speeds.</p>"
        },
        "duration": {
            "expiry": "turn-start",
            "sustained": false,
            "unit": "minutes",
            "value": 1
        },
        "level": {
            "value": 19
        },
        "rules": [
            {
                "key": "FlatModifier",
                "selector": "speed",
                "type": "status",
                "value": -10
            }
        ],
        "source": {
            "value": "Pathfinder Bestiary"
        },
        "start": {
            "initiative": null,
            "value": 0
        },
        "target": null,
        "tokenIcon": {
            "show": true
        },
        "traits": {
            "custom": "",
            "rarity": "common",
            "value": []
        }
    },
    "img": "systems/pf2ettw/icons/spells/energy-absorption.webp",
    "name": "Effect: Sticky Spores",
    "type": "effect"
}
