{
    "_id": "6E8bOkwFzFuQ3ZAw",
    "data": {
        "badge": null,
        "description": {
            "value": "<p>The creature sheds bright light in a 20-foot emanation for the duration of the effect.</p>"
        },
        "duration": {
            "expiry": "turn-start",
            "sustained": false,
            "unit": "minutes",
            "value": 1
        },
        "level": {
            "value": 5
        },
        "rules": [
            {
                "key": "TokenLight",
                "value": {
                    "animation": {
                        "intensity": 1,
                        "speed": 2,
                        "type": "torch"
                    },
                    "bright": 20
                }
            }
        ],
        "source": {
            "value": "Pathfinder Bestiary 2"
        },
        "start": {
            "initiative": null,
            "value": 0
        },
        "target": null,
        "tokenIcon": {
            "show": true
        },
        "traits": {
            "custom": "",
            "rarity": "common",
            "value": []
        }
    },
    "img": "systems/pf2ettw/icons/spells/light.webp",
    "name": "Effect: Lurker's Glow (Critical Failure)",
    "type": "effect"
}
