{
    "_id": "wPW6kVscJgBLPVKZ",
    "data": {
        "badge": null,
        "description": {
            "value": "<p>The creature gains @Compendium[pf2ettw.bestiary-ability-glossary-srd.Fast Healing]{Fast Healing 5} and a +2 status bonus to damage rolls.</p>"
        },
        "duration": {
            "expiry": "turn-start",
            "sustained": false,
            "unit": "minutes",
            "value": 1
        },
        "level": {
            "value": 5
        },
        "rules": [
            {
                "key": "GrantItem",
                "uuid": "Compendium.pf2ettw.bestiary-ability-glossary-srd.Fast Healing"
            },
            {
                "key": "FlatModifier",
                "selector": "damage",
                "type": "status",
                "value": 2
            }
        ],
        "source": {
            "value": "Pathfinder Bestiary 2"
        },
        "start": {
            "initiative": null,
            "value": 0
        },
        "target": null,
        "tokenIcon": {
            "show": true
        },
        "traits": {
            "custom": "",
            "rarity": "common",
            "value": []
        }
    },
    "img": "systems/pf2ettw/icons/spells/gluttons-jaw.webp",
    "name": "Effect: Ghonhatine Feed",
    "type": "effect"
}
