{
    "_id": "o0zqsH5kYopRanav",
    "data": {
        "description": {
            "value": "<p>The creature takes a 10-foot circumstance penalty to Speed.</p>"
        },
        "duration": {
            "expiry": "turn-start",
            "sustained": false,
            "unit": "unlimited",
            "value": -1
        },
        "level": {
            "value": 8
        },
        "rules": [
            {
                "key": "FlatModifier",
                "selector": "speed",
                "type": "circumstance",
                "value": -10
            }
        ],
        "source": {
            "value": "Pathfinder Bestiary"
        },
        "start": {
            "initiative": null,
            "value": 0
        },
        "target": null,
        "tokenIcon": {
            "show": true
        },
        "traits": {
            "custom": "",
            "rarity": "common",
            "value": []
        }
    },
    "img": "systems/pf2ettw/icons/spells/animate-rope.webp",
    "name": "Effect: Rope Snare",
    "type": "effect"
}
