{
    "_id": "TEzLEXBZzNCp6flg",
    "data": {
        "badge": null,
        "description": {
            "value": "<p>The creature gains a +1 circumstance bonus to attack rolls.</p>"
        },
        "duration": {
            "expiry": "turn-start",
            "sustained": false,
            "unit": "minutes",
            "value": 1
        },
        "level": {
            "value": 2
        },
        "rules": [
            {
                "key": "FlatModifier",
                "selector": "attack",
                "type": "circumstance",
                "value": 1
            }
        ],
        "source": {
            "value": "Pathfinder Bestiary 2"
        },
        "start": {
            "initiative": null,
            "value": 0
        },
        "target": null,
        "tokenIcon": {
            "show": true
        },
        "traits": {
            "custom": "",
            "rarity": "common",
            "value": []
        }
    },
    "img": "systems/pf2ettw/icons/spells/weapon-surge.webp",
    "name": "Effect: Instinctual Tinker (Critical Success)",
    "type": "effect"
}
