{
    "_id": "yQd2Yoht8libCMCv",
    "data": {
        "badge": null,
        "description": {
            "value": "<p>Whenever the creature attempts a specific type of saving throw, it rolls twice and takes the higher result. The type of saving throw is determined by the suit that featured most prominently in the harrow reading: Fortitude (Hammers or Shields), Reflex (Keys or Books), or Will (Stars or Crowns)</p>"
        },
        "duration": {
            "expiry": "turn-start",
            "sustained": false,
            "unit": "unlimited",
            "value": -1
        },
        "level": {
            "value": 4
        },
        "rules": [
            {
                "adjustName": true,
                "choices": [
                    {
                        "label": "pf2ettw.SpecificRule.HarrowDeck.HarrowSuits.Books",
                        "value": "books"
                    },
                    {
                        "label": "pf2ettw.SpecificRule.HarrowDeck.HarrowSuits.Crowns",
                        "value": "crowns"
                    },
                    {
                        "label": "pf2ettw.SpecificRule.HarrowDeck.HarrowSuits.Hammers",
                        "value": "hammers"
                    },
                    {
                        "label": "pf2ettw.SpecificRule.HarrowDeck.HarrowSuits.Keys",
                        "value": "keys"
                    },
                    {
                        "label": "pf2ettw.SpecificRule.HarrowDeck.HarrowSuits.Shields",
                        "value": "shields"
                    },
                    {
                        "label": "pf2ettw.SpecificRule.HarrowDeck.HarrowSuits.Stars",
                        "value": "stars"
                    }
                ],
                "flag": "harrowSuit",
                "key": "ChoiceSet",
                "prompt": "pf2ettw.SpecificRule.HarrowDeck.Prompt",
                "rollOption": "harrow-doll:harrow-suit"
            },
            {
                "keep": "higher",
                "key": "RollTwice",
                "predicate": {
                    "any": [
                        "harrow-doll:harrow-suit:hammers",
                        "harrow-doll:harrow-suit:shields"
                    ]
                },
                "selector": "fortitude"
            },
            {
                "keep": "higher",
                "key": "RollTwice",
                "predicate": {
                    "any": [
                        "harrow-doll:harrow-suit:keys",
                        "harrow-doll:harrow-suit:books"
                    ]
                },
                "selector": "reflex"
            },
            {
                "keep": "higher",
                "key": "RollTwice",
                "predicate": {
                    "any": [
                        "harrow-doll:harrow-suit:stars",
                        "harrow-doll:harrow-suit:crowns"
                    ]
                },
                "selector": "will"
            }
        ],
        "source": {
            "value": "Pathfinder #154: Siege of the Dinosaurs"
        },
        "start": {
            "initiative": null,
            "value": 0
        },
        "target": null,
        "tokenIcon": {
            "show": true
        },
        "traits": {
            "custom": "",
            "rarity": "common",
            "value": []
        }
    },
    "img": "systems/pf2ettw/icons/spells/shadow-illusion.webp",
    "name": "Effect: Fortune's Favor",
    "type": "effect"
}
