{
    "_id": "2ccLQxmTlTPySnOR",
    "data": {
        "badge": null,
        "description": {
            "value": "<p>The target takes a -2 circumstance penalty to its attack rolls and DCs against a creature it would not normally attack.</p>\n<hr />\n<p><em>Note: This effect applies a penalty to all rolls and DCs while active.</em></p>"
        },
        "duration": {
            "expiry": "turn-start",
            "sustained": false,
            "unit": "rounds",
            "value": 1
        },
        "level": {
            "value": 1
        },
        "rules": [
            {
                "key": "FlatModifier",
                "selector": "all",
                "type": "circumstance",
                "value": -2
            }
        ],
        "source": {
            "value": ""
        },
        "start": {
            "initiative": null,
            "value": 0
        },
        "target": null,
        "tokenIcon": {
            "show": true
        },
        "traits": {
            "custom": "",
            "rarity": "common",
            "value": []
        }
    },
    "img": "systems/pf2ettw/icons/features/classes/infinite-invention.webp",
    "name": "Effect: Technology Control",
    "type": "effect"
}
