{
    "_id": "Vz9Cb8FEzNwfH3mE",
    "data": {
        "badge": null,
        "description": {
            "value": "<p>The creature deals an extra [[/r {2d6}[negative]]]{2d6 negative damage} with its weapon.</p>"
        },
        "duration": {
            "expiry": "turn-end",
            "sustained": false,
            "unit": "rounds",
            "value": 1
        },
        "level": {
            "value": 7
        },
        "rules": [
            {
                "damageType": "negative",
                "diceNumber": 2,
                "dieSize": "d6",
                "key": "DamageDice",
                "selector": "strike-damage"
            }
        ],
        "source": {
            "value": "Pathfinder Gamemastery Guide"
        },
        "start": {
            "initiative": null,
            "value": 0
        },
        "target": null,
        "tokenIcon": {
            "show": true
        },
        "traits": {
            "custom": "",
            "rarity": "common",
            "value": []
        }
    },
    "img": "systems/pf2ettw/icons/spells/aberrant-whispers.webp",
    "name": "Effect: Breach the Abyss - Negative",
    "type": "effect"
}
