{
    "_id": "UxNq9uo1GpDYTi5Z",
    "data": {
        "badge": null,
        "description": {
            "value": "<p>While waterlogged, the berberoka can use Spray Water, their size grows to Gargantuan, and their Speed is reduced to 15 feet.</p>"
        },
        "duration": {
            "expiry": "turn-start",
            "sustained": false,
            "unit": "unlimited",
            "value": -1
        },
        "level": {
            "value": 1
        },
        "rules": [
            {
                "key": "CreatureSize",
                "value": "gargantuan"
            },
            {
                "key": "BaseSpeed",
                "selector": "swim-speed",
                "value": 15
            },
            {
                "key": "BaseSpeed",
                "selector": "land-speed",
                "value": 15
            }
        ],
        "source": {
            "value": ""
        },
        "start": {
            "initiative": null,
            "value": 0
        },
        "target": null,
        "tokenIcon": {
            "show": true
        },
        "traits": {
            "custom": "",
            "rarity": "common",
            "value": []
        }
    },
    "img": "systems/pf2ettw/icons/spells/mariners-curse.webp",
    "name": "Effect: Waterlogged",
    "type": "effect"
}
