{
    "_id": "BmAw66zEkifSvOtg",
    "data": {
        "badge": null,
        "description": {
            "value": "<p>The creature takes a -1 status penalty to AC and saves, reduces its resistances by 2, and gains weakness 2 to good damage.</p>"
        },
        "duration": {
            "expiry": "turn-start",
            "sustained": false,
            "unit": "unlimited",
            "value": -1
        },
        "level": {
            "value": 8
        },
        "rules": [
            {
                "key": "FlatModifier",
                "selector": "ac",
                "type": "status",
                "value": -1
            },
            {
                "key": "FlatModifier",
                "selector": "saving-throw",
                "type": "status",
                "value": -1
            },
            {
                "key": "Weakness",
                "type": "good",
                "value": 2
            }
        ],
        "source": {
            "value": "Pathfinder Bestiary"
        },
        "start": {
            "initiative": null,
            "value": 0
        },
        "target": null,
        "tokenIcon": {
            "show": true
        },
        "traits": {
            "custom": "",
            "rarity": "common",
            "value": []
        }
    },
    "img": "systems/pf2ettw/icons/spells/daydreamers-curse.webp",
    "name": "Effect: Brand of the Impenitent",
    "type": "effect"
}
