{
    "_id": "itVZwwvaXYN2zOR8",
    "data": {
        "badge": null,
        "description": {
            "value": "<p>The rake gains a +2 circumstance bonus to AC until the end of their next turn.</p>"
        },
        "duration": {
            "expiry": "turn-start",
            "sustained": false,
            "unit": "rounds",
            "value": 1
        },
        "level": {
            "value": 4
        },
        "rules": [
            {
                "key": "FlatModifier",
                "selector": "ac",
                "type": "circumstance",
                "value": 2
            }
        ],
        "source": {
            "value": "Pathfinder Book of the Dead"
        },
        "start": {
            "initiative": null,
            "value": 0
        },
        "target": null,
        "tokenIcon": {
            "show": true
        },
        "traits": {
            "custom": "",
            "rarity": "common",
            "value": []
        }
    },
    "img": "systems/pf2ettw/icons/equipment/weapons/rapier.webp",
    "name": "Effect: Parry Dance",
    "type": "effect"
}
