{
    "_id": "QoneHsjZKtGHWlam",
    "data": {
        "badge": null,
        "description": {
            "value": "<p>Living creatures must roll twice on all d20 rolls and use the lower result.</p>"
        },
        "duration": {
            "expiry": "turn-start",
            "sustained": false,
            "unit": "unlimited",
            "value": -1
        },
        "level": {
            "value": 10
        },
        "rules": [
            {
                "keep": "lower",
                "key": "RollTwice",
                "predicate": {
                    "all": [
                        "self:mode:living"
                    ]
                },
                "selector": "all"
            }
        ],
        "source": {
            "value": "Pathfinder Bestiary"
        },
        "start": {
            "initiative": null,
            "value": 0
        },
        "target": null,
        "tokenIcon": {
            "show": true
        },
        "traits": {
            "custom": "",
            "rarity": "common",
            "value": []
        }
    },
    "img": "systems/pf2ettw/icons/spells/drop-dead.webp",
    "name": "Effect: Aura of Misfortune",
    "type": "effect"
}
