{
    "_id": "i3942RucZD9OHbAE",
    "data": {
        "description": {
            "value": "<p>Living creatures in the emanation take a -2 status penalty to saves against fear and death effects.</p>"
        },
        "duration": {
            "expiry": "turn-start",
            "sustained": false,
            "unit": "unlimited",
            "value": -1
        },
        "level": {
            "value": 1
        },
        "rules": [
            {
                "key": "FlatModifier",
                "label": "Void Shroud",
                "predicate": {
                    "any": [
                        "death",
                        "fear"
                    ]
                },
                "selector": "saving-throw",
                "type": "status",
                "value": -2
            }
        ],
        "source": {
            "value": "Pathfinder Bestiary"
        },
        "start": {
            "initiative": null,
            "value": 0
        },
        "target": null,
        "tokenIcon": {
            "show": true
        },
        "traits": {
            "custom": "",
            "rarity": "common",
            "value": []
        }
    },
    "img": "systems/pf2ettw/icons/spells/fear.webp",
    "name": "Effect: Void Shroud",
    "type": "effect"
}
