{
    "_id": "VAy6IZ0ck7ALVL4b",
    "data": {
        "description": {
            "value": "<p>When the greatsword hits, the giant can Push the target back 10 feet, or 20 feet on a critical hit.</p>"
        },
        "duration": {
            "expiry": "turn-start",
            "sustained": false,
            "unit": "minutes",
            "value": 1
        },
        "level": {
            "value": 16
        },
        "rules": [
            {
                "key": "Note",
                "selector": "greatsword-attack",
                "text": "{item|data.description.value}",
                "title": "{item|name}"
            }
        ],
        "source": {
            "value": "Pathfinder Bestiary"
        },
        "start": {
            "initiative": null,
            "value": 0
        },
        "target": null,
        "tokenIcon": {
            "show": true
        },
        "traits": {
            "custom": "",
            "rarity": "common",
            "value": []
        }
    },
    "img": "systems/pf2ettw/icons/equipment/runes/weapon-property-runes/weapon-property-runes.webp",
    "name": "Effect: Rune of Smiting (Greatsword)",
    "type": "effect"
}
