{
    "_id": "HEbxDXXFXDTWAitt",
    "content": "<p>Play this after Casting a Spell.</p>\n<hr />\n<p>The spell's power reverberates in your mind. You can Cast this Spell one additional time without having it prepared or expending a spell slot. If you don't Cast the Spell by the end of your next turn, it is lost. After Casting the Spell again, you become @Compendium[pf2ettw.conditionitems.Stupefied]{Stupefied 2} for 1 minute.</p>",
    "name": "Magical Reverberation",
    "permission": {
        "default": 0
    }
}
