{
    "_id": "PdE41wSjGDbIrGzG",
    "content": "<p>Play at the start of a Stride.</p>\n<hr />\n<p>During the Stride, you must move in a straight line, but you can attempt to @Compendium[pf2ettw.actionspf2ettw.Shove]{Shove} any creature in your way, moving it to an adjacent space out of the way of your movement. Your multiple attack penalty doesn't apply to any of these free Shove attempts, nor do they increase your multiple attack penalty. If you fail to Shove a creature out of your way, your movement ends.</p>",
    "name": "Make Way!",
    "permission": {
        "default": 0
    }
}
