{
    "_id": "6JieVtNOk4ZVclcP",
    "content": "<p>Play when you are about to make your attack roll for a ranged Strike.</p>\n<hr />\n<p>If the path of the Strike goes through another creature's space before reaching the target, the target is @Compendium[pf2ettw.conditionitems.Flat-Footed]{Flat-Footed} against the attack, and the other creature doesn't provide cover.</p>",
    "name": "Shoot Through",
    "permission": {
        "default": 0
    }
}
