{
    "_id": "kuIJqFgeJyQcCfqc",
    "content": "<p>Play at the start of a creature's turn.</p>\n<hr />\n<p>That creature is @Compendium[pf2ettw.conditionitems.Quickened]{Quickened} on its turn and can use the extra action only to take a single action with the move trait.</p>",
    "name": "Surge of Speed",
    "permission": {
        "default": 0
    }
}
