{
    "_id": "vU3UnKWCRFhnvNLV",
    "data": {
        "attributes": {
            "ac": {
                "check": 0,
                "details": "",
                "value": 33
            },
            "collisionDC": {
                "value": 30
            },
            "collisionDamage": {
                "value": "8d12"
            },
            "hardness": 20,
            "hp": {
                "details": "",
                "max": 190,
                "temp": 0,
                "value": 190
            }
        },
        "details": {
            "AC": 0,
            "crew": "1 pilot, 2 crew",
            "description": "<p>This huge, magical clockwork rover moves on a continuous band of heavy treads, which make it easier to for the device to navigate across various adverse conditions. It contains magical clockwork birds which can transmit visual information back to the surveyor.</p>",
            "level": {
                "value": 14
            },
            "passengers": "7",
            "pilotingCheck": "Driving Lore (DC 32) or Crafting (DC 34)",
            "price": 13000,
            "space": {
                "high": 20,
                "long": 15,
                "wide": 15
            },
            "speed": "15 feet (clockwork, magical)"
        },
        "saves": {
            "fortitude": {
                "item": 0,
                "rank": 0,
                "saveDetail": "",
                "value": 25
            }
        },
        "source": {
            "value": "Pathfinder Guns & Gears"
        },
        "traits": {
            "ci": [],
            "di": {
                "custom": "",
                "value": [
                    "critical-hits",
                    "object-immunities",
                    "precision"
                ]
            },
            "dr": [],
            "dv": [],
            "rarity": "rare",
            "size": {
                "value": "huge"
            },
            "traits": {
                "custom": "",
                "value": []
            }
        }
    },
    "img": "systems/pf2ettw/icons/default-icons/vehicle.svg",
    "items": [
        {
            "_id": "DoCusD26UNQbmFNI",
            "data": {
                "actionCategory": {
                    "value": ""
                },
                "actionType": {
                    "value": "passive"
                },
                "actions": {
                    "value": null
                },
                "description": {
                    "value": "<p>This vehicle travels on a continuous band of heavy treads driven by a series of gears and wheels, enabling it to travel over rugged land with ease. Earth, rock, rubble, slopes, and underbrush are not difficult terrain to an ambling surveyor. The ambling surveyor ignores difficult terrain from earth, rock, rubble, slopes, and underbrush, and greater difficult terrain caused by those features is normal difficult terrain to the ambling surveyor.</p>"
                },
                "requirements": {
                    "value": ""
                },
                "rules": [],
                "slug": null,
                "source": {
                    "value": ""
                },
                "traits": {
                    "custom": "",
                    "rarity": "common",
                    "value": []
                },
                "trigger": {
                    "value": ""
                }
            },
            "img": "systems/pf2ettw/icons/actions/Passive.webp",
            "name": "Continous Track",
            "sort": 0,
            "type": "action"
        },
        {
            "_id": "Yr2rxvC8Hzmb70KZ",
            "data": {
                "actionCategory": {
                    "value": ""
                },
                "actionType": {
                    "value": "passive"
                },
                "actions": {
                    "value": null
                },
                "description": {
                    "value": "<p>This vehicle must move twice its length for each 90-degree turn it makes.</p>"
                },
                "requirements": {
                    "value": ""
                },
                "rules": [],
                "slug": null,
                "source": {
                    "value": ""
                },
                "traits": {
                    "custom": "",
                    "rarity": "common",
                    "value": []
                },
                "trigger": {
                    "value": ""
                }
            },
            "img": "systems/pf2ettw/icons/actions/Passive.webp",
            "name": "Sluggish",
            "sort": 0,
            "type": "action"
        },
        {
            "_id": "eXdF4IskaccqgTpS",
            "data": {
                "actionCategory": {
                    "value": ""
                },
                "actionType": {
                    "value": "passive"
                },
                "actions": {
                    "value": null
                },
                "description": {
                    "value": "<p><strong>Requirements</strong> The ambling surveyor is not in motion</p>\n<hr />\n<p><strong>Effect</strong> The pilot and crew release a collection of six clockwork birds, which spend two hours flying over the surrounding area within a 1-mile radius around the ambling surveyor. Everything the birds see is magically transmitted back to the ambling surveyor's crew as illusory images, which the crew must catalogue in real-time if they want to use the information to fully survey the area and create a map. After two hours, the birds return. The birds use the base statistics of a @Compendium[pf2ettw.pathfinder-bestiary-3.Clockwork Spy]{Clockwork Spy} if they are attacked, or if their Perception is important to determine what they can see, although they only perform the Survey action and they don't have any of the other abilities of a clockwork spy. Replacement birds cost 250 gp each.</p>"
                },
                "requirements": {
                    "value": ""
                },
                "rules": [],
                "slug": null,
                "source": {
                    "value": ""
                },
                "traits": {
                    "custom": "",
                    "rarity": "common",
                    "value": [
                        "concentrate",
                        "divination",
                        "exploration",
                        "magical",
                        "manipulate",
                        "visual"
                    ]
                },
                "trigger": {
                    "value": ""
                }
            },
            "img": "systems/pf2ettw/icons/actions/Passive.webp",
            "name": "Survey",
            "sort": 0,
            "type": "action"
        },
        {
            "_id": "R4Co971n6x5ZNJHd",
            "data": {
                "actionCategory": {
                    "value": ""
                },
                "actionType": {
                    "value": "passive"
                },
                "actions": {
                    "value": null
                },
                "description": {
                    "value": "<p>10 minutes of wind-up, 1 hour of operational time, DC 32, standby</p>"
                },
                "requirements": {
                    "value": ""
                },
                "rules": [],
                "slug": null,
                "source": {
                    "value": ""
                },
                "traits": {
                    "custom": "",
                    "rarity": "common",
                    "value": []
                },
                "trigger": {
                    "value": ""
                }
            },
            "img": "systems/pf2ettw/icons/actions/Passive.webp",
            "name": "Wind-Up",
            "sort": 0,
            "type": "action"
        }
    ],
    "name": "Ambling Surveyor",
    "token": {
        "disposition": 0,
        "height": 3,
        "img": "systems/pf2ettw/icons/default-icons/vehicle.svg",
        "name": "Ambling Surveyor",
        "width": 3
    },
    "type": "vehicle"
}
