{
    "_id": "oyKhe8J0h8G9IHE3",
    "data": {
        "attributes": {
            "ac": {
                "check": 0,
                "details": "",
                "value": 10
            },
            "collisionDC": {
                "value": 14
            },
            "collisionDamage": {
                "value": "2d4"
            },
            "hardness": 0,
            "hp": {
                "details": "",
                "max": 16,
                "temp": 0,
                "value": 16
            }
        },
        "details": {
            "AC": 0,
            "crew": "1 pilot",
            "description": "",
            "level": {
                "value": 0
            },
            "passengers": "0",
            "pilotingCheck": "Piloting Lore (DC 14) or Nature (DC 16)",
            "price": "15",
            "space": {
                "high": 2,
                "long": 5,
                "wide": 10
            },
            "speed": "fly 25 feet (wind)"
        },
        "saves": {
            "fortitude": {
                "item": 0,
                "rank": 0,
                "saveDetail": "",
                "value": 6
            }
        },
        "source": {
            "value": "Pathfinder Gamemastery Guide"
        },
        "traits": {
            "ci": [],
            "di": {
                "custom": "",
                "value": [
                    "critical-hits",
                    "object-immunities",
                    "precision"
                ]
            },
            "dr": [],
            "dv": [
                {
                    "label": "Fire",
                    "type": "fire",
                    "value": "5"
                }
            ],
            "rarity": "uncommon",
            "size": {
                "value": "lg"
            },
            "traits": {
                "custom": "",
                "value": []
            }
        }
    },
    "img": "systems/pf2ettw/icons/default-icons/vehicle.svg",
    "items": [
        {
            "_id": "Ix4GHIqSUqHawiG8",
            "data": {
                "actionCategory": {
                    "value": ""
                },
                "actionType": {
                    "value": "passive"
                },
                "actions": {
                    "value": null
                },
                "description": {
                    "value": "<p>The only way to launch a glider is to jump off a steep incline with favorable wind conditions. The glider is uncontrolled and falls 60 feet each round until the pilot successfully Takes Control. If the glider hits the ground before the pilot successfully @Compendium[pf2ettw.actionspf2ettw.Take Control]{Takes Control}, the pilot and the glider each take falling damage.</p>"
                },
                "requirements": {
                    "value": ""
                },
                "rules": [],
                "slug": null,
                "source": {
                    "value": ""
                },
                "traits": {
                    "custom": "",
                    "rarity": "common",
                    "value": []
                },
                "trigger": {
                    "value": ""
                },
                "weapon": {
                    "value": ""
                }
            },
            "img": "systems/pf2ettw/icons/actions/Passive.webp",
            "name": "Starting Drop",
            "sort": 0,
            "type": "action"
        }
    ],
    "name": "Glider",
    "token": {
        "disposition": 0,
        "height": 1,
        "img": "systems/pf2ettw/icons/default-icons/vehicle.svg",
        "name": "Glider",
        "width": 2
    },
    "type": "vehicle"
}
