{
    "_id": "Cr4T0TcaxMr3bUaj",
    "data": {
        "attributes": {
            "ac": {
                "check": 0,
                "details": "",
                "value": 23
            },
            "collisionDC": {
                "value": 27
            },
            "collisionDamage": {
                "value": "7d10"
            },
            "hardness": 15,
            "hp": {
                "details": "",
                "max": 130,
                "temp": 0,
                "value": 130
            }
        },
        "details": {
            "AC": 0,
            "crew": "1 pilot",
            "description": "<p>A speedster is a light streamlined hybrid clockwork and steam-powered alchemical chassis roughly the shape of a horse or other creature built for speed. Speedsters are built to maintain a rapid pace that can become even faster for brief periods of time by releasing stored up steam pressure for an extra burst of speed.</p>",
            "level": {
                "value": 10
            },
            "passengers": "1",
            "pilotingCheck": "Driving Lore (DC 27) or Crafting (DC 29)",
            "price": 2900,
            "space": {
                "high": 5,
                "long": 10,
                "wide": 5
            },
            "speed": "50 feet (alchemical, clockwork)"
        },
        "saves": {
            "fortitude": {
                "item": 0,
                "rank": 0,
                "saveDetail": "",
                "value": 19
            }
        },
        "source": {
            "value": "Pathfinder Guns & Gears"
        },
        "traits": {
            "ci": [],
            "di": {
                "custom": "",
                "value": [
                    "critical-hits",
                    "object-immunities",
                    "precision"
                ]
            },
            "dr": [],
            "dv": [],
            "rarity": "rare",
            "size": {
                "value": "lg"
            },
            "traits": {
                "custom": "",
                "value": []
            }
        }
    },
    "img": "systems/pf2ettw/icons/default-icons/vehicle.svg",
    "items": [
        {
            "_id": "iU2xj2sIMM3UdezU",
            "data": {
                "actionCategory": {
                    "value": "interaction"
                },
                "actionType": {
                    "value": "action"
                },
                "actions": {
                    "value": 1
                },
                "description": {
                    "value": "<p>The pilot releases built up pressure in the speedster's alchemical steam engine in order to temporarily increase its speed. For [[/r 1d4 #rounds]]{1d4 rounds}, the speedster's Speed becomes 80 feet and all move actions the pilot takes gain the reckless trait. When the pilot takes an action that already would have the reckless trait, the pilot uses the degree of success one worse than the one they rolled on the piloting check. The speedster can't use Speed Boost again for 1 hour, as the pressure requires time to rebuild.</p>"
                },
                "requirements": {
                    "value": ""
                },
                "rules": [],
                "slug": null,
                "source": {
                    "value": ""
                },
                "traits": {
                    "custom": "",
                    "rarity": "common",
                    "value": []
                },
                "trigger": {
                    "value": ""
                }
            },
            "img": "systems/pf2ettw/icons/actions/OneAction.webp",
            "name": "Speed Boost",
            "sort": 0,
            "type": "action"
        },
        {
            "_id": "R2SaS8szVUWwiHQr",
            "data": {
                "actionCategory": {
                    "value": ""
                },
                "actionType": {
                    "value": "passive"
                },
                "actions": {
                    "value": null
                },
                "description": {
                    "value": "<p>This lightweight vehicle has no additional storage space for cargo.</p>"
                },
                "requirements": {
                    "value": ""
                },
                "rules": [],
                "slug": null,
                "source": {
                    "value": ""
                },
                "traits": {
                    "custom": "",
                    "rarity": "common",
                    "value": []
                },
                "trigger": {
                    "value": ""
                }
            },
            "img": "systems/pf2ettw/icons/actions/Passive.webp",
            "name": "Streamlined",
            "sort": 0,
            "type": "action"
        },
        {
            "_id": "kr1leAaQlGXDTwn6",
            "data": {
                "actionCategory": {
                    "value": ""
                },
                "actionType": {
                    "value": "passive"
                },
                "actions": {
                    "value": null
                },
                "description": {
                    "value": "<p>10 minutes of wind-up, 2 hours of operational time, DC 28, standby</p>"
                },
                "requirements": {
                    "value": ""
                },
                "rules": [],
                "slug": null,
                "source": {
                    "value": ""
                },
                "traits": {
                    "custom": "",
                    "rarity": "common",
                    "value": []
                },
                "trigger": {
                    "value": ""
                }
            },
            "img": "systems/pf2ettw/icons/actions/Passive.webp",
            "name": "Wind-Up",
            "sort": 0,
            "type": "action"
        }
    ],
    "name": "Speedster",
    "token": {
        "disposition": 0,
        "height": 2,
        "img": "systems/pf2ettw/icons/default-icons/vehicle.svg",
        "name": "Speedster",
        "width": 1
    },
    "type": "vehicle"
}
