{
    "_id": "3wNJeQbBO1FDg5I9",
    "data": {
        "attributes": {
            "ac": {
                "value": 0
            },
            "hardness": 0,
            "hp": {
                "details": "",
                "max": 0,
                "temp": 0,
                "value": 0
            },
            "stealth": {
                "details": "<p>(trained)</p>",
                "value": 7
            }
        },
        "creatureType": "",
        "details": {
            "description": "<p>The thick green slime has been imbued with foul hag magic, making it cling to and grow over living creatures that touch it.</p>",
            "disable": "<p>@Check[type:thievery|dc:17] (trained) to carefully push the slime away without causing it to grow, @Check[type:crafting|dc:17] (one action) to neutralize it with alchemical reagents, or <em>@Compendium[pf2ettw.spells-srd.Dispel Magic]{Dispel Magic}</em> (2nd level; counteract DC 15 [DC 18 in Subtier 3-4]) to counteract the magic animating it. Casting a 1st-level or higher spell with the water trait washes away the slime.</p>",
            "isComplex": false,
            "level": {
                "value": 1
            },
            "reset": "",
            "routine": ""
        },
        "saves": {
            "fortitude": {
                "saveDetail": "",
                "value": 0
            },
            "reflex": {
                "saveDetail": "",
                "value": 0
            },
            "will": {
                "saveDetail": "",
                "value": 0
            }
        },
        "source": {
            "value": "Pathfinder Society Scenario #1-22: Doom of Cassomir"
        },
        "statusEffects": [],
        "traits": {
            "di": {
                "custom": "",
                "selected": {},
                "value": []
            },
            "dr": [],
            "dv": [],
            "rarity": "common",
            "size": {
                "value": "med"
            },
            "traits": {
                "custom": "",
                "value": [
                    "conjuration",
                    "magical",
                    "trap"
                ]
            }
        }
    },
    "img": "systems/pf2ettw/icons/default-icons/hazard.svg",
    "items": [
        {
            "_id": "U1bv0XG8EbPLiB4S",
            "data": {
                "actionCategory": {
                    "value": "offensive"
                },
                "actionType": {
                    "value": "reaction"
                },
                "actions": {
                    "value": null
                },
                "description": {
                    "value": "<p><strong>Trigger</strong> A creature steps into the slime covering the steps and upper landing.</p>\n<p><strong>Effect</strong> The slime rapidly climbs across the creature's body, grows cold, and congeals. Creatures assaulted by the slime take [[/r {1d8+5}[cold]]]{1d8+5 cold damage}(@Check[type:fortitude|dc:17|basic:true] save); creatures that fail their save are also coated in slime, imposing a -5 foot circumstance penalty to their Speeds. The slime can't be easily cleaned away, and it requires ten minutes of bathing with clean water and soap to remove the slime.</p>"
                },
                "requirements": {
                    "value": ""
                },
                "rules": [],
                "slug": null,
                "source": {
                    "value": ""
                },
                "traits": {
                    "custom": "",
                    "rarity": "common",
                    "value": [
                        "conjuration",
                        "occult"
                    ]
                },
                "trigger": {
                    "value": ""
                }
            },
            "img": "systems/pf2ettw/icons/actions/Reaction.webp",
            "name": "Coat with Slime",
            "sort": 0,
            "type": "action"
        }
    ],
    "name": "Creeping Slime",
    "token": {
        "disposition": -1,
        "height": 1,
        "img": "systems/pf2ettw/icons/default-icons/hazard.svg",
        "name": "Creeping Slime",
        "width": 1
    },
    "type": "hazard"
}
