{
    "_id": "tBY1ayiQyI5tyME6",
    "data": {
        "abilities": {
            "cha": {
                "mod": -1
            },
            "con": {
                "mod": 2
            },
            "dex": {
                "mod": 2
            },
            "int": {
                "mod": 0
            },
            "str": {
                "mod": 4
            },
            "wis": {
                "mod": 2
            }
        },
        "attributes": {
            "ac": {
                "details": "",
                "value": 18
            },
            "allSaves": {
                "value": ""
            },
            "hp": {
                "details": "",
                "max": 20,
                "temp": 0,
                "value": 20
            },
            "initiative": {
                "ability": "perception"
            },
            "perception": {
                "value": 7
            },
            "speed": {
                "otherSpeeds": [],
                "value": "25"
            }
        },
        "details": {
            "alignment": {
                "value": "CE"
            },
            "blurb": "",
            "creatureType": "",
            "level": {
                "value": 1
            },
            "privateNotes": "",
            "publicNotes": "",
            "source": {
                "value": "Pathfinder Society Scenario #1-22: Doom of Cassomir"
            }
        },
        "resources": {},
        "saves": {
            "fortitude": {
                "saveDetail": "",
                "value": 7
            },
            "reflex": {
                "saveDetail": "",
                "value": 5
            },
            "will": {
                "saveDetail": "",
                "value": 5
            }
        },
        "traits": {
            "ci": [],
            "di": {
                "custom": "",
                "value": []
            },
            "dr": [],
            "dv": [],
            "languages": {
                "custom": "",
                "selected": [],
                "value": [
                    "common"
                ]
            },
            "rarity": "unique",
            "senses": {
                "value": "(+8 to find concealed objects)"
            },
            "size": {
                "value": "med"
            },
            "traits": {
                "custom": "",
                "value": [
                    "human",
                    "humanoid"
                ]
            }
        }
    },
    "img": "systems/pf2ettw/icons/default-icons/npc.svg",
    "items": [
        {
            "_id": "fxEvenVtpJ9TkmHy",
            "data": {
                "MAP": {
                    "value": ""
                },
                "baseItem": "crossbow",
                "bonus": {
                    "value": 0
                },
                "bonusDamage": {
                    "value": 0
                },
                "category": "simple",
                "containerId": null,
                "damage": {
                    "damageType": "piercing",
                    "dice": 1,
                    "die": "d8",
                    "value": ""
                },
                "description": {
                    "value": "<p>This ranged weapon has a bow-like assembly mounted on a handled frame called a tiller. The tiller has a mechanism to lock the bowstring in place, attached to a trigger mechanism that releases the tension and launches a bolt.</p>"
                },
                "equipped": {
                    "carryType": "worn",
                    "handsHeld": 0,
                    "invested": null
                },
                "equippedBulk": {
                    "value": ""
                },
                "group": "bow",
                "hardness": 0,
                "hp": {
                    "brokenThreshold": 0,
                    "max": 0,
                    "value": 0
                },
                "level": {
                    "value": 0
                },
                "negateBulk": {
                    "value": "0"
                },
                "potencyRune": {
                    "value": null
                },
                "preciousMaterial": {
                    "value": ""
                },
                "preciousMaterialGrade": {
                    "value": ""
                },
                "price": {
                    "value": {
                        "gp": 3
                    }
                },
                "property1": {
                    "critDamage": "",
                    "critDamageType": "",
                    "critDice": null,
                    "critDie": "",
                    "criticalConditionType": "",
                    "criticalConditionValue": null,
                    "damageType": "",
                    "dice": null,
                    "die": "",
                    "strikeConditionType": "",
                    "strikeConditionValue": null,
                    "value": ""
                },
                "propertyRune1": {
                    "value": ""
                },
                "propertyRune2": {
                    "value": ""
                },
                "propertyRune3": {
                    "value": ""
                },
                "propertyRune4": {
                    "value": ""
                },
                "quantity": 1,
                "range": 120,
                "reload": {
                    "value": "1"
                },
                "rules": [],
                "size": "med",
                "slug": "crossbow",
                "source": {
                    "value": "Pathfinder Core Rulebook"
                },
                "specific": {
                    "value": false
                },
                "splashDamage": {
                    "value": 0
                },
                "stackGroup": null,
                "strikingRune": {
                    "value": ""
                },
                "traits": {
                    "custom": "",
                    "rarity": "common",
                    "value": []
                },
                "usage": {
                    "value": "held-in-two-hands"
                },
                "weight": {
                    "value": "1"
                }
            },
            "flags": {
                "core": {
                    "sourceId": "Compendium.pf2ettw.equipment-srd.62nnVQvGhoVLLl2K"
                }
            },
            "img": "systems/pf2ettw/icons/equipment/weapons/crossbow.webp",
            "name": "Crossbow",
            "sort": 100000,
            "type": "weapon"
        },
        {
            "_id": "feo7B1kP9EO9mRUE",
            "data": {
                "MAP": {
                    "value": ""
                },
                "baseItem": "club",
                "bonus": {
                    "value": 0
                },
                "bonusDamage": {
                    "value": 0
                },
                "category": "simple",
                "containerId": null,
                "damage": {
                    "damageType": "bludgeoning",
                    "dice": 1,
                    "die": "d6",
                    "value": ""
                },
                "description": {
                    "value": "<p>This is a piece of stout wood shaped or repurposed to bludgeon an enemy. Clubs can be intricately carved pieces of martial art or as simple as a tree branch or piece of wood.</p>"
                },
                "equipped": {
                    "carryType": "worn",
                    "handsHeld": 0,
                    "invested": null
                },
                "equippedBulk": {
                    "value": ""
                },
                "group": "club",
                "hardness": 0,
                "hp": {
                    "brokenThreshold": 0,
                    "max": 0,
                    "value": 0
                },
                "level": {
                    "value": 0
                },
                "negateBulk": {
                    "value": "0"
                },
                "potencyRune": {
                    "value": null
                },
                "preciousMaterial": {
                    "value": ""
                },
                "preciousMaterialGrade": {
                    "value": ""
                },
                "price": {
                    "value": {}
                },
                "property1": {
                    "critDamage": "",
                    "critDamageType": "",
                    "critDice": "",
                    "critDie": "",
                    "criticalConditionType": "",
                    "criticalConditionValue": "",
                    "damageType": "",
                    "dice": "",
                    "die": "",
                    "strikeConditionType": "",
                    "strikeConditionValue": "",
                    "value": ""
                },
                "propertyRune1": {
                    "value": ""
                },
                "propertyRune2": {
                    "value": ""
                },
                "propertyRune3": {
                    "value": ""
                },
                "propertyRune4": {
                    "value": ""
                },
                "quantity": 1,
                "range": null,
                "reload": {
                    "value": "-"
                },
                "rules": [],
                "size": "med",
                "slug": "club",
                "source": {
                    "value": "Pathfinder Core Rulebook"
                },
                "specific": {
                    "value": false
                },
                "splashDamage": {
                    "value": 0
                },
                "stackGroup": null,
                "strikingRune": {
                    "value": ""
                },
                "traits": {
                    "custom": "",
                    "rarity": "common",
                    "value": [
                        "thrown-10"
                    ]
                },
                "usage": {
                    "value": "held-in-one-hand"
                },
                "weight": {
                    "value": "1"
                }
            },
            "flags": {
                "core": {
                    "sourceId": "Compendium.pf2ettw.equipment-srd.c58wczIzH2gzeXQL"
                }
            },
            "img": "systems/pf2ettw/icons/equipment/weapons/club.webp",
            "name": "Club",
            "sort": 200000,
            "type": "weapon"
        },
        {
            "_id": "bAIJeJyREiBIqp22",
            "data": {
                "MAP": {
                    "value": ""
                },
                "baseItem": "dagger",
                "bonus": {
                    "value": 0
                },
                "bonusDamage": {
                    "value": 0
                },
                "category": "simple",
                "containerId": null,
                "damage": {
                    "damageType": "piercing",
                    "dice": 1,
                    "die": "d4",
                    "value": ""
                },
                "description": {
                    "value": "<p>This small, bladed weapon is held in one hand and used to stab a creature in close combat. It can also be thrown.</p>"
                },
                "equipped": {
                    "carryType": "worn",
                    "handsHeld": 0,
                    "invested": null
                },
                "equippedBulk": {
                    "value": ""
                },
                "group": "knife",
                "hardness": 0,
                "hp": {
                    "brokenThreshold": 0,
                    "max": 0,
                    "value": 0
                },
                "level": {
                    "value": 0
                },
                "negateBulk": {
                    "value": "0"
                },
                "potencyRune": {
                    "value": 0
                },
                "preciousMaterial": {
                    "value": null
                },
                "preciousMaterialGrade": {
                    "value": null
                },
                "price": {
                    "value": {
                        "sp": 2
                    }
                },
                "property1": {
                    "critDamage": "",
                    "critDamageType": "",
                    "critDice": null,
                    "critDie": "",
                    "criticalConditionType": "",
                    "criticalConditionValue": null,
                    "damageType": "",
                    "dice": null,
                    "die": "",
                    "strikeConditionType": "",
                    "strikeConditionValue": null,
                    "value": ""
                },
                "propertyRune1": {
                    "value": null
                },
                "propertyRune2": {
                    "value": null
                },
                "propertyRune3": {
                    "value": null
                },
                "propertyRune4": {
                    "value": null
                },
                "quantity": 1,
                "range": null,
                "reload": {
                    "value": "-"
                },
                "rules": [],
                "size": "med",
                "slug": "dagger",
                "source": {
                    "value": "Pathfinder Core Rulebook"
                },
                "specific": {
                    "value": false
                },
                "splashDamage": {
                    "value": 0
                },
                "stackGroup": null,
                "strikingRune": {
                    "value": ""
                },
                "traits": {
                    "custom": "",
                    "rarity": "common",
                    "value": [
                        "agile",
                        "finesse",
                        "thrown-10",
                        "versatile-s"
                    ]
                },
                "usage": {
                    "value": "held-in-one-hand"
                },
                "weight": {
                    "value": "L"
                }
            },
            "flags": {
                "core": {
                    "sourceId": "Compendium.pf2ettw.equipment-srd.rQWaJhI5Bko5x14Z"
                }
            },
            "img": "systems/pf2ettw/icons/equipment/weapons/dagger.webp",
            "name": "Dagger",
            "sort": 300000,
            "type": "weapon"
        },
        {
            "_id": "AUCBhRAFVP1vC8GL",
            "data": {
                "MAP": {
                    "value": ""
                },
                "baseItem": "sap",
                "bonus": {
                    "value": 0
                },
                "bonusDamage": {
                    "value": 0
                },
                "category": "martial",
                "containerId": null,
                "damage": {
                    "damageType": "bludgeoning",
                    "dice": 1,
                    "die": "d6",
                    "value": ""
                },
                "description": {
                    "value": "<p>A sap has a soft wrapping around a dense core, typically a leather sheath around a lead rod. Its head is wider than its grip to disperse the force of a blow, as the weapon's purpose is to knock out its victim rather than to draw blood.</p>"
                },
                "equipped": {
                    "carryType": "worn",
                    "handsHeld": 0,
                    "invested": null
                },
                "equippedBulk": {
                    "value": ""
                },
                "group": "club",
                "hardness": 0,
                "hp": {
                    "brokenThreshold": 0,
                    "max": 0,
                    "value": 0
                },
                "level": {
                    "value": 0
                },
                "negateBulk": {
                    "value": "0"
                },
                "potencyRune": {
                    "value": null
                },
                "preciousMaterial": {
                    "value": ""
                },
                "preciousMaterialGrade": {
                    "value": ""
                },
                "price": {
                    "value": {
                        "sp": 1
                    }
                },
                "property1": {
                    "critDamage": "",
                    "critDamageType": "",
                    "critDice": "",
                    "critDie": "",
                    "criticalConditionType": "",
                    "criticalConditionValue": "",
                    "damageType": "",
                    "dice": "",
                    "die": "",
                    "strikeConditionType": "",
                    "strikeConditionValue": "",
                    "value": ""
                },
                "propertyRune1": {
                    "value": ""
                },
                "propertyRune2": {
                    "value": ""
                },
                "propertyRune3": {
                    "value": ""
                },
                "propertyRune4": {
                    "value": ""
                },
                "quantity": 1,
                "range": null,
                "reload": {
                    "value": ""
                },
                "rules": [],
                "size": "med",
                "slug": "sap",
                "source": {
                    "value": "Pathfinder Core Rulebook"
                },
                "specific": {
                    "value": false
                },
                "splashDamage": {
                    "value": 0
                },
                "stackGroup": null,
                "strikingRune": {
                    "value": ""
                },
                "traits": {
                    "custom": "",
                    "rarity": "common",
                    "value": [
                        "agile",
                        "nonlethal"
                    ]
                },
                "usage": {
                    "value": "held-in-one-hand"
                },
                "weight": {
                    "value": "L"
                }
            },
            "flags": {
                "core": {
                    "sourceId": "Compendium.pf2ettw.equipment-srd.TLQErnOpM9Luy7rL"
                }
            },
            "img": "systems/pf2ettw/icons/equipment/weapons/sap.webp",
            "name": "Sap",
            "sort": 400000,
            "type": "weapon"
        },
        {
            "_id": "3e62Z7MZ5JSFXzwZ",
            "data": {
                "armor": {
                    "value": 3
                },
                "baseItem": "scale-mail",
                "category": "medium",
                "check": {
                    "value": -2
                },
                "containerId": null,
                "description": {
                    "value": "<p>Scale mail consists of many metal scales sewn onto a reinforced leather backing, often in the form of a long shirt that protects the torso, arms, and legs.</p>"
                },
                "dex": {
                    "value": 2
                },
                "equipped": {
                    "carryType": "worn",
                    "invested": null
                },
                "equippedBulk": {
                    "value": "2"
                },
                "group": "composite",
                "hardness": 0,
                "hp": {
                    "brokenThreshold": 0,
                    "max": 0,
                    "value": 0
                },
                "level": {
                    "value": 0
                },
                "negateBulk": {
                    "value": "0"
                },
                "potency": {},
                "potencyRune": {
                    "value": 0
                },
                "preciousMaterial": {
                    "value": ""
                },
                "preciousMaterialGrade": {
                    "value": ""
                },
                "price": {
                    "value": {
                        "gp": 4
                    }
                },
                "propertyRune1": {
                    "value": ""
                },
                "propertyRune2": {
                    "value": ""
                },
                "propertyRune3": {
                    "value": ""
                },
                "propertyRune4": {
                    "value": ""
                },
                "quantity": 1,
                "resiliencyRune": {
                    "value": ""
                },
                "rules": [],
                "size": "med",
                "slug": "scale-mail",
                "source": {
                    "value": "Pathfinder Core Rulebook"
                },
                "speed": {
                    "value": -5
                },
                "stackGroup": null,
                "strength": {
                    "value": 14
                },
                "traits": {
                    "custom": "",
                    "rarity": "common",
                    "value": []
                },
                "usage": {
                    "value": "wornarmor"
                },
                "weight": {
                    "value": "3"
                }
            },
            "flags": {
                "core": {
                    "sourceId": "Compendium.pf2ettw.equipment-srd.YMQr577asquZIP65"
                }
            },
            "img": "systems/pf2ettw/icons/equipment/armor/scale-mail.webp",
            "name": "Scale Mail",
            "sort": 500000,
            "type": "armor"
        },
        {
            "_id": "D8BnfdihPcP6aG7U",
            "data": {
                "baseItem": null,
                "containerId": null,
                "description": {
                    "value": "<p>When sounded, a signal whistle can be heard clearly up to half a mile away across open terrain.</p>"
                },
                "equipped": {
                    "carryType": "worn",
                    "invested": null
                },
                "equippedBulk": {
                    "value": ""
                },
                "hardness": 0,
                "hp": {
                    "brokenThreshold": 0,
                    "max": 0,
                    "value": 0
                },
                "level": {
                    "value": 0
                },
                "negateBulk": {
                    "value": "0"
                },
                "preciousMaterial": {
                    "value": ""
                },
                "preciousMaterialGrade": {
                    "value": ""
                },
                "price": {
                    "value": {
                        "cp": 8
                    }
                },
                "quantity": 1,
                "rules": [],
                "size": "med",
                "slug": "signal-whistle",
                "source": {
                    "value": "Pathfinder Core Rulebook"
                },
                "stackGroup": null,
                "traits": {
                    "custom": "",
                    "rarity": "common",
                    "value": []
                },
                "usage": {
                    "value": "held-in-one-hand"
                },
                "weight": {
                    "value": "-"
                }
            },
            "flags": {
                "core": {
                    "sourceId": "Compendium.pf2ettw.equipment-srd.USHK6XQRwmq17xKh"
                }
            },
            "img": "systems/pf2ettw/icons/equipment/adventuring-gear/whistle.webp",
            "name": "Signal Whistle",
            "sort": 600000,
            "type": "equipment"
        },
        {
            "_id": "rR2XImHmxeQw0P4R",
            "data": {
                "activation": {
                    "condition": "",
                    "cost": 0,
                    "type": ""
                },
                "autoDestroy": {
                    "_deprecated": true,
                    "value": true
                },
                "autoUse": {
                    "_deprecated": true,
                    "value": true
                },
                "baseItem": null,
                "charges": {
                    "_deprecated": true,
                    "max": 0,
                    "value": 0
                },
                "consumableType": {
                    "value": "ammo"
                },
                "consume": {
                    "_deprecated": true,
                    "value": ""
                },
                "containerId": null,
                "description": {
                    "value": "<p>Shorter than traditional arrows but similar in construction, bolts are the ammunition used by crossbows.</p>"
                },
                "duration": {
                    "units": "",
                    "value": null
                },
                "equipped": {
                    "carryType": "worn"
                },
                "equippedBulk": {
                    "value": ""
                },
                "hardness": 0,
                "hp": {
                    "brokenThreshold": 0,
                    "max": 0,
                    "value": 0
                },
                "level": {
                    "value": 0
                },
                "negateBulk": {
                    "value": "0"
                },
                "preciousMaterial": {
                    "value": ""
                },
                "preciousMaterialGrade": {
                    "value": ""
                },
                "price": {
                    "per": 10,
                    "value": {
                        "sp": 1
                    }
                },
                "quantity": 10,
                "range": {
                    "long": null,
                    "units": "",
                    "value": null
                },
                "rules": [],
                "size": "med",
                "slug": "bolts",
                "source": {
                    "value": "Pathfinder Core Rulebook"
                },
                "spell": {
                    "data": null,
                    "heightenedLevel": null
                },
                "stackGroup": "bolts",
                "target": {
                    "type": "",
                    "units": "",
                    "value": null
                },
                "traits": {
                    "custom": "",
                    "rarity": "common",
                    "value": []
                },
                "usage": {
                    "value": "held-in-one-hand"
                },
                "uses": {
                    "autoDestroy": true,
                    "autoUse": true,
                    "max": 0,
                    "per": null,
                    "value": 0
                },
                "weight": {
                    "value": "L"
                }
            },
            "flags": {
                "core": {
                    "sourceId": "Compendium.pf2ettw.equipment-srd.AITVZmakiu3RgfKo"
                }
            },
            "img": "systems/pf2ettw/icons/equipment/weapons/bolts.webp",
            "name": "Bolts",
            "sort": 700000,
            "type": "consumable"
        },
        {
            "_id": "KzT2VBUOnHVf6ex3",
            "data": {
                "attack": {
                    "value": ""
                },
                "attackEffects": {
                    "value": []
                },
                "bonus": {
                    "value": 9
                },
                "damageRolls": {
                    "33h2jzi7d2sf0refciel": {
                        "damage": "1d6+4",
                        "damageType": "bludgeoning"
                    }
                },
                "description": {
                    "value": ""
                },
                "rules": [],
                "slug": null,
                "source": {
                    "value": ""
                },
                "traits": {
                    "custom": "",
                    "rarity": "common",
                    "value": []
                },
                "weaponType": {
                    "value": "melee"
                }
            },
            "img": "systems/pf2ettw/icons/default-icons/melee.svg",
            "name": "Club",
            "sort": 800000,
            "type": "melee"
        },
        {
            "_id": "HgLhRp8KWC6HYKc5",
            "data": {
                "attack": {
                    "value": ""
                },
                "attackEffects": {
                    "value": []
                },
                "bonus": {
                    "value": 9
                },
                "damageRolls": {
                    "107q16b3cthe9y35nsdx": {
                        "damage": "1d6+4",
                        "damageType": "bludgeoning"
                    }
                },
                "description": {
                    "value": ""
                },
                "rules": [],
                "slug": null,
                "source": {
                    "value": ""
                },
                "traits": {
                    "custom": "",
                    "rarity": "common",
                    "value": [
                        "agile",
                        "nonlethal"
                    ]
                },
                "weaponType": {
                    "value": "melee"
                }
            },
            "img": "systems/pf2ettw/icons/default-icons/melee.svg",
            "name": "Sap",
            "sort": 900000,
            "type": "melee"
        },
        {
            "_id": "RNiagWxl9se7m8vq",
            "data": {
                "attack": {
                    "value": ""
                },
                "attackEffects": {
                    "value": []
                },
                "bonus": {
                    "value": 7
                },
                "damageRolls": {
                    "6qvrppzcc9v4znp9pm7a": {
                        "damage": "1d8",
                        "damageType": "piercing"
                    }
                },
                "description": {
                    "value": ""
                },
                "rules": [],
                "slug": null,
                "source": {
                    "value": ""
                },
                "traits": {
                    "custom": "",
                    "rarity": "common",
                    "value": [
                        "range",
                        "range-increment-120",
                        "reload-1"
                    ]
                },
                "weaponType": {
                    "value": "ranged"
                }
            },
            "img": "systems/pf2ettw/icons/default-icons/melee.svg",
            "name": "Crossbow",
            "sort": 1000000,
            "type": "melee"
        },
        {
            "_id": "O9tK7ZFkmtSX9h8G",
            "data": {
                "attack": {
                    "value": ""
                },
                "attackEffects": {
                    "value": []
                },
                "bonus": {
                    "value": 7
                },
                "damageRolls": {
                    "avhypsruxghlr5zpmc7h": {
                        "damage": "1d6+4",
                        "damageType": "bludgeoning"
                    }
                },
                "description": {
                    "value": ""
                },
                "rules": [],
                "slug": null,
                "source": {
                    "value": ""
                },
                "traits": {
                    "custom": "",
                    "rarity": "common",
                    "value": [
                        "range",
                        "thrown-10"
                    ]
                },
                "weaponType": {
                    "value": "ranged"
                }
            },
            "img": "systems/pf2ettw/icons/default-icons/melee.svg",
            "name": "Club",
            "sort": 1100000,
            "type": "melee"
        },
        {
            "_id": "w0lhMfleiND7PSGj",
            "data": {
                "actionCategory": {
                    "value": "defensive"
                },
                "actionType": {
                    "value": "reaction"
                },
                "actions": {
                    "value": null
                },
                "description": {
                    "value": "<p>@Localize[pf2ettw.NPC.Abilities.Glossary.AttackOfOpportunity]</p>"
                },
                "requirements": {
                    "value": ""
                },
                "rules": [],
                "slug": "attack-of-opportunity",
                "source": {
                    "value": "Pathfinder Bestiary"
                },
                "traits": {
                    "custom": "",
                    "rarity": "common",
                    "value": []
                },
                "trigger": {
                    "value": ""
                },
                "weapon": {
                    "value": ""
                }
            },
            "flags": {
                "core": {
                    "sourceId": "Compendium.pf2ettw.bestiary-ability-glossary-srd.hFtNbo1LKYCoDy2O"
                }
            },
            "img": "systems/pf2ettw/icons/actions/Reaction.webp",
            "name": "Attack of Opportunity",
            "sort": 1200000,
            "type": "action"
        },
        {
            "_id": "jbBx5EDhz49wCE0r",
            "data": {
                "description": {
                    "value": ""
                },
                "mod": {
                    "value": 7
                },
                "proficient": {
                    "value": 0
                },
                "rules": [],
                "slug": null,
                "source": {
                    "value": ""
                },
                "traits": {
                    "custom": "",
                    "rarity": "common",
                    "value": []
                }
            },
            "img": "systems/pf2ettw/icons/default-icons/lore.svg",
            "name": "Athletics",
            "sort": 1300000,
            "type": "lore"
        },
        {
            "_id": "MjAxM7r2ALRv1KYj",
            "data": {
                "description": {
                    "value": ""
                },
                "mod": {
                    "value": 5
                },
                "proficient": {
                    "value": 0
                },
                "rules": [],
                "slug": null,
                "source": {
                    "value": ""
                },
                "traits": {
                    "custom": "",
                    "rarity": "common",
                    "value": []
                }
            },
            "img": "systems/pf2ettw/icons/default-icons/lore.svg",
            "name": "Groetus Lore",
            "sort": 1400000,
            "type": "lore"
        },
        {
            "_id": "98cZ3U8S4Lm4yMHD",
            "data": {
                "description": {
                    "value": ""
                },
                "mod": {
                    "value": 5
                },
                "proficient": {
                    "value": 0
                },
                "rules": [],
                "slug": null,
                "source": {
                    "value": ""
                },
                "traits": {
                    "custom": "",
                    "rarity": "common",
                    "value": []
                }
            },
            "img": "systems/pf2ettw/icons/default-icons/lore.svg",
            "name": "Intimidation",
            "sort": 1500000,
            "type": "lore"
        }
    ],
    "name": "Ptiro Valner (1-2)",
    "token": {
        "disposition": -1,
        "height": 1,
        "img": "systems/pf2ettw/icons/default-icons/npc.svg",
        "name": "Ptiro Valner",
        "width": 1
    },
    "type": "npc"
}
